\relax 
\providecommand\hyper@newdestlabel[2]{}
\providecommand\HyperFirstAtBeginDocument{\AtBeginDocument}
\HyperFirstAtBeginDocument{\ifx\hyper@anchor\@undefined
\global\let\oldcontentsline\contentsline
\gdef\contentsline#1#2#3#4{\oldcontentsline{#1}{#2}{#3}}
\global\let\oldnewlabel\newlabel
\gdef\newlabel#1#2{\newlabelxx{#1}#2}
\gdef\newlabelxx#1#2#3#4#5#6{\oldnewlabel{#1}{{#2}{#3}}}
\AtEndDocument{\ifx\hyper@anchor\@undefined
\let\contentsline\oldcontentsline
\let\newlabel\oldnewlabel
\fi}
\fi}
\global\let\hyper@last\relax 
\gdef\HyperFirstAtBeginDocument#1{#1}
\providecommand\HyField@AuxAddToFields[1]{}
\providecommand\HyField@AuxAddToCoFields[2]{}
\@writefile{toc}{\beamer@endinputifotherversion {3.27pt}}
\@writefile{nav}{\beamer@endinputifotherversion {3.27pt}}
\@writefile{nav}{\headcommand {\sectionentry {1}{Title}{1}{Title}{0}}}
\@writefile{nav}{\headcommand {\beamer@sectionpages {1}{0}}}
\@writefile{nav}{\headcommand {\beamer@subsectionpages {1}{0}}}
\@writefile{nav}{\headcommand {\slideentry {1}{0}{1}{1/1}{}{0}}}
\@writefile{nav}{\headcommand {\beamer@framepages {1}{1}}}
\@writefile{toc}{\beamer@sectionintoc {2}{Wideband Representation of Linear Time-Varying Channels}{2}{0}{1}}
\@writefile{nav}{\headcommand {\sectionentry {2}{Wideband Representation of Linear Time-Varying Channels}{2}{Wideband Representation of Linear Time-Varying Channels}{0}}}
\@writefile{nav}{\headcommand {\beamer@sectionpages {1}{1}}}
\@writefile{nav}{\headcommand {\beamer@subsectionpages {1}{1}}}
\@writefile{nav}{\headcommand {\slideentry {2}{0}{2}{2/2}{}{0}}}
\@writefile{nav}{\headcommand {\beamer@framepages {2}{2}}}
\@writefile{nav}{\headcommand {\slideentry {2}{0}{3}{3/3}{}{0}}}
\@writefile{nav}{\headcommand {\beamer@framepages {3}{3}}}
\@writefile{nav}{\headcommand {\slideentry {2}{0}{4}{4/4}{}{0}}}
\@writefile{nav}{\headcommand {\beamer@framepages {4}{4}}}
\@writefile{nav}{\headcommand {\slideentry {2}{0}{5}{5/5}{}{0}}}
\@writefile{nav}{\headcommand {\beamer@framepages {5}{5}}}
\@writefile{nav}{\headcommand {\slideentry {2}{0}{6}{6/6}{}{0}}}
\@writefile{nav}{\headcommand {\beamer@framepages {6}{6}}}
\@writefile{nav}{\headcommand {\slideentry {2}{0}{7}{7/7}{}{0}}}
\@writefile{nav}{\headcommand {\beamer@framepages {7}{7}}}
\@writefile{toc}{\beamer@sectionintoc {3}{Multi-layer Transmission Scheme}{8}{0}{2}}
\@writefile{nav}{\headcommand {\sectionentry {3}{Multi-layer Transmission Scheme}{8}{Multi-layer Transmission Scheme}{0}}}
\@writefile{nav}{\headcommand {\beamer@sectionpages {2}{7}}}
\@writefile{nav}{\headcommand {\beamer@subsectionpages {2}{7}}}
\@writefile{nav}{\headcommand {\slideentry {3}{0}{8}{8/8}{}{0}}}
\@writefile{nav}{\headcommand {\beamer@framepages {8}{8}}}
\@writefile{nav}{\headcommand {\slideentry {3}{0}{9}{9/9}{}{0}}}
\@writefile{nav}{\headcommand {\beamer@framepages {9}{9}}}
\@writefile{nav}{\headcommand {\slideentry {3}{0}{10}{10/10}{}{0}}}
\@writefile{nav}{\headcommand {\beamer@framepages {10}{10}}}
\@writefile{nav}{\headcommand {\slideentry {3}{0}{11}{11/11}{}{0}}}
\@writefile{nav}{\headcommand {\beamer@framepages {11}{11}}}
\@writefile{nav}{\headcommand {\slideentry {3}{0}{12}{12/12}{}{0}}}
\@writefile{nav}{\headcommand {\beamer@framepages {12}{12}}}
\@writefile{toc}{\beamer@sectionintoc {4}{Information Rates}{13}{0}{3}}
\@writefile{nav}{\headcommand {\sectionentry {4}{Information Rates}{13}{Information Rates}{0}}}
\@writefile{nav}{\headcommand {\beamer@sectionpages {8}{12}}}
\@writefile{nav}{\headcommand {\beamer@subsectionpages {8}{12}}}
\@writefile{nav}{\headcommand {\slideentry {4}{0}{13}{13/13}{}{0}}}
\@writefile{nav}{\headcommand {\beamer@framepages {13}{13}}}
\@writefile{nav}{\headcommand {\slideentry {4}{0}{14}{14/14}{}{0}}}
\@writefile{nav}{\headcommand {\beamer@framepages {14}{14}}}
\@writefile{nav}{\headcommand {\slideentry {4}{0}{15}{15/15}{}{0}}}
\@writefile{nav}{\headcommand {\beamer@framepages {15}{15}}}
\@writefile{nav}{\headcommand {\slideentry {4}{0}{16}{16/16}{}{0}}}
\@writefile{nav}{\headcommand {\beamer@framepages {16}{16}}}
\@writefile{nav}{\headcommand {\slideentry {4}{0}{17}{17/17}{}{0}}}
\@writefile{nav}{\headcommand {\beamer@framepages {17}{17}}}
\@writefile{toc}{\beamer@sectionintoc {5}{Numerical Simulation}{18}{0}{4}}
\@writefile{nav}{\headcommand {\sectionentry {5}{Numerical Simulation}{18}{Numerical Simulation}{0}}}
\@writefile{nav}{\headcommand {\beamer@sectionpages {13}{17}}}
\@writefile{nav}{\headcommand {\beamer@subsectionpages {13}{17}}}
\@writefile{nav}{\headcommand {\slideentry {5}{0}{18}{18/18}{}{0}}}
\@writefile{nav}{\headcommand {\beamer@framepages {18}{18}}}
\@writefile{nav}{\headcommand {\slideentry {5}{0}{19}{19/19}{}{0}}}
\@writefile{nav}{\headcommand {\beamer@framepages {19}{19}}}
\@writefile{nav}{\headcommand {\slideentry {5}{0}{20}{20/20}{}{0}}}
\@writefile{nav}{\headcommand {\beamer@framepages {20}{20}}}
\@writefile{nav}{\headcommand {\slideentry {5}{0}{21}{21/21}{}{0}}}
\@writefile{nav}{\headcommand {\beamer@framepages {21}{21}}}
\@writefile{nav}{\headcommand {\slideentry {5}{0}{22}{22/22}{}{0}}}
\@writefile{nav}{\headcommand {\beamer@framepages {22}{22}}}
\@writefile{nav}{\headcommand {\slideentry {5}{0}{23}{23/23}{}{0}}}
\@writefile{nav}{\headcommand {\beamer@framepages {23}{23}}}
\@writefile{nav}{\headcommand {\slideentry {5}{0}{24}{24/24}{}{0}}}
\@writefile{nav}{\headcommand {\beamer@framepages {24}{24}}}
\@writefile{nav}{\headcommand {\slideentry {5}{0}{25}{25/25}{}{0}}}
\@writefile{nav}{\headcommand {\beamer@framepages {25}{25}}}
\@writefile{nav}{\headcommand {\slideentry {5}{0}{26}{26/26}{}{0}}}
\@writefile{nav}{\headcommand {\beamer@framepages {26}{26}}}
\@writefile{nav}{\headcommand {\sectionentry {6}{Thank You}{27}{Thank You}{0}}}
\@writefile{nav}{\headcommand {\beamer@sectionpages {18}{26}}}
\@writefile{nav}{\headcommand {\beamer@subsectionpages {18}{26}}}
\@writefile{nav}{\headcommand {\slideentry {6}{0}{27}{27/27}{}{0}}}
\@writefile{nav}{\headcommand {\beamer@framepages {27}{27}}}
\@writefile{nav}{\headcommand {\sectionentry {7}{Back-up Slides}{28}{Back-up Slides}{0}}}
\@writefile{nav}{\headcommand {\beamer@sectionpages {27}{27}}}
\@writefile{nav}{\headcommand {\beamer@subsectionpages {27}{27}}}
\@writefile{nav}{\headcommand {\slideentry {7}{0}{28}{28/28}{}{0}}}
\@writefile{nav}{\headcommand {\beamer@framepages {28}{28}}}
\@writefile{nav}{\headcommand {\slideentry {7}{0}{29}{29/29}{}{0}}}
\@writefile{nav}{\headcommand {\beamer@framepages {29}{29}}}
\@writefile{nav}{\headcommand {\slideentry {7}{0}{30}{30/30}{}{0}}}
\@writefile{nav}{\headcommand {\beamer@framepages {30}{30}}}
\@writefile{nav}{\headcommand {\beamer@partpages {1}{30}}}
\@writefile{nav}{\headcommand {\beamer@subsectionpages {28}{30}}}
\@writefile{nav}{\headcommand {\beamer@sectionpages {28}{30}}}
\@writefile{nav}{\headcommand {\beamer@documentpages {30}}}
\@writefile{nav}{\headcommand {\def \inserttotalframenumber {27}}}
