%!PS-Adobe-2.0 EPSF-1.2
%%Creator: MATLAB, The MathWorks, Inc. Version 7.14.0.739 (R2012a). Operating System: Microsoft Windows 7.
%%Title: .\RATE_CHA_SCHEME3.eps
%%CreationDate: 05/06/2015  12:27:49
%%DocumentNeededFonts: Helvetica
%%DocumentProcessColors: Cyan Magenta Yellow Black
%%Extensions: CMYK
%%Pages: 1
%%BoundingBox:    51   192   552   602
%%EndComments

%%BeginProlog
% MathWorks dictionary
/MathWorks 160 dict begin
% definition operators
/bdef {bind def} bind def
/ldef {load def} bind def
/xdef {exch def} bdef
/xstore {exch store} bdef
% operator abbreviations
/c  /clip ldef
/cc /concat ldef
/cp /closepath ldef
/gr /grestore ldef
/gs /gsave ldef
/mt /moveto ldef
/np /newpath ldef
/cm /currentmatrix ldef
/sm /setmatrix ldef
/rm /rmoveto ldef
/rl /rlineto ldef
/s {show newpath} bdef
/sc {setcmykcolor} bdef
/sr /setrgbcolor ldef
/sg /setgray ldef
/w /setlinewidth ldef
/j /setlinejoin ldef
/cap /setlinecap ldef
/rc {rectclip} bdef
/rf {rectfill} bdef
% page state control
/pgsv () def
/bpage {/pgsv save def} bdef
/epage {pgsv restore} bdef
/bplot /gsave ldef
/eplot {stroke grestore} bdef
% orientation switch
/portraitMode 0 def /landscapeMode 1 def /rotateMode 2 def
% coordinate system mappings
/dpi2point 0 def
% font control
/FontSize 0 def
/FMS {/FontSize xstore findfont [FontSize 0 0 FontSize neg 0 0]
  makefont setfont} bdef
/ISOLatin1Encoding where {pop /WindowsLatin1Encoding 256 array bdef
ISOLatin1Encoding WindowsLatin1Encoding copy pop
/.notdef/.notdef/quotesinglbase/florin/quotedblbase/ellipsis/dagger
/daggerdbl/circumflex/perthousand/Scaron/guilsinglleft/OE/.notdef/.notdef
/.notdef/.notdef/quoteleft/quoteright/quotedblleft/quotedblright/bullet
/endash/emdash/tilde/trademark/scaron/guilsinglright/oe/.notdef/.notdef
/Ydieresis WindowsLatin1Encoding 128 32 getinterval astore pop}
{/WindowsLatin1Encoding StandardEncoding bdef} ifelse
/reencode {exch dup where {pop load} {pop StandardEncoding} ifelse
  exch dup 3 1 roll findfont dup length dict begin
  { 1 index /FID ne {def}{pop pop} ifelse } forall
  /Encoding exch def currentdict end definefont pop} bdef
/isroman {findfont /CharStrings get /Agrave known} bdef
/FMSR {3 1 roll 1 index dup isroman {reencode} {pop pop} ifelse
  exch FMS} bdef
/csm {1 dpi2point div -1 dpi2point div scale neg translate
 dup landscapeMode eq {pop -90 rotate}
  {rotateMode eq {90 rotate} if} ifelse} bdef
% line types: solid, dotted, dashed, dotdash
/SO { [] 0 setdash } bdef
/DO { [.5 dpi2point mul 4 dpi2point mul] 0 setdash } bdef
/DA { [6 dpi2point mul] 0 setdash } bdef
/DD { [.5 dpi2point mul 4 dpi2point mul 6 dpi2point mul 4
  dpi2point mul] 0 setdash } bdef
% macros for lines and objects
/L {lineto stroke} bdef
/MP {3 1 roll moveto 1 sub {rlineto} repeat} bdef
/AP {{rlineto} repeat} bdef
/PDlw -1 def
/W {/PDlw currentlinewidth def setlinewidth} def
/PP {closepath eofill} bdef
/DP {closepath stroke} bdef
/MR {4 -2 roll moveto dup  0 exch rlineto exch 0 rlineto
  neg 0 exch rlineto closepath} bdef
/FR {MR stroke} bdef
/PR {MR fill} bdef
/L1i {{currentfile picstr readhexstring pop} image} bdef
/tMatrix matrix def
/MakeOval {newpath tMatrix currentmatrix pop translate scale
0 0 1 0 360 arc tMatrix setmatrix} bdef
/FO {MakeOval stroke} bdef
/PO {MakeOval fill} bdef
/PD {currentlinewidth 2 div 0 360 arc fill
   PDlw -1 eq not {PDlw w /PDlw -1 def} if} def
/FA {newpath tMatrix currentmatrix pop translate scale
  0 0 1 5 -2 roll arc tMatrix setmatrix stroke} bdef
/PA {newpath tMatrix currentmatrix pop	translate 0 0 moveto scale
  0 0 1 5 -2 roll arc closepath tMatrix setmatrix fill} bdef
/FAn {newpath tMatrix currentmatrix pop translate scale
  0 0 1 5 -2 roll arcn tMatrix setmatrix stroke} bdef
/PAn {newpath tMatrix currentmatrix pop translate 0 0 moveto scale
  0 0 1 5 -2 roll arcn closepath tMatrix setmatrix fill} bdef
/vradius 0 def /hradius 0 def /lry 0 def
/lrx 0 def /uly 0 def /ulx 0 def /rad 0 def
/MRR {/vradius xdef /hradius xdef /lry xdef /lrx xdef /uly xdef
  /ulx xdef newpath tMatrix currentmatrix pop ulx hradius add uly
  vradius add translate hradius vradius scale 0 0 1 180 270 arc 
  tMatrix setmatrix lrx hradius sub uly vradius add translate
  hradius vradius scale 0 0 1 270 360 arc tMatrix setmatrix
  lrx hradius sub lry vradius sub translate hradius vradius scale
  0 0 1 0 90 arc tMatrix setmatrix ulx hradius add lry vradius sub
  translate hradius vradius scale 0 0 1 90 180 arc tMatrix setmatrix
  closepath} bdef
/FRR {MRR stroke } bdef
/PRR {MRR fill } bdef
/MlrRR {/lry xdef /lrx xdef /uly xdef /ulx xdef /rad lry uly sub 2 div def
  newpath tMatrix currentmatrix pop ulx rad add uly rad add translate
  rad rad scale 0 0 1 90 270 arc tMatrix setmatrix lrx rad sub lry rad
  sub translate rad rad scale 0 0 1 270 90 arc tMatrix setmatrix
  closepath} bdef
/FlrRR {MlrRR stroke } bdef
/PlrRR {MlrRR fill } bdef
/MtbRR {/lry xdef /lrx xdef /uly xdef /ulx xdef /rad lrx ulx sub 2 div def
  newpath tMatrix currentmatrix pop ulx rad add uly rad add translate
  rad rad scale 0 0 1 180 360 arc tMatrix setmatrix lrx rad sub lry rad
  sub translate rad rad scale 0 0 1 0 180 arc tMatrix setmatrix
  closepath} bdef
/FtbRR {MtbRR stroke } bdef
/PtbRR {MtbRR fill } bdef
/stri 6 array def /dtri 6 array def
/smat 6 array def /dmat 6 array def
/tmat1 6 array def /tmat2 6 array def /dif 3 array def
/asub {/ind2 exch def /ind1 exch def dup dup
  ind1 get exch ind2 get sub exch } bdef
/tri_to_matrix {
  2 0 asub 3 1 asub 4 0 asub 5 1 asub
  dup 0 get exch 1 get 7 -1 roll astore } bdef
/compute_transform {
  dmat dtri tri_to_matrix tmat1 invertmatrix 
  smat stri tri_to_matrix tmat2 concatmatrix } bdef
/ds {stri astore pop} bdef
/dt {dtri astore pop} bdef
/db {2 copy /cols xdef /rows xdef mul dup 3 mul string
  currentfile exch readhexstring pop
  dup 0 3 index getinterval /rbmap xdef
  dup 2 index dup getinterval /gbmap xdef
  1 index dup 2 mul exch getinterval /bbmap xdef pop pop}bdef
/it {gs np dtri aload pop moveto lineto lineto cp c
  cols rows 8 compute_transform 
  rbmap gbmap bbmap true 3 colorimage gr}bdef
/il {newpath moveto lineto stroke}bdef
currentdict end def
%%EndProlog

%%BeginSetup
MathWorks begin

0 cap

end
%%EndSetup

%%Page: 1 1
%%BeginPageSetup
%%PageBoundingBox:    51   192   552   602
MathWorks begin
bpage
%%EndPageSetup

%%BeginObject: obj1
bplot

/dpi2point 12 def
portraitMode 0204 7344 csm

  417   110  6014  4924 MR c np
87 dict begin %Colortable dictionary
/c0 { 0.000000 0.000000 0.000000 sr} bdef
/c1 { 1.000000 1.000000 1.000000 sr} bdef
/c2 { 0.900000 0.000000 0.000000 sr} bdef
/c3 { 0.000000 0.820000 0.000000 sr} bdef
/c4 { 0.000000 0.000000 0.800000 sr} bdef
/c5 { 0.910000 0.820000 0.320000 sr} bdef
/c6 { 1.000000 0.260000 0.820000 sr} bdef
/c7 { 0.000000 0.820000 0.820000 sr} bdef
c0
1 j
1 sg
   0    0 6913 5185 PR
6 w
0 4225 5356 0 0 -4225 899 4614 4 MP
PP
-5356 0 0 4225 5356 0 0 -4225 899 4614 5 MP stroke
4 w
DO
SO
6 w
0 sg
 899  389 mt 6255  389 L
 899 4614 mt 6255 4614 L
6255 4614 mt 6255  389 L
 899 4614 mt  899  389 L
 899 4614 mt 6255 4614 L
 899 4614 mt  899  389 L
 899 4614 mt  899 4560 L
 899  389 mt  899  442 L
%%IncludeResource: font Helvetica
/Helvetica /WindowsLatin1Encoding 120 FMSR

 866 4759 mt 
(0) s
1791 4614 mt 1791 4560 L
1791  389 mt 1791  442 L
1758 4759 mt 
(5) s
2684 4614 mt 2684 4560 L
2684  389 mt 2684  442 L
2618 4759 mt 
(10) s
3577 4614 mt 3577 4560 L
3577  389 mt 3577  442 L
3511 4759 mt 
(15) s
4469 4614 mt 4469 4560 L
4469  389 mt 4469  442 L
4403 4759 mt 
(20) s
5362 4614 mt 5362 4560 L
5362  389 mt 5362  442 L
5296 4759 mt 
(25) s
6255 4614 mt 6255 4560 L
6255  389 mt 6255  442 L
6189 4759 mt 
(30) s
 899 4614 mt  952 4614 L
6255 4614 mt 6201 4614 L
 798 4658 mt 
(0) s
 899 4085 mt  952 4085 L
6255 4085 mt 6201 4085 L
 798 4129 mt 
(5) s
 899 3557 mt  952 3557 L
6255 3557 mt 6201 3557 L
 731 3601 mt 
(10) s
 899 3029 mt  952 3029 L
6255 3029 mt 6201 3029 L
 731 3073 mt 
(15) s
 899 2501 mt  952 2501 L
6255 2501 mt 6201 2501 L
 731 2545 mt 
(20) s
 899 1973 mt  952 1973 L
6255 1973 mt 6201 1973 L
 731 2017 mt 
(25) s
 899 1445 mt  952 1445 L
6255 1445 mt 6201 1445 L
 731 1489 mt 
(30) s
 899  917 mt  952  917 L
6255  917 mt 6201  917 L
 731  961 mt 
(35) s
 899  389 mt  952  389 L
6255  389 mt 6201  389 L
 731  433 mt 
(40) s
 899  389 mt 6255  389 L
 899 4614 mt 6255 4614 L
6255 4614 mt 6255  389 L
 899 4614 mt  899  389 L
gs 899 389 5357 4226 MR c np
24 w
/c8 { 0.000000 1.000000 0.000000 sr} bdef
c8
179 -168 179 -167 178 -168 179 -167 178 -166 179 -166 178 -164 179 -164 
178 -162 179 -161 178 -159 179 -156 178 -153 179 -150 178 -145 179 -141 
179 -135 178 -128 179 -121 178 -113 179 -103 178 -95 179 -85 178 -75 
179 -65 178 -57 179 -49 178 -41 179 -34 178 -28 899 4492 31 MP stroke
gr

24 w
c8
gs 753 660 5649 3979 MR c np
 839 4492 mt  959 4492 L
 899 4432 mt  899 4552 L
1017 4464 mt 1137 4464 L
1077 4404 mt 1077 4524 L
1196 4430 mt 1316 4430 L
1256 4370 mt 1256 4490 L
1374 4389 mt 1494 4389 L
1434 4329 mt 1434 4449 L
1553 4340 mt 1673 4340 L
1613 4280 mt 1613 4400 L
1731 4283 mt 1851 4283 L
1791 4223 mt 1791 4343 L
1910 4218 mt 2030 4218 L
1970 4158 mt 1970 4278 L
2088 4143 mt 2208 4143 L
2148 4083 mt 2148 4203 L
2267 4058 mt 2387 4058 L
2327 3998 mt 2327 4118 L
2445 3963 mt 2565 3963 L
2505 3903 mt 2505 4023 L
2624 3860 mt 2744 3860 L
2684 3800 mt 2684 3920 L
2802 3747 mt 2922 3747 L
2862 3687 mt 2862 3807 L
2981 3626 mt 3101 3626 L
3041 3566 mt 3041 3686 L
3159 3498 mt 3279 3498 L
3219 3438 mt 3219 3558 L
3338 3363 mt 3458 3363 L
3398 3303 mt 3398 3423 L
3517 3222 mt 3637 3222 L
3577 3162 mt 3577 3282 L
3695 3077 mt 3815 3077 L
3755 3017 mt 3755 3137 L
3874 2927 mt 3994 2927 L
3934 2867 mt 3934 2987 L
4052 2774 mt 4172 2774 L
4112 2714 mt 4112 2834 L
4231 2618 mt 4351 2618 L
4291 2558 mt 4291 2678 L
4409 2459 mt 4529 2459 L
4469 2399 mt 4469 2519 L
4588 2298 mt 4708 2298 L
4648 2238 mt 4648 2358 L
4766 2136 mt 4886 2136 L
4826 2076 mt 4826 2196 L
4945 1972 mt 5065 1972 L
5005 1912 mt 5005 2032 L
5123 1808 mt 5243 1808 L
5183 1748 mt 5183 1868 L
5302 1642 mt 5422 1642 L
5362 1582 mt 5362 1702 L
5480 1476 mt 5600 1476 L
5540 1416 mt 5540 1536 L
5659 1309 mt 5779 1309 L
5719 1249 mt 5719 1369 L
5837 1141 mt 5957 1141 L
5897 1081 mt 5897 1201 L
6016  974 mt 6136  974 L
6076  914 mt 6076 1034 L
6195  806 mt 6315  806 L
6255  746 mt 6255  866 L
 857 4450 mt  941 4534 L
 941 4450 mt  857 4534 L
1035 4422 mt 1119 4506 L
1119 4422 mt 1035 4506 L
1214 4388 mt 1298 4472 L
1298 4388 mt 1214 4472 L
1392 4347 mt 1476 4431 L
1476 4347 mt 1392 4431 L
1571 4298 mt 1655 4382 L
1655 4298 mt 1571 4382 L
1749 4241 mt 1833 4325 L
1833 4241 mt 1749 4325 L
1928 4176 mt 2012 4260 L
2012 4176 mt 1928 4260 L
2106 4101 mt 2190 4185 L
2190 4101 mt 2106 4185 L
2285 4016 mt 2369 4100 L
2369 4016 mt 2285 4100 L
2463 3921 mt 2547 4005 L
2547 3921 mt 2463 4005 L
2642 3818 mt 2726 3902 L
2726 3818 mt 2642 3902 L
2820 3705 mt 2904 3789 L
2904 3705 mt 2820 3789 L
2999 3584 mt 3083 3668 L
3083 3584 mt 2999 3668 L
3177 3456 mt 3261 3540 L
3261 3456 mt 3177 3540 L
3356 3321 mt 3440 3405 L
3440 3321 mt 3356 3405 L
3535 3180 mt 3619 3264 L
3619 3180 mt 3535 3264 L
3713 3035 mt 3797 3119 L
3797 3035 mt 3713 3119 L
3892 2885 mt 3976 2969 L
3976 2885 mt 3892 2969 L
4070 2732 mt 4154 2816 L
4154 2732 mt 4070 2816 L
4249 2576 mt 4333 2660 L
4333 2576 mt 4249 2660 L
4427 2417 mt 4511 2501 L
4511 2417 mt 4427 2501 L
4606 2256 mt 4690 2340 L
4690 2256 mt 4606 2340 L
4784 2094 mt 4868 2178 L
4868 2094 mt 4784 2178 L
4963 1930 mt 5047 2014 L
5047 1930 mt 4963 2014 L
5141 1766 mt 5225 1850 L
5225 1766 mt 5141 1850 L
5320 1600 mt 5404 1684 L
5404 1600 mt 5320 1684 L
5498 1434 mt 5582 1518 L
5582 1434 mt 5498 1518 L
5677 1267 mt 5761 1351 L
5761 1267 mt 5677 1351 L
5855 1099 mt 5939 1183 L
5939 1099 mt 5855 1183 L
6034  932 mt 6118 1016 L
6118  932 mt 6034 1016 L
6213  764 mt 6297  848 L
6297  764 mt 6213  848 L
gr

gs 899 389 5357 4226 MR c np
gr

0 sg
2992  294 mt 
(Channel A, Scheme 3) s
%%IncludeResource: font Helvetica
/Helvetica /WindowsLatin1Encoding 204 FMSR

3140 4964 mt 
(SNR \(dB\)) s
 631 3783 mt  -90 rotate
(Information Rates \(nats/sec\)) s
90 rotate
gs 899 389 5357 4226 MR c np
/c9 { 0.000000 0.000000 1.000000 sr} bdef
c9
179 -168 179 -168 178 -166 179 -167 178 -165 179 -165 178 -164 179 -162 
178 -161 179 -158 178 -157 179 -153 178 -150 179 -146 178 -141 179 -135 
179 -128 178 -121 179 -113 178 -104 179 -95 178 -85 179 -75 178 -66 
179 -57 178 -49 179 -41 178 -35 179 -28 178 -24 899 4515 31 MP stroke
gr

c9
gs 753 822 5649 3840 MR c np
0 j
0 -94 -94 0 0 94 94 0 852 4468 5 MP
DP
0 -94 -94 0 0 94 94 0 1030 4444 5 MP
DP
0 -94 -94 0 0 94 94 0 1209 4416 5 MP
DP
0 -94 -94 0 0 94 94 0 1387 4381 5 MP
DP
0 -94 -94 0 0 94 94 0 1566 4340 5 MP
DP
0 -94 -94 0 0 94 94 0 1744 4291 5 MP
DP
0 -94 -94 0 0 94 94 0 1923 4234 5 MP
DP
0 -94 -94 0 0 94 94 0 2101 4168 5 MP
DP
0 -94 -94 0 0 94 94 0 2280 4093 5 MP
DP
0 -94 -94 0 0 94 94 0 2458 4008 5 MP
DP
0 -94 -94 0 0 94 94 0 2637 3913 5 MP
DP
0 -94 -94 0 0 94 94 0 2815 3809 5 MP
DP
0 -94 -94 0 0 94 94 0 2994 3696 5 MP
DP
0 -94 -94 0 0 94 94 0 3172 3575 5 MP
DP
0 -94 -94 0 0 94 94 0 3351 3447 5 MP
DP
0 -94 -94 0 0 94 94 0 3530 3312 5 MP
DP
0 -94 -94 0 0 94 94 0 3708 3171 5 MP
DP
0 -94 -94 0 0 94 94 0 3887 3025 5 MP
DP
0 -94 -94 0 0 94 94 0 4065 2875 5 MP
DP
0 -94 -94 0 0 94 94 0 4244 2722 5 MP
DP
0 -94 -94 0 0 94 94 0 4422 2565 5 MP
DP
0 -94 -94 0 0 94 94 0 4601 2407 5 MP
DP
0 -94 -94 0 0 94 94 0 4779 2246 5 MP
DP
0 -94 -94 0 0 94 94 0 4958 2084 5 MP
DP
0 -94 -94 0 0 94 94 0 5136 1920 5 MP
DP
0 -94 -94 0 0 94 94 0 5315 1755 5 MP
DP
0 -94 -94 0 0 94 94 0 5493 1590 5 MP
DP
0 -94 -94 0 0 94 94 0 5672 1423 5 MP
DP
0 -94 -94 0 0 94 94 0 5850 1257 5 MP
DP
0 -94 -94 0 0 94 94 0 6029 1089 5 MP
DP
0 -94 -94 0 0 94 94 0 6208 921 5 MP
DP
gr

gs 899 389 5357 4226 MR c np
/c10 { 1.000000 0.000000 1.000000 sr} bdef
c10
179 -168 179 -168 178 -166 179 -167 178 -165 179 -165 178 -164 179 -162 
178 -161 179 -158 178 -157 179 -153 178 -150 179 -146 178 -141 179 -135 
179 -128 178 -121 179 -113 178 -104 179 -95 178 -85 179 -75 178 -66 
179 -57 178 -49 179 -41 178 -35 179 -28 178 -24 899 4515 31 MP stroke
gr

c10
gs 753 822 5649 3840 MR c np
 839 4515 mt  959 4515 L
 899 4455 mt  899 4575 L
1017 4491 mt 1137 4491 L
1077 4431 mt 1077 4551 L
1196 4463 mt 1316 4463 L
1256 4403 mt 1256 4523 L
1374 4428 mt 1494 4428 L
1434 4368 mt 1434 4488 L
1553 4387 mt 1673 4387 L
1613 4327 mt 1613 4447 L
1731 4338 mt 1851 4338 L
1791 4278 mt 1791 4398 L
1910 4281 mt 2030 4281 L
1970 4221 mt 1970 4341 L
2088 4215 mt 2208 4215 L
2148 4155 mt 2148 4275 L
2267 4140 mt 2387 4140 L
2327 4080 mt 2327 4200 L
2445 4055 mt 2565 4055 L
2505 3995 mt 2505 4115 L
2624 3960 mt 2744 3960 L
2684 3900 mt 2684 4020 L
2802 3856 mt 2922 3856 L
2862 3796 mt 2862 3916 L
2981 3743 mt 3101 3743 L
3041 3683 mt 3041 3803 L
3159 3622 mt 3279 3622 L
3219 3562 mt 3219 3682 L
3338 3494 mt 3458 3494 L
3398 3434 mt 3398 3554 L
3517 3359 mt 3637 3359 L
3577 3299 mt 3577 3419 L
3695 3218 mt 3815 3218 L
3755 3158 mt 3755 3278 L
3874 3072 mt 3994 3072 L
3934 3012 mt 3934 3132 L
4052 2922 mt 4172 2922 L
4112 2862 mt 4112 2982 L
4231 2769 mt 4351 2769 L
4291 2709 mt 4291 2829 L
4409 2612 mt 4529 2612 L
4469 2552 mt 4469 2672 L
4588 2454 mt 4708 2454 L
4648 2394 mt 4648 2514 L
4766 2293 mt 4886 2293 L
4826 2233 mt 4826 2353 L
4945 2131 mt 5065 2131 L
5005 2071 mt 5005 2191 L
5123 1967 mt 5243 1967 L
5183 1907 mt 5183 2027 L
5302 1802 mt 5422 1802 L
5362 1742 mt 5362 1862 L
5480 1637 mt 5600 1637 L
5540 1577 mt 5540 1697 L
5659 1470 mt 5779 1470 L
5719 1410 mt 5719 1530 L
5837 1304 mt 5957 1304 L
5897 1244 mt 5897 1364 L
6016 1136 mt 6136 1136 L
6076 1076 mt 6076 1196 L
6195  968 mt 6315  968 L
6255  908 mt 6255 1028 L
gr

gs 899 389 5357 4226 MR c np
/c11 { 1.000000 0.000000 0.000000 sr} bdef
c11
179 -168 179 -168 178 -166 179 -167 178 -165 179 -165 178 -164 179 -162 
178 -161 179 -158 178 -157 179 -153 178 -150 179 -146 178 -141 179 -135 
179 -128 178 -121 179 -113 178 -104 179 -95 178 -85 179 -75 178 -66 
179 -57 178 -49 179 -41 178 -35 179 -28 178 -24 899 4515 31 MP stroke
gr

c11
gs 753 822 5649 3840 MR c np
 857 4473 mt  941 4557 L
 941 4473 mt  857 4557 L
1035 4449 mt 1119 4533 L
1119 4449 mt 1035 4533 L
1214 4421 mt 1298 4505 L
1298 4421 mt 1214 4505 L
1392 4386 mt 1476 4470 L
1476 4386 mt 1392 4470 L
1571 4345 mt 1655 4429 L
1655 4345 mt 1571 4429 L
1749 4296 mt 1833 4380 L
1833 4296 mt 1749 4380 L
1928 4239 mt 2012 4323 L
2012 4239 mt 1928 4323 L
2106 4173 mt 2190 4257 L
2190 4173 mt 2106 4257 L
2285 4098 mt 2369 4182 L
2369 4098 mt 2285 4182 L
2463 4013 mt 2547 4097 L
2547 4013 mt 2463 4097 L
2642 3918 mt 2726 4002 L
2726 3918 mt 2642 4002 L
2820 3814 mt 2904 3898 L
2904 3814 mt 2820 3898 L
2999 3701 mt 3083 3785 L
3083 3701 mt 2999 3785 L
3177 3580 mt 3261 3664 L
3261 3580 mt 3177 3664 L
3356 3452 mt 3440 3536 L
3440 3452 mt 3356 3536 L
3535 3317 mt 3619 3401 L
3619 3317 mt 3535 3401 L
3713 3176 mt 3797 3260 L
3797 3176 mt 3713 3260 L
3892 3030 mt 3976 3114 L
3976 3030 mt 3892 3114 L
4070 2880 mt 4154 2964 L
4154 2880 mt 4070 2964 L
4249 2727 mt 4333 2811 L
4333 2727 mt 4249 2811 L
4427 2570 mt 4511 2654 L
4511 2570 mt 4427 2654 L
4606 2412 mt 4690 2496 L
4690 2412 mt 4606 2496 L
4784 2251 mt 4868 2335 L
4868 2251 mt 4784 2335 L
4963 2089 mt 5047 2173 L
5047 2089 mt 4963 2173 L
5141 1925 mt 5225 2009 L
5225 1925 mt 5141 2009 L
5320 1760 mt 5404 1844 L
5404 1760 mt 5320 1844 L
5498 1595 mt 5582 1679 L
5582 1595 mt 5498 1679 L
5677 1428 mt 5761 1512 L
5761 1428 mt 5677 1512 L
5855 1262 mt 5939 1346 L
5939 1262 mt 5855 1346 L
6034 1094 mt 6118 1178 L
6118 1094 mt 6034 1178 L
6213  926 mt 6297 1010 L
6297  926 mt 6213 1010 L
gr

gs 899 389 5357 4226 MR c np
gr

0 sg
%%IncludeResource: font Helvetica
/Helvetica /WindowsLatin1Encoding 120 FMSR

 882 4657 mt 
( ) s
6239  431 mt 
( ) s
6 w
1 sg
0 907 1367 0 0 -907 4828 4555 4 MP
PP
-1367 0 0 907 1367 0 0 -907 4828 4555 5 MP stroke
4 w
DO
SO
6 w
0 sg
4828 3648 mt 6195 3648 L
4828 4555 mt 6195 4555 L
6195 4555 mt 6195 3648 L
4828 4555 mt 4828 3648 L
4828 4555 mt 6195 4555 L
4828 4555 mt 4828 3648 L
4828 3648 mt 6195 3648 L
4828 4555 mt 6195 4555 L
6195 4555 mt 6195 3648 L
4828 4555 mt 4828 3648 L
%%IncludeResource: font Helvetica
/Helvetica /WindowsLatin1Encoding 168 FMSR

5281 3830 mt 
(Optimal Rx) s
gs 4828 3648 1368 908 MR c np
24 w
c8
348 0 4897 3769 2 MP stroke
gr

24 w
c8
gs 4925 3623 293 293 MR c np
5011 3769 mt 5131 3769 L
5071 3709 mt 5071 3829 L
5029 3727 mt 5113 3811 L
5113 3727 mt 5029 3811 L
gr

gs 4828 3648 1368 908 MR c np
gr

0 sg
5281 4090 mt 
(EB, K=K) s
%%IncludeResource: font Symbol
/Symbol /WindowsLatin1Encoding 132 FMSR

5917 4006 mt 
(\242) s
%%IncludeResource: font Helvetica
/Helvetica /WindowsLatin1Encoding 168 FMSR

5949 4090 mt 
(+1) s
gs 4828 3648 1368 908 MR c np
c9
348 0 4897 3999 2 MP stroke
gs 4925 3853 293 293 MR c np
0 j
0 -94 -94 0 0 94 94 0 5024 3952 5 MP
DP
gr

gr

c9
0 sg
5281 4289 mt 
(SB, JLD) s
gs 4828 3648 1368 908 MR c np
c10
348 0 4897 4228 2 MP stroke
gs 4925 4082 293 293 MR c np
5011 4228 mt 5131 4228 L
5071 4168 mt 5071 4288 L
gr

gr

c10
0 sg
5281 4494 mt 
(SB, ILD) s
gs 4828 3648 1368 908 MR c np
c11
348 0 4897 4433 2 MP stroke
gr

c11
gs 4925 4287 293 293 MR c np
5029 4391 mt 5113 4475 L
5113 4391 mt 5029 4475 L
gr

gs 4828 3648 1368 908 MR c np
6 w
gr

6 w

end %%Color Dict

eplot
%%EndObject

epage
end

showpage

%%Trailer
%%EOF
