%!PS-Adobe-2.0 EPSF-1.2
%%Creator: MATLAB, The MathWorks, Inc. Version 7.14.0.739 (R2012a). Operating System: Microsoft Windows 7.
%%Title: .\RATE_CHC_SCH1vsSCH3.eps
%%CreationDate: 05/06/2015  12:28:06
%%DocumentNeededFonts: Helvetica
%%DocumentProcessColors: Cyan Magenta Yellow Black
%%Extensions: CMYK
%%Pages: 1
%%BoundingBox:    51   192   552   602
%%EndComments

%%BeginProlog
% MathWorks dictionary
/MathWorks 160 dict begin
% definition operators
/bdef {bind def} bind def
/ldef {load def} bind def
/xdef {exch def} bdef
/xstore {exch store} bdef
% operator abbreviations
/c  /clip ldef
/cc /concat ldef
/cp /closepath ldef
/gr /grestore ldef
/gs /gsave ldef
/mt /moveto ldef
/np /newpath ldef
/cm /currentmatrix ldef
/sm /setmatrix ldef
/rm /rmoveto ldef
/rl /rlineto ldef
/s {show newpath} bdef
/sc {setcmykcolor} bdef
/sr /setrgbcolor ldef
/sg /setgray ldef
/w /setlinewidth ldef
/j /setlinejoin ldef
/cap /setlinecap ldef
/rc {rectclip} bdef
/rf {rectfill} bdef
% page state control
/pgsv () def
/bpage {/pgsv save def} bdef
/epage {pgsv restore} bdef
/bplot /gsave ldef
/eplot {stroke grestore} bdef
% orientation switch
/portraitMode 0 def /landscapeMode 1 def /rotateMode 2 def
% coordinate system mappings
/dpi2point 0 def
% font control
/FontSize 0 def
/FMS {/FontSize xstore findfont [FontSize 0 0 FontSize neg 0 0]
  makefont setfont} bdef
/ISOLatin1Encoding where {pop /WindowsLatin1Encoding 256 array bdef
ISOLatin1Encoding WindowsLatin1Encoding copy pop
/.notdef/.notdef/quotesinglbase/florin/quotedblbase/ellipsis/dagger
/daggerdbl/circumflex/perthousand/Scaron/guilsinglleft/OE/.notdef/.notdef
/.notdef/.notdef/quoteleft/quoteright/quotedblleft/quotedblright/bullet
/endash/emdash/tilde/trademark/scaron/guilsinglright/oe/.notdef/.notdef
/Ydieresis WindowsLatin1Encoding 128 32 getinterval astore pop}
{/WindowsLatin1Encoding StandardEncoding bdef} ifelse
/reencode {exch dup where {pop load} {pop StandardEncoding} ifelse
  exch dup 3 1 roll findfont dup length dict begin
  { 1 index /FID ne {def}{pop pop} ifelse } forall
  /Encoding exch def currentdict end definefont pop} bdef
/isroman {findfont /CharStrings get /Agrave known} bdef
/FMSR {3 1 roll 1 index dup isroman {reencode} {pop pop} ifelse
  exch FMS} bdef
/csm {1 dpi2point div -1 dpi2point div scale neg translate
 dup landscapeMode eq {pop -90 rotate}
  {rotateMode eq {90 rotate} if} ifelse} bdef
% line types: solid, dotted, dashed, dotdash
/SO { [] 0 setdash } bdef
/DO { [.5 dpi2point mul 4 dpi2point mul] 0 setdash } bdef
/DA { [6 dpi2point mul] 0 setdash } bdef
/DD { [.5 dpi2point mul 4 dpi2point mul 6 dpi2point mul 4
  dpi2point mul] 0 setdash } bdef
% macros for lines and objects
/L {lineto stroke} bdef
/MP {3 1 roll moveto 1 sub {rlineto} repeat} bdef
/AP {{rlineto} repeat} bdef
/PDlw -1 def
/W {/PDlw currentlinewidth def setlinewidth} def
/PP {closepath eofill} bdef
/DP {closepath stroke} bdef
/MR {4 -2 roll moveto dup  0 exch rlineto exch 0 rlineto
  neg 0 exch rlineto closepath} bdef
/FR {MR stroke} bdef
/PR {MR fill} bdef
/L1i {{currentfile picstr readhexstring pop} image} bdef
/tMatrix matrix def
/MakeOval {newpath tMatrix currentmatrix pop translate scale
0 0 1 0 360 arc tMatrix setmatrix} bdef
/FO {MakeOval stroke} bdef
/PO {MakeOval fill} bdef
/PD {currentlinewidth 2 div 0 360 arc fill
   PDlw -1 eq not {PDlw w /PDlw -1 def} if} def
/FA {newpath tMatrix currentmatrix pop translate scale
  0 0 1 5 -2 roll arc tMatrix setmatrix stroke} bdef
/PA {newpath tMatrix currentmatrix pop	translate 0 0 moveto scale
  0 0 1 5 -2 roll arc closepath tMatrix setmatrix fill} bdef
/FAn {newpath tMatrix currentmatrix pop translate scale
  0 0 1 5 -2 roll arcn tMatrix setmatrix stroke} bdef
/PAn {newpath tMatrix currentmatrix pop translate 0 0 moveto scale
  0 0 1 5 -2 roll arcn closepath tMatrix setmatrix fill} bdef
/vradius 0 def /hradius 0 def /lry 0 def
/lrx 0 def /uly 0 def /ulx 0 def /rad 0 def
/MRR {/vradius xdef /hradius xdef /lry xdef /lrx xdef /uly xdef
  /ulx xdef newpath tMatrix currentmatrix pop ulx hradius add uly
  vradius add translate hradius vradius scale 0 0 1 180 270 arc 
  tMatrix setmatrix lrx hradius sub uly vradius add translate
  hradius vradius scale 0 0 1 270 360 arc tMatrix setmatrix
  lrx hradius sub lry vradius sub translate hradius vradius scale
  0 0 1 0 90 arc tMatrix setmatrix ulx hradius add lry vradius sub
  translate hradius vradius scale 0 0 1 90 180 arc tMatrix setmatrix
  closepath} bdef
/FRR {MRR stroke } bdef
/PRR {MRR fill } bdef
/MlrRR {/lry xdef /lrx xdef /uly xdef /ulx xdef /rad lry uly sub 2 div def
  newpath tMatrix currentmatrix pop ulx rad add uly rad add translate
  rad rad scale 0 0 1 90 270 arc tMatrix setmatrix lrx rad sub lry rad
  sub translate rad rad scale 0 0 1 270 90 arc tMatrix setmatrix
  closepath} bdef
/FlrRR {MlrRR stroke } bdef
/PlrRR {MlrRR fill } bdef
/MtbRR {/lry xdef /lrx xdef /uly xdef /ulx xdef /rad lrx ulx sub 2 div def
  newpath tMatrix currentmatrix pop ulx rad add uly rad add translate
  rad rad scale 0 0 1 180 360 arc tMatrix setmatrix lrx rad sub lry rad
  sub translate rad rad scale 0 0 1 0 180 arc tMatrix setmatrix
  closepath} bdef
/FtbRR {MtbRR stroke } bdef
/PtbRR {MtbRR fill } bdef
/stri 6 array def /dtri 6 array def
/smat 6 array def /dmat 6 array def
/tmat1 6 array def /tmat2 6 array def /dif 3 array def
/asub {/ind2 exch def /ind1 exch def dup dup
  ind1 get exch ind2 get sub exch } bdef
/tri_to_matrix {
  2 0 asub 3 1 asub 4 0 asub 5 1 asub
  dup 0 get exch 1 get 7 -1 roll astore } bdef
/compute_transform {
  dmat dtri tri_to_matrix tmat1 invertmatrix 
  smat stri tri_to_matrix tmat2 concatmatrix } bdef
/ds {stri astore pop} bdef
/dt {dtri astore pop} bdef
/db {2 copy /cols xdef /rows xdef mul dup 3 mul string
  currentfile exch readhexstring pop
  dup 0 3 index getinterval /rbmap xdef
  dup 2 index dup getinterval /gbmap xdef
  1 index dup 2 mul exch getinterval /bbmap xdef pop pop}bdef
/it {gs np dtri aload pop moveto lineto lineto cp c
  cols rows 8 compute_transform 
  rbmap gbmap bbmap true 3 colorimage gr}bdef
/il {newpath moveto lineto stroke}bdef
currentdict end def
%%EndProlog

%%BeginSetup
MathWorks begin

0 cap

end
%%EndSetup

%%Page: 1 1
%%BeginPageSetup
%%PageBoundingBox:    51   192   552   602
MathWorks begin
bpage
%%EndPageSetup

%%BeginObject: obj1
bplot

/dpi2point 12 def
portraitMode 0204 7344 csm

  417   110  6014  4924 MR c np
85 dict begin %Colortable dictionary
/c0 { 0.000000 0.000000 0.000000 sr} bdef
/c1 { 1.000000 1.000000 1.000000 sr} bdef
/c2 { 0.900000 0.000000 0.000000 sr} bdef
/c3 { 0.000000 0.820000 0.000000 sr} bdef
/c4 { 0.000000 0.000000 0.800000 sr} bdef
/c5 { 0.910000 0.820000 0.320000 sr} bdef
/c6 { 1.000000 0.260000 0.820000 sr} bdef
/c7 { 0.000000 0.820000 0.820000 sr} bdef
c0
1 j
1 sg
   0    0 6913 5185 PR
6 w
0 4225 5356 0 0 -4225 899 4614 4 MP
PP
-5356 0 0 4225 5356 0 0 -4225 899 4614 5 MP stroke
4 w
DO
SO
6 w
0 sg
 899  389 mt 6255  389 L
 899 4614 mt 6255 4614 L
6255 4614 mt 6255  389 L
 899 4614 mt  899  389 L
 899 4614 mt 6255 4614 L
 899 4614 mt  899  389 L
 899 4614 mt  899 4560 L
 899  389 mt  899  442 L
%%IncludeResource: font Helvetica
/Helvetica /WindowsLatin1Encoding 120 FMSR

 866 4759 mt 
(0) s
1791 4614 mt 1791 4560 L
1791  389 mt 1791  442 L
1758 4759 mt 
(5) s
2684 4614 mt 2684 4560 L
2684  389 mt 2684  442 L
2618 4759 mt 
(10) s
3577 4614 mt 3577 4560 L
3577  389 mt 3577  442 L
3511 4759 mt 
(15) s
4469 4614 mt 4469 4560 L
4469  389 mt 4469  442 L
4403 4759 mt 
(20) s
5362 4614 mt 5362 4560 L
5362  389 mt 5362  442 L
5296 4759 mt 
(25) s
6255 4614 mt 6255 4560 L
6255  389 mt 6255  442 L
6189 4759 mt 
(30) s
 899 4614 mt  952 4614 L
6255 4614 mt 6201 4614 L
 798 4658 mt 
(0) s
 899 4010 mt  952 4010 L
6255 4010 mt 6201 4010 L
 798 4054 mt 
(5) s
 899 3406 mt  952 3406 L
6255 3406 mt 6201 3406 L
 731 3450 mt 
(10) s
 899 2803 mt  952 2803 L
6255 2803 mt 6201 2803 L
 731 2847 mt 
(15) s
 899 2199 mt  952 2199 L
6255 2199 mt 6201 2199 L
 731 2243 mt 
(20) s
 899 1596 mt  952 1596 L
6255 1596 mt 6201 1596 L
 731 1640 mt 
(25) s
 899  992 mt  952  992 L
6255  992 mt 6201  992 L
 731 1036 mt 
(30) s
 899  389 mt  952  389 L
6255  389 mt 6201  389 L
 731  433 mt 
(35) s
 899  389 mt 6255  389 L
 899 4614 mt 6255 4614 L
6255 4614 mt 6255  389 L
 899 4614 mt  899  389 L
gs 899 389 5357 4226 MR c np
DA
24 w
/c8 { 0.000000 0.000000 1.000000 sr} bdef
c8
179 -192 179 -192 178 -192 179 -191 178 -189 179 -189 178 -187 179 -185 
178 -183 179 -180 178 -177 179 -173 178 -168 179 -163 178 -156 179 -149 
179 -140 178 -132 179 -122 178 -111 179 -102 178 -90 179 -81 178 -70 
179 -61 178 -52 179 -45 178 -37 179 -31 178 -26 899 4503 31 MP stroke
gr

24 w
c8
DA
gs 753 391 5649 4259 MR c np
SO
 839 4503 mt  959 4503 L
 899 4443 mt  899 4563 L
1017 4477 mt 1137 4477 L
1077 4417 mt 1077 4537 L
1196 4446 mt 1316 4446 L
1256 4386 mt 1256 4506 L
1374 4409 mt 1494 4409 L
1434 4349 mt 1434 4469 L
1553 4364 mt 1673 4364 L
1613 4304 mt 1613 4424 L
1731 4312 mt 1851 4312 L
1791 4252 mt 1791 4372 L
1910 4251 mt 2030 4251 L
1970 4191 mt 1970 4311 L
2088 4181 mt 2208 4181 L
2148 4121 mt 2148 4241 L
2267 4100 mt 2387 4100 L
2327 4040 mt 2327 4160 L
2445 4010 mt 2565 4010 L
2505 3950 mt 2505 4070 L
2624 3908 mt 2744 3908 L
2684 3848 mt 2684 3968 L
2802 3797 mt 2922 3797 L
2862 3737 mt 2862 3857 L
2981 3675 mt 3101 3675 L
3041 3615 mt 3041 3735 L
3159 3543 mt 3279 3543 L
3219 3483 mt 3219 3603 L
3338 3403 mt 3458 3403 L
3398 3343 mt 3398 3463 L
3517 3254 mt 3637 3254 L
3577 3194 mt 3577 3314 L
3695 3098 mt 3815 3098 L
3755 3038 mt 3755 3158 L
3874 2935 mt 3994 2935 L
3934 2875 mt 3934 2995 L
4052 2767 mt 4172 2767 L
4112 2707 mt 4112 2827 L
4231 2594 mt 4351 2594 L
4291 2534 mt 4291 2654 L
4409 2417 mt 4529 2417 L
4469 2357 mt 4469 2477 L
4588 2237 mt 4708 2237 L
4648 2177 mt 4648 2297 L
4766 2054 mt 4886 2054 L
4826 1994 mt 4826 2114 L
4945 1869 mt 5065 1869 L
5005 1809 mt 5005 1929 L
5123 1682 mt 5243 1682 L
5183 1622 mt 5183 1742 L
5302 1493 mt 5422 1493 L
5362 1433 mt 5362 1553 L
5480 1304 mt 5600 1304 L
5540 1244 mt 5540 1364 L
5659 1113 mt 5779 1113 L
5719 1053 mt 5719 1173 L
5837  921 mt 5957  921 L
5897  861 mt 5897  981 L
6016  729 mt 6136  729 L
6076  669 mt 6076  789 L
6195  537 mt 6315  537 L
6255  477 mt 6255  597 L
DA
gr

gs 899 389 5357 4226 MR c np
gr

0 sg
3293  294 mt 
(Channel C) s
%%IncludeResource: font Helvetica
/Helvetica /WindowsLatin1Encoding 204 FMSR

3140 4964 mt 
(SNR \(dB\)) s
 631 3783 mt  -90 rotate
(Information Rates \(nats/sec\)) s
90 rotate
gs 899 389 5357 4226 MR c np
/c9 { 1.000000 0.000000 0.000000 sr} bdef
c9
179 -190 179 -190 178 -189 179 -189 178 -188 179 -187 178 -185 179 -184 
178 -181 179 -179 178 -176 179 -172 178 -168 179 -162 178 -155 179 -148 
179 -141 178 -131 179 -122 178 -111 179 -101 178 -91 179 -80 178 -70 
179 -61 178 -53 179 -44 178 -37 179 -31 178 -26 899 4503 31 MP stroke
gr

c9
gs 753 415 5649 4235 MR c np
SO
 857 4461 mt  941 4545 L
 941 4461 mt  857 4545 L
1035 4435 mt 1119 4519 L
1119 4435 mt 1035 4519 L
1214 4404 mt 1298 4488 L
1298 4404 mt 1214 4488 L
1392 4367 mt 1476 4451 L
1476 4367 mt 1392 4451 L
1571 4323 mt 1655 4407 L
1655 4323 mt 1571 4407 L
1749 4270 mt 1833 4354 L
1833 4270 mt 1749 4354 L
1928 4209 mt 2012 4293 L
2012 4209 mt 1928 4293 L
2106 4139 mt 2190 4223 L
2190 4139 mt 2106 4223 L
2285 4059 mt 2369 4143 L
2369 4059 mt 2285 4143 L
2463 3968 mt 2547 4052 L
2547 3968 mt 2463 4052 L
2642 3867 mt 2726 3951 L
2726 3867 mt 2642 3951 L
2820 3756 mt 2904 3840 L
2904 3756 mt 2820 3840 L
2999 3634 mt 3083 3718 L
3083 3634 mt 2999 3718 L
3177 3503 mt 3261 3587 L
3261 3503 mt 3177 3587 L
3356 3362 mt 3440 3446 L
3440 3362 mt 3356 3446 L
3535 3214 mt 3619 3298 L
3619 3214 mt 3535 3298 L
3713 3059 mt 3797 3143 L
3797 3059 mt 3713 3143 L
3892 2897 mt 3976 2981 L
3976 2897 mt 3892 2981 L
4070 2729 mt 4154 2813 L
4154 2729 mt 4070 2813 L
4249 2557 mt 4333 2641 L
4333 2557 mt 4249 2641 L
4427 2381 mt 4511 2465 L
4511 2381 mt 4427 2465 L
4606 2202 mt 4690 2286 L
4690 2202 mt 4606 2286 L
4784 2021 mt 4868 2105 L
4868 2021 mt 4784 2105 L
4963 1837 mt 5047 1921 L
5047 1837 mt 4963 1921 L
5141 1652 mt 5225 1736 L
5225 1652 mt 5141 1736 L
5320 1465 mt 5404 1549 L
5404 1465 mt 5320 1549 L
5498 1277 mt 5582 1361 L
5582 1277 mt 5498 1361 L
5677 1088 mt 5761 1172 L
5761 1088 mt 5677 1172 L
5855  899 mt 5939  983 L
5939  899 mt 5855  983 L
6034  709 mt 6118  793 L
6118  709 mt 6034  793 L
6213  519 mt 6297  603 L
6297  519 mt 6213  603 L
DA
gr

gs 899 389 5357 4226 MR c np
DO
c8
179 -192 179 -191 178 -191 179 -190 178 -189 179 -188 178 -187 179 -186 
178 -183 179 -182 178 -178 179 -176 178 -171 179 -166 178 -161 179 -155 
179 -147 178 -138 179 -129 178 -119 179 -108 178 -98 179 -86 178 -75 
179 -66 178 -55 179 -47 178 -40 179 -33 178 -27 899 4501 31 MP stroke
gr

c8
DO
gs 753 301 5649 4347 MR c np
SO
 839 4501 mt  959 4501 L
 899 4441 mt  899 4561 L
1017 4474 mt 1137 4474 L
1077 4414 mt 1077 4534 L
1196 4441 mt 1316 4441 L
1256 4381 mt 1256 4501 L
1374 4401 mt 1494 4401 L
1434 4341 mt 1434 4461 L
1553 4354 mt 1673 4354 L
1613 4294 mt 1613 4414 L
1731 4299 mt 1851 4299 L
1791 4239 mt 1791 4359 L
1910 4233 mt 2030 4233 L
1970 4173 mt 1970 4293 L
2088 4158 mt 2208 4158 L
2148 4098 mt 2148 4218 L
2267 4072 mt 2387 4072 L
2327 4012 mt 2327 4132 L
2445 3974 mt 2565 3974 L
2505 3914 mt 2505 4034 L
2624 3866 mt 2744 3866 L
2684 3806 mt 2684 3926 L
2802 3747 mt 2922 3747 L
2862 3687 mt 2862 3807 L
2981 3618 mt 3101 3618 L
3041 3558 mt 3041 3678 L
3159 3480 mt 3279 3480 L
3219 3420 mt 3219 3540 L
3338 3333 mt 3458 3333 L
3398 3273 mt 3398 3393 L
3517 3178 mt 3637 3178 L
3577 3118 mt 3577 3238 L
3695 3017 mt 3815 3017 L
3755 2957 mt 3755 3077 L
3874 2851 mt 3994 2851 L
3934 2791 mt 3934 2911 L
4052 2680 mt 4172 2680 L
4112 2620 mt 4112 2740 L
4231 2504 mt 4351 2504 L
4291 2444 mt 4291 2564 L
4409 2326 mt 4529 2326 L
4469 2266 mt 4469 2386 L
4588 2144 mt 4708 2144 L
4648 2084 mt 4648 2204 L
4766 1961 mt 4886 1961 L
4826 1901 mt 4826 2021 L
4945 1775 mt 5065 1775 L
5005 1715 mt 5005 1835 L
5123 1588 mt 5243 1588 L
5183 1528 mt 5183 1648 L
5302 1400 mt 5422 1400 L
5362 1340 mt 5362 1460 L
5480 1211 mt 5600 1211 L
5540 1151 mt 5540 1271 L
5659 1021 mt 5779 1021 L
5719  961 mt 5719 1081 L
5837  830 mt 5957  830 L
5897  770 mt 5897  890 L
6016  639 mt 6136  639 L
6076  579 mt 6076  699 L
6195  447 mt 6315  447 L
6255  387 mt 6255  507 L
DO
gs 899 389 5357 4226 MR c np
c9
179 -192 179 -191 178 -191 179 -190 178 -189 179 -188 178 -187 179 -186 
178 -183 179 -182 178 -178 179 -176 178 -171 179 -166 178 -161 179 -155 
179 -147 178 -138 179 -129 178 -119 179 -108 178 -98 179 -86 178 -75 
179 -66 178 -55 179 -47 178 -40 179 -33 178 -27 899 4501 31 MP stroke
gr

c9
SO
 857 4459 mt  941 4543 L
 941 4459 mt  857 4543 L
1035 4432 mt 1119 4516 L
1119 4432 mt 1035 4516 L
1214 4399 mt 1298 4483 L
1298 4399 mt 1214 4483 L
1392 4359 mt 1476 4443 L
1476 4359 mt 1392 4443 L
1571 4312 mt 1655 4396 L
1655 4312 mt 1571 4396 L
1749 4257 mt 1833 4341 L
1833 4257 mt 1749 4341 L
1928 4191 mt 2012 4275 L
2012 4191 mt 1928 4275 L
2106 4116 mt 2190 4200 L
2190 4116 mt 2106 4200 L
2285 4030 mt 2369 4114 L
2369 4030 mt 2285 4114 L
2463 3932 mt 2547 4016 L
2547 3932 mt 2463 4016 L
2642 3824 mt 2726 3908 L
2726 3824 mt 2642 3908 L
2820 3705 mt 2904 3789 L
2904 3705 mt 2820 3789 L
2999 3576 mt 3083 3660 L
3083 3576 mt 2999 3660 L
3177 3438 mt 3261 3522 L
3261 3438 mt 3177 3522 L
3356 3291 mt 3440 3375 L
3440 3291 mt 3356 3375 L
3535 3136 mt 3619 3220 L
3619 3136 mt 3535 3220 L
3713 2975 mt 3797 3059 L
3797 2975 mt 3713 3059 L
3892 2809 mt 3976 2893 L
3976 2809 mt 3892 2893 L
4070 2638 mt 4154 2722 L
4154 2638 mt 4070 2722 L
4249 2462 mt 4333 2546 L
4333 2462 mt 4249 2546 L
4427 2284 mt 4511 2368 L
4511 2284 mt 4427 2368 L
4606 2102 mt 4690 2186 L
4690 2102 mt 4606 2186 L
4784 1919 mt 4868 2003 L
4868 1919 mt 4784 2003 L
4963 1733 mt 5047 1817 L
5047 1733 mt 4963 1817 L
5141 1546 mt 5225 1630 L
5225 1546 mt 5141 1630 L
5320 1358 mt 5404 1442 L
5404 1358 mt 5320 1442 L
5498 1169 mt 5582 1253 L
5582 1169 mt 5498 1253 L
5677  979 mt 5761 1063 L
5761  979 mt 5677 1063 L
5855  788 mt 5939  872 L
5939  788 mt 5855  872 L
6034  597 mt 6118  681 L
6118  597 mt 6034  681 L
6213  405 mt 6297  489 L
6297  405 mt 6213  489 L
DO
gs 899 389 5357 4226 MR c np
gr
gr

c9
0 sg
%%IncludeResource: font Helvetica
/Helvetica /WindowsLatin1Encoding 120 FMSR

 882 4657 mt 
( ) s
6239  431 mt 
( ) s
SO
6 w
1 sg
0 846 1913 0 0 -846 4283 4555 4 MP
PP
-1913 0 0 846 1913 0 0 -846 4283 4555 5 MP stroke
4 w
DO
SO
6 w
0 sg
4283 3709 mt 6196 3709 L
4283 4555 mt 6196 4555 L
6196 4555 mt 6196 3709 L
4283 4555 mt 4283 3709 L
4283 4555 mt 6196 4555 L
4283 4555 mt 4283 3709 L
4283 3709 mt 6196 3709 L
4283 4555 mt 6196 4555 L
6196 4555 mt 6196 3709 L
4283 4555 mt 4283 3709 L
%%IncludeResource: font Helvetica
/Helvetica /WindowsLatin1Encoding 168 FMSR

4733 3889 mt 
(SB JLD, Scheme 1) s
gs 4283 3709 1914 847 MR c np
DA
24 w
c8
346 0 4352 3829 2 MP stroke
SO
gr

24 w
c8
gs 4379 3683 293 293 MR c np
4465 3829 mt 4585 3829 L
4525 3769 mt 4525 3889 L
gr

gs 4283 3709 1914 847 MR c np
gr

0 sg
4733 4091 mt 
(SB ILD, Scheme 1) s
gs 4283 3709 1914 847 MR c np
DA
c9
346 0 4352 4031 2 MP stroke
SO
gs 4379 3885 293 293 MR c np
4483 3989 mt 4567 4073 L
4567 3989 mt 4483 4073 L
gr

gr

c9
0 sg
4733 4294 mt 
(SB JLD, Scheme 3) s
gs 4283 3709 1914 847 MR c np
DO
c8
346 0 4352 4232 2 MP stroke
SO
gs 4379 4086 293 293 MR c np
4465 4232 mt 4585 4232 L
4525 4172 mt 4525 4292 L
gr

gr

c8
0 sg
4733 4496 mt 
(SB ILD, Scheme 3) s
gs 4283 3709 1914 847 MR c np
DO
c9
346 0 4352 4434 2 MP stroke
SO
gr

c9
gs 4379 4288 293 293 MR c np
4483 4392 mt 4567 4476 L
4567 4392 mt 4483 4476 L
gr

gs 4283 3709 1914 847 MR c np
6 w
gr

6 w

end %%Color Dict

eplot
%%EndObject

epage
end

showpage

%%Trailer
%%EOF
