%!PS-Adobe-2.0 EPSF-1.2
%%Creator: MATLAB, The MathWorks, Inc. Version 7.14.0.739 (R2012a). Operating System: Microsoft Windows 7.
%%Title: .\RATE_CHC_SCHEME1.eps
%%CreationDate: 05/06/2015  12:28:04
%%DocumentNeededFonts: Helvetica
%%DocumentProcessColors: Cyan Magenta Yellow Black
%%Extensions: CMYK
%%Pages: 1
%%BoundingBox:    51   192   552   602
%%EndComments

%%BeginProlog
% MathWorks dictionary
/MathWorks 160 dict begin
% definition operators
/bdef {bind def} bind def
/ldef {load def} bind def
/xdef {exch def} bdef
/xstore {exch store} bdef
% operator abbreviations
/c  /clip ldef
/cc /concat ldef
/cp /closepath ldef
/gr /grestore ldef
/gs /gsave ldef
/mt /moveto ldef
/np /newpath ldef
/cm /currentmatrix ldef
/sm /setmatrix ldef
/rm /rmoveto ldef
/rl /rlineto ldef
/s {show newpath} bdef
/sc {setcmykcolor} bdef
/sr /setrgbcolor ldef
/sg /setgray ldef
/w /setlinewidth ldef
/j /setlinejoin ldef
/cap /setlinecap ldef
/rc {rectclip} bdef
/rf {rectfill} bdef
% page state control
/pgsv () def
/bpage {/pgsv save def} bdef
/epage {pgsv restore} bdef
/bplot /gsave ldef
/eplot {stroke grestore} bdef
% orientation switch
/portraitMode 0 def /landscapeMode 1 def /rotateMode 2 def
% coordinate system mappings
/dpi2point 0 def
% font control
/FontSize 0 def
/FMS {/FontSize xstore findfont [FontSize 0 0 FontSize neg 0 0]
  makefont setfont} bdef
/ISOLatin1Encoding where {pop /WindowsLatin1Encoding 256 array bdef
ISOLatin1Encoding WindowsLatin1Encoding copy pop
/.notdef/.notdef/quotesinglbase/florin/quotedblbase/ellipsis/dagger
/daggerdbl/circumflex/perthousand/Scaron/guilsinglleft/OE/.notdef/.notdef
/.notdef/.notdef/quoteleft/quoteright/quotedblleft/quotedblright/bullet
/endash/emdash/tilde/trademark/scaron/guilsinglright/oe/.notdef/.notdef
/Ydieresis WindowsLatin1Encoding 128 32 getinterval astore pop}
{/WindowsLatin1Encoding StandardEncoding bdef} ifelse
/reencode {exch dup where {pop load} {pop StandardEncoding} ifelse
  exch dup 3 1 roll findfont dup length dict begin
  { 1 index /FID ne {def}{pop pop} ifelse } forall
  /Encoding exch def currentdict end definefont pop} bdef
/isroman {findfont /CharStrings get /Agrave known} bdef
/FMSR {3 1 roll 1 index dup isroman {reencode} {pop pop} ifelse
  exch FMS} bdef
/csm {1 dpi2point div -1 dpi2point div scale neg translate
 dup landscapeMode eq {pop -90 rotate}
  {rotateMode eq {90 rotate} if} ifelse} bdef
% line types: solid, dotted, dashed, dotdash
/SO { [] 0 setdash } bdef
/DO { [.5 dpi2point mul 4 dpi2point mul] 0 setdash } bdef
/DA { [6 dpi2point mul] 0 setdash } bdef
/DD { [.5 dpi2point mul 4 dpi2point mul 6 dpi2point mul 4
  dpi2point mul] 0 setdash } bdef
% macros for lines and objects
/L {lineto stroke} bdef
/MP {3 1 roll moveto 1 sub {rlineto} repeat} bdef
/AP {{rlineto} repeat} bdef
/PDlw -1 def
/W {/PDlw currentlinewidth def setlinewidth} def
/PP {closepath eofill} bdef
/DP {closepath stroke} bdef
/MR {4 -2 roll moveto dup  0 exch rlineto exch 0 rlineto
  neg 0 exch rlineto closepath} bdef
/FR {MR stroke} bdef
/PR {MR fill} bdef
/L1i {{currentfile picstr readhexstring pop} image} bdef
/tMatrix matrix def
/MakeOval {newpath tMatrix currentmatrix pop translate scale
0 0 1 0 360 arc tMatrix setmatrix} bdef
/FO {MakeOval stroke} bdef
/PO {MakeOval fill} bdef
/PD {currentlinewidth 2 div 0 360 arc fill
   PDlw -1 eq not {PDlw w /PDlw -1 def} if} def
/FA {newpath tMatrix currentmatrix pop translate scale
  0 0 1 5 -2 roll arc tMatrix setmatrix stroke} bdef
/PA {newpath tMatrix currentmatrix pop	translate 0 0 moveto scale
  0 0 1 5 -2 roll arc closepath tMatrix setmatrix fill} bdef
/FAn {newpath tMatrix currentmatrix pop translate scale
  0 0 1 5 -2 roll arcn tMatrix setmatrix stroke} bdef
/PAn {newpath tMatrix currentmatrix pop translate 0 0 moveto scale
  0 0 1 5 -2 roll arcn closepath tMatrix setmatrix fill} bdef
/vradius 0 def /hradius 0 def /lry 0 def
/lrx 0 def /uly 0 def /ulx 0 def /rad 0 def
/MRR {/vradius xdef /hradius xdef /lry xdef /lrx xdef /uly xdef
  /ulx xdef newpath tMatrix currentmatrix pop ulx hradius add uly
  vradius add translate hradius vradius scale 0 0 1 180 270 arc 
  tMatrix setmatrix lrx hradius sub uly vradius add translate
  hradius vradius scale 0 0 1 270 360 arc tMatrix setmatrix
  lrx hradius sub lry vradius sub translate hradius vradius scale
  0 0 1 0 90 arc tMatrix setmatrix ulx hradius add lry vradius sub
  translate hradius vradius scale 0 0 1 90 180 arc tMatrix setmatrix
  closepath} bdef
/FRR {MRR stroke } bdef
/PRR {MRR fill } bdef
/MlrRR {/lry xdef /lrx xdef /uly xdef /ulx xdef /rad lry uly sub 2 div def
  newpath tMatrix currentmatrix pop ulx rad add uly rad add translate
  rad rad scale 0 0 1 90 270 arc tMatrix setmatrix lrx rad sub lry rad
  sub translate rad rad scale 0 0 1 270 90 arc tMatrix setmatrix
  closepath} bdef
/FlrRR {MlrRR stroke } bdef
/PlrRR {MlrRR fill } bdef
/MtbRR {/lry xdef /lrx xdef /uly xdef /ulx xdef /rad lrx ulx sub 2 div def
  newpath tMatrix currentmatrix pop ulx rad add uly rad add translate
  rad rad scale 0 0 1 180 360 arc tMatrix setmatrix lrx rad sub lry rad
  sub translate rad rad scale 0 0 1 0 180 arc tMatrix setmatrix
  closepath} bdef
/FtbRR {MtbRR stroke } bdef
/PtbRR {MtbRR fill } bdef
/stri 6 array def /dtri 6 array def
/smat 6 array def /dmat 6 array def
/tmat1 6 array def /tmat2 6 array def /dif 3 array def
/asub {/ind2 exch def /ind1 exch def dup dup
  ind1 get exch ind2 get sub exch } bdef
/tri_to_matrix {
  2 0 asub 3 1 asub 4 0 asub 5 1 asub
  dup 0 get exch 1 get 7 -1 roll astore } bdef
/compute_transform {
  dmat dtri tri_to_matrix tmat1 invertmatrix 
  smat stri tri_to_matrix tmat2 concatmatrix } bdef
/ds {stri astore pop} bdef
/dt {dtri astore pop} bdef
/db {2 copy /cols xdef /rows xdef mul dup 3 mul string
  currentfile exch readhexstring pop
  dup 0 3 index getinterval /rbmap xdef
  dup 2 index dup getinterval /gbmap xdef
  1 index dup 2 mul exch getinterval /bbmap xdef pop pop}bdef
/it {gs np dtri aload pop moveto lineto lineto cp c
  cols rows 8 compute_transform 
  rbmap gbmap bbmap true 3 colorimage gr}bdef
/il {newpath moveto lineto stroke}bdef
currentdict end def
%%EndProlog

%%BeginSetup
MathWorks begin

0 cap

end
%%EndSetup

%%Page: 1 1
%%BeginPageSetup
%%PageBoundingBox:    51   192   552   602
MathWorks begin
bpage
%%EndPageSetup

%%BeginObject: obj1
bplot

/dpi2point 12 def
portraitMode 0204 7344 csm

  417   110  6014  4924 MR c np
87 dict begin %Colortable dictionary
/c0 { 0.000000 0.000000 0.000000 sr} bdef
/c1 { 1.000000 1.000000 1.000000 sr} bdef
/c2 { 0.900000 0.000000 0.000000 sr} bdef
/c3 { 0.000000 0.820000 0.000000 sr} bdef
/c4 { 0.000000 0.000000 0.800000 sr} bdef
/c5 { 0.910000 0.820000 0.320000 sr} bdef
/c6 { 1.000000 0.260000 0.820000 sr} bdef
/c7 { 0.000000 0.820000 0.820000 sr} bdef
c0
1 j
1 sg
   0    0 6913 5185 PR
6 w
0 4225 5356 0 0 -4225 899 4614 4 MP
PP
-5356 0 0 4225 5356 0 0 -4225 899 4614 5 MP stroke
4 w
DO
SO
6 w
0 sg
 899  389 mt 6255  389 L
 899 4614 mt 6255 4614 L
6255 4614 mt 6255  389 L
 899 4614 mt  899  389 L
 899 4614 mt 6255 4614 L
 899 4614 mt  899  389 L
 899 4614 mt  899 4560 L
 899  389 mt  899  442 L
%%IncludeResource: font Helvetica
/Helvetica /WindowsLatin1Encoding 120 FMSR

 866 4759 mt 
(0) s
1791 4614 mt 1791 4560 L
1791  389 mt 1791  442 L
1758 4759 mt 
(5) s
2684 4614 mt 2684 4560 L
2684  389 mt 2684  442 L
2618 4759 mt 
(10) s
3577 4614 mt 3577 4560 L
3577  389 mt 3577  442 L
3511 4759 mt 
(15) s
4469 4614 mt 4469 4560 L
4469  389 mt 4469  442 L
4403 4759 mt 
(20) s
5362 4614 mt 5362 4560 L
5362  389 mt 5362  442 L
5296 4759 mt 
(25) s
6255 4614 mt 6255 4560 L
6255  389 mt 6255  442 L
6189 4759 mt 
(30) s
 899 4614 mt  952 4614 L
6255 4614 mt 6201 4614 L
 798 4658 mt 
(0) s
 899 4144 mt  952 4144 L
6255 4144 mt 6201 4144 L
 798 4188 mt 
(5) s
 899 3675 mt  952 3675 L
6255 3675 mt 6201 3675 L
 731 3719 mt 
(10) s
 899 3205 mt  952 3205 L
6255 3205 mt 6201 3205 L
 731 3249 mt 
(15) s
 899 2736 mt  952 2736 L
6255 2736 mt 6201 2736 L
 731 2780 mt 
(20) s
 899 2266 mt  952 2266 L
6255 2266 mt 6201 2266 L
 731 2310 mt 
(25) s
 899 1797 mt  952 1797 L
6255 1797 mt 6201 1797 L
 731 1841 mt 
(30) s
 899 1327 mt  952 1327 L
6255 1327 mt 6201 1327 L
 731 1371 mt 
(35) s
 899  858 mt  952  858 L
6255  858 mt 6201  858 L
 731  902 mt 
(40) s
 899  389 mt  952  389 L
6255  389 mt 6201  389 L
 731  433 mt 
(45) s
 899  389 mt 6255  389 L
 899 4614 mt 6255 4614 L
6255 4614 mt 6255  389 L
 899 4614 mt  899  389 L
gs 899 389 5357 4226 MR c np
24 w
/c8 { 0.000000 1.000000 0.000000 sr} bdef
c8
179 -151 179 -150 178 -151 179 -150 178 -150 179 -150 178 -150 179 -149 
178 -148 179 -148 178 -147 179 -145 178 -145 179 -142 178 -141 179 -137 
179 -135 178 -132 179 -127 178 -122 179 -116 178 -111 179 -103 178 -96 
179 -88 178 -79 179 -72 178 -63 179 -56 178 -49 899 4374 31 MP stroke
gr

24 w
c8
gs 753 525 5649 3996 MR c np
 839 4374 mt  959 4374 L
 899 4314 mt  899 4434 L
1017 4325 mt 1137 4325 L
1077 4265 mt 1077 4385 L
1196 4269 mt 1316 4269 L
1256 4209 mt 1256 4329 L
1374 4206 mt 1494 4206 L
1434 4146 mt 1434 4266 L
1553 4134 mt 1673 4134 L
1613 4074 mt 1613 4194 L
1731 4055 mt 1851 4055 L
1791 3995 mt 1791 4115 L
1910 3967 mt 2030 3967 L
1970 3907 mt 1970 4027 L
2088 3871 mt 2208 3871 L
2148 3811 mt 2148 3931 L
2267 3768 mt 2387 3768 L
2327 3708 mt 2327 3828 L
2445 3657 mt 2565 3657 L
2505 3597 mt 2505 3717 L
2624 3541 mt 2744 3541 L
2684 3481 mt 2684 3601 L
2802 3419 mt 2922 3419 L
2862 3359 mt 2862 3479 L
2981 3292 mt 3101 3292 L
3041 3232 mt 3041 3352 L
3159 3160 mt 3279 3160 L
3219 3100 mt 3219 3220 L
3338 3025 mt 3458 3025 L
3398 2965 mt 3398 3085 L
3517 2888 mt 3637 2888 L
3577 2828 mt 3577 2948 L
3695 2747 mt 3815 2747 L
3755 2687 mt 3755 2807 L
3874 2605 mt 3994 2605 L
3934 2545 mt 3934 2665 L
4052 2460 mt 4172 2460 L
4112 2400 mt 4112 2520 L
4231 2315 mt 4351 2315 L
4291 2255 mt 4291 2375 L
4409 2168 mt 4529 2168 L
4469 2108 mt 4469 2228 L
4588 2020 mt 4708 2020 L
4648 1960 mt 4648 2080 L
4766 1872 mt 4886 1872 L
4826 1812 mt 4826 1932 L
4945 1723 mt 5065 1723 L
5005 1663 mt 5005 1783 L
5123 1573 mt 5243 1573 L
5183 1513 mt 5183 1633 L
5302 1423 mt 5422 1423 L
5362 1363 mt 5362 1483 L
5480 1273 mt 5600 1273 L
5540 1213 mt 5540 1333 L
5659 1123 mt 5779 1123 L
5719 1063 mt 5719 1183 L
5837  972 mt 5957  972 L
5897  912 mt 5897 1032 L
6016  822 mt 6136  822 L
6076  762 mt 6076  882 L
6195  671 mt 6315  671 L
6255  611 mt 6255  731 L
 857 4332 mt  941 4416 L
 941 4332 mt  857 4416 L
1035 4283 mt 1119 4367 L
1119 4283 mt 1035 4367 L
1214 4227 mt 1298 4311 L
1298 4227 mt 1214 4311 L
1392 4164 mt 1476 4248 L
1476 4164 mt 1392 4248 L
1571 4092 mt 1655 4176 L
1655 4092 mt 1571 4176 L
1749 4013 mt 1833 4097 L
1833 4013 mt 1749 4097 L
1928 3925 mt 2012 4009 L
2012 3925 mt 1928 4009 L
2106 3829 mt 2190 3913 L
2190 3829 mt 2106 3913 L
2285 3726 mt 2369 3810 L
2369 3726 mt 2285 3810 L
2463 3615 mt 2547 3699 L
2547 3615 mt 2463 3699 L
2642 3499 mt 2726 3583 L
2726 3499 mt 2642 3583 L
2820 3377 mt 2904 3461 L
2904 3377 mt 2820 3461 L
2999 3250 mt 3083 3334 L
3083 3250 mt 2999 3334 L
3177 3118 mt 3261 3202 L
3261 3118 mt 3177 3202 L
3356 2983 mt 3440 3067 L
3440 2983 mt 3356 3067 L
3535 2846 mt 3619 2930 L
3619 2846 mt 3535 2930 L
3713 2705 mt 3797 2789 L
3797 2705 mt 3713 2789 L
3892 2563 mt 3976 2647 L
3976 2563 mt 3892 2647 L
4070 2418 mt 4154 2502 L
4154 2418 mt 4070 2502 L
4249 2273 mt 4333 2357 L
4333 2273 mt 4249 2357 L
4427 2126 mt 4511 2210 L
4511 2126 mt 4427 2210 L
4606 1978 mt 4690 2062 L
4690 1978 mt 4606 2062 L
4784 1830 mt 4868 1914 L
4868 1830 mt 4784 1914 L
4963 1681 mt 5047 1765 L
5047 1681 mt 4963 1765 L
5141 1531 mt 5225 1615 L
5225 1531 mt 5141 1615 L
5320 1381 mt 5404 1465 L
5404 1381 mt 5320 1465 L
5498 1231 mt 5582 1315 L
5582 1231 mt 5498 1315 L
5677 1081 mt 5761 1165 L
5761 1081 mt 5677 1165 L
5855  930 mt 5939 1014 L
5939  930 mt 5855 1014 L
6034  780 mt 6118  864 L
6118  780 mt 6034  864 L
6213  629 mt 6297  713 L
6297  629 mt 6213  713 L
gr

gs 899 389 5357 4226 MR c np
gr

0 sg
2991  294 mt 
(Channel C, Scheme 1) s
%%IncludeResource: font Helvetica
/Helvetica /WindowsLatin1Encoding 204 FMSR

3140 4964 mt 
(SNR \(dB\)) s
 631 3783 mt  -90 rotate
(Information Rates \(nats/sec\)) s
90 rotate
gs 899 389 5357 4226 MR c np
/c9 { 0.000000 0.000000 1.000000 sr} bdef
c9
179 -150 179 -150 178 -148 179 -149 178 -147 179 -147 178 -146 179 -144 
178 -142 179 -140 178 -138 179 -134 178 -131 179 -126 178 -122 179 -116 
179 -109 178 -102 179 -95 178 -87 179 -79 178 -70 179 -63 178 -55 
179 -47 178 -41 179 -34 178 -29 179 -25 178 -20 899 4528 31 MP stroke
gr

c9
gs 753 1296 5649 3379 MR c np
0 j
0 -94 -94 0 0 94 94 0 852 4481 5 MP
DP
0 -94 -94 0 0 94 94 0 1030 4461 5 MP
DP
0 -94 -94 0 0 94 94 0 1209 4436 5 MP
DP
0 -94 -94 0 0 94 94 0 1387 4407 5 MP
DP
0 -94 -94 0 0 94 94 0 1566 4373 5 MP
DP
0 -94 -94 0 0 94 94 0 1744 4332 5 MP
DP
0 -94 -94 0 0 94 94 0 1923 4285 5 MP
DP
0 -94 -94 0 0 94 94 0 2101 4230 5 MP
DP
0 -94 -94 0 0 94 94 0 2280 4167 5 MP
DP
0 -94 -94 0 0 94 94 0 2458 4097 5 MP
DP
0 -94 -94 0 0 94 94 0 2637 4018 5 MP
DP
0 -94 -94 0 0 94 94 0 2815 3931 5 MP
DP
0 -94 -94 0 0 94 94 0 2994 3836 5 MP
DP
0 -94 -94 0 0 94 94 0 3172 3734 5 MP
DP
0 -94 -94 0 0 94 94 0 3351 3625 5 MP
DP
0 -94 -94 0 0 94 94 0 3530 3509 5 MP
DP
0 -94 -94 0 0 94 94 0 3708 3387 5 MP
DP
0 -94 -94 0 0 94 94 0 3887 3261 5 MP
DP
0 -94 -94 0 0 94 94 0 4065 3130 5 MP
DP
0 -94 -94 0 0 94 94 0 4244 2996 5 MP
DP
0 -94 -94 0 0 94 94 0 4422 2858 5 MP
DP
0 -94 -94 0 0 94 94 0 4601 2718 5 MP
DP
0 -94 -94 0 0 94 94 0 4779 2576 5 MP
DP
0 -94 -94 0 0 94 94 0 4958 2432 5 MP
DP
0 -94 -94 0 0 94 94 0 5136 2286 5 MP
DP
0 -94 -94 0 0 94 94 0 5315 2139 5 MP
DP
0 -94 -94 0 0 94 94 0 5493 1992 5 MP
DP
0 -94 -94 0 0 94 94 0 5672 1843 5 MP
DP
0 -94 -94 0 0 94 94 0 5850 1695 5 MP
DP
0 -94 -94 0 0 94 94 0 6029 1545 5 MP
DP
0 -94 -94 0 0 94 94 0 6208 1395 5 MP
DP
gr

gs 899 389 5357 4226 MR c np
/c10 { 1.000000 0.000000 1.000000 sr} bdef
c10
179 -149 179 -150 178 -149 179 -148 178 -148 179 -146 178 -146 179 -144 
178 -142 179 -140 178 -138 179 -134 178 -131 179 -127 178 -121 179 -116 
179 -109 178 -102 179 -95 178 -87 179 -79 178 -70 179 -63 178 -55 
179 -47 178 -41 179 -34 178 -29 179 -25 178 -20 899 4528 31 MP stroke
gr

c10
gs 753 1297 5649 3378 MR c np
 839 4528 mt  959 4528 L
 899 4468 mt  899 4588 L
1017 4508 mt 1137 4508 L
1077 4448 mt 1077 4568 L
1196 4483 mt 1316 4483 L
1256 4423 mt 1256 4543 L
1374 4454 mt 1494 4454 L
1434 4394 mt 1434 4514 L
1553 4420 mt 1673 4420 L
1613 4360 mt 1613 4480 L
1731 4379 mt 1851 4379 L
1791 4319 mt 1791 4439 L
1910 4332 mt 2030 4332 L
1970 4272 mt 1970 4392 L
2088 4277 mt 2208 4277 L
2148 4217 mt 2148 4337 L
2267 4214 mt 2387 4214 L
2327 4154 mt 2327 4274 L
2445 4144 mt 2565 4144 L
2505 4084 mt 2505 4204 L
2624 4065 mt 2744 4065 L
2684 4005 mt 2684 4125 L
2802 3978 mt 2922 3978 L
2862 3918 mt 2862 4038 L
2981 3883 mt 3101 3883 L
3041 3823 mt 3041 3943 L
3159 3781 mt 3279 3781 L
3219 3721 mt 3219 3841 L
3338 3672 mt 3458 3672 L
3398 3612 mt 3398 3732 L
3517 3556 mt 3637 3556 L
3577 3496 mt 3577 3616 L
3695 3435 mt 3815 3435 L
3755 3375 mt 3755 3495 L
3874 3308 mt 3994 3308 L
3934 3248 mt 3934 3368 L
4052 3177 mt 4172 3177 L
4112 3117 mt 4112 3237 L
4231 3043 mt 4351 3043 L
4291 2983 mt 4291 3103 L
4409 2905 mt 4529 2905 L
4469 2845 mt 4469 2965 L
4588 2765 mt 4708 2765 L
4648 2705 mt 4648 2825 L
4766 2623 mt 4886 2623 L
4826 2563 mt 4826 2683 L
4945 2479 mt 5065 2479 L
5005 2419 mt 5005 2539 L
5123 2333 mt 5243 2333 L
5183 2273 mt 5183 2393 L
5302 2187 mt 5422 2187 L
5362 2127 mt 5362 2247 L
5480 2039 mt 5600 2039 L
5540 1979 mt 5540 2099 L
5659 1891 mt 5779 1891 L
5719 1831 mt 5719 1951 L
5837 1742 mt 5957 1742 L
5897 1682 mt 5897 1802 L
6016 1592 mt 6136 1592 L
6076 1532 mt 6076 1652 L
6195 1443 mt 6315 1443 L
6255 1383 mt 6255 1503 L
gr

gs 899 389 5357 4226 MR c np
/c11 { 1.000000 0.000000 0.000000 sr} bdef
c11
179 -148 179 -148 178 -147 179 -147 178 -146 179 -145 178 -145 179 -143 
178 -141 179 -139 178 -137 179 -134 178 -130 179 -126 178 -121 179 -115 
179 -109 178 -102 179 -95 178 -87 179 -78 178 -71 179 -62 178 -55 
179 -47 178 -41 179 -34 178 -29 179 -25 178 -20 899 4528 31 MP stroke
gr

c11
gs 753 1315 5649 3360 MR c np
 857 4486 mt  941 4570 L
 941 4486 mt  857 4570 L
1035 4466 mt 1119 4550 L
1119 4466 mt 1035 4550 L
1214 4441 mt 1298 4525 L
1298 4441 mt 1214 4525 L
1392 4412 mt 1476 4496 L
1476 4412 mt 1392 4496 L
1571 4378 mt 1655 4462 L
1655 4378 mt 1571 4462 L
1749 4337 mt 1833 4421 L
1833 4337 mt 1749 4421 L
1928 4290 mt 2012 4374 L
2012 4290 mt 1928 4374 L
2106 4235 mt 2190 4319 L
2190 4235 mt 2106 4319 L
2285 4173 mt 2369 4257 L
2369 4173 mt 2285 4257 L
2463 4102 mt 2547 4186 L
2547 4102 mt 2463 4186 L
2642 4024 mt 2726 4108 L
2726 4024 mt 2642 4108 L
2820 3937 mt 2904 4021 L
2904 3937 mt 2820 4021 L
2999 3842 mt 3083 3926 L
3083 3842 mt 2999 3926 L
3177 3740 mt 3261 3824 L
3261 3740 mt 3177 3824 L
3356 3631 mt 3440 3715 L
3440 3631 mt 3356 3715 L
3535 3516 mt 3619 3600 L
3619 3516 mt 3535 3600 L
3713 3395 mt 3797 3479 L
3797 3395 mt 3713 3479 L
3892 3269 mt 3976 3353 L
3976 3269 mt 3892 3353 L
4070 3139 mt 4154 3223 L
4154 3139 mt 4070 3223 L
4249 3005 mt 4333 3089 L
4333 3005 mt 4249 3089 L
4427 2868 mt 4511 2952 L
4511 2868 mt 4427 2952 L
4606 2729 mt 4690 2813 L
4690 2729 mt 4606 2813 L
4784 2588 mt 4868 2672 L
4868 2588 mt 4784 2672 L
4963 2445 mt 5047 2529 L
5047 2445 mt 4963 2529 L
5141 2300 mt 5225 2384 L
5225 2300 mt 5141 2384 L
5320 2155 mt 5404 2239 L
5404 2155 mt 5320 2239 L
5498 2009 mt 5582 2093 L
5582 2009 mt 5498 2093 L
5677 1862 mt 5761 1946 L
5761 1862 mt 5677 1946 L
5855 1715 mt 5939 1799 L
5939 1715 mt 5855 1799 L
6034 1567 mt 6118 1651 L
6118 1567 mt 6034 1651 L
6213 1419 mt 6297 1503 L
6297 1419 mt 6213 1503 L
gr

gs 899 389 5357 4226 MR c np
gr

0 sg
%%IncludeResource: font Helvetica
/Helvetica /WindowsLatin1Encoding 120 FMSR

 882 4657 mt 
( ) s
6239  431 mt 
( ) s
6 w
1 sg
0 907 1367 0 0 -907 4828 4555 4 MP
PP
-1367 0 0 907 1367 0 0 -907 4828 4555 5 MP stroke
4 w
DO
SO
6 w
0 sg
4828 3648 mt 6195 3648 L
4828 4555 mt 6195 4555 L
6195 4555 mt 6195 3648 L
4828 4555 mt 4828 3648 L
4828 4555 mt 6195 4555 L
4828 4555 mt 4828 3648 L
4828 3648 mt 6195 3648 L
4828 4555 mt 6195 4555 L
6195 4555 mt 6195 3648 L
4828 4555 mt 4828 3648 L
%%IncludeResource: font Helvetica
/Helvetica /WindowsLatin1Encoding 168 FMSR

5281 3830 mt 
(Optimal Rx) s
gs 4828 3648 1368 908 MR c np
24 w
c8
348 0 4897 3769 2 MP stroke
gr

24 w
c8
gs 4925 3623 293 293 MR c np
5011 3769 mt 5131 3769 L
5071 3709 mt 5071 3829 L
5029 3727 mt 5113 3811 L
5113 3727 mt 5029 3811 L
gr

gs 4828 3648 1368 908 MR c np
gr

0 sg
5281 4090 mt 
(EB, K=K) s
%%IncludeResource: font Symbol
/Symbol /WindowsLatin1Encoding 132 FMSR

5917 4006 mt 
(\242) s
%%IncludeResource: font Helvetica
/Helvetica /WindowsLatin1Encoding 168 FMSR

5949 4090 mt 
(+1) s
gs 4828 3648 1368 908 MR c np
c9
348 0 4897 3999 2 MP stroke
gs 4925 3853 293 293 MR c np
0 j
0 -94 -94 0 0 94 94 0 5024 3952 5 MP
DP
gr

gr

c9
0 sg
5281 4289 mt 
(SB, JLD) s
gs 4828 3648 1368 908 MR c np
c10
348 0 4897 4228 2 MP stroke
gs 4925 4082 293 293 MR c np
5011 4228 mt 5131 4228 L
5071 4168 mt 5071 4288 L
gr

gr

c10
0 sg
5281 4494 mt 
(SB, ILD) s
gs 4828 3648 1368 908 MR c np
c11
348 0 4897 4433 2 MP stroke
gr

c11
gs 4925 4287 293 293 MR c np
5029 4391 mt 5113 4475 L
5113 4391 mt 5029 4475 L
gr

gs 4828 3648 1368 908 MR c np
6 w
gr

6 w

end %%Color Dict

eplot
%%EndObject

epage
end

showpage

%%Trailer
%%EOF
