%!PS-Adobe-2.0 EPSF-1.2
%%Creator: MATLAB, The MathWorks, Inc. Version 7.14.0.739 (R2012a). Operating System: Microsoft Windows 7.
%%Title: .\RATE_CHC_SCHEME3.eps
%%CreationDate: 05/06/2015  12:28:05
%%DocumentNeededFonts: Helvetica
%%DocumentProcessColors: Cyan Magenta Yellow Black
%%Extensions: CMYK
%%Pages: 1
%%BoundingBox:    51   192   552   602
%%EndComments

%%BeginProlog
% MathWorks dictionary
/MathWorks 160 dict begin
% definition operators
/bdef {bind def} bind def
/ldef {load def} bind def
/xdef {exch def} bdef
/xstore {exch store} bdef
% operator abbreviations
/c  /clip ldef
/cc /concat ldef
/cp /closepath ldef
/gr /grestore ldef
/gs /gsave ldef
/mt /moveto ldef
/np /newpath ldef
/cm /currentmatrix ldef
/sm /setmatrix ldef
/rm /rmoveto ldef
/rl /rlineto ldef
/s {show newpath} bdef
/sc {setcmykcolor} bdef
/sr /setrgbcolor ldef
/sg /setgray ldef
/w /setlinewidth ldef
/j /setlinejoin ldef
/cap /setlinecap ldef
/rc {rectclip} bdef
/rf {rectfill} bdef
% page state control
/pgsv () def
/bpage {/pgsv save def} bdef
/epage {pgsv restore} bdef
/bplot /gsave ldef
/eplot {stroke grestore} bdef
% orientation switch
/portraitMode 0 def /landscapeMode 1 def /rotateMode 2 def
% coordinate system mappings
/dpi2point 0 def
% font control
/FontSize 0 def
/FMS {/FontSize xstore findfont [FontSize 0 0 FontSize neg 0 0]
  makefont setfont} bdef
/ISOLatin1Encoding where {pop /WindowsLatin1Encoding 256 array bdef
ISOLatin1Encoding WindowsLatin1Encoding copy pop
/.notdef/.notdef/quotesinglbase/florin/quotedblbase/ellipsis/dagger
/daggerdbl/circumflex/perthousand/Scaron/guilsinglleft/OE/.notdef/.notdef
/.notdef/.notdef/quoteleft/quoteright/quotedblleft/quotedblright/bullet
/endash/emdash/tilde/trademark/scaron/guilsinglright/oe/.notdef/.notdef
/Ydieresis WindowsLatin1Encoding 128 32 getinterval astore pop}
{/WindowsLatin1Encoding StandardEncoding bdef} ifelse
/reencode {exch dup where {pop load} {pop StandardEncoding} ifelse
  exch dup 3 1 roll findfont dup length dict begin
  { 1 index /FID ne {def}{pop pop} ifelse } forall
  /Encoding exch def currentdict end definefont pop} bdef
/isroman {findfont /CharStrings get /Agrave known} bdef
/FMSR {3 1 roll 1 index dup isroman {reencode} {pop pop} ifelse
  exch FMS} bdef
/csm {1 dpi2point div -1 dpi2point div scale neg translate
 dup landscapeMode eq {pop -90 rotate}
  {rotateMode eq {90 rotate} if} ifelse} bdef
% line types: solid, dotted, dashed, dotdash
/SO { [] 0 setdash } bdef
/DO { [.5 dpi2point mul 4 dpi2point mul] 0 setdash } bdef
/DA { [6 dpi2point mul] 0 setdash } bdef
/DD { [.5 dpi2point mul 4 dpi2point mul 6 dpi2point mul 4
  dpi2point mul] 0 setdash } bdef
% macros for lines and objects
/L {lineto stroke} bdef
/MP {3 1 roll moveto 1 sub {rlineto} repeat} bdef
/AP {{rlineto} repeat} bdef
/PDlw -1 def
/W {/PDlw currentlinewidth def setlinewidth} def
/PP {closepath eofill} bdef
/DP {closepath stroke} bdef
/MR {4 -2 roll moveto dup  0 exch rlineto exch 0 rlineto
  neg 0 exch rlineto closepath} bdef
/FR {MR stroke} bdef
/PR {MR fill} bdef
/L1i {{currentfile picstr readhexstring pop} image} bdef
/tMatrix matrix def
/MakeOval {newpath tMatrix currentmatrix pop translate scale
0 0 1 0 360 arc tMatrix setmatrix} bdef
/FO {MakeOval stroke} bdef
/PO {MakeOval fill} bdef
/PD {currentlinewidth 2 div 0 360 arc fill
   PDlw -1 eq not {PDlw w /PDlw -1 def} if} def
/FA {newpath tMatrix currentmatrix pop translate scale
  0 0 1 5 -2 roll arc tMatrix setmatrix stroke} bdef
/PA {newpath tMatrix currentmatrix pop	translate 0 0 moveto scale
  0 0 1 5 -2 roll arc closepath tMatrix setmatrix fill} bdef
/FAn {newpath tMatrix currentmatrix pop translate scale
  0 0 1 5 -2 roll arcn tMatrix setmatrix stroke} bdef
/PAn {newpath tMatrix currentmatrix pop translate 0 0 moveto scale
  0 0 1 5 -2 roll arcn closepath tMatrix setmatrix fill} bdef
/vradius 0 def /hradius 0 def /lry 0 def
/lrx 0 def /uly 0 def /ulx 0 def /rad 0 def
/MRR {/vradius xdef /hradius xdef /lry xdef /lrx xdef /uly xdef
  /ulx xdef newpath tMatrix currentmatrix pop ulx hradius add uly
  vradius add translate hradius vradius scale 0 0 1 180 270 arc 
  tMatrix setmatrix lrx hradius sub uly vradius add translate
  hradius vradius scale 0 0 1 270 360 arc tMatrix setmatrix
  lrx hradius sub lry vradius sub translate hradius vradius scale
  0 0 1 0 90 arc tMatrix setmatrix ulx hradius add lry vradius sub
  translate hradius vradius scale 0 0 1 90 180 arc tMatrix setmatrix
  closepath} bdef
/FRR {MRR stroke } bdef
/PRR {MRR fill } bdef
/MlrRR {/lry xdef /lrx xdef /uly xdef /ulx xdef /rad lry uly sub 2 div def
  newpath tMatrix currentmatrix pop ulx rad add uly rad add translate
  rad rad scale 0 0 1 90 270 arc tMatrix setmatrix lrx rad sub lry rad
  sub translate rad rad scale 0 0 1 270 90 arc tMatrix setmatrix
  closepath} bdef
/FlrRR {MlrRR stroke } bdef
/PlrRR {MlrRR fill } bdef
/MtbRR {/lry xdef /lrx xdef /uly xdef /ulx xdef /rad lrx ulx sub 2 div def
  newpath tMatrix currentmatrix pop ulx rad add uly rad add translate
  rad rad scale 0 0 1 180 360 arc tMatrix setmatrix lrx rad sub lry rad
  sub translate rad rad scale 0 0 1 0 180 arc tMatrix setmatrix
  closepath} bdef
/FtbRR {MtbRR stroke } bdef
/PtbRR {MtbRR fill } bdef
/stri 6 array def /dtri 6 array def
/smat 6 array def /dmat 6 array def
/tmat1 6 array def /tmat2 6 array def /dif 3 array def
/asub {/ind2 exch def /ind1 exch def dup dup
  ind1 get exch ind2 get sub exch } bdef
/tri_to_matrix {
  2 0 asub 3 1 asub 4 0 asub 5 1 asub
  dup 0 get exch 1 get 7 -1 roll astore } bdef
/compute_transform {
  dmat dtri tri_to_matrix tmat1 invertmatrix 
  smat stri tri_to_matrix tmat2 concatmatrix } bdef
/ds {stri astore pop} bdef
/dt {dtri astore pop} bdef
/db {2 copy /cols xdef /rows xdef mul dup 3 mul string
  currentfile exch readhexstring pop
  dup 0 3 index getinterval /rbmap xdef
  dup 2 index dup getinterval /gbmap xdef
  1 index dup 2 mul exch getinterval /bbmap xdef pop pop}bdef
/it {gs np dtri aload pop moveto lineto lineto cp c
  cols rows 8 compute_transform 
  rbmap gbmap bbmap true 3 colorimage gr}bdef
/il {newpath moveto lineto stroke}bdef
currentdict end def
%%EndProlog

%%BeginSetup
MathWorks begin

0 cap

end
%%EndSetup

%%Page: 1 1
%%BeginPageSetup
%%PageBoundingBox:    51   192   552   602
MathWorks begin
bpage
%%EndPageSetup

%%BeginObject: obj1
bplot

/dpi2point 12 def
portraitMode 0204 7344 csm

  417   110  6014  4924 MR c np
87 dict begin %Colortable dictionary
/c0 { 0.000000 0.000000 0.000000 sr} bdef
/c1 { 1.000000 1.000000 1.000000 sr} bdef
/c2 { 0.900000 0.000000 0.000000 sr} bdef
/c3 { 0.000000 0.820000 0.000000 sr} bdef
/c4 { 0.000000 0.000000 0.800000 sr} bdef
/c5 { 0.910000 0.820000 0.320000 sr} bdef
/c6 { 1.000000 0.260000 0.820000 sr} bdef
/c7 { 0.000000 0.820000 0.820000 sr} bdef
c0
1 j
1 sg
   0    0 6913 5185 PR
6 w
0 4225 5356 0 0 -4225 899 4614 4 MP
PP
-5356 0 0 4225 5356 0 0 -4225 899 4614 5 MP stroke
4 w
DO
SO
6 w
0 sg
 899  389 mt 6255  389 L
 899 4614 mt 6255 4614 L
6255 4614 mt 6255  389 L
 899 4614 mt  899  389 L
 899 4614 mt 6255 4614 L
 899 4614 mt  899  389 L
 899 4614 mt  899 4560 L
 899  389 mt  899  442 L
%%IncludeResource: font Helvetica
/Helvetica /WindowsLatin1Encoding 120 FMSR

 866 4759 mt 
(0) s
1791 4614 mt 1791 4560 L
1791  389 mt 1791  442 L
1758 4759 mt 
(5) s
2684 4614 mt 2684 4560 L
2684  389 mt 2684  442 L
2618 4759 mt 
(10) s
3577 4614 mt 3577 4560 L
3577  389 mt 3577  442 L
3511 4759 mt 
(15) s
4469 4614 mt 4469 4560 L
4469  389 mt 4469  442 L
4403 4759 mt 
(20) s
5362 4614 mt 5362 4560 L
5362  389 mt 5362  442 L
5296 4759 mt 
(25) s
6255 4614 mt 6255 4560 L
6255  389 mt 6255  442 L
6189 4759 mt 
(30) s
 899 4614 mt  952 4614 L
6255 4614 mt 6201 4614 L
 798 4658 mt 
(0) s
 899 4144 mt  952 4144 L
6255 4144 mt 6201 4144 L
 798 4188 mt 
(5) s
 899 3675 mt  952 3675 L
6255 3675 mt 6201 3675 L
 731 3719 mt 
(10) s
 899 3205 mt  952 3205 L
6255 3205 mt 6201 3205 L
 731 3249 mt 
(15) s
 899 2736 mt  952 2736 L
6255 2736 mt 6201 2736 L
 731 2780 mt 
(20) s
 899 2266 mt  952 2266 L
6255 2266 mt 6201 2266 L
 731 2310 mt 
(25) s
 899 1797 mt  952 1797 L
6255 1797 mt 6201 1797 L
 731 1841 mt 
(30) s
 899 1327 mt  952 1327 L
6255 1327 mt 6201 1327 L
 731 1371 mt 
(35) s
 899  858 mt  952  858 L
6255  858 mt 6201  858 L
 731  902 mt 
(40) s
 899  389 mt  952  389 L
6255  389 mt 6201  389 L
 731  433 mt 
(45) s
 899  389 mt 6255  389 L
 899 4614 mt 6255 4614 L
6255 4614 mt 6255  389 L
 899 4614 mt  899  389 L
gs 899 389 5357 4226 MR c np
24 w
/c8 { 0.000000 1.000000 0.000000 sr} bdef
c8
179 -150 179 -150 178 -150 179 -149 178 -150 179 -149 178 -149 179 -148 
178 -148 179 -147 178 -147 179 -145 178 -145 179 -143 178 -141 179 -140 
179 -136 178 -134 179 -130 178 -126 179 -120 178 -115 179 -109 178 -101 
179 -93 178 -86 179 -76 178 -68 179 -60 178 -51 899 4363 31 MP stroke
gr

24 w
c8
gs 753 461 5649 4049 MR c np
 839 4363 mt  959 4363 L
 899 4303 mt  899 4423 L
1017 4312 mt 1137 4312 L
1077 4252 mt 1077 4372 L
1196 4252 mt 1316 4252 L
1256 4192 mt 1256 4312 L
1374 4184 mt 1494 4184 L
1434 4124 mt 1434 4244 L
1553 4108 mt 1673 4108 L
1613 4048 mt 1613 4168 L
1731 4022 mt 1851 4022 L
1791 3962 mt 1791 4082 L
1910 3929 mt 2030 3929 L
1970 3869 mt 1970 3989 L
2088 3828 mt 2208 3828 L
2148 3768 mt 2148 3888 L
2267 3719 mt 2387 3719 L
2327 3659 mt 2327 3779 L
2445 3604 mt 2565 3604 L
2505 3544 mt 2505 3664 L
2624 3484 mt 2744 3484 L
2684 3424 mt 2684 3544 L
2802 3358 mt 2922 3358 L
2862 3298 mt 2862 3418 L
2981 3228 mt 3101 3228 L
3041 3168 mt 3041 3288 L
3159 3094 mt 3279 3094 L
3219 3034 mt 3219 3154 L
3338 2958 mt 3458 2958 L
3398 2898 mt 3398 3018 L
3517 2818 mt 3637 2818 L
3577 2758 mt 3577 2878 L
3695 2677 mt 3815 2677 L
3755 2617 mt 3755 2737 L
3874 2534 mt 3994 2534 L
3934 2474 mt 3934 2594 L
4052 2389 mt 4172 2389 L
4112 2329 mt 4112 2449 L
4231 2244 mt 4351 2244 L
4291 2184 mt 4291 2304 L
4409 2097 mt 4529 2097 L
4469 2037 mt 4469 2157 L
4588 1950 mt 4708 1950 L
4648 1890 mt 4648 2010 L
4766 1802 mt 4886 1802 L
4826 1742 mt 4826 1862 L
4945 1654 mt 5065 1654 L
5005 1594 mt 5005 1714 L
5123 1505 mt 5243 1505 L
5183 1445 mt 5183 1565 L
5302 1356 mt 5422 1356 L
5362 1296 mt 5362 1416 L
5480 1206 mt 5600 1206 L
5540 1146 mt 5540 1266 L
5659 1057 mt 5779 1057 L
5719  997 mt 5719 1117 L
5837  907 mt 5957  907 L
5897  847 mt 5897  967 L
6016  757 mt 6136  757 L
6076  697 mt 6076  817 L
6195  607 mt 6315  607 L
6255  547 mt 6255  667 L
 857 4321 mt  941 4405 L
 941 4321 mt  857 4405 L
1035 4270 mt 1119 4354 L
1119 4270 mt 1035 4354 L
1214 4210 mt 1298 4294 L
1298 4210 mt 1214 4294 L
1392 4142 mt 1476 4226 L
1476 4142 mt 1392 4226 L
1571 4066 mt 1655 4150 L
1655 4066 mt 1571 4150 L
1749 3980 mt 1833 4064 L
1833 3980 mt 1749 4064 L
1928 3887 mt 2012 3971 L
2012 3887 mt 1928 3971 L
2106 3786 mt 2190 3870 L
2190 3786 mt 2106 3870 L
2285 3677 mt 2369 3761 L
2369 3677 mt 2285 3761 L
2463 3562 mt 2547 3646 L
2547 3562 mt 2463 3646 L
2642 3442 mt 2726 3526 L
2726 3442 mt 2642 3526 L
2820 3316 mt 2904 3400 L
2904 3316 mt 2820 3400 L
2999 3186 mt 3083 3270 L
3083 3186 mt 2999 3270 L
3177 3052 mt 3261 3136 L
3261 3052 mt 3177 3136 L
3356 2916 mt 3440 3000 L
3440 2916 mt 3356 3000 L
3535 2776 mt 3619 2860 L
3619 2776 mt 3535 2860 L
3713 2635 mt 3797 2719 L
3797 2635 mt 3713 2719 L
3892 2492 mt 3976 2576 L
3976 2492 mt 3892 2576 L
4070 2347 mt 4154 2431 L
4154 2347 mt 4070 2431 L
4249 2202 mt 4333 2286 L
4333 2202 mt 4249 2286 L
4427 2055 mt 4511 2139 L
4511 2055 mt 4427 2139 L
4606 1908 mt 4690 1992 L
4690 1908 mt 4606 1992 L
4784 1760 mt 4868 1844 L
4868 1760 mt 4784 1844 L
4963 1612 mt 5047 1696 L
5047 1612 mt 4963 1696 L
5141 1463 mt 5225 1547 L
5225 1463 mt 5141 1547 L
5320 1314 mt 5404 1398 L
5404 1314 mt 5320 1398 L
5498 1164 mt 5582 1248 L
5582 1164 mt 5498 1248 L
5677 1015 mt 5761 1099 L
5761 1015 mt 5677 1099 L
5855  865 mt 5939  949 L
5939  865 mt 5855  949 L
6034  715 mt 6118  799 L
6118  715 mt 6034  799 L
6213  565 mt 6297  649 L
6297  565 mt 6213  649 L
gr

gs 899 389 5357 4226 MR c np
gr

0 sg
2991  294 mt 
(Channel C, Scheme 3) s
%%IncludeResource: font Helvetica
/Helvetica /WindowsLatin1Encoding 204 FMSR

3140 4964 mt 
(SNR \(dB\)) s
 631 3783 mt  -90 rotate
(Information Rates \(nats/sec\)) s
90 rotate
gs 899 389 5357 4226 MR c np
/c9 { 0.000000 0.000000 1.000000 sr} bdef
c9
179 -149 179 -149 178 -148 179 -148 178 -147 179 -146 178 -146 179 -144 
178 -143 179 -141 178 -139 179 -136 178 -134 179 -129 178 -125 179 -120 
179 -115 178 -107 179 -101 178 -92 179 -84 178 -76 179 -67 178 -59 
179 -51 178 -43 179 -37 178 -30 179 -26 178 -21 899 4526 31 MP stroke
gr

c9
gs 753 1227 5649 3446 MR c np
0 j
0 -94 -94 0 0 94 94 0 852 4479 5 MP
DP
0 -94 -94 0 0 94 94 0 1030 4458 5 MP
DP
0 -94 -94 0 0 94 94 0 1209 4432 5 MP
DP
0 -94 -94 0 0 94 94 0 1387 4402 5 MP
DP
0 -94 -94 0 0 94 94 0 1566 4365 5 MP
DP
0 -94 -94 0 0 94 94 0 1744 4322 5 MP
DP
0 -94 -94 0 0 94 94 0 1923 4271 5 MP
DP
0 -94 -94 0 0 94 94 0 2101 4212 5 MP
DP
0 -94 -94 0 0 94 94 0 2280 4145 5 MP
DP
0 -94 -94 0 0 94 94 0 2458 4069 5 MP
DP
0 -94 -94 0 0 94 94 0 2637 3985 5 MP
DP
0 -94 -94 0 0 94 94 0 2815 3893 5 MP
DP
0 -94 -94 0 0 94 94 0 2994 3792 5 MP
DP
0 -94 -94 0 0 94 94 0 3172 3685 5 MP
DP
0 -94 -94 0 0 94 94 0 3351 3570 5 MP
DP
0 -94 -94 0 0 94 94 0 3530 3450 5 MP
DP
0 -94 -94 0 0 94 94 0 3708 3325 5 MP
DP
0 -94 -94 0 0 94 94 0 3887 3196 5 MP
DP
0 -94 -94 0 0 94 94 0 4065 3062 5 MP
DP
0 -94 -94 0 0 94 94 0 4244 2926 5 MP
DP
0 -94 -94 0 0 94 94 0 4422 2787 5 MP
DP
0 -94 -94 0 0 94 94 0 4601 2646 5 MP
DP
0 -94 -94 0 0 94 94 0 4779 2503 5 MP
DP
0 -94 -94 0 0 94 94 0 4958 2359 5 MP
DP
0 -94 -94 0 0 94 94 0 5136 2213 5 MP
DP
0 -94 -94 0 0 94 94 0 5315 2067 5 MP
DP
0 -94 -94 0 0 94 94 0 5493 1920 5 MP
DP
0 -94 -94 0 0 94 94 0 5672 1772 5 MP
DP
0 -94 -94 0 0 94 94 0 5850 1624 5 MP
DP
0 -94 -94 0 0 94 94 0 6029 1475 5 MP
DP
0 -94 -94 0 0 94 94 0 6208 1326 5 MP
DP
gr

gs 899 389 5357 4226 MR c np
/c10 { 1.000000 0.000000 1.000000 sr} bdef
c10
179 -149 179 -149 178 -148 179 -148 178 -147 179 -146 178 -146 179 -144 
178 -143 179 -141 178 -139 179 -136 178 -134 179 -129 178 -125 179 -120 
179 -115 178 -107 179 -101 178 -92 179 -84 178 -76 179 -67 178 -59 
179 -51 178 -43 179 -37 178 -30 179 -26 178 -21 899 4526 31 MP stroke
gr

c10
gs 753 1227 5649 3446 MR c np
 839 4526 mt  959 4526 L
 899 4466 mt  899 4586 L
1017 4505 mt 1137 4505 L
1077 4445 mt 1077 4565 L
1196 4479 mt 1316 4479 L
1256 4419 mt 1256 4539 L
1374 4449 mt 1494 4449 L
1434 4389 mt 1434 4509 L
1553 4412 mt 1673 4412 L
1613 4352 mt 1613 4472 L
1731 4369 mt 1851 4369 L
1791 4309 mt 1791 4429 L
1910 4318 mt 2030 4318 L
1970 4258 mt 1970 4378 L
2088 4259 mt 2208 4259 L
2148 4199 mt 2148 4319 L
2267 4192 mt 2387 4192 L
2327 4132 mt 2327 4252 L
2445 4116 mt 2565 4116 L
2505 4056 mt 2505 4176 L
2624 4032 mt 2744 4032 L
2684 3972 mt 2684 4092 L
2802 3940 mt 2922 3940 L
2862 3880 mt 2862 4000 L
2981 3839 mt 3101 3839 L
3041 3779 mt 3041 3899 L
3159 3732 mt 3279 3732 L
3219 3672 mt 3219 3792 L
3338 3617 mt 3458 3617 L
3398 3557 mt 3398 3677 L
3517 3497 mt 3637 3497 L
3577 3437 mt 3577 3557 L
3695 3372 mt 3815 3372 L
3755 3312 mt 3755 3432 L
3874 3243 mt 3994 3243 L
3934 3183 mt 3934 3303 L
4052 3109 mt 4172 3109 L
4112 3049 mt 4112 3169 L
4231 2973 mt 4351 2973 L
4291 2913 mt 4291 3033 L
4409 2834 mt 4529 2834 L
4469 2774 mt 4469 2894 L
4588 2693 mt 4708 2693 L
4648 2633 mt 4648 2753 L
4766 2550 mt 4886 2550 L
4826 2490 mt 4826 2610 L
4945 2406 mt 5065 2406 L
5005 2346 mt 5005 2466 L
5123 2260 mt 5243 2260 L
5183 2200 mt 5183 2320 L
5302 2114 mt 5422 2114 L
5362 2054 mt 5362 2174 L
5480 1967 mt 5600 1967 L
5540 1907 mt 5540 2027 L
5659 1819 mt 5779 1819 L
5719 1759 mt 5719 1879 L
5837 1671 mt 5957 1671 L
5897 1611 mt 5897 1731 L
6016 1522 mt 6136 1522 L
6076 1462 mt 6076 1582 L
6195 1373 mt 6315 1373 L
6255 1313 mt 6255 1433 L
gr

gs 899 389 5357 4226 MR c np
/c11 { 1.000000 0.000000 0.000000 sr} bdef
c11
179 -149 179 -149 178 -148 179 -148 178 -147 179 -146 178 -146 179 -144 
178 -143 179 -141 178 -139 179 -136 178 -134 179 -129 178 -125 179 -120 
179 -115 178 -107 179 -101 178 -92 179 -84 178 -76 179 -67 178 -59 
179 -51 178 -43 179 -37 178 -30 179 -26 178 -21 899 4526 31 MP stroke
gr

c11
gs 753 1227 5649 3446 MR c np
 857 4484 mt  941 4568 L
 941 4484 mt  857 4568 L
1035 4463 mt 1119 4547 L
1119 4463 mt 1035 4547 L
1214 4437 mt 1298 4521 L
1298 4437 mt 1214 4521 L
1392 4407 mt 1476 4491 L
1476 4407 mt 1392 4491 L
1571 4370 mt 1655 4454 L
1655 4370 mt 1571 4454 L
1749 4327 mt 1833 4411 L
1833 4327 mt 1749 4411 L
1928 4276 mt 2012 4360 L
2012 4276 mt 1928 4360 L
2106 4217 mt 2190 4301 L
2190 4217 mt 2106 4301 L
2285 4150 mt 2369 4234 L
2369 4150 mt 2285 4234 L
2463 4074 mt 2547 4158 L
2547 4074 mt 2463 4158 L
2642 3990 mt 2726 4074 L
2726 3990 mt 2642 4074 L
2820 3898 mt 2904 3982 L
2904 3898 mt 2820 3982 L
2999 3797 mt 3083 3881 L
3083 3797 mt 2999 3881 L
3177 3690 mt 3261 3774 L
3261 3690 mt 3177 3774 L
3356 3575 mt 3440 3659 L
3440 3575 mt 3356 3659 L
3535 3455 mt 3619 3539 L
3619 3455 mt 3535 3539 L
3713 3330 mt 3797 3414 L
3797 3330 mt 3713 3414 L
3892 3201 mt 3976 3285 L
3976 3201 mt 3892 3285 L
4070 3067 mt 4154 3151 L
4154 3067 mt 4070 3151 L
4249 2931 mt 4333 3015 L
4333 2931 mt 4249 3015 L
4427 2792 mt 4511 2876 L
4511 2792 mt 4427 2876 L
4606 2651 mt 4690 2735 L
4690 2651 mt 4606 2735 L
4784 2508 mt 4868 2592 L
4868 2508 mt 4784 2592 L
4963 2364 mt 5047 2448 L
5047 2364 mt 4963 2448 L
5141 2218 mt 5225 2302 L
5225 2218 mt 5141 2302 L
5320 2072 mt 5404 2156 L
5404 2072 mt 5320 2156 L
5498 1925 mt 5582 2009 L
5582 1925 mt 5498 2009 L
5677 1777 mt 5761 1861 L
5761 1777 mt 5677 1861 L
5855 1629 mt 5939 1713 L
5939 1629 mt 5855 1713 L
6034 1480 mt 6118 1564 L
6118 1480 mt 6034 1564 L
6213 1331 mt 6297 1415 L
6297 1331 mt 6213 1415 L
gr

gs 899 389 5357 4226 MR c np
gr

0 sg
%%IncludeResource: font Helvetica
/Helvetica /WindowsLatin1Encoding 120 FMSR

 882 4657 mt 
( ) s
6239  431 mt 
( ) s
6 w
1 sg
0 907 1367 0 0 -907 4828 4555 4 MP
PP
-1367 0 0 907 1367 0 0 -907 4828 4555 5 MP stroke
4 w
DO
SO
6 w
0 sg
4828 3648 mt 6195 3648 L
4828 4555 mt 6195 4555 L
6195 4555 mt 6195 3648 L
4828 4555 mt 4828 3648 L
4828 4555 mt 6195 4555 L
4828 4555 mt 4828 3648 L
4828 3648 mt 6195 3648 L
4828 4555 mt 6195 4555 L
6195 4555 mt 6195 3648 L
4828 4555 mt 4828 3648 L
%%IncludeResource: font Helvetica
/Helvetica /WindowsLatin1Encoding 168 FMSR

5281 3830 mt 
(Optimal Rx) s
gs 4828 3648 1368 908 MR c np
24 w
c8
348 0 4897 3769 2 MP stroke
gr

24 w
c8
gs 4925 3623 293 293 MR c np
5011 3769 mt 5131 3769 L
5071 3709 mt 5071 3829 L
5029 3727 mt 5113 3811 L
5113 3727 mt 5029 3811 L
gr

gs 4828 3648 1368 908 MR c np
gr

0 sg
5281 4090 mt 
(EB, K=K) s
%%IncludeResource: font Symbol
/Symbol /WindowsLatin1Encoding 132 FMSR

5917 4006 mt 
(\242) s
%%IncludeResource: font Helvetica
/Helvetica /WindowsLatin1Encoding 168 FMSR

5949 4090 mt 
(+1) s
gs 4828 3648 1368 908 MR c np
c9
348 0 4897 3999 2 MP stroke
gs 4925 3853 293 293 MR c np
0 j
0 -94 -94 0 0 94 94 0 5024 3952 5 MP
DP
gr

gr

c9
0 sg
5281 4289 mt 
(SB, JLD) s
gs 4828 3648 1368 908 MR c np
c10
348 0 4897 4228 2 MP stroke
gs 4925 4082 293 293 MR c np
5011 4228 mt 5131 4228 L
5071 4168 mt 5071 4288 L
gr

gr

c10
0 sg
5281 4494 mt 
(SB, ILD) s
gs 4828 3648 1368 908 MR c np
c11
348 0 4897 4433 2 MP stroke
gr

c11
gs 4925 4287 293 293 MR c np
5029 4391 mt 5113 4475 L
5113 4391 mt 5029 4475 L
gr

gs 4828 3648 1368 908 MR c np
6 w
gr

6 w

end %%Color Dict

eplot
%%EndObject

epage
end

showpage

%%Trailer
%%EOF
