%!PS-Adobe-2.0 EPSF-1.2
%%Creator: MATLAB, The MathWorks, Inc. Version 7.14.0.739 (R2012a). Operating System: Microsoft Windows 7.
%%Title: .\RATE_CHB_SCHEME1.eps
%%CreationDate: 05/06/2015  12:27:55
%%DocumentNeededFonts: Helvetica
%%DocumentProcessColors: Cyan Magenta Yellow Black
%%Extensions: CMYK
%%Pages: 1
%%BoundingBox:    51   192   552   602
%%EndComments

%%BeginProlog
% MathWorks dictionary
/MathWorks 160 dict begin
% definition operators
/bdef {bind def} bind def
/ldef {load def} bind def
/xdef {exch def} bdef
/xstore {exch store} bdef
% operator abbreviations
/c  /clip ldef
/cc /concat ldef
/cp /closepath ldef
/gr /grestore ldef
/gs /gsave ldef
/mt /moveto ldef
/np /newpath ldef
/cm /currentmatrix ldef
/sm /setmatrix ldef
/rm /rmoveto ldef
/rl /rlineto ldef
/s {show newpath} bdef
/sc {setcmykcolor} bdef
/sr /setrgbcolor ldef
/sg /setgray ldef
/w /setlinewidth ldef
/j /setlinejoin ldef
/cap /setlinecap ldef
/rc {rectclip} bdef
/rf {rectfill} bdef
% page state control
/pgsv () def
/bpage {/pgsv save def} bdef
/epage {pgsv restore} bdef
/bplot /gsave ldef
/eplot {stroke grestore} bdef
% orientation switch
/portraitMode 0 def /landscapeMode 1 def /rotateMode 2 def
% coordinate system mappings
/dpi2point 0 def
% font control
/FontSize 0 def
/FMS {/FontSize xstore findfont [FontSize 0 0 FontSize neg 0 0]
  makefont setfont} bdef
/ISOLatin1Encoding where {pop /WindowsLatin1Encoding 256 array bdef
ISOLatin1Encoding WindowsLatin1Encoding copy pop
/.notdef/.notdef/quotesinglbase/florin/quotedblbase/ellipsis/dagger
/daggerdbl/circumflex/perthousand/Scaron/guilsinglleft/OE/.notdef/.notdef
/.notdef/.notdef/quoteleft/quoteright/quotedblleft/quotedblright/bullet
/endash/emdash/tilde/trademark/scaron/guilsinglright/oe/.notdef/.notdef
/Ydieresis WindowsLatin1Encoding 128 32 getinterval astore pop}
{/WindowsLatin1Encoding StandardEncoding bdef} ifelse
/reencode {exch dup where {pop load} {pop StandardEncoding} ifelse
  exch dup 3 1 roll findfont dup length dict begin
  { 1 index /FID ne {def}{pop pop} ifelse } forall
  /Encoding exch def currentdict end definefont pop} bdef
/isroman {findfont /CharStrings get /Agrave known} bdef
/FMSR {3 1 roll 1 index dup isroman {reencode} {pop pop} ifelse
  exch FMS} bdef
/csm {1 dpi2point div -1 dpi2point div scale neg translate
 dup landscapeMode eq {pop -90 rotate}
  {rotateMode eq {90 rotate} if} ifelse} bdef
% line types: solid, dotted, dashed, dotdash
/SO { [] 0 setdash } bdef
/DO { [.5 dpi2point mul 4 dpi2point mul] 0 setdash } bdef
/DA { [6 dpi2point mul] 0 setdash } bdef
/DD { [.5 dpi2point mul 4 dpi2point mul 6 dpi2point mul 4
  dpi2point mul] 0 setdash } bdef
% macros for lines and objects
/L {lineto stroke} bdef
/MP {3 1 roll moveto 1 sub {rlineto} repeat} bdef
/AP {{rlineto} repeat} bdef
/PDlw -1 def
/W {/PDlw currentlinewidth def setlinewidth} def
/PP {closepath eofill} bdef
/DP {closepath stroke} bdef
/MR {4 -2 roll moveto dup  0 exch rlineto exch 0 rlineto
  neg 0 exch rlineto closepath} bdef
/FR {MR stroke} bdef
/PR {MR fill} bdef
/L1i {{currentfile picstr readhexstring pop} image} bdef
/tMatrix matrix def
/MakeOval {newpath tMatrix currentmatrix pop translate scale
0 0 1 0 360 arc tMatrix setmatrix} bdef
/FO {MakeOval stroke} bdef
/PO {MakeOval fill} bdef
/PD {currentlinewidth 2 div 0 360 arc fill
   PDlw -1 eq not {PDlw w /PDlw -1 def} if} def
/FA {newpath tMatrix currentmatrix pop translate scale
  0 0 1 5 -2 roll arc tMatrix setmatrix stroke} bdef
/PA {newpath tMatrix currentmatrix pop	translate 0 0 moveto scale
  0 0 1 5 -2 roll arc closepath tMatrix setmatrix fill} bdef
/FAn {newpath tMatrix currentmatrix pop translate scale
  0 0 1 5 -2 roll arcn tMatrix setmatrix stroke} bdef
/PAn {newpath tMatrix currentmatrix pop translate 0 0 moveto scale
  0 0 1 5 -2 roll arcn closepath tMatrix setmatrix fill} bdef
/vradius 0 def /hradius 0 def /lry 0 def
/lrx 0 def /uly 0 def /ulx 0 def /rad 0 def
/MRR {/vradius xdef /hradius xdef /lry xdef /lrx xdef /uly xdef
  /ulx xdef newpath tMatrix currentmatrix pop ulx hradius add uly
  vradius add translate hradius vradius scale 0 0 1 180 270 arc 
  tMatrix setmatrix lrx hradius sub uly vradius add translate
  hradius vradius scale 0 0 1 270 360 arc tMatrix setmatrix
  lrx hradius sub lry vradius sub translate hradius vradius scale
  0 0 1 0 90 arc tMatrix setmatrix ulx hradius add lry vradius sub
  translate hradius vradius scale 0 0 1 90 180 arc tMatrix setmatrix
  closepath} bdef
/FRR {MRR stroke } bdef
/PRR {MRR fill } bdef
/MlrRR {/lry xdef /lrx xdef /uly xdef /ulx xdef /rad lry uly sub 2 div def
  newpath tMatrix currentmatrix pop ulx rad add uly rad add translate
  rad rad scale 0 0 1 90 270 arc tMatrix setmatrix lrx rad sub lry rad
  sub translate rad rad scale 0 0 1 270 90 arc tMatrix setmatrix
  closepath} bdef
/FlrRR {MlrRR stroke } bdef
/PlrRR {MlrRR fill } bdef
/MtbRR {/lry xdef /lrx xdef /uly xdef /ulx xdef /rad lrx ulx sub 2 div def
  newpath tMatrix currentmatrix pop ulx rad add uly rad add translate
  rad rad scale 0 0 1 180 360 arc tMatrix setmatrix lrx rad sub lry rad
  sub translate rad rad scale 0 0 1 0 180 arc tMatrix setmatrix
  closepath} bdef
/FtbRR {MtbRR stroke } bdef
/PtbRR {MtbRR fill } bdef
/stri 6 array def /dtri 6 array def
/smat 6 array def /dmat 6 array def
/tmat1 6 array def /tmat2 6 array def /dif 3 array def
/asub {/ind2 exch def /ind1 exch def dup dup
  ind1 get exch ind2 get sub exch } bdef
/tri_to_matrix {
  2 0 asub 3 1 asub 4 0 asub 5 1 asub
  dup 0 get exch 1 get 7 -1 roll astore } bdef
/compute_transform {
  dmat dtri tri_to_matrix tmat1 invertmatrix 
  smat stri tri_to_matrix tmat2 concatmatrix } bdef
/ds {stri astore pop} bdef
/dt {dtri astore pop} bdef
/db {2 copy /cols xdef /rows xdef mul dup 3 mul string
  currentfile exch readhexstring pop
  dup 0 3 index getinterval /rbmap xdef
  dup 2 index dup getinterval /gbmap xdef
  1 index dup 2 mul exch getinterval /bbmap xdef pop pop}bdef
/it {gs np dtri aload pop moveto lineto lineto cp c
  cols rows 8 compute_transform 
  rbmap gbmap bbmap true 3 colorimage gr}bdef
/il {newpath moveto lineto stroke}bdef
currentdict end def
%%EndProlog

%%BeginSetup
MathWorks begin

0 cap

end
%%EndSetup

%%Page: 1 1
%%BeginPageSetup
%%PageBoundingBox:    51   192   552   602
MathWorks begin
bpage
%%EndPageSetup

%%BeginObject: obj1
bplot

/dpi2point 12 def
portraitMode 0204 7344 csm

  417   110  6014  4924 MR c np
87 dict begin %Colortable dictionary
/c0 { 0.000000 0.000000 0.000000 sr} bdef
/c1 { 1.000000 1.000000 1.000000 sr} bdef
/c2 { 0.900000 0.000000 0.000000 sr} bdef
/c3 { 0.000000 0.820000 0.000000 sr} bdef
/c4 { 0.000000 0.000000 0.800000 sr} bdef
/c5 { 0.910000 0.820000 0.320000 sr} bdef
/c6 { 1.000000 0.260000 0.820000 sr} bdef
/c7 { 0.000000 0.820000 0.820000 sr} bdef
c0
1 j
1 sg
   0    0 6913 5185 PR
6 w
0 4225 5356 0 0 -4225 899 4614 4 MP
PP
-5356 0 0 4225 5356 0 0 -4225 899 4614 5 MP stroke
4 w
DO
SO
6 w
0 sg
 899  389 mt 6255  389 L
 899 4614 mt 6255 4614 L
6255 4614 mt 6255  389 L
 899 4614 mt  899  389 L
 899 4614 mt 6255 4614 L
 899 4614 mt  899  389 L
 899 4614 mt  899 4560 L
 899  389 mt  899  442 L
%%IncludeResource: font Helvetica
/Helvetica /WindowsLatin1Encoding 120 FMSR

 866 4759 mt 
(0) s
1791 4614 mt 1791 4560 L
1791  389 mt 1791  442 L
1758 4759 mt 
(5) s
2684 4614 mt 2684 4560 L
2684  389 mt 2684  442 L
2618 4759 mt 
(10) s
3577 4614 mt 3577 4560 L
3577  389 mt 3577  442 L
3511 4759 mt 
(15) s
4469 4614 mt 4469 4560 L
4469  389 mt 4469  442 L
4403 4759 mt 
(20) s
5362 4614 mt 5362 4560 L
5362  389 mt 5362  442 L
5296 4759 mt 
(25) s
6255 4614 mt 6255 4560 L
6255  389 mt 6255  442 L
6189 4759 mt 
(30) s
 899 4614 mt  952 4614 L
6255 4614 mt 6201 4614 L
 798 4658 mt 
(0) s
 899 4085 mt  952 4085 L
6255 4085 mt 6201 4085 L
 798 4129 mt 
(5) s
 899 3557 mt  952 3557 L
6255 3557 mt 6201 3557 L
 731 3601 mt 
(10) s
 899 3029 mt  952 3029 L
6255 3029 mt 6201 3029 L
 731 3073 mt 
(15) s
 899 2501 mt  952 2501 L
6255 2501 mt 6201 2501 L
 731 2545 mt 
(20) s
 899 1973 mt  952 1973 L
6255 1973 mt 6201 1973 L
 731 2017 mt 
(25) s
 899 1445 mt  952 1445 L
6255 1445 mt 6201 1445 L
 731 1489 mt 
(30) s
 899  917 mt  952  917 L
6255  917 mt 6201  917 L
 731  961 mt 
(35) s
 899  389 mt  952  389 L
6255  389 mt 6201  389 L
 731  433 mt 
(40) s
 899  389 mt 6255  389 L
 899 4614 mt 6255 4614 L
6255 4614 mt 6255  389 L
 899 4614 mt  899  389 L
gs 899 389 5357 4226 MR c np
24 w
/c8 { 0.000000 1.000000 0.000000 sr} bdef
c8
179 -169 179 -169 178 -168 179 -167 178 -167 179 -166 178 -164 179 -164 
178 -161 179 -160 178 -157 179 -154 178 -151 179 -146 178 -142 179 -135 
179 -129 178 -122 179 -114 178 -106 179 -96 178 -88 179 -78 178 -70 
179 -61 178 -52 179 -46 178 -38 179 -32 178 -27 899 4495 31 MP stroke
gr

24 w
c8
gs 753 750 5649 3892 MR c np
 839 4495 mt  959 4495 L
 899 4435 mt  899 4555 L
1017 4468 mt 1137 4468 L
1077 4408 mt 1077 4528 L
1196 4436 mt 1316 4436 L
1256 4376 mt 1256 4496 L
1374 4398 mt 1494 4398 L
1434 4338 mt 1434 4458 L
1553 4352 mt 1673 4352 L
1613 4292 mt 1613 4412 L
1731 4300 mt 1851 4300 L
1791 4240 mt 1791 4360 L
1910 4239 mt 2030 4239 L
1970 4179 mt 1970 4299 L
2088 4169 mt 2208 4169 L
2148 4109 mt 2148 4229 L
2267 4091 mt 2387 4091 L
2327 4031 mt 2327 4151 L
2445 4003 mt 2565 4003 L
2505 3943 mt 2505 4063 L
2624 3907 mt 2744 3907 L
2684 3847 mt 2684 3967 L
2802 3801 mt 2922 3801 L
2862 3741 mt 2862 3861 L
2981 3687 mt 3101 3687 L
3041 3627 mt 3041 3747 L
3159 3565 mt 3279 3565 L
3219 3505 mt 3219 3625 L
3338 3436 mt 3458 3436 L
3398 3376 mt 3398 3496 L
3517 3301 mt 3637 3301 L
3577 3241 mt 3577 3361 L
3695 3159 mt 3815 3159 L
3755 3099 mt 3755 3219 L
3874 3013 mt 3994 3013 L
3934 2953 mt 3934 3073 L
4052 2862 mt 4172 2862 L
4112 2802 mt 4112 2922 L
4231 2708 mt 4351 2708 L
4291 2648 mt 4291 2768 L
4409 2551 mt 4529 2551 L
4469 2491 mt 4469 2611 L
4588 2391 mt 4708 2391 L
4648 2331 mt 4648 2451 L
4766 2230 mt 4886 2230 L
4826 2170 mt 4826 2290 L
4945 2066 mt 5065 2066 L
5005 2006 mt 5005 2126 L
5123 1902 mt 5243 1902 L
5183 1842 mt 5183 1962 L
5302 1736 mt 5422 1736 L
5362 1676 mt 5362 1796 L
5480 1569 mt 5600 1569 L
5540 1509 mt 5540 1629 L
5659 1402 mt 5779 1402 L
5719 1342 mt 5719 1462 L
5837 1234 mt 5957 1234 L
5897 1174 mt 5897 1294 L
6016 1065 mt 6136 1065 L
6076 1005 mt 6076 1125 L
6195  896 mt 6315  896 L
6255  836 mt 6255  956 L
 857 4453 mt  941 4537 L
 941 4453 mt  857 4537 L
1035 4426 mt 1119 4510 L
1119 4426 mt 1035 4510 L
1214 4394 mt 1298 4478 L
1298 4394 mt 1214 4478 L
1392 4356 mt 1476 4440 L
1476 4356 mt 1392 4440 L
1571 4310 mt 1655 4394 L
1655 4310 mt 1571 4394 L
1749 4258 mt 1833 4342 L
1833 4258 mt 1749 4342 L
1928 4197 mt 2012 4281 L
2012 4197 mt 1928 4281 L
2106 4127 mt 2190 4211 L
2190 4127 mt 2106 4211 L
2285 4049 mt 2369 4133 L
2369 4049 mt 2285 4133 L
2463 3961 mt 2547 4045 L
2547 3961 mt 2463 4045 L
2642 3865 mt 2726 3949 L
2726 3865 mt 2642 3949 L
2820 3759 mt 2904 3843 L
2904 3759 mt 2820 3843 L
2999 3645 mt 3083 3729 L
3083 3645 mt 2999 3729 L
3177 3523 mt 3261 3607 L
3261 3523 mt 3177 3607 L
3356 3394 mt 3440 3478 L
3440 3394 mt 3356 3478 L
3535 3259 mt 3619 3343 L
3619 3259 mt 3535 3343 L
3713 3117 mt 3797 3201 L
3797 3117 mt 3713 3201 L
3892 2971 mt 3976 3055 L
3976 2971 mt 3892 3055 L
4070 2820 mt 4154 2904 L
4154 2820 mt 4070 2904 L
4249 2666 mt 4333 2750 L
4333 2666 mt 4249 2750 L
4427 2509 mt 4511 2593 L
4511 2509 mt 4427 2593 L
4606 2349 mt 4690 2433 L
4690 2349 mt 4606 2433 L
4784 2188 mt 4868 2272 L
4868 2188 mt 4784 2272 L
4963 2024 mt 5047 2108 L
5047 2024 mt 4963 2108 L
5141 1860 mt 5225 1944 L
5225 1860 mt 5141 1944 L
5320 1694 mt 5404 1778 L
5404 1694 mt 5320 1778 L
5498 1527 mt 5582 1611 L
5582 1527 mt 5498 1611 L
5677 1360 mt 5761 1444 L
5761 1360 mt 5677 1444 L
5855 1192 mt 5939 1276 L
5939 1192 mt 5855 1276 L
6034 1023 mt 6118 1107 L
6118 1023 mt 6034 1107 L
6213  854 mt 6297  938 L
6297  854 mt 6213  938 L
gr

gs 899 389 5357 4226 MR c np
gr

0 sg
2994  294 mt 
(Channel B, Scheme 1) s
%%IncludeResource: font Helvetica
/Helvetica /WindowsLatin1Encoding 204 FMSR

3140 4964 mt 
(SNR \(dB\)) s
 631 3783 mt  -90 rotate
(Information Rates \(nats/sec\)) s
90 rotate
gs 899 389 5357 4226 MR c np
/c9 { 0.000000 0.000000 1.000000 sr} bdef
c9
179 -168 179 -168 178 -168 179 -167 178 -166 179 -165 178 -163 179 -162 
178 -160 179 -158 178 -155 179 -151 178 -147 179 -143 178 -136 179 -131 
179 -123 178 -116 179 -107 178 -99 179 -89 178 -80 179 -72 178 -63 
179 -54 178 -47 179 -40 178 -34 179 -28 178 -23 899 4512 31 MP stroke
gr

c9
gs 753 883 5649 3776 MR c np
0 j
0 -94 -94 0 0 94 94 0 852 4465 5 MP
DP
0 -94 -94 0 0 94 94 0 1030 4442 5 MP
DP
0 -94 -94 0 0 94 94 0 1209 4414 5 MP
DP
0 -94 -94 0 0 94 94 0 1387 4380 5 MP
DP
0 -94 -94 0 0 94 94 0 1566 4340 5 MP
DP
0 -94 -94 0 0 94 94 0 1744 4293 5 MP
DP
0 -94 -94 0 0 94 94 0 1923 4239 5 MP
DP
0 -94 -94 0 0 94 94 0 2101 4176 5 MP
DP
0 -94 -94 0 0 94 94 0 2280 4104 5 MP
DP
0 -94 -94 0 0 94 94 0 2458 4024 5 MP
DP
0 -94 -94 0 0 94 94 0 2637 3935 5 MP
DP
0 -94 -94 0 0 94 94 0 2815 3836 5 MP
DP
0 -94 -94 0 0 94 94 0 2994 3729 5 MP
DP
0 -94 -94 0 0 94 94 0 3172 3613 5 MP
DP
0 -94 -94 0 0 94 94 0 3351 3490 5 MP
DP
0 -94 -94 0 0 94 94 0 3530 3359 5 MP
DP
0 -94 -94 0 0 94 94 0 3708 3223 5 MP
DP
0 -94 -94 0 0 94 94 0 3887 3080 5 MP
DP
0 -94 -94 0 0 94 94 0 4065 2933 5 MP
DP
0 -94 -94 0 0 94 94 0 4244 2782 5 MP
DP
0 -94 -94 0 0 94 94 0 4422 2627 5 MP
DP
0 -94 -94 0 0 94 94 0 4601 2469 5 MP
DP
0 -94 -94 0 0 94 94 0 4779 2309 5 MP
DP
0 -94 -94 0 0 94 94 0 4958 2147 5 MP
DP
0 -94 -94 0 0 94 94 0 5136 1984 5 MP
DP
0 -94 -94 0 0 94 94 0 5315 1819 5 MP
DP
0 -94 -94 0 0 94 94 0 5493 1653 5 MP
DP
0 -94 -94 0 0 94 94 0 5672 1486 5 MP
DP
0 -94 -94 0 0 94 94 0 5850 1318 5 MP
DP
0 -94 -94 0 0 94 94 0 6029 1150 5 MP
DP
0 -94 -94 0 0 94 94 0 6208 982 5 MP
DP
gr

gs 899 389 5357 4226 MR c np
/c10 { 1.000000 0.000000 1.000000 sr} bdef
c10
179 -168 179 -168 178 -168 179 -166 178 -166 179 -165 178 -164 179 -162 
178 -159 179 -158 178 -154 179 -151 178 -147 179 -142 178 -136 179 -130 
179 -122 178 -115 179 -106 178 -98 179 -89 178 -79 179 -71 178 -62 
179 -54 178 -46 179 -39 178 -34 179 -28 178 -23 899 4514 31 MP stroke
gr

c10
gs 753 898 5649 3763 MR c np
 839 4514 mt  959 4514 L
 899 4454 mt  899 4574 L
1017 4491 mt 1137 4491 L
1077 4431 mt 1077 4551 L
1196 4463 mt 1316 4463 L
1256 4403 mt 1256 4523 L
1374 4429 mt 1494 4429 L
1434 4369 mt 1434 4489 L
1553 4390 mt 1673 4390 L
1613 4330 mt 1613 4450 L
1731 4344 mt 1851 4344 L
1791 4284 mt 1791 4404 L
1910 4290 mt 2030 4290 L
1970 4230 mt 1970 4350 L
2088 4228 mt 2208 4228 L
2148 4168 mt 2148 4288 L
2267 4157 mt 2387 4157 L
2327 4097 mt 2327 4217 L
2445 4078 mt 2565 4078 L
2505 4018 mt 2505 4138 L
2624 3989 mt 2744 3989 L
2684 3929 mt 2684 4049 L
2802 3891 mt 2922 3891 L
2862 3831 mt 2862 3951 L
2981 3785 mt 3101 3785 L
3041 3725 mt 3041 3845 L
3159 3670 mt 3279 3670 L
3219 3610 mt 3219 3730 L
3338 3548 mt 3458 3548 L
3398 3488 mt 3398 3608 L
3517 3418 mt 3637 3418 L
3577 3358 mt 3577 3478 L
3695 3282 mt 3815 3282 L
3755 3222 mt 3755 3342 L
3874 3140 mt 3994 3140 L
3934 3080 mt 3934 3200 L
4052 2993 mt 4172 2993 L
4112 2933 mt 4112 3053 L
4231 2842 mt 4351 2842 L
4291 2782 mt 4291 2902 L
4409 2688 mt 4529 2688 L
4469 2628 mt 4469 2748 L
4588 2530 mt 4708 2530 L
4648 2470 mt 4648 2590 L
4766 2371 mt 4886 2371 L
4826 2311 mt 4826 2431 L
4945 2209 mt 5065 2209 L
5005 2149 mt 5005 2269 L
5123 2045 mt 5243 2045 L
5183 1985 mt 5183 2105 L
5302 1880 mt 5422 1880 L
5362 1820 mt 5362 1940 L
5480 1714 mt 5600 1714 L
5540 1654 mt 5540 1774 L
5659 1548 mt 5779 1548 L
5719 1488 mt 5719 1608 L
5837 1380 mt 5957 1380 L
5897 1320 mt 5897 1440 L
6016 1212 mt 6136 1212 L
6076 1152 mt 6076 1272 L
6195 1044 mt 6315 1044 L
6255  984 mt 6255 1104 L
gr

gs 899 389 5357 4226 MR c np
/c11 { 1.000000 0.000000 0.000000 sr} bdef
c11
179 -153 179 -154 178 -153 179 -153 178 -152 179 -152 178 -151 179 -149 
178 -149 179 -146 178 -144 179 -141 178 -138 179 -134 178 -129 179 -124 
179 -117 178 -110 179 -102 178 -95 179 -86 178 -77 179 -69 178 -61 
179 -52 178 -46 179 -38 178 -33 179 -27 178 -23 899 4516 31 MP stroke
gr

c11
gs 753 1112 5649 3551 MR c np
 857 4474 mt  941 4558 L
 941 4474 mt  857 4558 L
1035 4451 mt 1119 4535 L
1119 4451 mt 1035 4535 L
1214 4424 mt 1298 4508 L
1298 4424 mt 1214 4508 L
1392 4391 mt 1476 4475 L
1476 4391 mt 1392 4475 L
1571 4353 mt 1655 4437 L
1655 4353 mt 1571 4437 L
1749 4307 mt 1833 4391 L
1833 4307 mt 1749 4391 L
1928 4255 mt 2012 4339 L
2012 4255 mt 1928 4339 L
2106 4194 mt 2190 4278 L
2190 4194 mt 2106 4278 L
2285 4125 mt 2369 4209 L
2369 4125 mt 2285 4209 L
2463 4048 mt 2547 4132 L
2547 4048 mt 2463 4132 L
2642 3962 mt 2726 4046 L
2726 3962 mt 2642 4046 L
2820 3867 mt 2904 3951 L
2904 3867 mt 2820 3951 L
2999 3765 mt 3083 3849 L
3083 3765 mt 2999 3849 L
3177 3655 mt 3261 3739 L
3261 3655 mt 3177 3739 L
3356 3538 mt 3440 3622 L
3440 3538 mt 3356 3622 L
3535 3414 mt 3619 3498 L
3619 3414 mt 3535 3498 L
3713 3285 mt 3797 3369 L
3797 3285 mt 3713 3369 L
3892 3151 mt 3976 3235 L
3976 3151 mt 3892 3235 L
4070 3013 mt 4154 3097 L
4154 3013 mt 4070 3097 L
4249 2872 mt 4333 2956 L
4333 2872 mt 4249 2956 L
4427 2728 mt 4511 2812 L
4511 2728 mt 4427 2812 L
4606 2582 mt 4690 2666 L
4690 2582 mt 4606 2666 L
4784 2433 mt 4868 2517 L
4868 2433 mt 4784 2517 L
4963 2284 mt 5047 2368 L
5047 2284 mt 4963 2368 L
5141 2133 mt 5225 2217 L
5225 2133 mt 5141 2217 L
5320 1981 mt 5404 2065 L
5404 1981 mt 5320 2065 L
5498 1829 mt 5582 1913 L
5582 1829 mt 5498 1913 L
5677 1676 mt 5761 1760 L
5761 1676 mt 5677 1760 L
5855 1523 mt 5939 1607 L
5939 1523 mt 5855 1607 L
6034 1369 mt 6118 1453 L
6118 1369 mt 6034 1453 L
6213 1216 mt 6297 1300 L
6297 1216 mt 6213 1300 L
gr

gs 899 389 5357 4226 MR c np
gr

0 sg
%%IncludeResource: font Helvetica
/Helvetica /WindowsLatin1Encoding 120 FMSR

 882 4657 mt 
( ) s
6239  431 mt 
( ) s
6 w
1 sg
0 907 1367 0 0 -907 4828 4555 4 MP
PP
-1367 0 0 907 1367 0 0 -907 4828 4555 5 MP stroke
4 w
DO
SO
6 w
0 sg
4828 3648 mt 6195 3648 L
4828 4555 mt 6195 4555 L
6195 4555 mt 6195 3648 L
4828 4555 mt 4828 3648 L
4828 4555 mt 6195 4555 L
4828 4555 mt 4828 3648 L
4828 3648 mt 6195 3648 L
4828 4555 mt 6195 4555 L
6195 4555 mt 6195 3648 L
4828 4555 mt 4828 3648 L
%%IncludeResource: font Helvetica
/Helvetica /WindowsLatin1Encoding 168 FMSR

5281 3830 mt 
(Optimal Rx) s
gs 4828 3648 1368 908 MR c np
24 w
c8
348 0 4897 3769 2 MP stroke
gr

24 w
c8
gs 4925 3623 293 293 MR c np
5011 3769 mt 5131 3769 L
5071 3709 mt 5071 3829 L
5029 3727 mt 5113 3811 L
5113 3727 mt 5029 3811 L
gr

gs 4828 3648 1368 908 MR c np
gr

0 sg
5281 4090 mt 
(EB, K=K) s
%%IncludeResource: font Symbol
/Symbol /WindowsLatin1Encoding 132 FMSR

5917 4006 mt 
(\242) s
%%IncludeResource: font Helvetica
/Helvetica /WindowsLatin1Encoding 168 FMSR

5949 4090 mt 
(+1) s
gs 4828 3648 1368 908 MR c np
c9
348 0 4897 3999 2 MP stroke
gs 4925 3853 293 293 MR c np
0 j
0 -94 -94 0 0 94 94 0 5024 3952 5 MP
DP
gr

gr

c9
0 sg
5281 4289 mt 
(SB, JLD) s
gs 4828 3648 1368 908 MR c np
c10
348 0 4897 4228 2 MP stroke
gs 4925 4082 293 293 MR c np
5011 4228 mt 5131 4228 L
5071 4168 mt 5071 4288 L
gr

gr

c10
0 sg
5281 4494 mt 
(SB, ILD) s
gs 4828 3648 1368 908 MR c np
c11
348 0 4897 4433 2 MP stroke
gr

c11
gs 4925 4287 293 293 MR c np
5029 4391 mt 5113 4475 L
5113 4391 mt 5029 4475 L
gr

gs 4828 3648 1368 908 MR c np
6 w
gr

6 w

end %%Color Dict

eplot
%%EndObject

epage
end

showpage

%%Trailer
%%EOF
