%!PS-Adobe-2.0 EPSF-1.2
%%Creator: MATLAB, The MathWorks, Inc. Version 7.14.0.739 (R2012a). Operating System: Microsoft Windows 7.
%%Title: .\RATE_CHE_SCHEME3.eps
%%CreationDate: 05/06/2015  12:28:35
%%DocumentNeededFonts: Helvetica
%%DocumentProcessColors: Cyan Magenta Yellow Black
%%Extensions: CMYK
%%Pages: 1
%%BoundingBox:    51   192   552   602
%%EndComments

%%BeginProlog
% MathWorks dictionary
/MathWorks 160 dict begin
% definition operators
/bdef {bind def} bind def
/ldef {load def} bind def
/xdef {exch def} bdef
/xstore {exch store} bdef
% operator abbreviations
/c  /clip ldef
/cc /concat ldef
/cp /closepath ldef
/gr /grestore ldef
/gs /gsave ldef
/mt /moveto ldef
/np /newpath ldef
/cm /currentmatrix ldef
/sm /setmatrix ldef
/rm /rmoveto ldef
/rl /rlineto ldef
/s {show newpath} bdef
/sc {setcmykcolor} bdef
/sr /setrgbcolor ldef
/sg /setgray ldef
/w /setlinewidth ldef
/j /setlinejoin ldef
/cap /setlinecap ldef
/rc {rectclip} bdef
/rf {rectfill} bdef
% page state control
/pgsv () def
/bpage {/pgsv save def} bdef
/epage {pgsv restore} bdef
/bplot /gsave ldef
/eplot {stroke grestore} bdef
% orientation switch
/portraitMode 0 def /landscapeMode 1 def /rotateMode 2 def
% coordinate system mappings
/dpi2point 0 def
% font control
/FontSize 0 def
/FMS {/FontSize xstore findfont [FontSize 0 0 FontSize neg 0 0]
  makefont setfont} bdef
/ISOLatin1Encoding where {pop /WindowsLatin1Encoding 256 array bdef
ISOLatin1Encoding WindowsLatin1Encoding copy pop
/.notdef/.notdef/quotesinglbase/florin/quotedblbase/ellipsis/dagger
/daggerdbl/circumflex/perthousand/Scaron/guilsinglleft/OE/.notdef/.notdef
/.notdef/.notdef/quoteleft/quoteright/quotedblleft/quotedblright/bullet
/endash/emdash/tilde/trademark/scaron/guilsinglright/oe/.notdef/.notdef
/Ydieresis WindowsLatin1Encoding 128 32 getinterval astore pop}
{/WindowsLatin1Encoding StandardEncoding bdef} ifelse
/reencode {exch dup where {pop load} {pop StandardEncoding} ifelse
  exch dup 3 1 roll findfont dup length dict begin
  { 1 index /FID ne {def}{pop pop} ifelse } forall
  /Encoding exch def currentdict end definefont pop} bdef
/isroman {findfont /CharStrings get /Agrave known} bdef
/FMSR {3 1 roll 1 index dup isroman {reencode} {pop pop} ifelse
  exch FMS} bdef
/csm {1 dpi2point div -1 dpi2point div scale neg translate
 dup landscapeMode eq {pop -90 rotate}
  {rotateMode eq {90 rotate} if} ifelse} bdef
% line types: solid, dotted, dashed, dotdash
/SO { [] 0 setdash } bdef
/DO { [.5 dpi2point mul 4 dpi2point mul] 0 setdash } bdef
/DA { [6 dpi2point mul] 0 setdash } bdef
/DD { [.5 dpi2point mul 4 dpi2point mul 6 dpi2point mul 4
  dpi2point mul] 0 setdash } bdef
% macros for lines and objects
/L {lineto stroke} bdef
/MP {3 1 roll moveto 1 sub {rlineto} repeat} bdef
/AP {{rlineto} repeat} bdef
/PDlw -1 def
/W {/PDlw currentlinewidth def setlinewidth} def
/PP {closepath eofill} bdef
/DP {closepath stroke} bdef
/MR {4 -2 roll moveto dup  0 exch rlineto exch 0 rlineto
  neg 0 exch rlineto closepath} bdef
/FR {MR stroke} bdef
/PR {MR fill} bdef
/L1i {{currentfile picstr readhexstring pop} image} bdef
/tMatrix matrix def
/MakeOval {newpath tMatrix currentmatrix pop translate scale
0 0 1 0 360 arc tMatrix setmatrix} bdef
/FO {MakeOval stroke} bdef
/PO {MakeOval fill} bdef
/PD {currentlinewidth 2 div 0 360 arc fill
   PDlw -1 eq not {PDlw w /PDlw -1 def} if} def
/FA {newpath tMatrix currentmatrix pop translate scale
  0 0 1 5 -2 roll arc tMatrix setmatrix stroke} bdef
/PA {newpath tMatrix currentmatrix pop	translate 0 0 moveto scale
  0 0 1 5 -2 roll arc closepath tMatrix setmatrix fill} bdef
/FAn {newpath tMatrix currentmatrix pop translate scale
  0 0 1 5 -2 roll arcn tMatrix setmatrix stroke} bdef
/PAn {newpath tMatrix currentmatrix pop translate 0 0 moveto scale
  0 0 1 5 -2 roll arcn closepath tMatrix setmatrix fill} bdef
/vradius 0 def /hradius 0 def /lry 0 def
/lrx 0 def /uly 0 def /ulx 0 def /rad 0 def
/MRR {/vradius xdef /hradius xdef /lry xdef /lrx xdef /uly xdef
  /ulx xdef newpath tMatrix currentmatrix pop ulx hradius add uly
  vradius add translate hradius vradius scale 0 0 1 180 270 arc 
  tMatrix setmatrix lrx hradius sub uly vradius add translate
  hradius vradius scale 0 0 1 270 360 arc tMatrix setmatrix
  lrx hradius sub lry vradius sub translate hradius vradius scale
  0 0 1 0 90 arc tMatrix setmatrix ulx hradius add lry vradius sub
  translate hradius vradius scale 0 0 1 90 180 arc tMatrix setmatrix
  closepath} bdef
/FRR {MRR stroke } bdef
/PRR {MRR fill } bdef
/MlrRR {/lry xdef /lrx xdef /uly xdef /ulx xdef /rad lry uly sub 2 div def
  newpath tMatrix currentmatrix pop ulx rad add uly rad add translate
  rad rad scale 0 0 1 90 270 arc tMatrix setmatrix lrx rad sub lry rad
  sub translate rad rad scale 0 0 1 270 90 arc tMatrix setmatrix
  closepath} bdef
/FlrRR {MlrRR stroke } bdef
/PlrRR {MlrRR fill } bdef
/MtbRR {/lry xdef /lrx xdef /uly xdef /ulx xdef /rad lrx ulx sub 2 div def
  newpath tMatrix currentmatrix pop ulx rad add uly rad add translate
  rad rad scale 0 0 1 180 360 arc tMatrix setmatrix lrx rad sub lry rad
  sub translate rad rad scale 0 0 1 0 180 arc tMatrix setmatrix
  closepath} bdef
/FtbRR {MtbRR stroke } bdef
/PtbRR {MtbRR fill } bdef
/stri 6 array def /dtri 6 array def
/smat 6 array def /dmat 6 array def
/tmat1 6 array def /tmat2 6 array def /dif 3 array def
/asub {/ind2 exch def /ind1 exch def dup dup
  ind1 get exch ind2 get sub exch } bdef
/tri_to_matrix {
  2 0 asub 3 1 asub 4 0 asub 5 1 asub
  dup 0 get exch 1 get 7 -1 roll astore } bdef
/compute_transform {
  dmat dtri tri_to_matrix tmat1 invertmatrix 
  smat stri tri_to_matrix tmat2 concatmatrix } bdef
/ds {stri astore pop} bdef
/dt {dtri astore pop} bdef
/db {2 copy /cols xdef /rows xdef mul dup 3 mul string
  currentfile exch readhexstring pop
  dup 0 3 index getinterval /rbmap xdef
  dup 2 index dup getinterval /gbmap xdef
  1 index dup 2 mul exch getinterval /bbmap xdef pop pop}bdef
/it {gs np dtri aload pop moveto lineto lineto cp c
  cols rows 8 compute_transform 
  rbmap gbmap bbmap true 3 colorimage gr}bdef
/il {newpath moveto lineto stroke}bdef
currentdict end def
%%EndProlog

%%BeginSetup
MathWorks begin

0 cap

end
%%EndSetup

%%Page: 1 1
%%BeginPageSetup
%%PageBoundingBox:    51   192   552   602
MathWorks begin
bpage
%%EndPageSetup

%%BeginObject: obj1
bplot

/dpi2point 12 def
portraitMode 0204 7344 csm

  417   110  6014  4924 MR c np
87 dict begin %Colortable dictionary
/c0 { 0.000000 0.000000 0.000000 sr} bdef
/c1 { 1.000000 1.000000 1.000000 sr} bdef
/c2 { 0.900000 0.000000 0.000000 sr} bdef
/c3 { 0.000000 0.820000 0.000000 sr} bdef
/c4 { 0.000000 0.000000 0.800000 sr} bdef
/c5 { 0.910000 0.820000 0.320000 sr} bdef
/c6 { 1.000000 0.260000 0.820000 sr} bdef
/c7 { 0.000000 0.820000 0.820000 sr} bdef
c0
1 j
1 sg
   0    0 6913 5185 PR
6 w
0 4225 5356 0 0 -4225 899 4614 4 MP
PP
-5356 0 0 4225 5356 0 0 -4225 899 4614 5 MP stroke
4 w
DO
SO
6 w
0 sg
 899  389 mt 6255  389 L
 899 4614 mt 6255 4614 L
6255 4614 mt 6255  389 L
 899 4614 mt  899  389 L
 899 4614 mt 6255 4614 L
 899 4614 mt  899  389 L
 899 4614 mt  899 4560 L
 899  389 mt  899  442 L
%%IncludeResource: font Helvetica
/Helvetica /WindowsLatin1Encoding 120 FMSR

 866 4759 mt 
(0) s
1791 4614 mt 1791 4560 L
1791  389 mt 1791  442 L
1758 4759 mt 
(5) s
2684 4614 mt 2684 4560 L
2684  389 mt 2684  442 L
2618 4759 mt 
(10) s
3577 4614 mt 3577 4560 L
3577  389 mt 3577  442 L
3511 4759 mt 
(15) s
4469 4614 mt 4469 4560 L
4469  389 mt 4469  442 L
4403 4759 mt 
(20) s
5362 4614 mt 5362 4560 L
5362  389 mt 5362  442 L
5296 4759 mt 
(25) s
6255 4614 mt 6255 4560 L
6255  389 mt 6255  442 L
6189 4759 mt 
(30) s
 899 4614 mt  952 4614 L
6255 4614 mt 6201 4614 L
 798 4658 mt 
(0) s
 899 4144 mt  952 4144 L
6255 4144 mt 6201 4144 L
 798 4188 mt 
(5) s
 899 3675 mt  952 3675 L
6255 3675 mt 6201 3675 L
 731 3719 mt 
(10) s
 899 3205 mt  952 3205 L
6255 3205 mt 6201 3205 L
 731 3249 mt 
(15) s
 899 2736 mt  952 2736 L
6255 2736 mt 6201 2736 L
 731 2780 mt 
(20) s
 899 2266 mt  952 2266 L
6255 2266 mt 6201 2266 L
 731 2310 mt 
(25) s
 899 1797 mt  952 1797 L
6255 1797 mt 6201 1797 L
 731 1841 mt 
(30) s
 899 1327 mt  952 1327 L
6255 1327 mt 6201 1327 L
 731 1371 mt 
(35) s
 899  858 mt  952  858 L
6255  858 mt 6201  858 L
 731  902 mt 
(40) s
 899  389 mt  952  389 L
6255  389 mt 6201  389 L
 731  433 mt 
(45) s
 899  389 mt 6255  389 L
 899 4614 mt 6255 4614 L
6255 4614 mt 6255  389 L
 899 4614 mt  899  389 L
gs 899 389 5357 4226 MR c np
24 w
/c8 { 0.000000 1.000000 0.000000 sr} bdef
c8
179 -150 179 -150 178 -150 179 -150 178 -149 179 -149 178 -149 179 -149 
178 -148 179 -148 178 -146 179 -146 178 -145 179 -144 178 -142 179 -140 
179 -138 178 -135 179 -131 178 -128 179 -123 178 -117 179 -111 178 -105 
179 -97 178 -89 179 -81 178 -72 179 -64 178 -56 899 4335 31 MP stroke
gr

24 w
c8
gs 753 387 5649 4095 MR c np
 839 4335 mt  959 4335 L
 899 4275 mt  899 4395 L
1017 4279 mt 1137 4279 L
1077 4219 mt 1077 4339 L
1196 4215 mt 1316 4215 L
1256 4155 mt 1256 4275 L
1374 4143 mt 1494 4143 L
1434 4083 mt 1434 4203 L
1553 4062 mt 1673 4062 L
1613 4002 mt 1613 4122 L
1731 3973 mt 1851 3973 L
1791 3913 mt 1791 4033 L
1910 3876 mt 2030 3876 L
1970 3816 mt 1970 3936 L
2088 3771 mt 2208 3771 L
2148 3711 mt 2148 3831 L
2267 3660 mt 2387 3660 L
2327 3600 mt 2327 3720 L
2445 3543 mt 2565 3543 L
2505 3483 mt 2505 3603 L
2624 3420 mt 2744 3420 L
2684 3360 mt 2684 3480 L
2802 3292 mt 2922 3292 L
2862 3232 mt 2862 3352 L
2981 3161 mt 3101 3161 L
3041 3101 mt 3041 3221 L
3159 3026 mt 3279 3026 L
3219 2966 mt 3219 3086 L
3338 2888 mt 3458 2888 L
3398 2828 mt 3398 2948 L
3517 2748 mt 3637 2748 L
3577 2688 mt 3577 2808 L
3695 2606 mt 3815 2606 L
3755 2546 mt 3755 2666 L
3874 2462 mt 3994 2462 L
3934 2402 mt 3934 2522 L
4052 2317 mt 4172 2317 L
4112 2257 mt 4112 2377 L
4231 2171 mt 4351 2171 L
4291 2111 mt 4291 2231 L
4409 2025 mt 4529 2025 L
4469 1965 mt 4469 2085 L
4588 1877 mt 4708 1877 L
4648 1817 mt 4648 1937 L
4766 1729 mt 4886 1729 L
4826 1669 mt 4826 1789 L
4945 1580 mt 5065 1580 L
5005 1520 mt 5005 1640 L
5123 1431 mt 5243 1431 L
5183 1371 mt 5183 1491 L
5302 1282 mt 5422 1282 L
5362 1222 mt 5362 1342 L
5480 1133 mt 5600 1133 L
5540 1073 mt 5540 1193 L
5659  983 mt 5779  983 L
5719  923 mt 5719 1043 L
5837  833 mt 5957  833 L
5897  773 mt 5897  893 L
6016  683 mt 6136  683 L
6076  623 mt 6076  743 L
6195  533 mt 6315  533 L
6255  473 mt 6255  593 L
 857 4293 mt  941 4377 L
 941 4293 mt  857 4377 L
1035 4237 mt 1119 4321 L
1119 4237 mt 1035 4321 L
1214 4173 mt 1298 4257 L
1298 4173 mt 1214 4257 L
1392 4101 mt 1476 4185 L
1476 4101 mt 1392 4185 L
1571 4020 mt 1655 4104 L
1655 4020 mt 1571 4104 L
1749 3931 mt 1833 4015 L
1833 3931 mt 1749 4015 L
1928 3834 mt 2012 3918 L
2012 3834 mt 1928 3918 L
2106 3729 mt 2190 3813 L
2190 3729 mt 2106 3813 L
2285 3618 mt 2369 3702 L
2369 3618 mt 2285 3702 L
2463 3501 mt 2547 3585 L
2547 3501 mt 2463 3585 L
2642 3378 mt 2726 3462 L
2726 3378 mt 2642 3462 L
2820 3250 mt 2904 3334 L
2904 3250 mt 2820 3334 L
2999 3119 mt 3083 3203 L
3083 3119 mt 2999 3203 L
3177 2984 mt 3261 3068 L
3261 2984 mt 3177 3068 L
3356 2846 mt 3440 2930 L
3440 2846 mt 3356 2930 L
3535 2706 mt 3619 2790 L
3619 2706 mt 3535 2790 L
3713 2564 mt 3797 2648 L
3797 2564 mt 3713 2648 L
3892 2420 mt 3976 2504 L
3976 2420 mt 3892 2504 L
4070 2275 mt 4154 2359 L
4154 2275 mt 4070 2359 L
4249 2129 mt 4333 2213 L
4333 2129 mt 4249 2213 L
4427 1983 mt 4511 2067 L
4511 1983 mt 4427 2067 L
4606 1835 mt 4690 1919 L
4690 1835 mt 4606 1919 L
4784 1687 mt 4868 1771 L
4868 1687 mt 4784 1771 L
4963 1538 mt 5047 1622 L
5047 1538 mt 4963 1622 L
5141 1389 mt 5225 1473 L
5225 1389 mt 5141 1473 L
5320 1240 mt 5404 1324 L
5404 1240 mt 5320 1324 L
5498 1091 mt 5582 1175 L
5582 1091 mt 5498 1175 L
5677  941 mt 5761 1025 L
5761  941 mt 5677 1025 L
5855  791 mt 5939  875 L
5939  791 mt 5855  875 L
6034  641 mt 6118  725 L
6118  641 mt 6034  725 L
6213  491 mt 6297  575 L
6297  491 mt 6213  575 L
gr

gs 899 389 5357 4226 MR c np
gr

0 sg
2992  294 mt 
(Channel E, Scheme 3) s
%%IncludeResource: font Helvetica
/Helvetica /WindowsLatin1Encoding 204 FMSR

3140 4964 mt 
(SNR \(dB\)) s
 631 3783 mt  -90 rotate
(Information Rates \(nats/sec\)) s
90 rotate
gs 899 389 5357 4226 MR c np
/c9 { 0.000000 0.000000 1.000000 sr} bdef
c9
179 -142 179 -140 178 -141 179 -140 178 -139 179 -138 178 -137 179 -136 
178 -135 179 -132 178 -130 179 -128 178 -125 179 -121 178 -117 179 -112 
179 -106 178 -101 179 -95 178 -87 179 -81 178 -73 179 -66 178 -58 
179 -52 178 -44 179 -39 178 -32 179 -28 178 -23 899 4513 31 MP stroke
gr

c9
gs 753 1369 5649 3291 MR c np
0 j
0 -94 -94 0 0 94 94 0 852 4466 5 MP
DP
0 -94 -94 0 0 94 94 0 1030 4443 5 MP
DP
0 -94 -94 0 0 94 94 0 1209 4415 5 MP
DP
0 -94 -94 0 0 94 94 0 1387 4383 5 MP
DP
0 -94 -94 0 0 94 94 0 1566 4344 5 MP
DP
0 -94 -94 0 0 94 94 0 1744 4300 5 MP
DP
0 -94 -94 0 0 94 94 0 1923 4248 5 MP
DP
0 -94 -94 0 0 94 94 0 2101 4190 5 MP
DP
0 -94 -94 0 0 94 94 0 2280 4124 5 MP
DP
0 -94 -94 0 0 94 94 0 2458 4051 5 MP
DP
0 -94 -94 0 0 94 94 0 2637 3970 5 MP
DP
0 -94 -94 0 0 94 94 0 2815 3883 5 MP
DP
0 -94 -94 0 0 94 94 0 2994 3788 5 MP
DP
0 -94 -94 0 0 94 94 0 3172 3687 5 MP
DP
0 -94 -94 0 0 94 94 0 3351 3581 5 MP
DP
0 -94 -94 0 0 94 94 0 3530 3469 5 MP
DP
0 -94 -94 0 0 94 94 0 3708 3352 5 MP
DP
0 -94 -94 0 0 94 94 0 3887 3231 5 MP
DP
0 -94 -94 0 0 94 94 0 4065 3106 5 MP
DP
0 -94 -94 0 0 94 94 0 4244 2978 5 MP
DP
0 -94 -94 0 0 94 94 0 4422 2848 5 MP
DP
0 -94 -94 0 0 94 94 0 4601 2716 5 MP
DP
0 -94 -94 0 0 94 94 0 4779 2581 5 MP
DP
0 -94 -94 0 0 94 94 0 4958 2445 5 MP
DP
0 -94 -94 0 0 94 94 0 5136 2308 5 MP
DP
0 -94 -94 0 0 94 94 0 5315 2170 5 MP
DP
0 -94 -94 0 0 94 94 0 5493 2031 5 MP
DP
0 -94 -94 0 0 94 94 0 5672 1891 5 MP
DP
0 -94 -94 0 0 94 94 0 5850 1750 5 MP
DP
0 -94 -94 0 0 94 94 0 6029 1610 5 MP
DP
0 -94 -94 0 0 94 94 0 6208 1468 5 MP
DP
gr

gs 899 389 5357 4226 MR c np
/c10 { 1.000000 0.000000 1.000000 sr} bdef
c10
179 -142 179 -140 178 -141 179 -140 178 -139 179 -138 178 -137 179 -136 
178 -135 179 -132 178 -130 179 -128 178 -125 179 -121 178 -117 179 -112 
179 -106 178 -101 179 -95 178 -87 179 -81 178 -73 179 -66 178 -58 
179 -52 178 -44 179 -39 178 -32 179 -28 178 -23 899 4513 31 MP stroke
gr

c10
gs 753 1369 5649 3291 MR c np
 839 4513 mt  959 4513 L
 899 4453 mt  899 4573 L
1017 4490 mt 1137 4490 L
1077 4430 mt 1077 4550 L
1196 4462 mt 1316 4462 L
1256 4402 mt 1256 4522 L
1374 4430 mt 1494 4430 L
1434 4370 mt 1434 4490 L
1553 4391 mt 1673 4391 L
1613 4331 mt 1613 4451 L
1731 4347 mt 1851 4347 L
1791 4287 mt 1791 4407 L
1910 4295 mt 2030 4295 L
1970 4235 mt 1970 4355 L
2088 4237 mt 2208 4237 L
2148 4177 mt 2148 4297 L
2267 4171 mt 2387 4171 L
2327 4111 mt 2327 4231 L
2445 4098 mt 2565 4098 L
2505 4038 mt 2505 4158 L
2624 4017 mt 2744 4017 L
2684 3957 mt 2684 4077 L
2802 3930 mt 2922 3930 L
2862 3870 mt 2862 3990 L
2981 3835 mt 3101 3835 L
3041 3775 mt 3041 3895 L
3159 3734 mt 3279 3734 L
3219 3674 mt 3219 3794 L
3338 3628 mt 3458 3628 L
3398 3568 mt 3398 3688 L
3517 3516 mt 3637 3516 L
3577 3456 mt 3577 3576 L
3695 3399 mt 3815 3399 L
3755 3339 mt 3755 3459 L
3874 3278 mt 3994 3278 L
3934 3218 mt 3934 3338 L
4052 3153 mt 4172 3153 L
4112 3093 mt 4112 3213 L
4231 3025 mt 4351 3025 L
4291 2965 mt 4291 3085 L
4409 2895 mt 4529 2895 L
4469 2835 mt 4469 2955 L
4588 2763 mt 4708 2763 L
4648 2703 mt 4648 2823 L
4766 2628 mt 4886 2628 L
4826 2568 mt 4826 2688 L
4945 2492 mt 5065 2492 L
5005 2432 mt 5005 2552 L
5123 2355 mt 5243 2355 L
5183 2295 mt 5183 2415 L
5302 2217 mt 5422 2217 L
5362 2157 mt 5362 2277 L
5480 2078 mt 5600 2078 L
5540 2018 mt 5540 2138 L
5659 1938 mt 5779 1938 L
5719 1878 mt 5719 1998 L
5837 1797 mt 5957 1797 L
5897 1737 mt 5897 1857 L
6016 1657 mt 6136 1657 L
6076 1597 mt 6076 1717 L
6195 1515 mt 6315 1515 L
6255 1455 mt 6255 1575 L
gr

gs 899 389 5357 4226 MR c np
/c11 { 1.000000 0.000000 0.000000 sr} bdef
c11
179 -142 179 -140 178 -141 179 -140 178 -139 179 -138 178 -137 179 -136 
178 -135 179 -132 178 -130 179 -128 178 -125 179 -121 178 -117 179 -112 
179 -106 178 -101 179 -95 178 -87 179 -81 178 -73 179 -66 178 -58 
179 -52 178 -44 179 -39 178 -32 179 -28 178 -23 899 4513 31 MP stroke
gr

c11
gs 753 1369 5649 3291 MR c np
 857 4471 mt  941 4555 L
 941 4471 mt  857 4555 L
1035 4448 mt 1119 4532 L
1119 4448 mt 1035 4532 L
1214 4420 mt 1298 4504 L
1298 4420 mt 1214 4504 L
1392 4388 mt 1476 4472 L
1476 4388 mt 1392 4472 L
1571 4349 mt 1655 4433 L
1655 4349 mt 1571 4433 L
1749 4305 mt 1833 4389 L
1833 4305 mt 1749 4389 L
1928 4253 mt 2012 4337 L
2012 4253 mt 1928 4337 L
2106 4195 mt 2190 4279 L
2190 4195 mt 2106 4279 L
2285 4129 mt 2369 4213 L
2369 4129 mt 2285 4213 L
2463 4056 mt 2547 4140 L
2547 4056 mt 2463 4140 L
2642 3975 mt 2726 4059 L
2726 3975 mt 2642 4059 L
2820 3888 mt 2904 3972 L
2904 3888 mt 2820 3972 L
2999 3793 mt 3083 3877 L
3083 3793 mt 2999 3877 L
3177 3692 mt 3261 3776 L
3261 3692 mt 3177 3776 L
3356 3586 mt 3440 3670 L
3440 3586 mt 3356 3670 L
3535 3474 mt 3619 3558 L
3619 3474 mt 3535 3558 L
3713 3357 mt 3797 3441 L
3797 3357 mt 3713 3441 L
3892 3236 mt 3976 3320 L
3976 3236 mt 3892 3320 L
4070 3111 mt 4154 3195 L
4154 3111 mt 4070 3195 L
4249 2983 mt 4333 3067 L
4333 2983 mt 4249 3067 L
4427 2853 mt 4511 2937 L
4511 2853 mt 4427 2937 L
4606 2721 mt 4690 2805 L
4690 2721 mt 4606 2805 L
4784 2586 mt 4868 2670 L
4868 2586 mt 4784 2670 L
4963 2450 mt 5047 2534 L
5047 2450 mt 4963 2534 L
5141 2313 mt 5225 2397 L
5225 2313 mt 5141 2397 L
5320 2175 mt 5404 2259 L
5404 2175 mt 5320 2259 L
5498 2036 mt 5582 2120 L
5582 2036 mt 5498 2120 L
5677 1896 mt 5761 1980 L
5761 1896 mt 5677 1980 L
5855 1755 mt 5939 1839 L
5939 1755 mt 5855 1839 L
6034 1615 mt 6118 1699 L
6118 1615 mt 6034 1699 L
6213 1473 mt 6297 1557 L
6297 1473 mt 6213 1557 L
gr

gs 899 389 5357 4226 MR c np
gr

0 sg
%%IncludeResource: font Helvetica
/Helvetica /WindowsLatin1Encoding 120 FMSR

 882 4657 mt 
( ) s
6239  431 mt 
( ) s
6 w
1 sg
0 907 1367 0 0 -907 4828 4555 4 MP
PP
-1367 0 0 907 1367 0 0 -907 4828 4555 5 MP stroke
4 w
DO
SO
6 w
0 sg
4828 3648 mt 6195 3648 L
4828 4555 mt 6195 4555 L
6195 4555 mt 6195 3648 L
4828 4555 mt 4828 3648 L
4828 4555 mt 6195 4555 L
4828 4555 mt 4828 3648 L
4828 3648 mt 6195 3648 L
4828 4555 mt 6195 4555 L
6195 4555 mt 6195 3648 L
4828 4555 mt 4828 3648 L
%%IncludeResource: font Helvetica
/Helvetica /WindowsLatin1Encoding 168 FMSR

5281 3830 mt 
(Optimal Rx) s
gs 4828 3648 1368 908 MR c np
24 w
c8
348 0 4897 3769 2 MP stroke
gr

24 w
c8
gs 4925 3623 293 293 MR c np
5011 3769 mt 5131 3769 L
5071 3709 mt 5071 3829 L
5029 3727 mt 5113 3811 L
5113 3727 mt 5029 3811 L
gr

gs 4828 3648 1368 908 MR c np
gr

0 sg
5281 4090 mt 
(EB, K=K) s
%%IncludeResource: font Symbol
/Symbol /WindowsLatin1Encoding 132 FMSR

5917 4006 mt 
(\242) s
%%IncludeResource: font Helvetica
/Helvetica /WindowsLatin1Encoding 168 FMSR

5949 4090 mt 
(+1) s
gs 4828 3648 1368 908 MR c np
c9
348 0 4897 3999 2 MP stroke
gs 4925 3853 293 293 MR c np
0 j
0 -94 -94 0 0 94 94 0 5024 3952 5 MP
DP
gr

gr

c9
0 sg
5281 4289 mt 
(SB, JLD) s
gs 4828 3648 1368 908 MR c np
c10
348 0 4897 4228 2 MP stroke
gs 4925 4082 293 293 MR c np
5011 4228 mt 5131 4228 L
5071 4168 mt 5071 4288 L
gr

gr

c10
0 sg
5281 4494 mt 
(SB, ILD) s
gs 4828 3648 1368 908 MR c np
c11
348 0 4897 4433 2 MP stroke
gr

c11
gs 4925 4287 293 293 MR c np
5029 4391 mt 5113 4475 L
5113 4391 mt 5029 4475 L
gr

gs 4828 3648 1368 908 MR c np
6 w
gr

6 w

end %%Color Dict

eplot
%%EndObject

epage
end

showpage

%%Trailer
%%EOF
