%!PS-Adobe-2.0 EPSF-1.2
%%Creator: MATLAB, The MathWorks, Inc. Version 7.14.0.739 (R2012a). Operating System: Microsoft Windows 7.
%%Title: .\RATE_CHA_SCHEME2.eps
%%CreationDate: 05/06/2015  12:27:48
%%DocumentNeededFonts: Helvetica
%%DocumentProcessColors: Cyan Magenta Yellow Black
%%Extensions: CMYK
%%Pages: 1
%%BoundingBox:    51   192   552   602
%%EndComments

%%BeginProlog
% MathWorks dictionary
/MathWorks 160 dict begin
% definition operators
/bdef {bind def} bind def
/ldef {load def} bind def
/xdef {exch def} bdef
/xstore {exch store} bdef
% operator abbreviations
/c  /clip ldef
/cc /concat ldef
/cp /closepath ldef
/gr /grestore ldef
/gs /gsave ldef
/mt /moveto ldef
/np /newpath ldef
/cm /currentmatrix ldef
/sm /setmatrix ldef
/rm /rmoveto ldef
/rl /rlineto ldef
/s {show newpath} bdef
/sc {setcmykcolor} bdef
/sr /setrgbcolor ldef
/sg /setgray ldef
/w /setlinewidth ldef
/j /setlinejoin ldef
/cap /setlinecap ldef
/rc {rectclip} bdef
/rf {rectfill} bdef
% page state control
/pgsv () def
/bpage {/pgsv save def} bdef
/epage {pgsv restore} bdef
/bplot /gsave ldef
/eplot {stroke grestore} bdef
% orientation switch
/portraitMode 0 def /landscapeMode 1 def /rotateMode 2 def
% coordinate system mappings
/dpi2point 0 def
% font control
/FontSize 0 def
/FMS {/FontSize xstore findfont [FontSize 0 0 FontSize neg 0 0]
  makefont setfont} bdef
/ISOLatin1Encoding where {pop /WindowsLatin1Encoding 256 array bdef
ISOLatin1Encoding WindowsLatin1Encoding copy pop
/.notdef/.notdef/quotesinglbase/florin/quotedblbase/ellipsis/dagger
/daggerdbl/circumflex/perthousand/Scaron/guilsinglleft/OE/.notdef/.notdef
/.notdef/.notdef/quoteleft/quoteright/quotedblleft/quotedblright/bullet
/endash/emdash/tilde/trademark/scaron/guilsinglright/oe/.notdef/.notdef
/Ydieresis WindowsLatin1Encoding 128 32 getinterval astore pop}
{/WindowsLatin1Encoding StandardEncoding bdef} ifelse
/reencode {exch dup where {pop load} {pop StandardEncoding} ifelse
  exch dup 3 1 roll findfont dup length dict begin
  { 1 index /FID ne {def}{pop pop} ifelse } forall
  /Encoding exch def currentdict end definefont pop} bdef
/isroman {findfont /CharStrings get /Agrave known} bdef
/FMSR {3 1 roll 1 index dup isroman {reencode} {pop pop} ifelse
  exch FMS} bdef
/csm {1 dpi2point div -1 dpi2point div scale neg translate
 dup landscapeMode eq {pop -90 rotate}
  {rotateMode eq {90 rotate} if} ifelse} bdef
% line types: solid, dotted, dashed, dotdash
/SO { [] 0 setdash } bdef
/DO { [.5 dpi2point mul 4 dpi2point mul] 0 setdash } bdef
/DA { [6 dpi2point mul] 0 setdash } bdef
/DD { [.5 dpi2point mul 4 dpi2point mul 6 dpi2point mul 4
  dpi2point mul] 0 setdash } bdef
% macros for lines and objects
/L {lineto stroke} bdef
/MP {3 1 roll moveto 1 sub {rlineto} repeat} bdef
/AP {{rlineto} repeat} bdef
/PDlw -1 def
/W {/PDlw currentlinewidth def setlinewidth} def
/PP {closepath eofill} bdef
/DP {closepath stroke} bdef
/MR {4 -2 roll moveto dup  0 exch rlineto exch 0 rlineto
  neg 0 exch rlineto closepath} bdef
/FR {MR stroke} bdef
/PR {MR fill} bdef
/L1i {{currentfile picstr readhexstring pop} image} bdef
/tMatrix matrix def
/MakeOval {newpath tMatrix currentmatrix pop translate scale
0 0 1 0 360 arc tMatrix setmatrix} bdef
/FO {MakeOval stroke} bdef
/PO {MakeOval fill} bdef
/PD {currentlinewidth 2 div 0 360 arc fill
   PDlw -1 eq not {PDlw w /PDlw -1 def} if} def
/FA {newpath tMatrix currentmatrix pop translate scale
  0 0 1 5 -2 roll arc tMatrix setmatrix stroke} bdef
/PA {newpath tMatrix currentmatrix pop	translate 0 0 moveto scale
  0 0 1 5 -2 roll arc closepath tMatrix setmatrix fill} bdef
/FAn {newpath tMatrix currentmatrix pop translate scale
  0 0 1 5 -2 roll arcn tMatrix setmatrix stroke} bdef
/PAn {newpath tMatrix currentmatrix pop translate 0 0 moveto scale
  0 0 1 5 -2 roll arcn closepath tMatrix setmatrix fill} bdef
/vradius 0 def /hradius 0 def /lry 0 def
/lrx 0 def /uly 0 def /ulx 0 def /rad 0 def
/MRR {/vradius xdef /hradius xdef /lry xdef /lrx xdef /uly xdef
  /ulx xdef newpath tMatrix currentmatrix pop ulx hradius add uly
  vradius add translate hradius vradius scale 0 0 1 180 270 arc 
  tMatrix setmatrix lrx hradius sub uly vradius add translate
  hradius vradius scale 0 0 1 270 360 arc tMatrix setmatrix
  lrx hradius sub lry vradius sub translate hradius vradius scale
  0 0 1 0 90 arc tMatrix setmatrix ulx hradius add lry vradius sub
  translate hradius vradius scale 0 0 1 90 180 arc tMatrix setmatrix
  closepath} bdef
/FRR {MRR stroke } bdef
/PRR {MRR fill } bdef
/MlrRR {/lry xdef /lrx xdef /uly xdef /ulx xdef /rad lry uly sub 2 div def
  newpath tMatrix currentmatrix pop ulx rad add uly rad add translate
  rad rad scale 0 0 1 90 270 arc tMatrix setmatrix lrx rad sub lry rad
  sub translate rad rad scale 0 0 1 270 90 arc tMatrix setmatrix
  closepath} bdef
/FlrRR {MlrRR stroke } bdef
/PlrRR {MlrRR fill } bdef
/MtbRR {/lry xdef /lrx xdef /uly xdef /ulx xdef /rad lrx ulx sub 2 div def
  newpath tMatrix currentmatrix pop ulx rad add uly rad add translate
  rad rad scale 0 0 1 180 360 arc tMatrix setmatrix lrx rad sub lry rad
  sub translate rad rad scale 0 0 1 0 180 arc tMatrix setmatrix
  closepath} bdef
/FtbRR {MtbRR stroke } bdef
/PtbRR {MtbRR fill } bdef
/stri 6 array def /dtri 6 array def
/smat 6 array def /dmat 6 array def
/tmat1 6 array def /tmat2 6 array def /dif 3 array def
/asub {/ind2 exch def /ind1 exch def dup dup
  ind1 get exch ind2 get sub exch } bdef
/tri_to_matrix {
  2 0 asub 3 1 asub 4 0 asub 5 1 asub
  dup 0 get exch 1 get 7 -1 roll astore } bdef
/compute_transform {
  dmat dtri tri_to_matrix tmat1 invertmatrix 
  smat stri tri_to_matrix tmat2 concatmatrix } bdef
/ds {stri astore pop} bdef
/dt {dtri astore pop} bdef
/db {2 copy /cols xdef /rows xdef mul dup 3 mul string
  currentfile exch readhexstring pop
  dup 0 3 index getinterval /rbmap xdef
  dup 2 index dup getinterval /gbmap xdef
  1 index dup 2 mul exch getinterval /bbmap xdef pop pop}bdef
/it {gs np dtri aload pop moveto lineto lineto cp c
  cols rows 8 compute_transform 
  rbmap gbmap bbmap true 3 colorimage gr}bdef
/il {newpath moveto lineto stroke}bdef
currentdict end def
%%EndProlog

%%BeginSetup
MathWorks begin

0 cap

end
%%EndSetup

%%Page: 1 1
%%BeginPageSetup
%%PageBoundingBox:    51   192   552   602
MathWorks begin
bpage
%%EndPageSetup

%%BeginObject: obj1
bplot

/dpi2point 12 def
portraitMode 0204 7344 csm

  417   110  6014  4924 MR c np
87 dict begin %Colortable dictionary
/c0 { 0.000000 0.000000 0.000000 sr} bdef
/c1 { 1.000000 1.000000 1.000000 sr} bdef
/c2 { 0.900000 0.000000 0.000000 sr} bdef
/c3 { 0.000000 0.820000 0.000000 sr} bdef
/c4 { 0.000000 0.000000 0.800000 sr} bdef
/c5 { 0.910000 0.820000 0.320000 sr} bdef
/c6 { 1.000000 0.260000 0.820000 sr} bdef
/c7 { 0.000000 0.820000 0.820000 sr} bdef
c0
1 j
1 sg
   0    0 6913 5185 PR
6 w
0 4225 5356 0 0 -4225 899 4614 4 MP
PP
-5356 0 0 4225 5356 0 0 -4225 899 4614 5 MP stroke
4 w
DO
SO
6 w
0 sg
 899  389 mt 6255  389 L
 899 4614 mt 6255 4614 L
6255 4614 mt 6255  389 L
 899 4614 mt  899  389 L
 899 4614 mt 6255 4614 L
 899 4614 mt  899  389 L
 899 4614 mt  899 4560 L
 899  389 mt  899  442 L
%%IncludeResource: font Helvetica
/Helvetica /WindowsLatin1Encoding 120 FMSR

 866 4759 mt 
(0) s
1791 4614 mt 1791 4560 L
1791  389 mt 1791  442 L
1758 4759 mt 
(5) s
2684 4614 mt 2684 4560 L
2684  389 mt 2684  442 L
2618 4759 mt 
(10) s
3577 4614 mt 3577 4560 L
3577  389 mt 3577  442 L
3511 4759 mt 
(15) s
4469 4614 mt 4469 4560 L
4469  389 mt 4469  442 L
4403 4759 mt 
(20) s
5362 4614 mt 5362 4560 L
5362  389 mt 5362  442 L
5296 4759 mt 
(25) s
6255 4614 mt 6255 4560 L
6255  389 mt 6255  442 L
6189 4759 mt 
(30) s
 899 4614 mt  952 4614 L
6255 4614 mt 6201 4614 L
 798 4658 mt 
(0) s
 899 4085 mt  952 4085 L
6255 4085 mt 6201 4085 L
 798 4129 mt 
(5) s
 899 3557 mt  952 3557 L
6255 3557 mt 6201 3557 L
 731 3601 mt 
(10) s
 899 3029 mt  952 3029 L
6255 3029 mt 6201 3029 L
 731 3073 mt 
(15) s
 899 2501 mt  952 2501 L
6255 2501 mt 6201 2501 L
 731 2545 mt 
(20) s
 899 1973 mt  952 1973 L
6255 1973 mt 6201 1973 L
 731 2017 mt 
(25) s
 899 1445 mt  952 1445 L
6255 1445 mt 6201 1445 L
 731 1489 mt 
(30) s
 899  917 mt  952  917 L
6255  917 mt 6201  917 L
 731  961 mt 
(35) s
 899  389 mt  952  389 L
6255  389 mt 6201  389 L
 731  433 mt 
(40) s
 899  389 mt 6255  389 L
 899 4614 mt 6255 4614 L
6255 4614 mt 6255  389 L
 899 4614 mt  899  389 L
gs 899 389 5357 4226 MR c np
24 w
/c8 { 0.000000 1.000000 0.000000 sr} bdef
c8
179 -181 179 -181 178 -179 179 -178 178 -177 179 -176 178 -174 179 -171 
178 -170 179 -167 178 -163 179 -159 178 -155 179 -150 178 -145 179 -137 
179 -130 178 -123 179 -114 178 -105 179 -96 178 -87 179 -78 178 -68 
179 -61 178 -52 179 -45 178 -38 179 -32 178 -27 899 4496 31 MP stroke
gr

24 w
c8
gs 753 631 5649 4012 MR c np
 839 4496 mt  959 4496 L
 899 4436 mt  899 4556 L
1017 4469 mt 1137 4469 L
1077 4409 mt 1077 4529 L
1196 4437 mt 1316 4437 L
1256 4377 mt 1256 4497 L
1374 4399 mt 1494 4399 L
1434 4339 mt 1434 4459 L
1553 4354 mt 1673 4354 L
1613 4294 mt 1613 4414 L
1731 4302 mt 1851 4302 L
1791 4242 mt 1791 4362 L
1910 4241 mt 2030 4241 L
1970 4181 mt 1970 4301 L
2088 4173 mt 2208 4173 L
2148 4113 mt 2148 4233 L
2267 4095 mt 2387 4095 L
2327 4035 mt 2327 4155 L
2445 4008 mt 2565 4008 L
2505 3948 mt 2505 4068 L
2624 3912 mt 2744 3912 L
2684 3852 mt 2684 3972 L
2802 3807 mt 2922 3807 L
2862 3747 mt 2862 3867 L
2981 3693 mt 3101 3693 L
3041 3633 mt 3041 3753 L
3159 3570 mt 3279 3570 L
3219 3510 mt 3219 3630 L
3338 3440 mt 3458 3440 L
3398 3380 mt 3398 3500 L
3517 3303 mt 3637 3303 L
3577 3243 mt 3577 3363 L
3695 3158 mt 3815 3158 L
3755 3098 mt 3755 3218 L
3874 3008 mt 3994 3008 L
3934 2948 mt 3934 3068 L
4052 2853 mt 4172 2853 L
4112 2793 mt 4112 2913 L
4231 2694 mt 4351 2694 L
4291 2634 mt 4291 2754 L
4409 2531 mt 4529 2531 L
4469 2471 mt 4469 2591 L
4588 2364 mt 4708 2364 L
4648 2304 mt 4648 2424 L
4766 2194 mt 4886 2194 L
4826 2134 mt 4826 2254 L
4945 2023 mt 5065 2023 L
5005 1963 mt 5005 2083 L
5123 1849 mt 5243 1849 L
5183 1789 mt 5183 1909 L
5302 1673 mt 5422 1673 L
5362 1613 mt 5362 1733 L
5480 1496 mt 5600 1496 L
5540 1436 mt 5540 1556 L
5659 1318 mt 5779 1318 L
5719 1258 mt 5719 1378 L
5837 1139 mt 5957 1139 L
5897 1079 mt 5897 1199 L
6016  958 mt 6136  958 L
6076  898 mt 6076 1018 L
6195  777 mt 6315  777 L
6255  717 mt 6255  837 L
 857 4454 mt  941 4538 L
 941 4454 mt  857 4538 L
1035 4427 mt 1119 4511 L
1119 4427 mt 1035 4511 L
1214 4395 mt 1298 4479 L
1298 4395 mt 1214 4479 L
1392 4357 mt 1476 4441 L
1476 4357 mt 1392 4441 L
1571 4312 mt 1655 4396 L
1655 4312 mt 1571 4396 L
1749 4260 mt 1833 4344 L
1833 4260 mt 1749 4344 L
1928 4199 mt 2012 4283 L
2012 4199 mt 1928 4283 L
2106 4131 mt 2190 4215 L
2190 4131 mt 2106 4215 L
2285 4053 mt 2369 4137 L
2369 4053 mt 2285 4137 L
2463 3966 mt 2547 4050 L
2547 3966 mt 2463 4050 L
2642 3870 mt 2726 3954 L
2726 3870 mt 2642 3954 L
2820 3765 mt 2904 3849 L
2904 3765 mt 2820 3849 L
2999 3651 mt 3083 3735 L
3083 3651 mt 2999 3735 L
3177 3528 mt 3261 3612 L
3261 3528 mt 3177 3612 L
3356 3398 mt 3440 3482 L
3440 3398 mt 3356 3482 L
3535 3261 mt 3619 3345 L
3619 3261 mt 3535 3345 L
3713 3116 mt 3797 3200 L
3797 3116 mt 3713 3200 L
3892 2966 mt 3976 3050 L
3976 2966 mt 3892 3050 L
4070 2811 mt 4154 2895 L
4154 2811 mt 4070 2895 L
4249 2652 mt 4333 2736 L
4333 2652 mt 4249 2736 L
4427 2489 mt 4511 2573 L
4511 2489 mt 4427 2573 L
4606 2322 mt 4690 2406 L
4690 2322 mt 4606 2406 L
4784 2152 mt 4868 2236 L
4868 2152 mt 4784 2236 L
4963 1981 mt 5047 2065 L
5047 1981 mt 4963 2065 L
5141 1807 mt 5225 1891 L
5225 1807 mt 5141 1891 L
5320 1631 mt 5404 1715 L
5404 1631 mt 5320 1715 L
5498 1454 mt 5582 1538 L
5582 1454 mt 5498 1538 L
5677 1276 mt 5761 1360 L
5761 1276 mt 5677 1360 L
5855 1097 mt 5939 1181 L
5939 1097 mt 5855 1181 L
6034  916 mt 6118 1000 L
6118  916 mt 6034 1000 L
6213  735 mt 6297  819 L
6297  735 mt 6213  819 L
gr

gs 899 389 5357 4226 MR c np
gr

0 sg
2992  294 mt 
(Channel A, Scheme 2) s
%%IncludeResource: font Helvetica
/Helvetica /WindowsLatin1Encoding 204 FMSR

3140 4964 mt 
(SNR \(dB\)) s
 631 3783 mt  -90 rotate
(Information Rates \(nats/sec\)) s
90 rotate
gs 899 389 5357 4226 MR c np
/c9 { 0.000000 0.000000 1.000000 sr} bdef
c9
179 -181 179 -179 178 -178 179 -177 178 -176 179 -174 178 -172 179 -170 
178 -166 179 -164 178 -160 179 -155 178 -150 179 -145 178 -138 179 -130 
179 -123 178 -115 179 -105 178 -97 179 -87 178 -78 179 -70 178 -60 
179 -53 178 -45 179 -39 178 -32 179 -27 178 -23 899 4517 31 MP stroke
gr

c9
gs 753 802 5649 3862 MR c np
0 j
0 -94 -94 0 0 94 94 0 852 4470 5 MP
DP
0 -94 -94 0 0 94 94 0 1030 4447 5 MP
DP
0 -94 -94 0 0 94 94 0 1209 4420 5 MP
DP
0 -94 -94 0 0 94 94 0 1387 4388 5 MP
DP
0 -94 -94 0 0 94 94 0 1566 4349 5 MP
DP
0 -94 -94 0 0 94 94 0 1744 4304 5 MP
DP
0 -94 -94 0 0 94 94 0 1923 4251 5 MP
DP
0 -94 -94 0 0 94 94 0 2101 4191 5 MP
DP
0 -94 -94 0 0 94 94 0 2280 4121 5 MP
DP
0 -94 -94 0 0 94 94 0 2458 4043 5 MP
DP
0 -94 -94 0 0 94 94 0 2637 3956 5 MP
DP
0 -94 -94 0 0 94 94 0 2815 3859 5 MP
DP
0 -94 -94 0 0 94 94 0 2994 3754 5 MP
DP
0 -94 -94 0 0 94 94 0 3172 3639 5 MP
DP
0 -94 -94 0 0 94 94 0 3351 3516 5 MP
DP
0 -94 -94 0 0 94 94 0 3530 3386 5 MP
DP
0 -94 -94 0 0 94 94 0 3708 3248 5 MP
DP
0 -94 -94 0 0 94 94 0 3887 3103 5 MP
DP
0 -94 -94 0 0 94 94 0 4065 2953 5 MP
DP
0 -94 -94 0 0 94 94 0 4244 2798 5 MP
DP
0 -94 -94 0 0 94 94 0 4422 2638 5 MP
DP
0 -94 -94 0 0 94 94 0 4601 2474 5 MP
DP
0 -94 -94 0 0 94 94 0 4779 2308 5 MP
DP
0 -94 -94 0 0 94 94 0 4958 2138 5 MP
DP
0 -94 -94 0 0 94 94 0 5136 1966 5 MP
DP
0 -94 -94 0 0 94 94 0 5315 1792 5 MP
DP
0 -94 -94 0 0 94 94 0 5493 1616 5 MP
DP
0 -94 -94 0 0 94 94 0 5672 1439 5 MP
DP
0 -94 -94 0 0 94 94 0 5850 1261 5 MP
DP
0 -94 -94 0 0 94 94 0 6029 1082 5 MP
DP
0 -94 -94 0 0 94 94 0 6208 901 5 MP
DP
gr

gs 899 389 5357 4226 MR c np
/c10 { 1.000000 0.000000 1.000000 sr} bdef
c10
179 -180 179 -180 178 -178 179 -177 178 -176 179 -174 178 -172 179 -169 
178 -167 179 -164 178 -159 179 -156 178 -150 179 -144 178 -138 179 -131 
179 -122 178 -115 179 -105 178 -97 179 -87 178 -78 179 -69 178 -61 
179 -52 178 -46 179 -38 178 -32 179 -27 178 -23 899 4517 31 MP stroke
gr

c10
gs 753 804 5649 3860 MR c np
 839 4517 mt  959 4517 L
 899 4457 mt  899 4577 L
1017 4494 mt 1137 4494 L
1077 4434 mt 1077 4554 L
1196 4467 mt 1316 4467 L
1256 4407 mt 1256 4527 L
1374 4435 mt 1494 4435 L
1434 4375 mt 1434 4495 L
1553 4397 mt 1673 4397 L
1613 4337 mt 1613 4457 L
1731 4351 mt 1851 4351 L
1791 4291 mt 1791 4411 L
1910 4299 mt 2030 4299 L
1970 4239 mt 1970 4359 L
2088 4238 mt 2208 4238 L
2148 4178 mt 2148 4298 L
2267 4169 mt 2387 4169 L
2327 4109 mt 2327 4229 L
2445 4091 mt 2565 4091 L
2505 4031 mt 2505 4151 L
2624 4004 mt 2744 4004 L
2684 3944 mt 2684 4064 L
2802 3907 mt 2922 3907 L
2862 3847 mt 2862 3967 L
2981 3802 mt 3101 3802 L
3041 3742 mt 3041 3862 L
3159 3687 mt 3279 3687 L
3219 3627 mt 3219 3747 L
3338 3565 mt 3458 3565 L
3398 3505 mt 3398 3625 L
3517 3434 mt 3637 3434 L
3577 3374 mt 3577 3494 L
3695 3296 mt 3815 3296 L
3755 3236 mt 3755 3356 L
3874 3152 mt 3994 3152 L
3934 3092 mt 3934 3212 L
4052 3002 mt 4172 3002 L
4112 2942 mt 4112 3062 L
4231 2846 mt 4351 2846 L
4291 2786 mt 4291 2906 L
4409 2687 mt 4529 2687 L
4469 2627 mt 4469 2747 L
4588 2523 mt 4708 2523 L
4648 2463 mt 4648 2583 L
4766 2356 mt 4886 2356 L
4826 2296 mt 4826 2416 L
4945 2187 mt 5065 2187 L
5005 2127 mt 5005 2247 L
5123 2015 mt 5243 2015 L
5183 1955 mt 5183 2075 L
5302 1841 mt 5422 1841 L
5362 1781 mt 5362 1901 L
5480 1665 mt 5600 1665 L
5540 1605 mt 5540 1725 L
5659 1488 mt 5779 1488 L
5719 1428 mt 5719 1548 L
5837 1310 mt 5957 1310 L
5897 1250 mt 5897 1370 L
6016 1130 mt 6136 1130 L
6076 1070 mt 6076 1190 L
6195  950 mt 6315  950 L
6255  890 mt 6255 1010 L
gr

gs 899 389 5357 4226 MR c np
/c11 { 1.000000 0.000000 0.000000 sr} bdef
c11
179 -112 179 -112 178 -112 179 -112 178 -111 179 -112 178 -111 179 -110 
178 -110 179 -108 178 -107 179 -106 178 -103 179 -100 178 -98 179 -94 
179 -90 178 -86 179 -81 178 -75 179 -70 178 -64 179 -57 178 -52 
179 -46 178 -40 179 -35 178 -30 179 -25 178 -21 899 4520 31 MP stroke
gr

c11
gs 753 1884 5649 2783 MR c np
 857 4478 mt  941 4562 L
 941 4478 mt  857 4562 L
1035 4457 mt 1119 4541 L
1119 4457 mt 1035 4541 L
1214 4432 mt 1298 4516 L
1298 4432 mt 1214 4516 L
1392 4402 mt 1476 4486 L
1476 4402 mt 1392 4486 L
1571 4367 mt 1655 4451 L
1655 4367 mt 1571 4451 L
1749 4327 mt 1833 4411 L
1833 4327 mt 1749 4411 L
1928 4281 mt 2012 4365 L
2012 4281 mt 1928 4365 L
2106 4229 mt 2190 4313 L
2190 4229 mt 2106 4313 L
2285 4172 mt 2369 4256 L
2369 4172 mt 2285 4256 L
2463 4108 mt 2547 4192 L
2547 4108 mt 2463 4192 L
2642 4038 mt 2726 4122 L
2726 4038 mt 2642 4122 L
2820 3963 mt 2904 4047 L
2904 3963 mt 2820 4047 L
2999 3882 mt 3083 3966 L
3083 3882 mt 2999 3966 L
3177 3796 mt 3261 3880 L
3261 3796 mt 3177 3880 L
3356 3706 mt 3440 3790 L
3440 3706 mt 3356 3790 L
3535 3612 mt 3619 3696 L
3619 3612 mt 3535 3696 L
3713 3514 mt 3797 3598 L
3797 3514 mt 3713 3598 L
3892 3414 mt 3976 3498 L
3976 3414 mt 3892 3498 L
4070 3311 mt 4154 3395 L
4154 3311 mt 4070 3395 L
4249 3205 mt 4333 3289 L
4333 3205 mt 4249 3289 L
4427 3098 mt 4511 3182 L
4511 3098 mt 4427 3182 L
4606 2990 mt 4690 3074 L
4690 2990 mt 4606 3074 L
4784 2880 mt 4868 2964 L
4868 2880 mt 4784 2964 L
4963 2770 mt 5047 2854 L
5047 2770 mt 4963 2854 L
5141 2659 mt 5225 2743 L
5225 2659 mt 5141 2743 L
5320 2547 mt 5404 2631 L
5404 2547 mt 5320 2631 L
5498 2436 mt 5582 2520 L
5582 2436 mt 5498 2520 L
5677 2324 mt 5761 2408 L
5761 2324 mt 5677 2408 L
5855 2212 mt 5939 2296 L
5939 2212 mt 5855 2296 L
6034 2100 mt 6118 2184 L
6118 2100 mt 6034 2184 L
6213 1988 mt 6297 2072 L
6297 1988 mt 6213 2072 L
gr

gs 899 389 5357 4226 MR c np
gr

0 sg
%%IncludeResource: font Helvetica
/Helvetica /WindowsLatin1Encoding 120 FMSR

 882 4657 mt 
( ) s
6239  431 mt 
( ) s
6 w
1 sg
0 907 1367 0 0 -907 4828 4555 4 MP
PP
-1367 0 0 907 1367 0 0 -907 4828 4555 5 MP stroke
4 w
DO
SO
6 w
0 sg
4828 3648 mt 6195 3648 L
4828 4555 mt 6195 4555 L
6195 4555 mt 6195 3648 L
4828 4555 mt 4828 3648 L
4828 4555 mt 6195 4555 L
4828 4555 mt 4828 3648 L
4828 3648 mt 6195 3648 L
4828 4555 mt 6195 4555 L
6195 4555 mt 6195 3648 L
4828 4555 mt 4828 3648 L
%%IncludeResource: font Helvetica
/Helvetica /WindowsLatin1Encoding 168 FMSR

5281 3830 mt 
(Optimal Rx) s
gs 4828 3648 1368 908 MR c np
24 w
c8
348 0 4897 3769 2 MP stroke
gr

24 w
c8
gs 4925 3623 293 293 MR c np
5011 3769 mt 5131 3769 L
5071 3709 mt 5071 3829 L
5029 3727 mt 5113 3811 L
5113 3727 mt 5029 3811 L
gr

gs 4828 3648 1368 908 MR c np
gr

0 sg
5281 4090 mt 
(EB, K=K) s
%%IncludeResource: font Symbol
/Symbol /WindowsLatin1Encoding 132 FMSR

5917 4006 mt 
(\242) s
%%IncludeResource: font Helvetica
/Helvetica /WindowsLatin1Encoding 168 FMSR

5949 4090 mt 
(+1) s
gs 4828 3648 1368 908 MR c np
c9
348 0 4897 3999 2 MP stroke
gs 4925 3853 293 293 MR c np
0 j
0 -94 -94 0 0 94 94 0 5024 3952 5 MP
DP
gr

gr

c9
0 sg
5281 4289 mt 
(SB, JLD) s
gs 4828 3648 1368 908 MR c np
c10
348 0 4897 4228 2 MP stroke
gs 4925 4082 293 293 MR c np
5011 4228 mt 5131 4228 L
5071 4168 mt 5071 4288 L
gr

gr

c10
0 sg
5281 4494 mt 
(SB, ILD) s
gs 4828 3648 1368 908 MR c np
c11
348 0 4897 4433 2 MP stroke
gr

c11
gs 4925 4287 293 293 MR c np
5029 4391 mt 5113 4475 L
5113 4391 mt 5029 4475 L
gr

gs 4828 3648 1368 908 MR c np
6 w
gr

6 w

end %%Color Dict

eplot
%%EndObject

epage
end

showpage

%%Trailer
%%EOF
