%!PS-Adobe-2.0 EPSF-1.2
%%Creator: MATLAB, The MathWorks, Inc. Version 7.14.0.739 (R2012a). Operating System: Microsoft Windows 7.
%%Title: .\RATE_CHB_SCHEME3.eps
%%CreationDate: 05/06/2015  12:27:56
%%DocumentNeededFonts: Helvetica
%%DocumentProcessColors: Cyan Magenta Yellow Black
%%Extensions: CMYK
%%Pages: 1
%%BoundingBox:    51   192   552   602
%%EndComments

%%BeginProlog
% MathWorks dictionary
/MathWorks 160 dict begin
% definition operators
/bdef {bind def} bind def
/ldef {load def} bind def
/xdef {exch def} bdef
/xstore {exch store} bdef
% operator abbreviations
/c  /clip ldef
/cc /concat ldef
/cp /closepath ldef
/gr /grestore ldef
/gs /gsave ldef
/mt /moveto ldef
/np /newpath ldef
/cm /currentmatrix ldef
/sm /setmatrix ldef
/rm /rmoveto ldef
/rl /rlineto ldef
/s {show newpath} bdef
/sc {setcmykcolor} bdef
/sr /setrgbcolor ldef
/sg /setgray ldef
/w /setlinewidth ldef
/j /setlinejoin ldef
/cap /setlinecap ldef
/rc {rectclip} bdef
/rf {rectfill} bdef
% page state control
/pgsv () def
/bpage {/pgsv save def} bdef
/epage {pgsv restore} bdef
/bplot /gsave ldef
/eplot {stroke grestore} bdef
% orientation switch
/portraitMode 0 def /landscapeMode 1 def /rotateMode 2 def
% coordinate system mappings
/dpi2point 0 def
% font control
/FontSize 0 def
/FMS {/FontSize xstore findfont [FontSize 0 0 FontSize neg 0 0]
  makefont setfont} bdef
/ISOLatin1Encoding where {pop /WindowsLatin1Encoding 256 array bdef
ISOLatin1Encoding WindowsLatin1Encoding copy pop
/.notdef/.notdef/quotesinglbase/florin/quotedblbase/ellipsis/dagger
/daggerdbl/circumflex/perthousand/Scaron/guilsinglleft/OE/.notdef/.notdef
/.notdef/.notdef/quoteleft/quoteright/quotedblleft/quotedblright/bullet
/endash/emdash/tilde/trademark/scaron/guilsinglright/oe/.notdef/.notdef
/Ydieresis WindowsLatin1Encoding 128 32 getinterval astore pop}
{/WindowsLatin1Encoding StandardEncoding bdef} ifelse
/reencode {exch dup where {pop load} {pop StandardEncoding} ifelse
  exch dup 3 1 roll findfont dup length dict begin
  { 1 index /FID ne {def}{pop pop} ifelse } forall
  /Encoding exch def currentdict end definefont pop} bdef
/isroman {findfont /CharStrings get /Agrave known} bdef
/FMSR {3 1 roll 1 index dup isroman {reencode} {pop pop} ifelse
  exch FMS} bdef
/csm {1 dpi2point div -1 dpi2point div scale neg translate
 dup landscapeMode eq {pop -90 rotate}
  {rotateMode eq {90 rotate} if} ifelse} bdef
% line types: solid, dotted, dashed, dotdash
/SO { [] 0 setdash } bdef
/DO { [.5 dpi2point mul 4 dpi2point mul] 0 setdash } bdef
/DA { [6 dpi2point mul] 0 setdash } bdef
/DD { [.5 dpi2point mul 4 dpi2point mul 6 dpi2point mul 4
  dpi2point mul] 0 setdash } bdef
% macros for lines and objects
/L {lineto stroke} bdef
/MP {3 1 roll moveto 1 sub {rlineto} repeat} bdef
/AP {{rlineto} repeat} bdef
/PDlw -1 def
/W {/PDlw currentlinewidth def setlinewidth} def
/PP {closepath eofill} bdef
/DP {closepath stroke} bdef
/MR {4 -2 roll moveto dup  0 exch rlineto exch 0 rlineto
  neg 0 exch rlineto closepath} bdef
/FR {MR stroke} bdef
/PR {MR fill} bdef
/L1i {{currentfile picstr readhexstring pop} image} bdef
/tMatrix matrix def
/MakeOval {newpath tMatrix currentmatrix pop translate scale
0 0 1 0 360 arc tMatrix setmatrix} bdef
/FO {MakeOval stroke} bdef
/PO {MakeOval fill} bdef
/PD {currentlinewidth 2 div 0 360 arc fill
   PDlw -1 eq not {PDlw w /PDlw -1 def} if} def
/FA {newpath tMatrix currentmatrix pop translate scale
  0 0 1 5 -2 roll arc tMatrix setmatrix stroke} bdef
/PA {newpath tMatrix currentmatrix pop	translate 0 0 moveto scale
  0 0 1 5 -2 roll arc closepath tMatrix setmatrix fill} bdef
/FAn {newpath tMatrix currentmatrix pop translate scale
  0 0 1 5 -2 roll arcn tMatrix setmatrix stroke} bdef
/PAn {newpath tMatrix currentmatrix pop translate 0 0 moveto scale
  0 0 1 5 -2 roll arcn closepath tMatrix setmatrix fill} bdef
/vradius 0 def /hradius 0 def /lry 0 def
/lrx 0 def /uly 0 def /ulx 0 def /rad 0 def
/MRR {/vradius xdef /hradius xdef /lry xdef /lrx xdef /uly xdef
  /ulx xdef newpath tMatrix currentmatrix pop ulx hradius add uly
  vradius add translate hradius vradius scale 0 0 1 180 270 arc 
  tMatrix setmatrix lrx hradius sub uly vradius add translate
  hradius vradius scale 0 0 1 270 360 arc tMatrix setmatrix
  lrx hradius sub lry vradius sub translate hradius vradius scale
  0 0 1 0 90 arc tMatrix setmatrix ulx hradius add lry vradius sub
  translate hradius vradius scale 0 0 1 90 180 arc tMatrix setmatrix
  closepath} bdef
/FRR {MRR stroke } bdef
/PRR {MRR fill } bdef
/MlrRR {/lry xdef /lrx xdef /uly xdef /ulx xdef /rad lry uly sub 2 div def
  newpath tMatrix currentmatrix pop ulx rad add uly rad add translate
  rad rad scale 0 0 1 90 270 arc tMatrix setmatrix lrx rad sub lry rad
  sub translate rad rad scale 0 0 1 270 90 arc tMatrix setmatrix
  closepath} bdef
/FlrRR {MlrRR stroke } bdef
/PlrRR {MlrRR fill } bdef
/MtbRR {/lry xdef /lrx xdef /uly xdef /ulx xdef /rad lrx ulx sub 2 div def
  newpath tMatrix currentmatrix pop ulx rad add uly rad add translate
  rad rad scale 0 0 1 180 360 arc tMatrix setmatrix lrx rad sub lry rad
  sub translate rad rad scale 0 0 1 0 180 arc tMatrix setmatrix
  closepath} bdef
/FtbRR {MtbRR stroke } bdef
/PtbRR {MtbRR fill } bdef
/stri 6 array def /dtri 6 array def
/smat 6 array def /dmat 6 array def
/tmat1 6 array def /tmat2 6 array def /dif 3 array def
/asub {/ind2 exch def /ind1 exch def dup dup
  ind1 get exch ind2 get sub exch } bdef
/tri_to_matrix {
  2 0 asub 3 1 asub 4 0 asub 5 1 asub
  dup 0 get exch 1 get 7 -1 roll astore } bdef
/compute_transform {
  dmat dtri tri_to_matrix tmat1 invertmatrix 
  smat stri tri_to_matrix tmat2 concatmatrix } bdef
/ds {stri astore pop} bdef
/dt {dtri astore pop} bdef
/db {2 copy /cols xdef /rows xdef mul dup 3 mul string
  currentfile exch readhexstring pop
  dup 0 3 index getinterval /rbmap xdef
  dup 2 index dup getinterval /gbmap xdef
  1 index dup 2 mul exch getinterval /bbmap xdef pop pop}bdef
/it {gs np dtri aload pop moveto lineto lineto cp c
  cols rows 8 compute_transform 
  rbmap gbmap bbmap true 3 colorimage gr}bdef
/il {newpath moveto lineto stroke}bdef
currentdict end def
%%EndProlog

%%BeginSetup
MathWorks begin

0 cap

end
%%EndSetup

%%Page: 1 1
%%BeginPageSetup
%%PageBoundingBox:    51   192   552   602
MathWorks begin
bpage
%%EndPageSetup

%%BeginObject: obj1
bplot

/dpi2point 12 def
portraitMode 0204 7344 csm

  417   110  6014  4924 MR c np
87 dict begin %Colortable dictionary
/c0 { 0.000000 0.000000 0.000000 sr} bdef
/c1 { 1.000000 1.000000 1.000000 sr} bdef
/c2 { 0.900000 0.000000 0.000000 sr} bdef
/c3 { 0.000000 0.820000 0.000000 sr} bdef
/c4 { 0.000000 0.000000 0.800000 sr} bdef
/c5 { 0.910000 0.820000 0.320000 sr} bdef
/c6 { 1.000000 0.260000 0.820000 sr} bdef
/c7 { 0.000000 0.820000 0.820000 sr} bdef
c0
1 j
1 sg
   0    0 6913 5185 PR
6 w
0 4225 5356 0 0 -4225 899 4614 4 MP
PP
-5356 0 0 4225 5356 0 0 -4225 899 4614 5 MP stroke
4 w
DO
SO
6 w
0 sg
 899  389 mt 6255  389 L
 899 4614 mt 6255 4614 L
6255 4614 mt 6255  389 L
 899 4614 mt  899  389 L
 899 4614 mt 6255 4614 L
 899 4614 mt  899  389 L
 899 4614 mt  899 4560 L
 899  389 mt  899  442 L
%%IncludeResource: font Helvetica
/Helvetica /WindowsLatin1Encoding 120 FMSR

 866 4759 mt 
(0) s
1791 4614 mt 1791 4560 L
1791  389 mt 1791  442 L
1758 4759 mt 
(5) s
2684 4614 mt 2684 4560 L
2684  389 mt 2684  442 L
2618 4759 mt 
(10) s
3577 4614 mt 3577 4560 L
3577  389 mt 3577  442 L
3511 4759 mt 
(15) s
4469 4614 mt 4469 4560 L
4469  389 mt 4469  442 L
4403 4759 mt 
(20) s
5362 4614 mt 5362 4560 L
5362  389 mt 5362  442 L
5296 4759 mt 
(25) s
6255 4614 mt 6255 4560 L
6255  389 mt 6255  442 L
6189 4759 mt 
(30) s
 899 4614 mt  952 4614 L
6255 4614 mt 6201 4614 L
 798 4658 mt 
(0) s
 899 4085 mt  952 4085 L
6255 4085 mt 6201 4085 L
 798 4129 mt 
(5) s
 899 3557 mt  952 3557 L
6255 3557 mt 6201 3557 L
 731 3601 mt 
(10) s
 899 3029 mt  952 3029 L
6255 3029 mt 6201 3029 L
 731 3073 mt 
(15) s
 899 2501 mt  952 2501 L
6255 2501 mt 6201 2501 L
 731 2545 mt 
(20) s
 899 1973 mt  952 1973 L
6255 1973 mt 6201 1973 L
 731 2017 mt 
(25) s
 899 1445 mt  952 1445 L
6255 1445 mt 6201 1445 L
 731 1489 mt 
(30) s
 899  917 mt  952  917 L
6255  917 mt 6201  917 L
 731  961 mt 
(35) s
 899  389 mt  952  389 L
6255  389 mt 6201  389 L
 731  433 mt 
(40) s
 899  389 mt 6255  389 L
 899 4614 mt 6255 4614 L
6255 4614 mt 6255  389 L
 899 4614 mt  899  389 L
gs 899 389 5357 4226 MR c np
24 w
/c8 { 0.000000 1.000000 0.000000 sr} bdef
c8
179 -168 179 -168 178 -167 179 -167 178 -166 179 -165 178 -165 179 -163 
178 -162 179 -161 178 -158 179 -156 178 -152 179 -149 178 -145 179 -140 
179 -134 178 -127 179 -120 178 -112 179 -102 178 -94 179 -84 178 -74 
179 -65 178 -57 179 -48 178 -40 179 -34 178 -28 899 4492 31 MP stroke
gr

24 w
c8
gs 753 675 5649 3964 MR c np
 839 4492 mt  959 4492 L
 899 4432 mt  899 4552 L
1017 4464 mt 1137 4464 L
1077 4404 mt 1077 4524 L
1196 4430 mt 1316 4430 L
1256 4370 mt 1256 4490 L
1374 4390 mt 1494 4390 L
1434 4330 mt 1434 4450 L
1553 4342 mt 1673 4342 L
1613 4282 mt 1613 4402 L
1731 4285 mt 1851 4285 L
1791 4225 mt 1791 4345 L
1910 4220 mt 2030 4220 L
1970 4160 mt 1970 4280 L
2088 4146 mt 2208 4146 L
2148 4086 mt 2148 4206 L
2267 4062 mt 2387 4062 L
2327 4002 mt 2327 4122 L
2445 3968 mt 2565 3968 L
2505 3908 mt 2505 4028 L
2624 3866 mt 2744 3866 L
2684 3806 mt 2684 3926 L
2802 3754 mt 2922 3754 L
2862 3694 mt 2862 3814 L
2981 3634 mt 3101 3634 L
3041 3574 mt 3041 3694 L
3159 3507 mt 3279 3507 L
3219 3447 mt 3219 3567 L
3338 3373 mt 3458 3373 L
3398 3313 mt 3398 3433 L
3517 3233 mt 3637 3233 L
3577 3173 mt 3577 3293 L
3695 3088 mt 3815 3088 L
3755 3028 mt 3755 3148 L
3874 2939 mt 3994 2939 L
3934 2879 mt 3934 2999 L
4052 2787 mt 4172 2787 L
4112 2727 mt 4112 2847 L
4231 2631 mt 4351 2631 L
4291 2571 mt 4291 2691 L
4409 2473 mt 4529 2473 L
4469 2413 mt 4469 2533 L
4588 2312 mt 4708 2312 L
4648 2252 mt 4648 2372 L
4766 2150 mt 4886 2150 L
4826 2090 mt 4826 2210 L
4945 1987 mt 5065 1987 L
5005 1927 mt 5005 2047 L
5123 1822 mt 5243 1822 L
5183 1762 mt 5183 1882 L
5302 1657 mt 5422 1657 L
5362 1597 mt 5362 1717 L
5480 1491 mt 5600 1491 L
5540 1431 mt 5540 1551 L
5659 1324 mt 5779 1324 L
5719 1264 mt 5719 1384 L
5837 1157 mt 5957 1157 L
5897 1097 mt 5897 1217 L
6016  989 mt 6136  989 L
6076  929 mt 6076 1049 L
6195  821 mt 6315  821 L
6255  761 mt 6255  881 L
 857 4450 mt  941 4534 L
 941 4450 mt  857 4534 L
1035 4422 mt 1119 4506 L
1119 4422 mt 1035 4506 L
1214 4388 mt 1298 4472 L
1298 4388 mt 1214 4472 L
1392 4348 mt 1476 4432 L
1476 4348 mt 1392 4432 L
1571 4300 mt 1655 4384 L
1655 4300 mt 1571 4384 L
1749 4243 mt 1833 4327 L
1833 4243 mt 1749 4327 L
1928 4178 mt 2012 4262 L
2012 4178 mt 1928 4262 L
2106 4104 mt 2190 4188 L
2190 4104 mt 2106 4188 L
2285 4020 mt 2369 4104 L
2369 4020 mt 2285 4104 L
2463 3926 mt 2547 4010 L
2547 3926 mt 2463 4010 L
2642 3824 mt 2726 3908 L
2726 3824 mt 2642 3908 L
2820 3712 mt 2904 3796 L
2904 3712 mt 2820 3796 L
2999 3592 mt 3083 3676 L
3083 3592 mt 2999 3676 L
3177 3465 mt 3261 3549 L
3261 3465 mt 3177 3549 L
3356 3331 mt 3440 3415 L
3440 3331 mt 3356 3415 L
3535 3191 mt 3619 3275 L
3619 3191 mt 3535 3275 L
3713 3046 mt 3797 3130 L
3797 3046 mt 3713 3130 L
3892 2897 mt 3976 2981 L
3976 2897 mt 3892 2981 L
4070 2745 mt 4154 2829 L
4154 2745 mt 4070 2829 L
4249 2589 mt 4333 2673 L
4333 2589 mt 4249 2673 L
4427 2431 mt 4511 2515 L
4511 2431 mt 4427 2515 L
4606 2270 mt 4690 2354 L
4690 2270 mt 4606 2354 L
4784 2108 mt 4868 2192 L
4868 2108 mt 4784 2192 L
4963 1945 mt 5047 2029 L
5047 1945 mt 4963 2029 L
5141 1780 mt 5225 1864 L
5225 1780 mt 5141 1864 L
5320 1615 mt 5404 1699 L
5404 1615 mt 5320 1699 L
5498 1449 mt 5582 1533 L
5582 1449 mt 5498 1533 L
5677 1282 mt 5761 1366 L
5761 1282 mt 5677 1366 L
5855 1115 mt 5939 1199 L
5939 1115 mt 5855 1199 L
6034  947 mt 6118 1031 L
6118  947 mt 6034 1031 L
6213  779 mt 6297  863 L
6297  779 mt 6213  863 L
gr

gs 899 389 5357 4226 MR c np
gr

0 sg
2994  294 mt 
(Channel B, Scheme 3) s
%%IncludeResource: font Helvetica
/Helvetica /WindowsLatin1Encoding 204 FMSR

3140 4964 mt 
(SNR \(dB\)) s
 631 3783 mt  -90 rotate
(Information Rates \(nats/sec\)) s
90 rotate
gs 899 389 5357 4226 MR c np
/c9 { 0.000000 0.000000 1.000000 sr} bdef
c9
179 -168 179 -167 178 -167 179 -166 178 -166 179 -164 178 -164 179 -162 
178 -160 179 -159 178 -156 179 -153 178 -150 179 -145 178 -140 179 -135 
179 -128 178 -121 179 -112 178 -104 179 -94 178 -85 179 -76 178 -66 
179 -58 178 -49 179 -42 178 -34 179 -29 178 -24 899 4512 31 MP stroke
gr

c9
gs 753 822 5649 3837 MR c np
0 j
0 -94 -94 0 0 94 94 0 852 4465 5 MP
DP
0 -94 -94 0 0 94 94 0 1030 4441 5 MP
DP
0 -94 -94 0 0 94 94 0 1209 4412 5 MP
DP
0 -94 -94 0 0 94 94 0 1387 4378 5 MP
DP
0 -94 -94 0 0 94 94 0 1566 4336 5 MP
DP
0 -94 -94 0 0 94 94 0 1744 4287 5 MP
DP
0 -94 -94 0 0 94 94 0 1923 4229 5 MP
DP
0 -94 -94 0 0 94 94 0 2101 4163 5 MP
DP
0 -94 -94 0 0 94 94 0 2280 4087 5 MP
DP
0 -94 -94 0 0 94 94 0 2458 4002 5 MP
DP
0 -94 -94 0 0 94 94 0 2637 3908 5 MP
DP
0 -94 -94 0 0 94 94 0 2815 3804 5 MP
DP
0 -94 -94 0 0 94 94 0 2994 3692 5 MP
DP
0 -94 -94 0 0 94 94 0 3172 3571 5 MP
DP
0 -94 -94 0 0 94 94 0 3351 3443 5 MP
DP
0 -94 -94 0 0 94 94 0 3530 3308 5 MP
DP
0 -94 -94 0 0 94 94 0 3708 3168 5 MP
DP
0 -94 -94 0 0 94 94 0 3887 3023 5 MP
DP
0 -94 -94 0 0 94 94 0 4065 2873 5 MP
DP
0 -94 -94 0 0 94 94 0 4244 2720 5 MP
DP
0 -94 -94 0 0 94 94 0 4422 2564 5 MP
DP
0 -94 -94 0 0 94 94 0 4601 2405 5 MP
DP
0 -94 -94 0 0 94 94 0 4779 2245 5 MP
DP
0 -94 -94 0 0 94 94 0 4958 2083 5 MP
DP
0 -94 -94 0 0 94 94 0 5136 1919 5 MP
DP
0 -94 -94 0 0 94 94 0 5315 1755 5 MP
DP
0 -94 -94 0 0 94 94 0 5493 1589 5 MP
DP
0 -94 -94 0 0 94 94 0 5672 1423 5 MP
DP
0 -94 -94 0 0 94 94 0 5850 1256 5 MP
DP
0 -94 -94 0 0 94 94 0 6029 1089 5 MP
DP
0 -94 -94 0 0 94 94 0 6208 921 5 MP
DP
gr

gs 899 389 5357 4226 MR c np
/c10 { 1.000000 0.000000 1.000000 sr} bdef
c10
179 -168 179 -167 178 -167 179 -166 178 -166 179 -164 178 -164 179 -162 
178 -160 179 -159 178 -156 179 -153 178 -150 179 -145 178 -140 179 -135 
179 -128 178 -121 179 -112 178 -104 179 -94 178 -85 179 -76 178 -66 
179 -58 178 -49 179 -42 178 -34 179 -29 178 -24 899 4512 31 MP stroke
gr

c10
gs 753 822 5649 3837 MR c np
 839 4512 mt  959 4512 L
 899 4452 mt  899 4572 L
1017 4488 mt 1137 4488 L
1077 4428 mt 1077 4548 L
1196 4459 mt 1316 4459 L
1256 4399 mt 1256 4519 L
1374 4425 mt 1494 4425 L
1434 4365 mt 1434 4485 L
1553 4383 mt 1673 4383 L
1613 4323 mt 1613 4443 L
1731 4334 mt 1851 4334 L
1791 4274 mt 1791 4394 L
1910 4276 mt 2030 4276 L
1970 4216 mt 1970 4336 L
2088 4210 mt 2208 4210 L
2148 4150 mt 2148 4270 L
2267 4134 mt 2387 4134 L
2327 4074 mt 2327 4194 L
2445 4049 mt 2565 4049 L
2505 3989 mt 2505 4109 L
2624 3955 mt 2744 3955 L
2684 3895 mt 2684 4015 L
2802 3851 mt 2922 3851 L
2862 3791 mt 2862 3911 L
2981 3739 mt 3101 3739 L
3041 3679 mt 3041 3799 L
3159 3618 mt 3279 3618 L
3219 3558 mt 3219 3678 L
3338 3490 mt 3458 3490 L
3398 3430 mt 3398 3550 L
3517 3355 mt 3637 3355 L
3577 3295 mt 3577 3415 L
3695 3215 mt 3815 3215 L
3755 3155 mt 3755 3275 L
3874 3070 mt 3994 3070 L
3934 3010 mt 3934 3130 L
4052 2920 mt 4172 2920 L
4112 2860 mt 4112 2980 L
4231 2767 mt 4351 2767 L
4291 2707 mt 4291 2827 L
4409 2611 mt 4529 2611 L
4469 2551 mt 4469 2671 L
4588 2452 mt 4708 2452 L
4648 2392 mt 4648 2512 L
4766 2292 mt 4886 2292 L
4826 2232 mt 4826 2352 L
4945 2130 mt 5065 2130 L
5005 2070 mt 5005 2190 L
5123 1966 mt 5243 1966 L
5183 1906 mt 5183 2026 L
5302 1802 mt 5422 1802 L
5362 1742 mt 5362 1862 L
5480 1636 mt 5600 1636 L
5540 1576 mt 5540 1696 L
5659 1470 mt 5779 1470 L
5719 1410 mt 5719 1530 L
5837 1303 mt 5957 1303 L
5897 1243 mt 5897 1363 L
6016 1136 mt 6136 1136 L
6076 1076 mt 6076 1196 L
6195  968 mt 6315  968 L
6255  908 mt 6255 1028 L
gr

gs 899 389 5357 4226 MR c np
/c11 { 1.000000 0.000000 0.000000 sr} bdef
c11
179 -168 179 -167 178 -167 179 -166 178 -166 179 -164 178 -164 179 -162 
178 -160 179 -159 178 -156 179 -153 178 -150 179 -145 178 -140 179 -135 
179 -128 178 -121 179 -112 178 -104 179 -94 178 -85 179 -76 178 -66 
179 -58 178 -49 179 -42 178 -34 179 -29 178 -24 899 4512 31 MP stroke
gr

c11
gs 753 822 5649 3837 MR c np
 857 4470 mt  941 4554 L
 941 4470 mt  857 4554 L
1035 4446 mt 1119 4530 L
1119 4446 mt 1035 4530 L
1214 4417 mt 1298 4501 L
1298 4417 mt 1214 4501 L
1392 4383 mt 1476 4467 L
1476 4383 mt 1392 4467 L
1571 4341 mt 1655 4425 L
1655 4341 mt 1571 4425 L
1749 4292 mt 1833 4376 L
1833 4292 mt 1749 4376 L
1928 4234 mt 2012 4318 L
2012 4234 mt 1928 4318 L
2106 4168 mt 2190 4252 L
2190 4168 mt 2106 4252 L
2285 4092 mt 2369 4176 L
2369 4092 mt 2285 4176 L
2463 4007 mt 2547 4091 L
2547 4007 mt 2463 4091 L
2642 3913 mt 2726 3997 L
2726 3913 mt 2642 3997 L
2820 3809 mt 2904 3893 L
2904 3809 mt 2820 3893 L
2999 3697 mt 3083 3781 L
3083 3697 mt 2999 3781 L
3177 3576 mt 3261 3660 L
3261 3576 mt 3177 3660 L
3356 3448 mt 3440 3532 L
3440 3448 mt 3356 3532 L
3535 3313 mt 3619 3397 L
3619 3313 mt 3535 3397 L
3713 3173 mt 3797 3257 L
3797 3173 mt 3713 3257 L
3892 3028 mt 3976 3112 L
3976 3028 mt 3892 3112 L
4070 2878 mt 4154 2962 L
4154 2878 mt 4070 2962 L
4249 2725 mt 4333 2809 L
4333 2725 mt 4249 2809 L
4427 2569 mt 4511 2653 L
4511 2569 mt 4427 2653 L
4606 2410 mt 4690 2494 L
4690 2410 mt 4606 2494 L
4784 2250 mt 4868 2334 L
4868 2250 mt 4784 2334 L
4963 2088 mt 5047 2172 L
5047 2088 mt 4963 2172 L
5141 1924 mt 5225 2008 L
5225 1924 mt 5141 2008 L
5320 1760 mt 5404 1844 L
5404 1760 mt 5320 1844 L
5498 1594 mt 5582 1678 L
5582 1594 mt 5498 1678 L
5677 1428 mt 5761 1512 L
5761 1428 mt 5677 1512 L
5855 1261 mt 5939 1345 L
5939 1261 mt 5855 1345 L
6034 1094 mt 6118 1178 L
6118 1094 mt 6034 1178 L
6213  926 mt 6297 1010 L
6297  926 mt 6213 1010 L
gr

gs 899 389 5357 4226 MR c np
gr

0 sg
%%IncludeResource: font Helvetica
/Helvetica /WindowsLatin1Encoding 120 FMSR

 882 4657 mt 
( ) s
6239  431 mt 
( ) s
6 w
1 sg
0 907 1367 0 0 -907 4828 4555 4 MP
PP
-1367 0 0 907 1367 0 0 -907 4828 4555 5 MP stroke
4 w
DO
SO
6 w
0 sg
4828 3648 mt 6195 3648 L
4828 4555 mt 6195 4555 L
6195 4555 mt 6195 3648 L
4828 4555 mt 4828 3648 L
4828 4555 mt 6195 4555 L
4828 4555 mt 4828 3648 L
4828 3648 mt 6195 3648 L
4828 4555 mt 6195 4555 L
6195 4555 mt 6195 3648 L
4828 4555 mt 4828 3648 L
%%IncludeResource: font Helvetica
/Helvetica /WindowsLatin1Encoding 168 FMSR

5281 3830 mt 
(Optimal Rx) s
gs 4828 3648 1368 908 MR c np
24 w
c8
348 0 4897 3769 2 MP stroke
gr

24 w
c8
gs 4925 3623 293 293 MR c np
5011 3769 mt 5131 3769 L
5071 3709 mt 5071 3829 L
5029 3727 mt 5113 3811 L
5113 3727 mt 5029 3811 L
gr

gs 4828 3648 1368 908 MR c np
gr

0 sg
5281 4090 mt 
(EB, K=K) s
%%IncludeResource: font Symbol
/Symbol /WindowsLatin1Encoding 132 FMSR

5917 4006 mt 
(\242) s
%%IncludeResource: font Helvetica
/Helvetica /WindowsLatin1Encoding 168 FMSR

5949 4090 mt 
(+1) s
gs 4828 3648 1368 908 MR c np
c9
348 0 4897 3999 2 MP stroke
gs 4925 3853 293 293 MR c np
0 j
0 -94 -94 0 0 94 94 0 5024 3952 5 MP
DP
gr

gr

c9
0 sg
5281 4289 mt 
(SB, JLD) s
gs 4828 3648 1368 908 MR c np
c10
348 0 4897 4228 2 MP stroke
gs 4925 4082 293 293 MR c np
5011 4228 mt 5131 4228 L
5071 4168 mt 5071 4288 L
gr

gr

c10
0 sg
5281 4494 mt 
(SB, ILD) s
gs 4828 3648 1368 908 MR c np
c11
348 0 4897 4433 2 MP stroke
gr

c11
gs 4925 4287 293 293 MR c np
5029 4391 mt 5113 4475 L
5113 4391 mt 5029 4475 L
gr

gs 4828 3648 1368 908 MR c np
6 w
gr

6 w

end %%Color Dict

eplot
%%EndObject

epage
end

showpage

%%Trailer
%%EOF
