%!PS-Adobe-2.0 EPSF-1.2
%%Creator: MATLAB, The MathWorks, Inc. Version 7.14.0.739 (R2012a). Operating System: Microsoft Windows 7.
%%Title: .\RATE_CHB_SCH1vsSCH2.eps
%%CreationDate: 05/06/2015  12:27:57
%%DocumentNeededFonts: Helvetica
%%DocumentProcessColors: Cyan Magenta Yellow Black
%%Extensions: CMYK
%%Pages: 1
%%BoundingBox:    51   192   552   602
%%EndComments

%%BeginProlog
% MathWorks dictionary
/MathWorks 160 dict begin
% definition operators
/bdef {bind def} bind def
/ldef {load def} bind def
/xdef {exch def} bdef
/xstore {exch store} bdef
% operator abbreviations
/c  /clip ldef
/cc /concat ldef
/cp /closepath ldef
/gr /grestore ldef
/gs /gsave ldef
/mt /moveto ldef
/np /newpath ldef
/cm /currentmatrix ldef
/sm /setmatrix ldef
/rm /rmoveto ldef
/rl /rlineto ldef
/s {show newpath} bdef
/sc {setcmykcolor} bdef
/sr /setrgbcolor ldef
/sg /setgray ldef
/w /setlinewidth ldef
/j /setlinejoin ldef
/cap /setlinecap ldef
/rc {rectclip} bdef
/rf {rectfill} bdef
% page state control
/pgsv () def
/bpage {/pgsv save def} bdef
/epage {pgsv restore} bdef
/bplot /gsave ldef
/eplot {stroke grestore} bdef
% orientation switch
/portraitMode 0 def /landscapeMode 1 def /rotateMode 2 def
% coordinate system mappings
/dpi2point 0 def
% font control
/FontSize 0 def
/FMS {/FontSize xstore findfont [FontSize 0 0 FontSize neg 0 0]
  makefont setfont} bdef
/ISOLatin1Encoding where {pop /WindowsLatin1Encoding 256 array bdef
ISOLatin1Encoding WindowsLatin1Encoding copy pop
/.notdef/.notdef/quotesinglbase/florin/quotedblbase/ellipsis/dagger
/daggerdbl/circumflex/perthousand/Scaron/guilsinglleft/OE/.notdef/.notdef
/.notdef/.notdef/quoteleft/quoteright/quotedblleft/quotedblright/bullet
/endash/emdash/tilde/trademark/scaron/guilsinglright/oe/.notdef/.notdef
/Ydieresis WindowsLatin1Encoding 128 32 getinterval astore pop}
{/WindowsLatin1Encoding StandardEncoding bdef} ifelse
/reencode {exch dup where {pop load} {pop StandardEncoding} ifelse
  exch dup 3 1 roll findfont dup length dict begin
  { 1 index /FID ne {def}{pop pop} ifelse } forall
  /Encoding exch def currentdict end definefont pop} bdef
/isroman {findfont /CharStrings get /Agrave known} bdef
/FMSR {3 1 roll 1 index dup isroman {reencode} {pop pop} ifelse
  exch FMS} bdef
/csm {1 dpi2point div -1 dpi2point div scale neg translate
 dup landscapeMode eq {pop -90 rotate}
  {rotateMode eq {90 rotate} if} ifelse} bdef
% line types: solid, dotted, dashed, dotdash
/SO { [] 0 setdash } bdef
/DO { [.5 dpi2point mul 4 dpi2point mul] 0 setdash } bdef
/DA { [6 dpi2point mul] 0 setdash } bdef
/DD { [.5 dpi2point mul 4 dpi2point mul 6 dpi2point mul 4
  dpi2point mul] 0 setdash } bdef
% macros for lines and objects
/L {lineto stroke} bdef
/MP {3 1 roll moveto 1 sub {rlineto} repeat} bdef
/AP {{rlineto} repeat} bdef
/PDlw -1 def
/W {/PDlw currentlinewidth def setlinewidth} def
/PP {closepath eofill} bdef
/DP {closepath stroke} bdef
/MR {4 -2 roll moveto dup  0 exch rlineto exch 0 rlineto
  neg 0 exch rlineto closepath} bdef
/FR {MR stroke} bdef
/PR {MR fill} bdef
/L1i {{currentfile picstr readhexstring pop} image} bdef
/tMatrix matrix def
/MakeOval {newpath tMatrix currentmatrix pop translate scale
0 0 1 0 360 arc tMatrix setmatrix} bdef
/FO {MakeOval stroke} bdef
/PO {MakeOval fill} bdef
/PD {currentlinewidth 2 div 0 360 arc fill
   PDlw -1 eq not {PDlw w /PDlw -1 def} if} def
/FA {newpath tMatrix currentmatrix pop translate scale
  0 0 1 5 -2 roll arc tMatrix setmatrix stroke} bdef
/PA {newpath tMatrix currentmatrix pop	translate 0 0 moveto scale
  0 0 1 5 -2 roll arc closepath tMatrix setmatrix fill} bdef
/FAn {newpath tMatrix currentmatrix pop translate scale
  0 0 1 5 -2 roll arcn tMatrix setmatrix stroke} bdef
/PAn {newpath tMatrix currentmatrix pop translate 0 0 moveto scale
  0 0 1 5 -2 roll arcn closepath tMatrix setmatrix fill} bdef
/vradius 0 def /hradius 0 def /lry 0 def
/lrx 0 def /uly 0 def /ulx 0 def /rad 0 def
/MRR {/vradius xdef /hradius xdef /lry xdef /lrx xdef /uly xdef
  /ulx xdef newpath tMatrix currentmatrix pop ulx hradius add uly
  vradius add translate hradius vradius scale 0 0 1 180 270 arc 
  tMatrix setmatrix lrx hradius sub uly vradius add translate
  hradius vradius scale 0 0 1 270 360 arc tMatrix setmatrix
  lrx hradius sub lry vradius sub translate hradius vradius scale
  0 0 1 0 90 arc tMatrix setmatrix ulx hradius add lry vradius sub
  translate hradius vradius scale 0 0 1 90 180 arc tMatrix setmatrix
  closepath} bdef
/FRR {MRR stroke } bdef
/PRR {MRR fill } bdef
/MlrRR {/lry xdef /lrx xdef /uly xdef /ulx xdef /rad lry uly sub 2 div def
  newpath tMatrix currentmatrix pop ulx rad add uly rad add translate
  rad rad scale 0 0 1 90 270 arc tMatrix setmatrix lrx rad sub lry rad
  sub translate rad rad scale 0 0 1 270 90 arc tMatrix setmatrix
  closepath} bdef
/FlrRR {MlrRR stroke } bdef
/PlrRR {MlrRR fill } bdef
/MtbRR {/lry xdef /lrx xdef /uly xdef /ulx xdef /rad lrx ulx sub 2 div def
  newpath tMatrix currentmatrix pop ulx rad add uly rad add translate
  rad rad scale 0 0 1 180 360 arc tMatrix setmatrix lrx rad sub lry rad
  sub translate rad rad scale 0 0 1 0 180 arc tMatrix setmatrix
  closepath} bdef
/FtbRR {MtbRR stroke } bdef
/PtbRR {MtbRR fill } bdef
/stri 6 array def /dtri 6 array def
/smat 6 array def /dmat 6 array def
/tmat1 6 array def /tmat2 6 array def /dif 3 array def
/asub {/ind2 exch def /ind1 exch def dup dup
  ind1 get exch ind2 get sub exch } bdef
/tri_to_matrix {
  2 0 asub 3 1 asub 4 0 asub 5 1 asub
  dup 0 get exch 1 get 7 -1 roll astore } bdef
/compute_transform {
  dmat dtri tri_to_matrix tmat1 invertmatrix 
  smat stri tri_to_matrix tmat2 concatmatrix } bdef
/ds {stri astore pop} bdef
/dt {dtri astore pop} bdef
/db {2 copy /cols xdef /rows xdef mul dup 3 mul string
  currentfile exch readhexstring pop
  dup 0 3 index getinterval /rbmap xdef
  dup 2 index dup getinterval /gbmap xdef
  1 index dup 2 mul exch getinterval /bbmap xdef pop pop}bdef
/it {gs np dtri aload pop moveto lineto lineto cp c
  cols rows 8 compute_transform 
  rbmap gbmap bbmap true 3 colorimage gr}bdef
/il {newpath moveto lineto stroke}bdef
currentdict end def
%%EndProlog

%%BeginSetup
MathWorks begin

0 cap

end
%%EndSetup

%%Page: 1 1
%%BeginPageSetup
%%PageBoundingBox:    51   192   552   602
MathWorks begin
bpage
%%EndPageSetup

%%BeginObject: obj1
bplot

/dpi2point 12 def
portraitMode 0204 7344 csm

  417   110  6014  4924 MR c np
85 dict begin %Colortable dictionary
/c0 { 0.000000 0.000000 0.000000 sr} bdef
/c1 { 1.000000 1.000000 1.000000 sr} bdef
/c2 { 0.900000 0.000000 0.000000 sr} bdef
/c3 { 0.000000 0.820000 0.000000 sr} bdef
/c4 { 0.000000 0.000000 0.800000 sr} bdef
/c5 { 0.910000 0.820000 0.320000 sr} bdef
/c6 { 1.000000 0.260000 0.820000 sr} bdef
/c7 { 0.000000 0.820000 0.820000 sr} bdef
c0
1 j
1 sg
   0    0 6913 5185 PR
6 w
0 4225 5356 0 0 -4225 899 4614 4 MP
PP
-5356 0 0 4225 5356 0 0 -4225 899 4614 5 MP stroke
4 w
DO
SO
6 w
0 sg
 899  389 mt 6255  389 L
 899 4614 mt 6255 4614 L
6255 4614 mt 6255  389 L
 899 4614 mt  899  389 L
 899 4614 mt 6255 4614 L
 899 4614 mt  899  389 L
 899 4614 mt  899 4560 L
 899  389 mt  899  442 L
%%IncludeResource: font Helvetica
/Helvetica /WindowsLatin1Encoding 120 FMSR

 866 4759 mt 
(0) s
1791 4614 mt 1791 4560 L
1791  389 mt 1791  442 L
1758 4759 mt 
(5) s
2684 4614 mt 2684 4560 L
2684  389 mt 2684  442 L
2618 4759 mt 
(10) s
3577 4614 mt 3577 4560 L
3577  389 mt 3577  442 L
3511 4759 mt 
(15) s
4469 4614 mt 4469 4560 L
4469  389 mt 4469  442 L
4403 4759 mt 
(20) s
5362 4614 mt 5362 4560 L
5362  389 mt 5362  442 L
5296 4759 mt 
(25) s
6255 4614 mt 6255 4560 L
6255  389 mt 6255  442 L
6189 4759 mt 
(30) s
 899 4614 mt  952 4614 L
6255 4614 mt 6201 4614 L
 798 4658 mt 
(0) s
 899 4010 mt  952 4010 L
6255 4010 mt 6201 4010 L
 798 4054 mt 
(5) s
 899 3406 mt  952 3406 L
6255 3406 mt 6201 3406 L
 731 3450 mt 
(10) s
 899 2803 mt  952 2803 L
6255 2803 mt 6201 2803 L
 731 2847 mt 
(15) s
 899 2199 mt  952 2199 L
6255 2199 mt 6201 2199 L
 731 2243 mt 
(20) s
 899 1596 mt  952 1596 L
6255 1596 mt 6201 1596 L
 731 1640 mt 
(25) s
 899  992 mt  952  992 L
6255  992 mt 6201  992 L
 731 1036 mt 
(30) s
 899  389 mt  952  389 L
6255  389 mt 6201  389 L
 731  433 mt 
(35) s
 899  389 mt 6255  389 L
 899 4614 mt 6255 4614 L
6255 4614 mt 6255  389 L
 899 4614 mt  899  389 L
gs 899 389 5357 4226 MR c np
DA
24 w
/c8 { 0.000000 0.000000 1.000000 sr} bdef
c8
179 -192 179 -192 178 -192 179 -190 178 -190 179 -188 178 -187 179 -185 
178 -183 179 -180 178 -176 179 -173 178 -167 179 -162 178 -156 179 -148 
179 -140 178 -131 179 -122 178 -112 179 -101 178 -91 179 -81 178 -70 
179 -62 178 -53 179 -45 178 -38 179 -32 178 -26 899 4499 31 MP stroke
gr

24 w
c8
DA
gs 753 388 5649 4258 MR c np
SO
 839 4499 mt  959 4499 L
 899 4439 mt  899 4559 L
1017 4473 mt 1137 4473 L
1077 4413 mt 1077 4533 L
1196 4441 mt 1316 4441 L
1256 4381 mt 1256 4501 L
1374 4403 mt 1494 4403 L
1434 4343 mt 1434 4463 L
1553 4358 mt 1673 4358 L
1613 4298 mt 1613 4418 L
1731 4305 mt 1851 4305 L
1791 4245 mt 1791 4365 L
1910 4243 mt 2030 4243 L
1970 4183 mt 1970 4303 L
2088 4173 mt 2208 4173 L
2148 4113 mt 2148 4233 L
2267 4092 mt 2387 4092 L
2327 4032 mt 2327 4152 L
2445 4001 mt 2565 4001 L
2505 3941 mt 2505 4061 L
2624 3900 mt 2744 3900 L
2684 3840 mt 2684 3960 L
2802 3788 mt 2922 3788 L
2862 3728 mt 2862 3848 L
2981 3666 mt 3101 3666 L
3041 3606 mt 3041 3726 L
3159 3535 mt 3279 3535 L
3219 3475 mt 3219 3595 L
3338 3395 mt 3458 3395 L
3398 3335 mt 3398 3455 L
3517 3247 mt 3637 3247 L
3577 3187 mt 3577 3307 L
3695 3091 mt 3815 3091 L
3755 3031 mt 3755 3151 L
3874 2929 mt 3994 2929 L
3934 2869 mt 3934 2989 L
4052 2762 mt 4172 2762 L
4112 2702 mt 4112 2822 L
4231 2589 mt 4351 2589 L
4291 2529 mt 4291 2649 L
4409 2413 mt 4529 2413 L
4469 2353 mt 4469 2473 L
4588 2233 mt 4708 2233 L
4648 2173 mt 4648 2293 L
4766 2050 mt 4886 2050 L
4826 1990 mt 4826 2110 L
4945 1865 mt 5065 1865 L
5005 1805 mt 5005 1925 L
5123 1678 mt 5243 1678 L
5183 1618 mt 5183 1738 L
5302 1490 mt 5422 1490 L
5362 1430 mt 5362 1550 L
5480 1300 mt 5600 1300 L
5540 1240 mt 5540 1360 L
5659 1110 mt 5779 1110 L
5719 1050 mt 5719 1170 L
5837  918 mt 5957  918 L
5897  858 mt 5897  978 L
6016  726 mt 6136  726 L
6076  666 mt 6076  786 L
6195  534 mt 6315  534 L
6255  474 mt 6255  594 L
DA
gs 899 389 5357 4226 MR c np
gr
gr

0 sg
3296  294 mt 
(Channel B) s
%%IncludeResource: font Helvetica
/Helvetica /WindowsLatin1Encoding 204 FMSR

3140 4964 mt 
(SNR \(dB\)) s
 631 3783 mt  -90 rotate
(Information Rates \(nats/sec\)) s
90 rotate
gs 899 389 5357 4226 MR c np
/c9 { 1.000000 0.000000 0.000000 sr} bdef
c9
179 -176 179 -175 178 -175 179 -175 178 -174 179 -173 178 -173 179 -171 
178 -169 179 -168 178 -164 179 -162 178 -157 179 -153 178 -148 179 -141 
179 -134 178 -126 179 -117 178 -108 179 -98 178 -88 179 -79 178 -69 
179 -61 178 -51 179 -45 178 -37 179 -31 178 -26 899 4502 31 MP stroke
gr

c9
gs 753 632 5649 4017 MR c np
SO
 857 4460 mt  941 4544 L
 941 4460 mt  857 4544 L
1035 4434 mt 1119 4518 L
1119 4434 mt 1035 4518 L
1214 4403 mt 1298 4487 L
1298 4403 mt 1214 4487 L
1392 4366 mt 1476 4450 L
1476 4366 mt 1392 4450 L
1571 4321 mt 1655 4405 L
1655 4321 mt 1571 4405 L
1749 4270 mt 1833 4354 L
1833 4270 mt 1749 4354 L
1928 4209 mt 2012 4293 L
2012 4209 mt 1928 4293 L
2106 4140 mt 2190 4224 L
2190 4140 mt 2106 4224 L
2285 4061 mt 2369 4145 L
2369 4061 mt 2285 4145 L
2463 3973 mt 2547 4057 L
2547 3973 mt 2463 4057 L
2642 3875 mt 2726 3959 L
2726 3875 mt 2642 3959 L
2820 3767 mt 2904 3851 L
2904 3767 mt 2820 3851 L
2999 3650 mt 3083 3734 L
3083 3650 mt 2999 3734 L
3177 3524 mt 3261 3608 L
3261 3524 mt 3177 3608 L
3356 3390 mt 3440 3474 L
3440 3390 mt 3356 3474 L
3535 3249 mt 3619 3333 L
3619 3249 mt 3535 3333 L
3713 3101 mt 3797 3185 L
3797 3101 mt 3713 3185 L
3892 2948 mt 3976 3032 L
3976 2948 mt 3892 3032 L
4070 2791 mt 4154 2875 L
4154 2791 mt 4070 2875 L
4249 2629 mt 4333 2713 L
4333 2629 mt 4249 2713 L
4427 2465 mt 4511 2549 L
4511 2465 mt 4427 2549 L
4606 2297 mt 4690 2381 L
4690 2297 mt 4606 2381 L
4784 2128 mt 4868 2212 L
4868 2128 mt 4784 2212 L
4963 1957 mt 5047 2041 L
5047 1957 mt 4963 2041 L
5141 1784 mt 5225 1868 L
5225 1784 mt 5141 1868 L
5320 1611 mt 5404 1695 L
5404 1611 mt 5320 1695 L
5498 1437 mt 5582 1521 L
5582 1437 mt 5498 1521 L
5677 1262 mt 5761 1346 L
5761 1262 mt 5677 1346 L
5855 1087 mt 5939 1171 L
5939 1087 mt 5855 1171 L
6034  912 mt 6118  996 L
6118  912 mt 6034  996 L
6213  736 mt 6297  820 L
6297  736 mt 6213  820 L
DA
gr

gs 899 389 5357 4226 MR c np
SO
c8
179 -205 179 -205 178 -204 179 -202 178 -200 179 -199 178 -196 179 -193 
178 -190 179 -187 178 -182 179 -177 178 -171 179 -164 178 -157 179 -149 
179 -140 178 -130 179 -120 178 -111 179 -100 178 -89 179 -80 178 -70 
179 -61 178 -53 179 -44 178 -38 179 -32 178 -27 899 4498 31 MP stroke
gr

c8
SO
gs 753 276 5649 4369 MR c np
 839 4498 mt  959 4498 L
 899 4438 mt  899 4558 L
1017 4471 mt 1137 4471 L
1077 4411 mt 1077 4531 L
1196 4439 mt 1316 4439 L
1256 4379 mt 1256 4499 L
1374 4401 mt 1494 4401 L
1434 4341 mt 1434 4461 L
1553 4357 mt 1673 4357 L
1613 4297 mt 1613 4417 L
1731 4304 mt 1851 4304 L
1791 4244 mt 1791 4364 L
1910 4243 mt 2030 4243 L
1970 4183 mt 1970 4303 L
2088 4173 mt 2208 4173 L
2148 4113 mt 2148 4233 L
2267 4093 mt 2387 4093 L
2327 4033 mt 2327 4153 L
2445 4004 mt 2565 4004 L
2505 3944 mt 2505 4064 L
2624 3904 mt 2744 3904 L
2684 3844 mt 2684 3964 L
2802 3793 mt 2922 3793 L
2862 3733 mt 2862 3853 L
2981 3673 mt 3101 3673 L
3041 3613 mt 3041 3733 L
3159 3543 mt 3279 3543 L
3219 3483 mt 3219 3603 L
3338 3403 mt 3458 3403 L
3398 3343 mt 3398 3463 L
3517 3254 mt 3637 3254 L
3577 3194 mt 3577 3314 L
3695 3097 mt 3815 3097 L
3755 3037 mt 3755 3157 L
3874 2933 mt 3994 2933 L
3934 2873 mt 3934 2993 L
4052 2762 mt 4172 2762 L
4112 2702 mt 4112 2822 L
4231 2585 mt 4351 2585 L
4291 2525 mt 4291 2645 L
4409 2403 mt 4529 2403 L
4469 2343 mt 4469 2463 L
4588 2216 mt 4708 2216 L
4648 2156 mt 4648 2276 L
4766 2026 mt 4886 2026 L
4826 1966 mt 4826 2086 L
4945 1833 mt 5065 1833 L
5005 1773 mt 5005 1893 L
5123 1637 mt 5243 1637 L
5183 1577 mt 5183 1697 L
5302 1438 mt 5422 1438 L
5362 1378 mt 5362 1498 L
5480 1238 mt 5600 1238 L
5540 1178 mt 5540 1298 L
5659 1036 mt 5779 1036 L
5719  976 mt 5719 1096 L
5837  832 mt 5957  832 L
5897  772 mt 5897  892 L
6016  627 mt 6136  627 L
6076  567 mt 6076  687 L
6195  422 mt 6315  422 L
6255  362 mt 6255  482 L
gs 899 389 5357 4226 MR c np
c9
179 -117 179 -118 178 -118 179 -119 178 -118 179 -118 178 -118 179 -117 
178 -117 179 -115 178 -115 179 -113 178 -112 179 -108 178 -106 179 -103 
179 -98 178 -94 179 -89 178 -83 179 -78 178 -70 179 -65 178 -58 
179 -51 178 -45 179 -39 178 -34 179 -29 178 -24 899 4506 31 MP stroke
gr

c9
 857 4464 mt  941 4548 L
 941 4464 mt  857 4548 L
1035 4440 mt 1119 4524 L
1119 4440 mt 1035 4524 L
1214 4411 mt 1298 4495 L
1298 4411 mt 1214 4495 L
1392 4377 mt 1476 4461 L
1476 4377 mt 1392 4461 L
1571 4338 mt 1655 4422 L
1655 4338 mt 1571 4422 L
1749 4293 mt 1833 4377 L
1833 4293 mt 1749 4377 L
1928 4242 mt 2012 4326 L
2012 4242 mt 1928 4326 L
2106 4184 mt 2190 4268 L
2190 4184 mt 2106 4268 L
2285 4119 mt 2369 4203 L
2369 4119 mt 2285 4203 L
2463 4049 mt 2547 4133 L
2547 4049 mt 2463 4133 L
2642 3971 mt 2726 4055 L
2726 3971 mt 2642 4055 L
2820 3888 mt 2904 3972 L
2904 3888 mt 2820 3972 L
2999 3799 mt 3083 3883 L
3083 3799 mt 2999 3883 L
3177 3705 mt 3261 3789 L
3261 3705 mt 3177 3789 L
3356 3607 mt 3440 3691 L
3440 3607 mt 3356 3691 L
3535 3504 mt 3619 3588 L
3619 3504 mt 3535 3588 L
3713 3398 mt 3797 3482 L
3797 3398 mt 3713 3482 L
3892 3290 mt 3976 3374 L
3976 3290 mt 3892 3374 L
4070 3178 mt 4154 3262 L
4154 3178 mt 4070 3262 L
4249 3065 mt 4333 3149 L
4333 3065 mt 4249 3149 L
4427 2950 mt 4511 3034 L
4511 2950 mt 4427 3034 L
4606 2835 mt 4690 2919 L
4690 2835 mt 4606 2919 L
4784 2718 mt 4868 2802 L
4868 2718 mt 4784 2802 L
4963 2601 mt 5047 2685 L
5047 2601 mt 4963 2685 L
5141 2483 mt 5225 2567 L
5225 2483 mt 5141 2567 L
5320 2365 mt 5404 2449 L
5404 2365 mt 5320 2449 L
5498 2247 mt 5582 2331 L
5582 2247 mt 5498 2331 L
5677 2128 mt 5761 2212 L
5761 2128 mt 5677 2212 L
5855 2010 mt 5939 2094 L
5939 2010 mt 5855 2094 L
6034 1892 mt 6118 1976 L
6118 1892 mt 6034 1976 L
6213 1775 mt 6297 1859 L
6297 1775 mt 6213 1859 L
gr

c9
gs 899 389 5357 4226 MR c np
gr

0 sg
%%IncludeResource: font Helvetica
/Helvetica /WindowsLatin1Encoding 120 FMSR

 882 4657 mt 
( ) s
6239  431 mt 
( ) s
6 w
1 sg
0 846 1913 0 0 -846 4283 4555 4 MP
PP
-1913 0 0 846 1913 0 0 -846 4283 4555 5 MP stroke
4 w
DO
SO
6 w
0 sg
4283 3709 mt 6196 3709 L
4283 4555 mt 6196 4555 L
6196 4555 mt 6196 3709 L
4283 4555 mt 4283 3709 L
4283 4555 mt 6196 4555 L
4283 4555 mt 4283 3709 L
4283 3709 mt 6196 3709 L
4283 4555 mt 6196 4555 L
6196 4555 mt 6196 3709 L
4283 4555 mt 4283 3709 L
%%IncludeResource: font Helvetica
/Helvetica /WindowsLatin1Encoding 168 FMSR

4733 3889 mt 
(SB JLD, Scheme 1) s
gs 4283 3709 1914 847 MR c np
DA
24 w
c8
346 0 4352 3829 2 MP stroke
SO
gr

24 w
c8
gs 4379 3683 293 293 MR c np
4465 3829 mt 4585 3829 L
4525 3769 mt 4525 3889 L
gr

gs 4283 3709 1914 847 MR c np
gr

0 sg
4733 4091 mt 
(SB ILD, Scheme 1) s
gs 4283 3709 1914 847 MR c np
DA
c9
346 0 4352 4031 2 MP stroke
SO
gs 4379 3885 293 293 MR c np
4483 3989 mt 4567 4073 L
4567 3989 mt 4483 4073 L
gr

gr

c9
0 sg
4733 4294 mt 
(SB JLD, Scheme 2) s
gs 4283 3709 1914 847 MR c np
c8
346 0 4352 4232 2 MP stroke
gs 4379 4086 293 293 MR c np
4465 4232 mt 4585 4232 L
4525 4172 mt 4525 4292 L
gr

gr

c8
0 sg
4733 4496 mt 
(SB ILD, Scheme 2) s
gs 4283 3709 1914 847 MR c np
c9
346 0 4352 4434 2 MP stroke
gr

c9
gs 4379 4288 293 293 MR c np
4483 4392 mt 4567 4476 L
4567 4392 mt 4483 4476 L
gr

gs 4283 3709 1914 847 MR c np
6 w
gr

6 w

end %%Color Dict

eplot
%%EndObject

epage
end

showpage

%%Trailer
%%EOF
