%!PS-Adobe-2.0 EPSF-1.2
%%Creator: MATLAB, The MathWorks, Inc. Version 7.14.0.739 (R2012a). Operating System: Microsoft Windows 7.
%%Title: .\comparison_title.eps
%%CreationDate: 12/07/2013  13:45:53
%%DocumentNeededFonts: Helvetica
%%DocumentProcessColors: Cyan Magenta Yellow Black
%%Extensions: CMYK
%%Pages: 1
%%BoundingBox:    58   192   553   602
%%EndComments

%%BeginProlog
% MathWorks dictionary
/MathWorks 160 dict begin
% definition operators
/bdef {bind def} bind def
/ldef {load def} bind def
/xdef {exch def} bdef
/xstore {exch store} bdef
% operator abbreviations
/c  /clip ldef
/cc /concat ldef
/cp /closepath ldef
/gr /grestore ldef
/gs /gsave ldef
/mt /moveto ldef
/np /newpath ldef
/cm /currentmatrix ldef
/sm /setmatrix ldef
/rm /rmoveto ldef
/rl /rlineto ldef
/s {show newpath} bdef
/sc {setcmykcolor} bdef
/sr /setrgbcolor ldef
/sg /setgray ldef
/w /setlinewidth ldef
/j /setlinejoin ldef
/cap /setlinecap ldef
/rc {rectclip} bdef
/rf {rectfill} bdef
% page state control
/pgsv () def
/bpage {/pgsv save def} bdef
/epage {pgsv restore} bdef
/bplot /gsave ldef
/eplot {stroke grestore} bdef
% orientation switch
/portraitMode 0 def /landscapeMode 1 def /rotateMode 2 def
% coordinate system mappings
/dpi2point 0 def
% font control
/FontSize 0 def
/FMS {/FontSize xstore findfont [FontSize 0 0 FontSize neg 0 0]
  makefont setfont} bdef
/ISOLatin1Encoding where {pop /WindowsLatin1Encoding 256 array bdef
ISOLatin1Encoding WindowsLatin1Encoding copy pop
/.notdef/.notdef/quotesinglbase/florin/quotedblbase/ellipsis/dagger
/daggerdbl/circumflex/perthousand/Scaron/guilsinglleft/OE/.notdef/.notdef
/.notdef/.notdef/quoteleft/quoteright/quotedblleft/quotedblright/bullet
/endash/emdash/tilde/trademark/scaron/guilsinglright/oe/.notdef/.notdef
/Ydieresis WindowsLatin1Encoding 128 32 getinterval astore pop}
{/WindowsLatin1Encoding StandardEncoding bdef} ifelse
/reencode {exch dup where {pop load} {pop StandardEncoding} ifelse
  exch dup 3 1 roll findfont dup length dict begin
  { 1 index /FID ne {def}{pop pop} ifelse } forall
  /Encoding exch def currentdict end definefont pop} bdef
/isroman {findfont /CharStrings get /Agrave known} bdef
/FMSR {3 1 roll 1 index dup isroman {reencode} {pop pop} ifelse
  exch FMS} bdef
/csm {1 dpi2point div -1 dpi2point div scale neg translate
 dup landscapeMode eq {pop -90 rotate}
  {rotateMode eq {90 rotate} if} ifelse} bdef
% line types: solid, dotted, dashed, dotdash
/SO { [] 0 setdash } bdef
/DO { [.5 dpi2point mul 4 dpi2point mul] 0 setdash } bdef
/DA { [6 dpi2point mul] 0 setdash } bdef
/DD { [.5 dpi2point mul 4 dpi2point mul 6 dpi2point mul 4
  dpi2point mul] 0 setdash } bdef
% macros for lines and objects
/L {lineto stroke} bdef
/MP {3 1 roll moveto 1 sub {rlineto} repeat} bdef
/AP {{rlineto} repeat} bdef
/PDlw -1 def
/W {/PDlw currentlinewidth def setlinewidth} def
/PP {closepath eofill} bdef
/DP {closepath stroke} bdef
/MR {4 -2 roll moveto dup  0 exch rlineto exch 0 rlineto
  neg 0 exch rlineto closepath} bdef
/FR {MR stroke} bdef
/PR {MR fill} bdef
/L1i {{currentfile picstr readhexstring pop} image} bdef
/tMatrix matrix def
/MakeOval {newpath tMatrix currentmatrix pop translate scale
0 0 1 0 360 arc tMatrix setmatrix} bdef
/FO {MakeOval stroke} bdef
/PO {MakeOval fill} bdef
/PD {currentlinewidth 2 div 0 360 arc fill
   PDlw -1 eq not {PDlw w /PDlw -1 def} if} def
/FA {newpath tMatrix currentmatrix pop translate scale
  0 0 1 5 -2 roll arc tMatrix setmatrix stroke} bdef
/PA {newpath tMatrix currentmatrix pop	translate 0 0 moveto scale
  0 0 1 5 -2 roll arc closepath tMatrix setmatrix fill} bdef
/FAn {newpath tMatrix currentmatrix pop translate scale
  0 0 1 5 -2 roll arcn tMatrix setmatrix stroke} bdef
/PAn {newpath tMatrix currentmatrix pop translate 0 0 moveto scale
  0 0 1 5 -2 roll arcn closepath tMatrix setmatrix fill} bdef
/vradius 0 def /hradius 0 def /lry 0 def
/lrx 0 def /uly 0 def /ulx 0 def /rad 0 def
/MRR {/vradius xdef /hradius xdef /lry xdef /lrx xdef /uly xdef
  /ulx xdef newpath tMatrix currentmatrix pop ulx hradius add uly
  vradius add translate hradius vradius scale 0 0 1 180 270 arc 
  tMatrix setmatrix lrx hradius sub uly vradius add translate
  hradius vradius scale 0 0 1 270 360 arc tMatrix setmatrix
  lrx hradius sub lry vradius sub translate hradius vradius scale
  0 0 1 0 90 arc tMatrix setmatrix ulx hradius add lry vradius sub
  translate hradius vradius scale 0 0 1 90 180 arc tMatrix setmatrix
  closepath} bdef
/FRR {MRR stroke } bdef
/PRR {MRR fill } bdef
/MlrRR {/lry xdef /lrx xdef /uly xdef /ulx xdef /rad lry uly sub 2 div def
  newpath tMatrix currentmatrix pop ulx rad add uly rad add translate
  rad rad scale 0 0 1 90 270 arc tMatrix setmatrix lrx rad sub lry rad
  sub translate rad rad scale 0 0 1 270 90 arc tMatrix setmatrix
  closepath} bdef
/FlrRR {MlrRR stroke } bdef
/PlrRR {MlrRR fill } bdef
/MtbRR {/lry xdef /lrx xdef /uly xdef /ulx xdef /rad lrx ulx sub 2 div def
  newpath tMatrix currentmatrix pop ulx rad add uly rad add translate
  rad rad scale 0 0 1 180 360 arc tMatrix setmatrix lrx rad sub lry rad
  sub translate rad rad scale 0 0 1 0 180 arc tMatrix setmatrix
  closepath} bdef
/FtbRR {MtbRR stroke } bdef
/PtbRR {MtbRR fill } bdef
/stri 6 array def /dtri 6 array def
/smat 6 array def /dmat 6 array def
/tmat1 6 array def /tmat2 6 array def /dif 3 array def
/asub {/ind2 exch def /ind1 exch def dup dup
  ind1 get exch ind2 get sub exch } bdef
/tri_to_matrix {
  2 0 asub 3 1 asub 4 0 asub 5 1 asub
  dup 0 get exch 1 get 7 -1 roll astore } bdef
/compute_transform {
  dmat dtri tri_to_matrix tmat1 invertmatrix 
  smat stri tri_to_matrix tmat2 concatmatrix } bdef
/ds {stri astore pop} bdef
/dt {dtri astore pop} bdef
/db {2 copy /cols xdef /rows xdef mul dup 3 mul string
  currentfile exch readhexstring pop
  dup 0 3 index getinterval /rbmap xdef
  dup 2 index dup getinterval /gbmap xdef
  1 index dup 2 mul exch getinterval /bbmap xdef pop pop}bdef
/it {gs np dtri aload pop moveto lineto lineto cp c
  cols rows 8 compute_transform 
  rbmap gbmap bbmap true 3 colorimage gr}bdef
/il {newpath moveto lineto stroke}bdef
currentdict end def
%%EndProlog

%%BeginSetup
MathWorks begin

0 cap

end
%%EndSetup

%%Page: 1 1
%%BeginPageSetup
%%PageBoundingBox:    58   192   553   602
MathWorks begin
bpage
%%EndPageSetup

%%BeginObject: obj1
bplot

/dpi2point 12 def
portraitMode 0216 7344 csm

  480   110  5951  4925 MR c np
86 dict begin %Colortable dictionary
/c0 { 0.000000 0.000000 0.000000 sr} bdef
/c1 { 1.000000 1.000000 1.000000 sr} bdef
/c2 { 0.900000 0.000000 0.000000 sr} bdef
/c3 { 0.000000 0.820000 0.000000 sr} bdef
/c4 { 0.000000 0.000000 0.800000 sr} bdef
/c5 { 0.910000 0.820000 0.320000 sr} bdef
/c6 { 1.000000 0.260000 0.820000 sr} bdef
/c7 { 0.000000 0.820000 0.820000 sr} bdef
c0
1 j
1 sg
   0    0 6913 5186 PR
6 w
0 4226 5356 0 0 -4226 899 4615 4 MP
PP
-5356 0 0 4226 5356 0 0 -4226 899 4615 5 MP stroke
4 w
DO
0 sg
 899 4615 mt  899  389 L
 899  389 mt  899  389 L
1791 4615 mt 1791  389 L
1791  389 mt 1791  389 L
2684 4615 mt 2684  389 L
2684  389 mt 2684  389 L
3577 4615 mt 3577  389 L
3577  389 mt 3577  389 L
4469 4615 mt 4469  389 L
4469  389 mt 4469  389 L
5362 4615 mt 5362  389 L
5362  389 mt 5362  389 L
6255 4615 mt 6255  389 L
6255  389 mt 6255  389 L
 899 4615 mt 6255 4615 L
6255 4615 mt 6255 4615 L
 899 4086 mt 6255 4086 L
6255 4086 mt 6255 4086 L
 899 3558 mt 6255 3558 L
6255 3558 mt 6255 3558 L
 899 3030 mt 6255 3030 L
6255 3030 mt 6255 3030 L
 899 2502 mt 6255 2502 L
6255 2502 mt 6255 2502 L
 899 1973 mt 6255 1973 L
6255 1973 mt 6255 1973 L
 899 1445 mt 6255 1445 L
6255 1445 mt 6255 1445 L
 899  917 mt 6255  917 L
6255  917 mt 6255  917 L
 899  389 mt 6255  389 L
6255  389 mt 6255  389 L
SO
6 w
 899  389 mt 6255  389 L
 899 4615 mt 6255 4615 L
6255 4615 mt 6255  389 L
 899 4615 mt  899  389 L
 899 4615 mt 6255 4615 L
 899 4615 mt  899  389 L
 899 4615 mt  899 4561 L
 899  389 mt  899  442 L
%%IncludeResource: font Helvetica
/Helvetica /WindowsLatin1Encoding 120 FMSR

 796 4760 mt 
(-5) s
1791 4615 mt 1791 4561 L
1791  389 mt 1791  442 L
1758 4760 mt 
(0) s
2684 4615 mt 2684 4561 L
2684  389 mt 2684  442 L
2651 4760 mt 
(5) s
3577 4615 mt 3577 4561 L
3577  389 mt 3577  442 L
3511 4760 mt 
(10) s
4469 4615 mt 4469 4561 L
4469  389 mt 4469  442 L
4403 4760 mt 
(15) s
5362 4615 mt 5362 4561 L
5362  389 mt 5362  442 L
5296 4760 mt 
(20) s
6255 4615 mt 6255 4561 L
6255  389 mt 6255  442 L
6189 4760 mt 
(25) s
 899 4615 mt  952 4615 L
6255 4615 mt 6201 4615 L
 798 4659 mt 
(0) s
 899 4086 mt  952 4086 L
6255 4086 mt 6201 4086 L
 698 4130 mt 
(0.5) s
 899 3558 mt  952 3558 L
6255 3558 mt 6201 3558 L
 798 3602 mt 
(1) s
 899 3030 mt  952 3030 L
6255 3030 mt 6201 3030 L
 698 3074 mt 
(1.5) s
 899 2502 mt  952 2502 L
6255 2502 mt 6201 2502 L
 798 2546 mt 
(2) s
 899 1973 mt  952 1973 L
6255 1973 mt 6201 1973 L
 698 2017 mt 
(2.5) s
 899 1445 mt  952 1445 L
6255 1445 mt 6201 1445 L
 798 1489 mt 
(3) s
 899  917 mt  952  917 L
6255  917 mt 6201  917 L
 698  961 mt 
(3.5) s
 899  389 mt  952  389 L
6255  389 mt 6201  389 L
 798  433 mt 
(4) s
 899  389 mt 6255  389 L
 899 4615 mt 6255 4615 L
6255 4615 mt 6255  389 L
 899 4615 mt  899  389 L
gs 899 389 5357 4227 MR c np
24 w
224 0 223 0 223 0 223 0 223 0 223 -5 224 -18 223 -52 
223 -106 223 -174 223 -240 223 -288 224 -314 223 -322 223 -316 223 -306 
223 -291 223 -272 224 -250 223 -226 223 -198 223 -170 223 -142 223 -117 
899 4196 25 MP stroke
gr

24 w
  60   60  899 4196 FO
  60   60 1122 4079 FO
  60   60 1345 3937 FO
  60   60 1568 3767 FO
  60   60 1791 3569 FO
  60   60 2014 3343 FO
  60   60 2238 3093 FO
  60   60 2461 2821 FO
  60   60 2684 2530 FO
  60   60 2907 2224 FO
  60   60 3130 1908 FO
  60   60 3353 1586 FO
  60   60 3577 1272 FO
  60   60 3800  984 FO
  60   60 4023  744 FO
  60   60 4246  570 FO
  60   60 4469  464 FO
  60   60 4692  412 FO
  60   60 4916  394 FO
  60   60 5139  389 FO
  60   60 5362  389 FO
  60   60 5585  389 FO
  60   60 5808  389 FO
  60   60 6031  389 FO
  60   60 6255  389 FO
gs 899 389 5357 4227 MR c np
gr

%%IncludeResource: font Helvetica
/Helvetica /WindowsLatin1Encoding 204 FMSR

3140 4965 mt 
(SNR \(dB\)) s
%%IncludeResource: font Helvetica
/Helvetica /WindowsLatin1Encoding 120 FMSR

 616 3303 mt  -90 rotate
(Information Rate \(bits/symbol\)) s
90 rotate
gs 899 389 5357 4227 MR c np
/c8 { 0.000000 0.000000 1.000000 sr} bdef
c8
224 -28 223 -24 223 -50 223 -61 223 -83 223 -107 224 -161 223 -183 
223 -218 223 -247 223 -250 223 -265 224 -273 223 -272 223 -242 223 -247 
223 -237 223 -205 224 -208 223 -163 223 -142 223 -132 223 -102 223 -85 
899 4413 25 MP stroke
gr

c8
  60   60  899 4413 FO
  60   60 1122 4328 FO
  60   60 1345 4226 FO
  60   60 1568 4094 FO
  60   60 1791 3952 FO
  60   60 2014 3789 FO
  60   60 2238 3581 FO
  60   60 2461 3376 FO
  60   60 2684 3139 FO
  60   60 2907 2892 FO
  60   60 3130 2650 FO
  60   60 3353 2378 FO
  60   60 3577 2105 FO
  60   60 3800 1840 FO
  60   60 4023 1590 FO
  60   60 4246 1343 FO
  60   60 4469 1125 FO
  60   60 4692  942 FO
  60   60 4916  781 FO
  60   60 5139  674 FO
  60   60 5362  591 FO
  60   60 5585  530 FO
  60   60 5808  480 FO
  60   60 6031  456 FO
  60   60 6255  428 FO
gs 899 389 5357 4227 MR c np
/c9 { 1.000000 0.000000 0.000000 sr} bdef
c9
224 -10 223 -18 223 -28 223 -41 223 -57 223 -81 224 -124 223 -146 
223 -180 223 -213 223 -226 223 -242 224 -245 223 -252 223 -241 223 -229 
223 -230 223 -208 224 -192 223 -167 223 -149 223 -130 223 -99 223 -77 
899 4415 25 MP stroke
gr

c9
  60   60  899 4415 FO
  60   60 1122 4338 FO
  60   60 1345 4239 FO
  60   60 1568 4109 FO
  60   60 1791 3960 FO
  60   60 2014 3793 FO
  60   60 2238 3601 FO
  60   60 2461 3393 FO
  60   60 2684 3163 FO
  60   60 2907 2934 FO
  60   60 3130 2693 FO
  60   60 3353 2441 FO
  60   60 3577 2196 FO
  60   60 3800 1954 FO
  60   60 4023 1728 FO
  60   60 4246 1515 FO
  60   60 4469 1335 FO
  60   60 4692 1189 FO
  60   60 4916 1065 FO
  60   60 5139  984 FO
  60   60 5362  927 FO
  60   60 5585  886 FO
  60   60 5808  858 FO
  60   60 6031  840 FO
  60   60 6255  830 FO
gs 899 389 5357 4227 MR c np
/c10 { 0.000000 1.000000 0.000000 sr} bdef
c10
224 -15 223 -8 223 -18 223 -28 223 -52 223 -73 224 -109 223 -137 
223 -165 223 -192 223 -214 223 -223 224 -230 223 -235 223 -231 223 -221 
223 -209 223 -204 224 -182 223 -171 223 -147 223 -122 223 -95 223 -81 
899 4412 25 MP stroke
gr

c10
  60   60  899 4412 FO
  60   60 1122 4331 FO
  60   60 1345 4236 FO
  60   60 1568 4114 FO
  60   60 1791 3967 FO
  60   60 2014 3796 FO
  60   60 2238 3614 FO
  60   60 2461 3410 FO
  60   60 2684 3201 FO
  60   60 2907 2980 FO
  60   60 3130 2749 FO
  60   60 3353 2514 FO
  60   60 3577 2284 FO
  60   60 3800 2061 FO
  60   60 4023 1847 FO
  60   60 4246 1655 FO
  60   60 4469 1490 FO
  60   60 4692 1353 FO
  60   60 4916 1244 FO
  60   60 5139 1171 FO
  60   60 5362 1119 FO
  60   60 5585 1091 FO
  60   60 5808 1073 FO
  60   60 6031 1065 FO
  60   60 6255 1050 FO
gs 899 389 5357 4227 MR c np
0 sg
224 0 223 0 223 0 223 0 223 0 223 0 224 0 223 0 
223 0 223 0 223 -1 223 -5 224 -20 223 -48 223 -88 223 -135 
223 -175 223 -200 224 -210 223 -204 223 -187 223 -165 223 -141 223 -116 
899 4197 25 MP stroke
gr

0 sg
 857 4155 mt  941 4239 L
 941 4155 mt  857 4239 L
1080 4039 mt 1164 4123 L
1164 4039 mt 1080 4123 L
1303 3898 mt 1387 3982 L
1387 3898 mt 1303 3982 L
1526 3733 mt 1610 3817 L
1610 3733 mt 1526 3817 L
1749 3546 mt 1833 3630 L
1833 3546 mt 1749 3630 L
1972 3342 mt 2056 3426 L
2056 3342 mt 1972 3426 L
2196 3132 mt 2280 3216 L
2280 3132 mt 2196 3216 L
2419 2932 mt 2503 3016 L
2503 2932 mt 2419 3016 L
2642 2757 mt 2726 2841 L
2726 2757 mt 2642 2841 L
2865 2622 mt 2949 2706 L
2949 2622 mt 2865 2706 L
3088 2534 mt 3172 2618 L
3172 2534 mt 3088 2618 L
3311 2486 mt 3395 2570 L
3395 2486 mt 3311 2570 L
3535 2466 mt 3619 2550 L
3619 2466 mt 3535 2550 L
3758 2461 mt 3842 2545 L
3842 2461 mt 3758 2545 L
3981 2460 mt 4065 2544 L
4065 2460 mt 3981 2544 L
4204 2460 mt 4288 2544 L
4288 2460 mt 4204 2544 L
4427 2460 mt 4511 2544 L
4511 2460 mt 4427 2544 L
4650 2460 mt 4734 2544 L
4734 2460 mt 4650 2544 L
4874 2460 mt 4958 2544 L
4958 2460 mt 4874 2544 L
5097 2460 mt 5181 2544 L
5181 2460 mt 5097 2544 L
5320 2460 mt 5404 2544 L
5404 2460 mt 5320 2544 L
5543 2460 mt 5627 2544 L
5627 2460 mt 5543 2544 L
5766 2460 mt 5850 2544 L
5850 2460 mt 5766 2544 L
5989 2460 mt 6073 2544 L
6073 2460 mt 5989 2544 L
6213 2460 mt 6297 2544 L
6297 2460 mt 6213 2544 L
gs 899 389 5357 4227 MR c np
c8
224 -1 223 -2 223 -5 223 -6 223 -16 223 -18 224 -31 223 -43 
223 -49 223 -68 223 -81 223 -85 224 -113 223 -122 223 -136 223 -148 
223 -163 223 -164 224 -160 223 -146 223 -131 223 -105 223 -92 223 -66 
899 4453 25 MP stroke
gr

c8
 857 4411 mt  941 4495 L
 941 4411 mt  857 4495 L
1080 4345 mt 1164 4429 L
1164 4345 mt 1080 4429 L
1303 4253 mt 1387 4337 L
1387 4253 mt 1303 4337 L
1526 4148 mt 1610 4232 L
1610 4148 mt 1526 4232 L
1749 4017 mt 1833 4101 L
1833 4017 mt 1749 4101 L
1972 3871 mt 2056 3955 L
2056 3871 mt 1972 3955 L
2196 3711 mt 2280 3795 L
2280 3711 mt 2196 3795 L
2419 3547 mt 2503 3631 L
2503 3547 mt 2419 3631 L
2642 3384 mt 2726 3468 L
2726 3384 mt 2642 3468 L
2865 3236 mt 2949 3320 L
2949 3236 mt 2865 3320 L
3088 3100 mt 3172 3184 L
3172 3100 mt 3088 3184 L
3311 2978 mt 3395 3062 L
3395 2978 mt 3311 3062 L
3535 2865 mt 3619 2949 L
3619 2865 mt 3535 2949 L
3758 2780 mt 3842 2864 L
3842 2780 mt 3758 2864 L
3981 2699 mt 4065 2783 L
4065 2699 mt 3981 2783 L
4204 2631 mt 4288 2715 L
4288 2631 mt 4204 2715 L
4427 2582 mt 4511 2666 L
4511 2582 mt 4427 2666 L
4650 2539 mt 4734 2623 L
4734 2539 mt 4650 2623 L
4874 2508 mt 4958 2592 L
4958 2508 mt 4874 2592 L
5097 2490 mt 5181 2574 L
5181 2490 mt 5097 2574 L
5320 2474 mt 5404 2558 L
5404 2474 mt 5320 2558 L
5543 2468 mt 5627 2552 L
5627 2468 mt 5543 2552 L
5766 2463 mt 5850 2547 L
5850 2463 mt 5766 2547 L
5989 2461 mt 6073 2545 L
6073 2461 mt 5989 2545 L
6213 2460 mt 6297 2544 L
6297 2460 mt 6213 2544 L
gs 899 389 5357 4227 MR c np
c9
224 -2 223 -6 223 -7 223 -11 223 -12 223 -15 224 -22 223 -25 
223 -36 223 -45 223 -50 223 -70 224 -81 223 -102 223 -120 223 -135 
223 -147 223 -153 224 -155 223 -141 223 -128 223 -109 223 -86 223 -64 
899 4457 25 MP stroke
gr

c9
 857 4415 mt  941 4499 L
 941 4415 mt  857 4499 L
1080 4351 mt 1164 4435 L
1164 4351 mt 1080 4435 L
1303 4265 mt 1387 4349 L
1387 4265 mt 1303 4349 L
1526 4156 mt 1610 4240 L
1610 4156 mt 1526 4240 L
1749 4028 mt 1833 4112 L
1833 4028 mt 1749 4112 L
1972 3887 mt 2056 3971 L
2056 3887 mt 1972 3971 L
2196 3732 mt 2280 3816 L
2280 3732 mt 2196 3816 L
2419 3579 mt 2503 3663 L
2503 3579 mt 2419 3663 L
2642 3432 mt 2726 3516 L
2726 3432 mt 2642 3516 L
2865 3297 mt 2949 3381 L
2949 3297 mt 2865 3381 L
3088 3177 mt 3172 3261 L
3172 3177 mt 3088 3261 L
3311 3075 mt 3395 3159 L
3395 3075 mt 3311 3159 L
3535 2994 mt 3619 3078 L
3619 2994 mt 3535 3078 L
3758 2924 mt 3842 3008 L
3842 2924 mt 3758 3008 L
3981 2874 mt 4065 2958 L
4065 2874 mt 3981 2958 L
4204 2829 mt 4288 2913 L
4288 2829 mt 4204 2913 L
4427 2793 mt 4511 2877 L
4511 2793 mt 4427 2877 L
4650 2768 mt 4734 2852 L
4734 2768 mt 4650 2852 L
4874 2746 mt 4958 2830 L
4958 2746 mt 4874 2830 L
5097 2731 mt 5181 2815 L
5181 2731 mt 5097 2815 L
5320 2719 mt 5404 2803 L
5404 2719 mt 5320 2803 L
5543 2708 mt 5627 2792 L
5627 2708 mt 5543 2792 L
5766 2701 mt 5850 2785 L
5850 2701 mt 5766 2785 L
5989 2695 mt 6073 2779 L
6073 2695 mt 5989 2779 L
6213 2693 mt 6297 2777 L
6297 2693 mt 6213 2777 L
gs 899 389 5357 4227 MR c np
c10
224 -9 223 2 223 -8 223 -3 223 -10 223 -10 224 -18 223 -19 
223 -22 223 -33 223 -40 223 -53 224 -63 223 -84 223 -97 223 -114 
223 -123 223 -147 224 -140 223 -137 223 -121 223 -100 223 -90 223 -65 
899 4457 25 MP stroke
gr

c10
 857 4415 mt  941 4499 L
 941 4415 mt  857 4499 L
1080 4350 mt 1164 4434 L
1164 4350 mt 1080 4434 L
1303 4260 mt 1387 4344 L
1387 4260 mt 1303 4344 L
1526 4160 mt 1610 4244 L
1610 4160 mt 1526 4244 L
1749 4039 mt 1833 4123 L
1833 4039 mt 1749 4123 L
1972 3902 mt 2056 3986 L
2056 3902 mt 1972 3986 L
2196 3762 mt 2280 3846 L
2280 3762 mt 2196 3846 L
2419 3615 mt 2503 3699 L
2503 3615 mt 2419 3699 L
2642 3492 mt 2726 3576 L
2726 3492 mt 2642 3576 L
2865 3378 mt 2949 3462 L
2949 3378 mt 2865 3462 L
3088 3281 mt 3172 3365 L
3172 3281 mt 3088 3365 L
3311 3197 mt 3395 3281 L
3395 3197 mt 3311 3281 L
3535 3134 mt 3619 3218 L
3619 3134 mt 3535 3218 L
3758 3081 mt 3842 3165 L
3842 3081 mt 3758 3165 L
3981 3041 mt 4065 3125 L
4065 3041 mt 3981 3125 L
4204 3008 mt 4288 3092 L
4288 3008 mt 4204 3092 L
4427 2986 mt 4511 3070 L
4511 2986 mt 4427 3070 L
4650 2967 mt 4734 3051 L
4734 2967 mt 4650 3051 L
4874 2949 mt 4958 3033 L
4958 2949 mt 4874 3033 L
5097 2939 mt 5181 3023 L
5181 2939 mt 5097 3023 L
5320 2929 mt 5404 3013 L
5404 2929 mt 5320 3013 L
5543 2926 mt 5627 3010 L
5627 2926 mt 5543 3010 L
5766 2918 mt 5850 3002 L
5850 2918 mt 5766 3002 L
5989 2920 mt 6073 3004 L
6073 2920 mt 5989 3004 L
6213 2911 mt 6297 2995 L
6297 2911 mt 6213 2995 L
gs 899 389 5357 4227 MR c np
gr

0 sg
3216  294 mt 
(Square Pulse) s
 882 4658 mt 
( ) s
6239  431 mt 
( ) s
6 w
1 sg
0 1800 2236 0 0 -1800 959 2249 4 MP
PP
-2236 0 0 1800 2236 0 0 -1800 959 2249 5 MP stroke
4 w
DO
SO
6 w
0 sg
 959  449 mt 3195  449 L
 959 2249 mt 3195 2249 L
3195 2249 mt 3195  449 L
 959 2249 mt  959  449 L
 959 2249 mt 3195 2249 L
 959 2249 mt  959  449 L
 959  449 mt 3195  449 L
 959 2249 mt 3195 2249 L
3195 2249 mt 3195  449 L
 959 2249 mt  959  449 L
%%IncludeResource: font Helvetica
/Helvetica /WindowsLatin1Encoding 168 FMSR

1431  637 mt 
(16-QAM, AWGN) s
gs 959 449 2237 1801 MR c np
24 w
363 0 1031 577 2 MP stroke
gr

24 w
gs 1067 431 293 293 MR c np
  60   60 1213  577 FO
gr

gs 959 449 2237 1801 MR c np
gr

1431  855 mt 
(16-QAM, ) s
%%IncludeResource: font Symbol
/Symbol /WindowsLatin1Encoding 168 FMSR

2192  855 mt 
(g) s
%%IncludeResource: font Helvetica
/Helvetica /WindowsLatin1Encoding 168 FMSR

2261  855 mt 
( = 0.4, GK) s
gs 959 449 2237 1801 MR c np
c8
363 0 1031 794 2 MP stroke
gs 1067 648 293 293 MR c np
  60   60 1213  794 FO
gr

gr

c8
0 sg
1431 1077 mt 
(16-QAM, ) s
%%IncludeResource: font Symbol
/Symbol /WindowsLatin1Encoding 168 FMSR

2192 1077 mt 
(g) s
%%IncludeResource: font Helvetica
/Helvetica /WindowsLatin1Encoding 168 FMSR

2261 1077 mt 
( = 0.4, MTR) s
gs 959 449 2237 1801 MR c np
c9
363 0 1031 1016 2 MP stroke
gs 1067 870 293 293 MR c np
  60   60 1213 1016 FO
gr

gr

c9
0 sg
1431 1299 mt 
(16-QAM, ) s
%%IncludeResource: font Symbol
/Symbol /WindowsLatin1Encoding 168 FMSR

2192 1299 mt 
(g) s
%%IncludeResource: font Helvetica
/Helvetica /WindowsLatin1Encoding 168 FMSR

2261 1299 mt 
( = 0.4, Baud) s
gs 959 449 2237 1801 MR c np
c10
363 0 1031 1238 2 MP stroke
gs 1067 1092 293 293 MR c np
  60   60 1213 1238 FO
gr

gr

c10
0 sg
1431 1517 mt 
(  QPSK, AWGN) s
gs 959 449 2237 1801 MR c np
363 0 1031 1456 2 MP stroke
gs 1067 1310 293 293 MR c np
1171 1414 mt 1255 1498 L
1255 1414 mt 1171 1498 L
gr

gr

1431 1735 mt 
(  QPSK, ) s
%%IncludeResource: font Symbol
/Symbol /WindowsLatin1Encoding 168 FMSR

2084 1735 mt 
(g) s
%%IncludeResource: font Helvetica
/Helvetica /WindowsLatin1Encoding 168 FMSR

2153 1735 mt 
( = 0.5, GK) s
gs 959 449 2237 1801 MR c np
c8
363 0 1031 1673 2 MP stroke
gs 1067 1527 293 293 MR c np
1171 1631 mt 1255 1715 L
1255 1631 mt 1171 1715 L
gr

gr

c8
0 sg
1431 1956 mt 
(  QPSK, ) s
%%IncludeResource: font Symbol
/Symbol /WindowsLatin1Encoding 168 FMSR

2084 1956 mt 
(g) s
%%IncludeResource: font Helvetica
/Helvetica /WindowsLatin1Encoding 168 FMSR

2153 1956 mt 
( = 0.5, MTR) s
gs 959 449 2237 1801 MR c np
c9
363 0 1031 1895 2 MP stroke
gs 1067 1749 293 293 MR c np
1171 1853 mt 1255 1937 L
1255 1853 mt 1171 1937 L
gr

gr

c9
0 sg
1431 2178 mt 
(  QPSK, ) s
%%IncludeResource: font Symbol
/Symbol /WindowsLatin1Encoding 168 FMSR

2084 2178 mt 
(g) s
%%IncludeResource: font Helvetica
/Helvetica /WindowsLatin1Encoding 168 FMSR

2153 2178 mt 
( = 0.5, Baud) s
gs 959 449 2237 1801 MR c np
c10
363 0 1031 2117 2 MP stroke
gr

c10
gs 1067 1971 293 293 MR c np
1171 2075 mt 1255 2159 L
1255 2075 mt 1171 2159 L
gr

gs 959 449 2237 1801 MR c np
6 w
gr

6 w

end %%Color Dict

eplot
%%EndObject

epage
end

showpage

%%Trailer
%%EOF
