%!PS-Adobe-2.0 EPSF-1.2
%%Creator: MATLAB, The MathWorks, Inc. Version 7.14.0.739 (R2012a). Operating System: Microsoft Windows 7.
%%Title: .\RATE_CHB_SCHEME2.eps
%%CreationDate: 05/01/2015  15:33:04
%%DocumentNeededFonts: Helvetica
%%DocumentProcessColors: Cyan Magenta Yellow Black
%%Extensions: CMYK
%%Pages: 1
%%BoundingBox:    59   199   552   602
%%EndComments

%%BeginProlog
% MathWorks dictionary
/MathWorks 160 dict begin
% definition operators
/bdef {bind def} bind def
/ldef {load def} bind def
/xdef {exch def} bdef
/xstore {exch store} bdef
% operator abbreviations
/c  /clip ldef
/cc /concat ldef
/cp /closepath ldef
/gr /grestore ldef
/gs /gsave ldef
/mt /moveto ldef
/np /newpath ldef
/cm /currentmatrix ldef
/sm /setmatrix ldef
/rm /rmoveto ldef
/rl /rlineto ldef
/s {show newpath} bdef
/sc {setcmykcolor} bdef
/sr /setrgbcolor ldef
/sg /setgray ldef
/w /setlinewidth ldef
/j /setlinejoin ldef
/cap /setlinecap ldef
/rc {rectclip} bdef
/rf {rectfill} bdef
% page state control
/pgsv () def
/bpage {/pgsv save def} bdef
/epage {pgsv restore} bdef
/bplot /gsave ldef
/eplot {stroke grestore} bdef
% orientation switch
/portraitMode 0 def /landscapeMode 1 def /rotateMode 2 def
% coordinate system mappings
/dpi2point 0 def
% font control
/FontSize 0 def
/FMS {/FontSize xstore findfont [FontSize 0 0 FontSize neg 0 0]
  makefont setfont} bdef
/ISOLatin1Encoding where {pop /WindowsLatin1Encoding 256 array bdef
ISOLatin1Encoding WindowsLatin1Encoding copy pop
/.notdef/.notdef/quotesinglbase/florin/quotedblbase/ellipsis/dagger
/daggerdbl/circumflex/perthousand/Scaron/guilsinglleft/OE/.notdef/.notdef
/.notdef/.notdef/quoteleft/quoteright/quotedblleft/quotedblright/bullet
/endash/emdash/tilde/trademark/scaron/guilsinglright/oe/.notdef/.notdef
/Ydieresis WindowsLatin1Encoding 128 32 getinterval astore pop}
{/WindowsLatin1Encoding StandardEncoding bdef} ifelse
/reencode {exch dup where {pop load} {pop StandardEncoding} ifelse
  exch dup 3 1 roll findfont dup length dict begin
  { 1 index /FID ne {def}{pop pop} ifelse } forall
  /Encoding exch def currentdict end definefont pop} bdef
/isroman {findfont /CharStrings get /Agrave known} bdef
/FMSR {3 1 roll 1 index dup isroman {reencode} {pop pop} ifelse
  exch FMS} bdef
/csm {1 dpi2point div -1 dpi2point div scale neg translate
 dup landscapeMode eq {pop -90 rotate}
  {rotateMode eq {90 rotate} if} ifelse} bdef
% line types: solid, dotted, dashed, dotdash
/SO { [] 0 setdash } bdef
/DO { [.5 dpi2point mul 4 dpi2point mul] 0 setdash } bdef
/DA { [6 dpi2point mul] 0 setdash } bdef
/DD { [.5 dpi2point mul 4 dpi2point mul 6 dpi2point mul 4
  dpi2point mul] 0 setdash } bdef
% macros for lines and objects
/L {lineto stroke} bdef
/MP {3 1 roll moveto 1 sub {rlineto} repeat} bdef
/AP {{rlineto} repeat} bdef
/PDlw -1 def
/W {/PDlw currentlinewidth def setlinewidth} def
/PP {closepath eofill} bdef
/DP {closepath stroke} bdef
/MR {4 -2 roll moveto dup  0 exch rlineto exch 0 rlineto
  neg 0 exch rlineto closepath} bdef
/FR {MR stroke} bdef
/PR {MR fill} bdef
/L1i {{currentfile picstr readhexstring pop} image} bdef
/tMatrix matrix def
/MakeOval {newpath tMatrix currentmatrix pop translate scale
0 0 1 0 360 arc tMatrix setmatrix} bdef
/FO {MakeOval stroke} bdef
/PO {MakeOval fill} bdef
/PD {currentlinewidth 2 div 0 360 arc fill
   PDlw -1 eq not {PDlw w /PDlw -1 def} if} def
/FA {newpath tMatrix currentmatrix pop translate scale
  0 0 1 5 -2 roll arc tMatrix setmatrix stroke} bdef
/PA {newpath tMatrix currentmatrix pop	translate 0 0 moveto scale
  0 0 1 5 -2 roll arc closepath tMatrix setmatrix fill} bdef
/FAn {newpath tMatrix currentmatrix pop translate scale
  0 0 1 5 -2 roll arcn tMatrix setmatrix stroke} bdef
/PAn {newpath tMatrix currentmatrix pop translate 0 0 moveto scale
  0 0 1 5 -2 roll arcn closepath tMatrix setmatrix fill} bdef
/vradius 0 def /hradius 0 def /lry 0 def
/lrx 0 def /uly 0 def /ulx 0 def /rad 0 def
/MRR {/vradius xdef /hradius xdef /lry xdef /lrx xdef /uly xdef
  /ulx xdef newpath tMatrix currentmatrix pop ulx hradius add uly
  vradius add translate hradius vradius scale 0 0 1 180 270 arc 
  tMatrix setmatrix lrx hradius sub uly vradius add translate
  hradius vradius scale 0 0 1 270 360 arc tMatrix setmatrix
  lrx hradius sub lry vradius sub translate hradius vradius scale
  0 0 1 0 90 arc tMatrix setmatrix ulx hradius add lry vradius sub
  translate hradius vradius scale 0 0 1 90 180 arc tMatrix setmatrix
  closepath} bdef
/FRR {MRR stroke } bdef
/PRR {MRR fill } bdef
/MlrRR {/lry xdef /lrx xdef /uly xdef /ulx xdef /rad lry uly sub 2 div def
  newpath tMatrix currentmatrix pop ulx rad add uly rad add translate
  rad rad scale 0 0 1 90 270 arc tMatrix setmatrix lrx rad sub lry rad
  sub translate rad rad scale 0 0 1 270 90 arc tMatrix setmatrix
  closepath} bdef
/FlrRR {MlrRR stroke } bdef
/PlrRR {MlrRR fill } bdef
/MtbRR {/lry xdef /lrx xdef /uly xdef /ulx xdef /rad lrx ulx sub 2 div def
  newpath tMatrix currentmatrix pop ulx rad add uly rad add translate
  rad rad scale 0 0 1 180 360 arc tMatrix setmatrix lrx rad sub lry rad
  sub translate rad rad scale 0 0 1 0 180 arc tMatrix setmatrix
  closepath} bdef
/FtbRR {MtbRR stroke } bdef
/PtbRR {MtbRR fill } bdef
/stri 6 array def /dtri 6 array def
/smat 6 array def /dmat 6 array def
/tmat1 6 array def /tmat2 6 array def /dif 3 array def
/asub {/ind2 exch def /ind1 exch def dup dup
  ind1 get exch ind2 get sub exch } bdef
/tri_to_matrix {
  2 0 asub 3 1 asub 4 0 asub 5 1 asub
  dup 0 get exch 1 get 7 -1 roll astore } bdef
/compute_transform {
  dmat dtri tri_to_matrix tmat1 invertmatrix 
  smat stri tri_to_matrix tmat2 concatmatrix } bdef
/ds {stri astore pop} bdef
/dt {dtri astore pop} bdef
/db {2 copy /cols xdef /rows xdef mul dup 3 mul string
  currentfile exch readhexstring pop
  dup 0 3 index getinterval /rbmap xdef
  dup 2 index dup getinterval /gbmap xdef
  1 index dup 2 mul exch getinterval /bbmap xdef pop pop}bdef
/it {gs np dtri aload pop moveto lineto lineto cp c
  cols rows 8 compute_transform 
  rbmap gbmap bbmap true 3 colorimage gr}bdef
/il {newpath moveto lineto stroke}bdef
currentdict end def
%%EndProlog

%%BeginSetup
MathWorks begin

0 cap

end
%%EndSetup

%%Page: 1 1
%%BeginPageSetup
%%PageBoundingBox:    59   199   552   602
MathWorks begin
bpage
%%EndPageSetup

%%BeginObject: obj1
bplot

/dpi2point 12 def
portraitMode 0204 7344 csm

  513   110  5918  4844 MR c np
87 dict begin %Colortable dictionary
/c0 { 0.000000 0.000000 0.000000 sr} bdef
/c1 { 1.000000 1.000000 1.000000 sr} bdef
/c2 { 0.900000 0.000000 0.000000 sr} bdef
/c3 { 0.000000 0.820000 0.000000 sr} bdef
/c4 { 0.000000 0.000000 0.800000 sr} bdef
/c5 { 0.910000 0.820000 0.320000 sr} bdef
/c6 { 1.000000 0.260000 0.820000 sr} bdef
/c7 { 0.000000 0.820000 0.820000 sr} bdef
c0
1 j
1 sg
   0    0 6913 5185 PR
6 w
0 4225 5356 0 0 -4225 899 4614 4 MP
PP
-5356 0 0 4225 5356 0 0 -4225 899 4614 5 MP stroke
4 w
DO
SO
6 w
0 sg
 899  389 mt 6255  389 L
 899 4614 mt 6255 4614 L
6255 4614 mt 6255  389 L
 899 4614 mt  899  389 L
 899 4614 mt 6255 4614 L
 899 4614 mt  899  389 L
 899 4614 mt  899 4560 L
 899  389 mt  899  442 L
%%IncludeResource: font Helvetica
/Helvetica /WindowsLatin1Encoding 120 FMSR

 866 4759 mt 
(0) s
1791 4614 mt 1791 4560 L
1791  389 mt 1791  442 L
1758 4759 mt 
(5) s
2684 4614 mt 2684 4560 L
2684  389 mt 2684  442 L
2618 4759 mt 
(10) s
3577 4614 mt 3577 4560 L
3577  389 mt 3577  442 L
3511 4759 mt 
(15) s
4469 4614 mt 4469 4560 L
4469  389 mt 4469  442 L
4403 4759 mt 
(20) s
5362 4614 mt 5362 4560 L
5362  389 mt 5362  442 L
5296 4759 mt 
(25) s
6255 4614 mt 6255 4560 L
6255  389 mt 6255  442 L
6189 4759 mt 
(30) s
 899 4614 mt  952 4614 L
6255 4614 mt 6201 4614 L
 798 4658 mt 
(0) s
 899 4085 mt  952 4085 L
6255 4085 mt 6201 4085 L
 798 4129 mt 
(5) s
 899 3557 mt  952 3557 L
6255 3557 mt 6201 3557 L
 731 3601 mt 
(10) s
 899 3029 mt  952 3029 L
6255 3029 mt 6201 3029 L
 731 3073 mt 
(15) s
 899 2501 mt  952 2501 L
6255 2501 mt 6201 2501 L
 731 2545 mt 
(20) s
 899 1973 mt  952 1973 L
6255 1973 mt 6201 1973 L
 731 2017 mt 
(25) s
 899 1445 mt  952 1445 L
6255 1445 mt 6201 1445 L
 731 1489 mt 
(30) s
 899  917 mt  952  917 L
6255  917 mt 6201  917 L
 731  961 mt 
(35) s
 899  389 mt  952  389 L
6255  389 mt 6201  389 L
 731  433 mt 
(40) s
 899  389 mt 6255  389 L
 899 4614 mt 6255 4614 L
6255 4614 mt 6255  389 L
 899 4614 mt  899  389 L
gs 899 389 5357 4226 MR c np
24 w
/c8 { 0.000000 1.000000 0.000000 sr} bdef
c8
179 -182 179 -181 178 -180 179 -179 178 -179 179 -176 178 -176 179 -174 
178 -172 179 -169 178 -167 179 -163 178 -160 179 -155 178 -150 179 -144 
179 -137 178 -130 179 -122 178 -112 179 -103 178 -94 179 -83 178 -74 
179 -65 178 -56 179 -47 178 -40 179 -34 178 -28 899 4493 31 MP stroke
gr

24 w
c8
gs 753 515 5649 4125 MR c np
 839 4493 mt  959 4493 L
 899 4433 mt  899 4553 L
1017 4465 mt 1137 4465 L
1077 4405 mt 1077 4525 L
1196 4431 mt 1316 4431 L
1256 4371 mt 1256 4491 L
1374 4391 mt 1494 4391 L
1434 4331 mt 1434 4451 L
1553 4344 mt 1673 4344 L
1613 4284 mt 1613 4404 L
1731 4288 mt 1851 4288 L
1791 4228 mt 1791 4348 L
1910 4223 mt 2030 4223 L
1970 4163 mt 1970 4283 L
2088 4149 mt 2208 4149 L
2148 4089 mt 2148 4209 L
2267 4066 mt 2387 4066 L
2327 4006 mt 2327 4126 L
2445 3972 mt 2565 3972 L
2505 3912 mt 2505 4032 L
2624 3869 mt 2744 3869 L
2684 3809 mt 2684 3929 L
2802 3757 mt 2922 3757 L
2862 3697 mt 2862 3817 L
2981 3635 mt 3101 3635 L
3041 3575 mt 3041 3695 L
3159 3505 mt 3279 3505 L
3219 3445 mt 3219 3565 L
3338 3368 mt 3458 3368 L
3398 3308 mt 3398 3428 L
3517 3224 mt 3637 3224 L
3577 3164 mt 3577 3284 L
3695 3074 mt 3815 3074 L
3755 3014 mt 3755 3134 L
3874 2919 mt 3994 2919 L
3934 2859 mt 3934 2979 L
4052 2759 mt 4172 2759 L
4112 2699 mt 4112 2819 L
4231 2596 mt 4351 2596 L
4291 2536 mt 4291 2656 L
4409 2429 mt 4529 2429 L
4469 2369 mt 4469 2489 L
4588 2260 mt 4708 2260 L
4648 2200 mt 4648 2320 L
4766 2088 mt 4886 2088 L
4826 2028 mt 4826 2148 L
4945 1914 mt 5065 1914 L
5005 1854 mt 5005 1974 L
5123 1738 mt 5243 1738 L
5183 1678 mt 5183 1798 L
5302 1562 mt 5422 1562 L
5362 1502 mt 5362 1622 L
5480 1383 mt 5600 1383 L
5540 1323 mt 5540 1443 L
5659 1204 mt 5779 1204 L
5719 1144 mt 5719 1264 L
5837 1024 mt 5957 1024 L
5897  964 mt 5897 1084 L
6016  843 mt 6136  843 L
6076  783 mt 6076  903 L
6195  661 mt 6315  661 L
6255  601 mt 6255  721 L
 857 4451 mt  941 4535 L
 941 4451 mt  857 4535 L
1035 4423 mt 1119 4507 L
1119 4423 mt 1035 4507 L
1214 4389 mt 1298 4473 L
1298 4389 mt 1214 4473 L
1392 4349 mt 1476 4433 L
1476 4349 mt 1392 4433 L
1571 4302 mt 1655 4386 L
1655 4302 mt 1571 4386 L
1749 4246 mt 1833 4330 L
1833 4246 mt 1749 4330 L
1928 4181 mt 2012 4265 L
2012 4181 mt 1928 4265 L
2106 4107 mt 2190 4191 L
2190 4107 mt 2106 4191 L
2285 4024 mt 2369 4108 L
2369 4024 mt 2285 4108 L
2463 3930 mt 2547 4014 L
2547 3930 mt 2463 4014 L
2642 3827 mt 2726 3911 L
2726 3827 mt 2642 3911 L
2820 3715 mt 2904 3799 L
2904 3715 mt 2820 3799 L
2999 3593 mt 3083 3677 L
3083 3593 mt 2999 3677 L
3177 3463 mt 3261 3547 L
3261 3463 mt 3177 3547 L
3356 3326 mt 3440 3410 L
3440 3326 mt 3356 3410 L
3535 3182 mt 3619 3266 L
3619 3182 mt 3535 3266 L
3713 3032 mt 3797 3116 L
3797 3032 mt 3713 3116 L
3892 2877 mt 3976 2961 L
3976 2877 mt 3892 2961 L
4070 2717 mt 4154 2801 L
4154 2717 mt 4070 2801 L
4249 2554 mt 4333 2638 L
4333 2554 mt 4249 2638 L
4427 2387 mt 4511 2471 L
4511 2387 mt 4427 2471 L
4606 2218 mt 4690 2302 L
4690 2218 mt 4606 2302 L
4784 2046 mt 4868 2130 L
4868 2046 mt 4784 2130 L
4963 1872 mt 5047 1956 L
5047 1872 mt 4963 1956 L
5141 1696 mt 5225 1780 L
5225 1696 mt 5141 1780 L
5320 1520 mt 5404 1604 L
5404 1520 mt 5320 1604 L
5498 1341 mt 5582 1425 L
5582 1341 mt 5498 1425 L
5677 1162 mt 5761 1246 L
5761 1162 mt 5677 1246 L
5855  982 mt 5939 1066 L
5939  982 mt 5855 1066 L
6034  801 mt 6118  885 L
6118  801 mt 6034  885 L
6213  619 mt 6297  703 L
6297  619 mt 6213  703 L
gr

gs 899 389 5357 4226 MR c np
gr

0 sg
2994  294 mt 
(Channel B, Scheme 2) s
3319 4902 mt 
(SNR \(dB\)) s
 649 3255 mt  -90 rotate
(Information Rates \(nats/sec\)) s
90 rotate
gs 899 389 5357 4226 MR c np
/c9 { 0.000000 0.000000 1.000000 sr} bdef
c9
179 -181 179 -179 178 -179 179 -178 178 -176 179 -174 178 -172 179 -170 
178 -167 179 -164 178 -160 179 -156 178 -151 179 -144 178 -139 179 -131 
179 -123 178 -115 179 -106 178 -96 179 -88 178 -79 179 -69 178 -61 
179 -53 178 -45 179 -39 178 -33 179 -27 178 -23 899 4516 31 MP stroke
gr

c9
gs 753 792 5649 3871 MR c np
0 j
0 -94 -94 0 0 94 94 0 852 4469 5 MP
DP
0 -94 -94 0 0 94 94 0 1030 4446 5 MP
DP
0 -94 -94 0 0 94 94 0 1209 4419 5 MP
DP
0 -94 -94 0 0 94 94 0 1387 4386 5 MP
DP
0 -94 -94 0 0 94 94 0 1566 4347 5 MP
DP
0 -94 -94 0 0 94 94 0 1744 4302 5 MP
DP
0 -94 -94 0 0 94 94 0 1923 4249 5 MP
DP
0 -94 -94 0 0 94 94 0 2101 4188 5 MP
DP
0 -94 -94 0 0 94 94 0 2280 4119 5 MP
DP
0 -94 -94 0 0 94 94 0 2458 4040 5 MP
DP
0 -94 -94 0 0 94 94 0 2637 3952 5 MP
DP
0 -94 -94 0 0 94 94 0 2815 3856 5 MP
DP
0 -94 -94 0 0 94 94 0 2994 3750 5 MP
DP
0 -94 -94 0 0 94 94 0 3172 3635 5 MP
DP
0 -94 -94 0 0 94 94 0 3351 3512 5 MP
DP
0 -94 -94 0 0 94 94 0 3530 3381 5 MP
DP
0 -94 -94 0 0 94 94 0 3708 3242 5 MP
DP
0 -94 -94 0 0 94 94 0 3887 3098 5 MP
DP
0 -94 -94 0 0 94 94 0 4065 2947 5 MP
DP
0 -94 -94 0 0 94 94 0 4244 2791 5 MP
DP
0 -94 -94 0 0 94 94 0 4422 2631 5 MP
DP
0 -94 -94 0 0 94 94 0 4601 2467 5 MP
DP
0 -94 -94 0 0 94 94 0 4779 2300 5 MP
DP
0 -94 -94 0 0 94 94 0 4958 2130 5 MP
DP
0 -94 -94 0 0 94 94 0 5136 1958 5 MP
DP
0 -94 -94 0 0 94 94 0 5315 1784 5 MP
DP
0 -94 -94 0 0 94 94 0 5493 1608 5 MP
DP
0 -94 -94 0 0 94 94 0 5672 1430 5 MP
DP
0 -94 -94 0 0 94 94 0 5850 1251 5 MP
DP
0 -94 -94 0 0 94 94 0 6029 1072 5 MP
DP
0 -94 -94 0 0 94 94 0 6208 891 5 MP
DP
gr

gs 899 389 5357 4226 MR c np
/c10 { 1.000000 0.000000 1.000000 sr} bdef
c10
179 -181 179 -180 178 -178 179 -178 178 -176 179 -174 178 -172 179 -170 
178 -167 179 -164 178 -160 179 -155 178 -151 179 -144 178 -138 179 -131 
179 -123 178 -115 179 -105 178 -97 179 -88 178 -78 179 -69 178 -61 
179 -53 178 -45 179 -39 178 -32 179 -28 178 -22 899 4516 31 MP stroke
gr

c10
gs 753 796 5649 3867 MR c np
 839 4516 mt  959 4516 L
 899 4456 mt  899 4576 L
1017 4494 mt 1137 4494 L
1077 4434 mt 1077 4554 L
1196 4466 mt 1316 4466 L
1256 4406 mt 1256 4526 L
1374 4434 mt 1494 4434 L
1434 4374 mt 1434 4494 L
1553 4395 mt 1673 4395 L
1613 4335 mt 1613 4455 L
1731 4350 mt 1851 4350 L
1791 4290 mt 1791 4410 L
1910 4297 mt 2030 4297 L
1970 4237 mt 1970 4357 L
2088 4236 mt 2208 4236 L
2148 4176 mt 2148 4296 L
2267 4167 mt 2387 4167 L
2327 4107 mt 2327 4227 L
2445 4089 mt 2565 4089 L
2505 4029 mt 2505 4149 L
2624 4001 mt 2744 4001 L
2684 3941 mt 2684 4061 L
2802 3904 mt 2922 3904 L
2862 3844 mt 2862 3964 L
2981 3799 mt 3101 3799 L
3041 3739 mt 3041 3859 L
3159 3684 mt 3279 3684 L
3219 3624 mt 3219 3744 L
3338 3561 mt 3458 3561 L
3398 3501 mt 3398 3621 L
3517 3430 mt 3637 3430 L
3577 3370 mt 3577 3490 L
3695 3292 mt 3815 3292 L
3755 3232 mt 3755 3352 L
3874 3148 mt 3994 3148 L
3934 3088 mt 3934 3208 L
4052 2997 mt 4172 2997 L
4112 2937 mt 4112 3057 L
4231 2842 mt 4351 2842 L
4291 2782 mt 4291 2902 L
4409 2682 mt 4529 2682 L
4469 2622 mt 4469 2742 L
4588 2518 mt 4708 2518 L
4648 2458 mt 4648 2578 L
4766 2351 mt 4886 2351 L
4826 2291 mt 4826 2411 L
4945 2181 mt 5065 2181 L
5005 2121 mt 5005 2241 L
5123 2009 mt 5243 2009 L
5183 1949 mt 5183 2069 L
5302 1835 mt 5422 1835 L
5362 1775 mt 5362 1895 L
5480 1659 mt 5600 1659 L
5540 1599 mt 5540 1719 L
5659 1481 mt 5779 1481 L
5719 1421 mt 5719 1541 L
5837 1303 mt 5957 1303 L
5897 1243 mt 5897 1363 L
6016 1123 mt 6136 1123 L
6076 1063 mt 6076 1183 L
6195  942 mt 6315  942 L
6255  882 mt 6255 1002 L
gr

gs 899 389 5357 4226 MR c np
/c11 { 1.000000 0.000000 0.000000 sr} bdef
c11
179 -111 179 -112 178 -111 179 -112 178 -111 179 -111 178 -111 179 -110 
178 -109 179 -108 178 -107 179 -105 178 -103 179 -101 178 -97 179 -94 
179 -90 178 -86 179 -80 178 -76 179 -70 178 -63 179 -58 178 -52 
179 -46 178 -40 179 -35 178 -29 179 -26 178 -21 899 4520 31 MP stroke
gr

c11
gs 753 1889 5649 2778 MR c np
 857 4478 mt  941 4562 L
 941 4478 mt  857 4562 L
1035 4457 mt 1119 4541 L
1119 4457 mt 1035 4541 L
1214 4431 mt 1298 4515 L
1298 4431 mt 1214 4515 L
1392 4402 mt 1476 4486 L
1476 4402 mt 1392 4486 L
1571 4367 mt 1655 4451 L
1655 4367 mt 1571 4451 L
1749 4327 mt 1833 4411 L
1833 4327 mt 1749 4411 L
1928 4281 mt 2012 4365 L
2012 4281 mt 1928 4365 L
2106 4229 mt 2190 4313 L
2190 4229 mt 2106 4313 L
2285 4171 mt 2369 4255 L
2369 4171 mt 2285 4255 L
2463 4108 mt 2547 4192 L
2547 4108 mt 2463 4192 L
2642 4038 mt 2726 4122 L
2726 4038 mt 2642 4122 L
2820 3962 mt 2904 4046 L
2904 3962 mt 2820 4046 L
2999 3882 mt 3083 3966 L
3083 3882 mt 2999 3966 L
3177 3796 mt 3261 3880 L
3261 3796 mt 3177 3880 L
3356 3706 mt 3440 3790 L
3440 3706 mt 3356 3790 L
3535 3612 mt 3619 3696 L
3619 3612 mt 3535 3696 L
3713 3515 mt 3797 3599 L
3797 3515 mt 3713 3599 L
3892 3414 mt 3976 3498 L
3976 3414 mt 3892 3498 L
4070 3311 mt 4154 3395 L
4154 3311 mt 4070 3395 L
4249 3206 mt 4333 3290 L
4333 3206 mt 4249 3290 L
4427 3099 mt 4511 3183 L
4511 3099 mt 4427 3183 L
4606 2991 mt 4690 3075 L
4690 2991 mt 4606 3075 L
4784 2882 mt 4868 2966 L
4868 2882 mt 4784 2966 L
4963 2772 mt 5047 2856 L
5047 2772 mt 4963 2856 L
5141 2661 mt 5225 2745 L
5225 2661 mt 5141 2745 L
5320 2550 mt 5404 2634 L
5404 2550 mt 5320 2634 L
5498 2439 mt 5582 2523 L
5582 2439 mt 5498 2523 L
5677 2327 mt 5761 2411 L
5761 2327 mt 5677 2411 L
5855 2216 mt 5939 2300 L
5939 2216 mt 5855 2300 L
6034 2104 mt 6118 2188 L
6118 2104 mt 6034 2188 L
6213 1993 mt 6297 2077 L
6297 1993 mt 6213 2077 L
gr

gs 899 389 5357 4226 MR c np
gr

0 sg
 882 4657 mt 
( ) s
6239  431 mt 
( ) s
6 w
1 sg
0 671 1121 0 0 -671 5074 4555 4 MP
PP
-1121 0 0 671 1121 0 0 -671 5074 4555 5 MP stroke
4 w
DO
SO
6 w
0 sg
5074 3884 mt 6195 3884 L
5074 4555 mt 6195 4555 L
6195 4555 mt 6195 3884 L
5074 4555 mt 5074 3884 L
5074 4555 mt 6195 4555 L
5074 4555 mt 5074 3884 L
5074 3884 mt 6195 3884 L
5074 4555 mt 6195 4555 L
6195 4555 mt 6195 3884 L
5074 4555 mt 5074 3884 L
5533 4020 mt 
(Optimal Rx) s
gs 5074 3884 1122 672 MR c np
24 w
c8
353 0 5144 3977 2 MP stroke
gr

24 w
c8
gs 5175 3831 293 293 MR c np
5261 3977 mt 5381 3977 L
5321 3917 mt 5321 4037 L
5279 3935 mt 5363 4019 L
5363 3935 mt 5279 4019 L
gr

gs 5074 3884 1122 672 MR c np
gr

0 sg
5533 4210 mt 
(EB, K=K) s
%%IncludeResource: font Symbol
/Symbol /WindowsLatin1Encoding 96 FMSR

5987 4150 mt 
(\242) s
%%IncludeResource: font Helvetica
/Helvetica /WindowsLatin1Encoding 120 FMSR

6010 4210 mt 
(+1) s
gs 5074 3884 1122 672 MR c np
c9
353 0 5144 4144 2 MP stroke
gs 5175 3998 293 293 MR c np
0 j
0 -94 -94 0 0 94 94 0 5274 4097 5 MP
DP
gr

gr

c9
0 sg
5533 4353 mt 
(SB, JLD) s
gs 5074 3884 1122 672 MR c np
c10
353 0 5144 4310 2 MP stroke
gs 5175 4164 293 293 MR c np
5261 4310 mt 5381 4310 L
5321 4250 mt 5321 4370 L
gr

gr

c10
0 sg
5533 4504 mt 
(SB, ILD) s
gs 5074 3884 1122 672 MR c np
c11
353 0 5144 4461 2 MP stroke
gr

c11
gs 5175 4315 293 293 MR c np
5279 4419 mt 5363 4503 L
5363 4419 mt 5279 4503 L
gr

gs 5074 3884 1122 672 MR c np
6 w
gr

6 w

end %%Color Dict

eplot
%%EndObject

epage
end

showpage

%%Trailer
%%EOF
