%!PS-Adobe-2.0 EPSF-1.2
%%Creator: MATLAB, The MathWorks, Inc. Version 7.14.0.739 (R2012a). Operating System: Microsoft Windows 7.
%%Title: .\RATE_CHB.eps
%%CreationDate: 05/01/2015  16:15:53
%%DocumentNeededFonts: Helvetica
%%DocumentProcessColors: Cyan Magenta Yellow Black
%%Extensions: CMYK
%%Pages: 1
%%BoundingBox:    51   192   552   602
%%EndComments

%%BeginProlog
% MathWorks dictionary
/MathWorks 160 dict begin
% definition operators
/bdef {bind def} bind def
/ldef {load def} bind def
/xdef {exch def} bdef
/xstore {exch store} bdef
% operator abbreviations
/c  /clip ldef
/cc /concat ldef
/cp /closepath ldef
/gr /grestore ldef
/gs /gsave ldef
/mt /moveto ldef
/np /newpath ldef
/cm /currentmatrix ldef
/sm /setmatrix ldef
/rm /rmoveto ldef
/rl /rlineto ldef
/s {show newpath} bdef
/sc {setcmykcolor} bdef
/sr /setrgbcolor ldef
/sg /setgray ldef
/w /setlinewidth ldef
/j /setlinejoin ldef
/cap /setlinecap ldef
/rc {rectclip} bdef
/rf {rectfill} bdef
% page state control
/pgsv () def
/bpage {/pgsv save def} bdef
/epage {pgsv restore} bdef
/bplot /gsave ldef
/eplot {stroke grestore} bdef
% orientation switch
/portraitMode 0 def /landscapeMode 1 def /rotateMode 2 def
% coordinate system mappings
/dpi2point 0 def
% font control
/FontSize 0 def
/FMS {/FontSize xstore findfont [FontSize 0 0 FontSize neg 0 0]
  makefont setfont} bdef
/ISOLatin1Encoding where {pop /WindowsLatin1Encoding 256 array bdef
ISOLatin1Encoding WindowsLatin1Encoding copy pop
/.notdef/.notdef/quotesinglbase/florin/quotedblbase/ellipsis/dagger
/daggerdbl/circumflex/perthousand/Scaron/guilsinglleft/OE/.notdef/.notdef
/.notdef/.notdef/quoteleft/quoteright/quotedblleft/quotedblright/bullet
/endash/emdash/tilde/trademark/scaron/guilsinglright/oe/.notdef/.notdef
/Ydieresis WindowsLatin1Encoding 128 32 getinterval astore pop}
{/WindowsLatin1Encoding StandardEncoding bdef} ifelse
/reencode {exch dup where {pop load} {pop StandardEncoding} ifelse
  exch dup 3 1 roll findfont dup length dict begin
  { 1 index /FID ne {def}{pop pop} ifelse } forall
  /Encoding exch def currentdict end definefont pop} bdef
/isroman {findfont /CharStrings get /Agrave known} bdef
/FMSR {3 1 roll 1 index dup isroman {reencode} {pop pop} ifelse
  exch FMS} bdef
/csm {1 dpi2point div -1 dpi2point div scale neg translate
 dup landscapeMode eq {pop -90 rotate}
  {rotateMode eq {90 rotate} if} ifelse} bdef
% line types: solid, dotted, dashed, dotdash
/SO { [] 0 setdash } bdef
/DO { [.5 dpi2point mul 4 dpi2point mul] 0 setdash } bdef
/DA { [6 dpi2point mul] 0 setdash } bdef
/DD { [.5 dpi2point mul 4 dpi2point mul 6 dpi2point mul 4
  dpi2point mul] 0 setdash } bdef
% macros for lines and objects
/L {lineto stroke} bdef
/MP {3 1 roll moveto 1 sub {rlineto} repeat} bdef
/AP {{rlineto} repeat} bdef
/PDlw -1 def
/W {/PDlw currentlinewidth def setlinewidth} def
/PP {closepath eofill} bdef
/DP {closepath stroke} bdef
/MR {4 -2 roll moveto dup  0 exch rlineto exch 0 rlineto
  neg 0 exch rlineto closepath} bdef
/FR {MR stroke} bdef
/PR {MR fill} bdef
/L1i {{currentfile picstr readhexstring pop} image} bdef
/tMatrix matrix def
/MakeOval {newpath tMatrix currentmatrix pop translate scale
0 0 1 0 360 arc tMatrix setmatrix} bdef
/FO {MakeOval stroke} bdef
/PO {MakeOval fill} bdef
/PD {currentlinewidth 2 div 0 360 arc fill
   PDlw -1 eq not {PDlw w /PDlw -1 def} if} def
/FA {newpath tMatrix currentmatrix pop translate scale
  0 0 1 5 -2 roll arc tMatrix setmatrix stroke} bdef
/PA {newpath tMatrix currentmatrix pop	translate 0 0 moveto scale
  0 0 1 5 -2 roll arc closepath tMatrix setmatrix fill} bdef
/FAn {newpath tMatrix currentmatrix pop translate scale
  0 0 1 5 -2 roll arcn tMatrix setmatrix stroke} bdef
/PAn {newpath tMatrix currentmatrix pop translate 0 0 moveto scale
  0 0 1 5 -2 roll arcn closepath tMatrix setmatrix fill} bdef
/vradius 0 def /hradius 0 def /lry 0 def
/lrx 0 def /uly 0 def /ulx 0 def /rad 0 def
/MRR {/vradius xdef /hradius xdef /lry xdef /lrx xdef /uly xdef
  /ulx xdef newpath tMatrix currentmatrix pop ulx hradius add uly
  vradius add translate hradius vradius scale 0 0 1 180 270 arc 
  tMatrix setmatrix lrx hradius sub uly vradius add translate
  hradius vradius scale 0 0 1 270 360 arc tMatrix setmatrix
  lrx hradius sub lry vradius sub translate hradius vradius scale
  0 0 1 0 90 arc tMatrix setmatrix ulx hradius add lry vradius sub
  translate hradius vradius scale 0 0 1 90 180 arc tMatrix setmatrix
  closepath} bdef
/FRR {MRR stroke } bdef
/PRR {MRR fill } bdef
/MlrRR {/lry xdef /lrx xdef /uly xdef /ulx xdef /rad lry uly sub 2 div def
  newpath tMatrix currentmatrix pop ulx rad add uly rad add translate
  rad rad scale 0 0 1 90 270 arc tMatrix setmatrix lrx rad sub lry rad
  sub translate rad rad scale 0 0 1 270 90 arc tMatrix setmatrix
  closepath} bdef
/FlrRR {MlrRR stroke } bdef
/PlrRR {MlrRR fill } bdef
/MtbRR {/lry xdef /lrx xdef /uly xdef /ulx xdef /rad lrx ulx sub 2 div def
  newpath tMatrix currentmatrix pop ulx rad add uly rad add translate
  rad rad scale 0 0 1 180 360 arc tMatrix setmatrix lrx rad sub lry rad
  sub translate rad rad scale 0 0 1 0 180 arc tMatrix setmatrix
  closepath} bdef
/FtbRR {MtbRR stroke } bdef
/PtbRR {MtbRR fill } bdef
/stri 6 array def /dtri 6 array def
/smat 6 array def /dmat 6 array def
/tmat1 6 array def /tmat2 6 array def /dif 3 array def
/asub {/ind2 exch def /ind1 exch def dup dup
  ind1 get exch ind2 get sub exch } bdef
/tri_to_matrix {
  2 0 asub 3 1 asub 4 0 asub 5 1 asub
  dup 0 get exch 1 get 7 -1 roll astore } bdef
/compute_transform {
  dmat dtri tri_to_matrix tmat1 invertmatrix 
  smat stri tri_to_matrix tmat2 concatmatrix } bdef
/ds {stri astore pop} bdef
/dt {dtri astore pop} bdef
/db {2 copy /cols xdef /rows xdef mul dup 3 mul string
  currentfile exch readhexstring pop
  dup 0 3 index getinterval /rbmap xdef
  dup 2 index dup getinterval /gbmap xdef
  1 index dup 2 mul exch getinterval /bbmap xdef pop pop}bdef
/it {gs np dtri aload pop moveto lineto lineto cp c
  cols rows 8 compute_transform 
  rbmap gbmap bbmap true 3 colorimage gr}bdef
/il {newpath moveto lineto stroke}bdef
currentdict end def
%%EndProlog

%%BeginSetup
MathWorks begin

0 cap

end
%%EndSetup

%%Page: 1 1
%%BeginPageSetup
%%PageBoundingBox:    51   192   552   602
MathWorks begin
bpage
%%EndPageSetup

%%BeginObject: obj1
bplot

/dpi2point 12 def
portraitMode 0204 7344 csm

  417   110  6014  4924 MR c np
86 dict begin %Colortable dictionary
/c0 { 0.000000 0.000000 0.000000 sr} bdef
/c1 { 1.000000 1.000000 1.000000 sr} bdef
/c2 { 0.900000 0.000000 0.000000 sr} bdef
/c3 { 0.000000 0.820000 0.000000 sr} bdef
/c4 { 0.000000 0.000000 0.800000 sr} bdef
/c5 { 0.910000 0.820000 0.320000 sr} bdef
/c6 { 1.000000 0.260000 0.820000 sr} bdef
/c7 { 0.000000 0.820000 0.820000 sr} bdef
c0
1 j
1 sg
   0    0 6913 5185 PR
6 w
0 4225 5356 0 0 -4225 899 4614 4 MP
PP
-5356 0 0 4225 5356 0 0 -4225 899 4614 5 MP stroke
4 w
DO
SO
6 w
0 sg
 899  389 mt 6255  389 L
 899 4614 mt 6255 4614 L
6255 4614 mt 6255  389 L
 899 4614 mt  899  389 L
 899 4614 mt 6255 4614 L
 899 4614 mt  899  389 L
 899 4614 mt  899 4560 L
 899  389 mt  899  442 L
%%IncludeResource: font Helvetica
/Helvetica /WindowsLatin1Encoding 120 FMSR

 866 4759 mt 
(0) s
1791 4614 mt 1791 4560 L
1791  389 mt 1791  442 L
1758 4759 mt 
(5) s
2684 4614 mt 2684 4560 L
2684  389 mt 2684  442 L
2618 4759 mt 
(10) s
3577 4614 mt 3577 4560 L
3577  389 mt 3577  442 L
3511 4759 mt 
(15) s
4469 4614 mt 4469 4560 L
4469  389 mt 4469  442 L
4403 4759 mt 
(20) s
5362 4614 mt 5362 4560 L
5362  389 mt 5362  442 L
5296 4759 mt 
(25) s
6255 4614 mt 6255 4560 L
6255  389 mt 6255  442 L
6189 4759 mt 
(30) s
 899 4614 mt  952 4614 L
6255 4614 mt 6201 4614 L
 798 4658 mt 
(0) s
 899 4010 mt  952 4010 L
6255 4010 mt 6201 4010 L
 798 4054 mt 
(5) s
 899 3406 mt  952 3406 L
6255 3406 mt 6201 3406 L
 731 3450 mt 
(10) s
 899 2803 mt  952 2803 L
6255 2803 mt 6201 2803 L
 731 2847 mt 
(15) s
 899 2199 mt  952 2199 L
6255 2199 mt 6201 2199 L
 731 2243 mt 
(20) s
 899 1596 mt  952 1596 L
6255 1596 mt 6201 1596 L
 731 1640 mt 
(25) s
 899  992 mt  952  992 L
6255  992 mt 6201  992 L
 731 1036 mt 
(30) s
 899  389 mt  952  389 L
6255  389 mt 6201  389 L
 731  433 mt 
(35) s
 899  389 mt 6255  389 L
 899 4614 mt 6255 4614 L
6255 4614 mt 6255  389 L
 899 4614 mt  899  389 L
gs 899 389 5357 4226 MR c np
DA
24 w
/c8 { 1.000000 0.000000 1.000000 sr} bdef
c8
179 -193 179 -192 178 -191 179 -191 178 -190 179 -188 178 -187 179 -186 
178 -183 179 -180 178 -177 179 -173 178 -168 179 -162 178 -157 179 -149 
179 -140 178 -132 179 -122 178 -112 179 -101 178 -91 179 -81 178 -70 
179 -61 178 -53 179 -44 178 -38 179 -31 178 -26 899 4503 31 MP stroke
gr

24 w
c8
DA
gs 753 388 5649 4262 MR c np
SO
 839 4503 mt  959 4503 L
 899 4443 mt  899 4563 L
1017 4477 mt 1137 4477 L
1077 4417 mt 1077 4537 L
1196 4446 mt 1316 4446 L
1256 4386 mt 1256 4506 L
1374 4408 mt 1494 4408 L
1434 4348 mt 1434 4468 L
1553 4364 mt 1673 4364 L
1613 4304 mt 1613 4424 L
1731 4311 mt 1851 4311 L
1791 4251 mt 1791 4371 L
1910 4250 mt 2030 4250 L
1970 4190 mt 1970 4310 L
2088 4180 mt 2208 4180 L
2148 4120 mt 2148 4240 L
2267 4099 mt 2387 4099 L
2327 4039 mt 2327 4159 L
2445 4008 mt 2565 4008 L
2505 3948 mt 2505 4068 L
2624 3907 mt 2744 3907 L
2684 3847 mt 2684 3967 L
2802 3795 mt 2922 3795 L
2862 3735 mt 2862 3855 L
2981 3673 mt 3101 3673 L
3041 3613 mt 3041 3733 L
3159 3541 mt 3279 3541 L
3219 3481 mt 3219 3601 L
3338 3401 mt 3458 3401 L
3398 3341 mt 3398 3461 L
3517 3252 mt 3637 3252 L
3577 3192 mt 3577 3312 L
3695 3095 mt 3815 3095 L
3755 3035 mt 3755 3155 L
3874 2933 mt 3994 2933 L
3934 2873 mt 3934 2993 L
4052 2765 mt 4172 2765 L
4112 2705 mt 4112 2825 L
4231 2592 mt 4351 2592 L
4291 2532 mt 4291 2652 L
4409 2415 mt 4529 2415 L
4469 2355 mt 4469 2475 L
4588 2235 mt 4708 2235 L
4648 2175 mt 4648 2295 L
4766 2052 mt 4886 2052 L
4826 1992 mt 4826 2112 L
4945 1866 mt 5065 1866 L
5005 1806 mt 5005 1926 L
5123 1679 mt 5243 1679 L
5183 1619 mt 5183 1739 L
5302 1491 mt 5422 1491 L
5362 1431 mt 5362 1551 L
5480 1301 mt 5600 1301 L
5540 1241 mt 5540 1361 L
5659 1110 mt 5779 1110 L
5719 1050 mt 5719 1170 L
5837  919 mt 5957  919 L
5897  859 mt 5897  979 L
6016  727 mt 6136  727 L
6076  667 mt 6076  787 L
6195  534 mt 6315  534 L
6255  474 mt 6255  594 L
DA
gs 899 389 5357 4226 MR c np
gr
gr

0 sg
3296  294 mt 
(Channel B) s
%%IncludeResource: font Helvetica
/Helvetica /WindowsLatin1Encoding 204 FMSR

3140 4964 mt 
(SNR \(dB\)) s
 631 3783 mt  -90 rotate
(Information Rates \(nats/sec\)) s
90 rotate
gs 899 389 5357 4226 MR c np
/c9 { 1.000000 0.000000 0.000000 sr} bdef
c9
179 -189 179 -190 178 -189 179 -188 178 -188 179 -186 178 -186 179 -183 
178 -182 179 -179 178 -176 179 -173 178 -167 179 -162 178 -156 179 -149 
179 -140 178 -132 179 -122 178 -111 179 -102 178 -90 179 -81 178 -70 
179 -61 178 -53 179 -44 178 -38 179 -31 178 -26 899 4503 31 MP stroke
gr

c9
gs 753 413 5649 4237 MR c np
SO
 857 4461 mt  941 4545 L
 941 4461 mt  857 4545 L
1035 4435 mt 1119 4519 L
1119 4435 mt 1035 4519 L
1214 4404 mt 1298 4488 L
1298 4404 mt 1214 4488 L
1392 4366 mt 1476 4450 L
1476 4366 mt 1392 4450 L
1571 4322 mt 1655 4406 L
1655 4322 mt 1571 4406 L
1749 4269 mt 1833 4353 L
1833 4269 mt 1749 4353 L
1928 4208 mt 2012 4292 L
2012 4208 mt 1928 4292 L
2106 4138 mt 2190 4222 L
2190 4138 mt 2106 4222 L
2285 4057 mt 2369 4141 L
2369 4057 mt 2285 4141 L
2463 3967 mt 2547 4051 L
2547 3967 mt 2463 4051 L
2642 3865 mt 2726 3949 L
2726 3865 mt 2642 3949 L
2820 3754 mt 2904 3838 L
2904 3754 mt 2820 3838 L
2999 3632 mt 3083 3716 L
3083 3632 mt 2999 3716 L
3177 3500 mt 3261 3584 L
3261 3500 mt 3177 3584 L
3356 3360 mt 3440 3444 L
3440 3360 mt 3356 3444 L
3535 3211 mt 3619 3295 L
3619 3211 mt 3535 3295 L
3713 3055 mt 3797 3139 L
3797 3055 mt 3713 3139 L
3892 2893 mt 3976 2977 L
3976 2893 mt 3892 2977 L
4070 2726 mt 4154 2810 L
4154 2726 mt 4070 2810 L
4249 2553 mt 4333 2637 L
4333 2553 mt 4249 2637 L
4427 2377 mt 4511 2461 L
4511 2377 mt 4427 2461 L
4606 2198 mt 4690 2282 L
4690 2198 mt 4606 2282 L
4784 2016 mt 4868 2100 L
4868 2016 mt 4784 2100 L
4963 1833 mt 5047 1917 L
5047 1833 mt 4963 1917 L
5141 1647 mt 5225 1731 L
5225 1647 mt 5141 1731 L
5320 1461 mt 5404 1545 L
5404 1461 mt 5320 1545 L
5498 1273 mt 5582 1357 L
5582 1273 mt 5498 1357 L
5677 1085 mt 5761 1169 L
5761 1085 mt 5677 1169 L
5855  896 mt 5939  980 L
5939  896 mt 5855  980 L
6034  706 mt 6118  790 L
6118  706 mt 6034  790 L
6213  517 mt 6297  601 L
6297  517 mt 6213  601 L
DA
gr

gs 899 389 5357 4226 MR c np
SO
c8
179 -206 179 -206 178 -204 179 -203 178 -201 179 -199 178 -197 179 -194 
178 -191 179 -187 178 -183 179 -177 178 -172 179 -165 178 -158 179 -150 
179 -140 178 -131 179 -121 178 -111 179 -100 178 -89 179 -79 178 -70 
179 -60 178 -52 179 -44 178 -37 179 -31 178 -26 899 4502 31 MP stroke
gr

c8
SO
gs 753 272 5649 4377 MR c np
 839 4502 mt  959 4502 L
 899 4442 mt  899 4562 L
1017 4476 mt 1137 4476 L
1077 4416 mt 1077 4536 L
1196 4445 mt 1316 4445 L
1256 4385 mt 1256 4505 L
1374 4408 mt 1494 4408 L
1434 4348 mt 1434 4468 L
1553 4364 mt 1673 4364 L
1613 4304 mt 1613 4424 L
1731 4312 mt 1851 4312 L
1791 4252 mt 1791 4372 L
1910 4252 mt 2030 4252 L
1970 4192 mt 1970 4312 L
2088 4182 mt 2208 4182 L
2148 4122 mt 2148 4242 L
2267 4103 mt 2387 4103 L
2327 4043 mt 2327 4163 L
2445 4014 mt 2565 4014 L
2505 3954 mt 2505 4074 L
2624 3914 mt 2744 3914 L
2684 3854 mt 2684 3974 L
2802 3803 mt 2922 3803 L
2862 3743 mt 2862 3863 L
2981 3682 mt 3101 3682 L
3041 3622 mt 3041 3742 L
3159 3551 mt 3279 3551 L
3219 3491 mt 3219 3611 L
3338 3411 mt 3458 3411 L
3398 3351 mt 3398 3471 L
3517 3261 mt 3637 3261 L
3577 3201 mt 3577 3321 L
3695 3103 mt 3815 3103 L
3755 3043 mt 3755 3163 L
3874 2938 mt 3994 2938 L
3934 2878 mt 3934 2998 L
4052 2766 mt 4172 2766 L
4112 2706 mt 4112 2826 L
4231 2589 mt 4351 2589 L
4291 2529 mt 4291 2649 L
4409 2406 mt 4529 2406 L
4469 2346 mt 4469 2466 L
4588 2219 mt 4708 2219 L
4648 2159 mt 4648 2279 L
4766 2028 mt 4886 2028 L
4826 1968 mt 4826 2088 L
4945 1834 mt 5065 1834 L
5005 1774 mt 5005 1894 L
5123 1637 mt 5243 1637 L
5183 1577 mt 5183 1697 L
5302 1438 mt 5422 1438 L
5362 1378 mt 5362 1498 L
5480 1237 mt 5600 1237 L
5540 1177 mt 5540 1297 L
5659 1034 mt 5779 1034 L
5719  974 mt 5719 1094 L
5837  830 mt 5957  830 L
5897  770 mt 5897  890 L
6016  624 mt 6136  624 L
6076  564 mt 6076  684 L
6195  418 mt 6315  418 L
6255  358 mt 6255  478 L
gs 899 389 5357 4226 MR c np
c9
179 -127 179 -127 178 -128 179 -127 178 -127 179 -127 178 -127 179 -125 
178 -125 179 -124 178 -122 179 -120 178 -118 179 -115 178 -111 179 -107 
179 -103 178 -98 179 -92 178 -87 179 -79 178 -73 179 -66 178 -60 
179 -52 178 -46 179 -39 178 -34 179 -29 178 -24 899 4506 31 MP stroke
gr

c9
 857 4464 mt  941 4548 L
 941 4464 mt  857 4548 L
1035 4440 mt 1119 4524 L
1119 4440 mt 1035 4524 L
1214 4411 mt 1298 4495 L
1298 4411 mt 1214 4495 L
1392 4377 mt 1476 4461 L
1476 4377 mt 1392 4461 L
1571 4338 mt 1655 4422 L
1655 4338 mt 1571 4422 L
1749 4292 mt 1833 4376 L
1833 4292 mt 1749 4376 L
1928 4240 mt 2012 4324 L
2012 4240 mt 1928 4324 L
2106 4180 mt 2190 4264 L
2190 4180 mt 2106 4264 L
2285 4114 mt 2369 4198 L
2369 4114 mt 2285 4198 L
2463 4041 mt 2547 4125 L
2547 4041 mt 2463 4125 L
2642 3962 mt 2726 4046 L
2726 3962 mt 2642 4046 L
2820 3875 mt 2904 3959 L
2904 3875 mt 2820 3959 L
2999 3783 mt 3083 3867 L
3083 3783 mt 2999 3867 L
3177 3685 mt 3261 3769 L
3261 3685 mt 3177 3769 L
3356 3582 mt 3440 3666 L
3440 3582 mt 3356 3666 L
3535 3475 mt 3619 3559 L
3619 3475 mt 3535 3559 L
3713 3364 mt 3797 3448 L
3797 3364 mt 3713 3448 L
3892 3249 mt 3976 3333 L
3976 3249 mt 3892 3333 L
4070 3131 mt 4154 3215 L
4154 3131 mt 4070 3215 L
4249 3011 mt 4333 3095 L
4333 3011 mt 4249 3095 L
4427 2889 mt 4511 2973 L
4511 2889 mt 4427 2973 L
4606 2765 mt 4690 2849 L
4690 2765 mt 4606 2849 L
4784 2640 mt 4868 2724 L
4868 2640 mt 4784 2724 L
4963 2515 mt 5047 2599 L
5047 2515 mt 4963 2599 L
5141 2388 mt 5225 2472 L
5225 2388 mt 5141 2472 L
5320 2261 mt 5404 2345 L
5404 2261 mt 5320 2345 L
5498 2134 mt 5582 2218 L
5582 2134 mt 5498 2218 L
5677 2007 mt 5761 2091 L
5761 2007 mt 5677 2091 L
5855 1879 mt 5939 1963 L
5939 1879 mt 5855 1963 L
6034 1752 mt 6118 1836 L
6118 1752 mt 6034 1836 L
6213 1625 mt 6297 1709 L
6297 1625 mt 6213 1709 L
gr

c9
gs 899 389 5357 4226 MR c np
gr

0 sg
%%IncludeResource: font Helvetica
/Helvetica /WindowsLatin1Encoding 120 FMSR

 882 4657 mt 
( ) s
6239  431 mt 
( ) s
6 w
1 sg
0 846 2033 0 0 -846 4163 4555 4 MP
PP
-2033 0 0 846 2033 0 0 -846 4163 4555 5 MP stroke
4 w
DO
SO
6 w
0 sg
4163 3709 mt 6196 3709 L
4163 4555 mt 6196 4555 L
6196 4555 mt 6196 3709 L
4163 4555 mt 4163 3709 L
4163 4555 mt 6196 4555 L
4163 4555 mt 4163 3709 L
4163 3709 mt 6196 3709 L
4163 4555 mt 6196 4555 L
6196 4555 mt 6196 3709 L
4163 4555 mt 4163 3709 L
%%IncludeResource: font Helvetica
/Helvetica /WindowsLatin1Encoding 168 FMSR

4617 3889 mt 
(SB, JLD \(Scheme 1\)) s
gs 4163 3709 2034 847 MR c np
DA
24 w
c8
349 0 4232 3829 2 MP stroke
SO
gr

24 w
c8
gs 4261 3683 293 293 MR c np
4347 3829 mt 4467 3829 L
4407 3769 mt 4407 3889 L
gr

gs 4163 3709 2034 847 MR c np
gr

0 sg
4617 4091 mt 
(SB, ILD \(Scheme 1\)) s
gs 4163 3709 2034 847 MR c np
DA
c9
349 0 4232 4031 2 MP stroke
SO
gs 4261 3885 293 293 MR c np
4365 3989 mt 4449 4073 L
4449 3989 mt 4365 4073 L
gr

gr

c9
0 sg
4617 4294 mt 
(SB, JLD \(Scheme 2\)) s
gs 4163 3709 2034 847 MR c np
c8
349 0 4232 4232 2 MP stroke
gs 4261 4086 293 293 MR c np
4347 4232 mt 4467 4232 L
4407 4172 mt 4407 4292 L
gr

gr

c8
0 sg
4617 4496 mt 
(SB, ILD \(Scheme 2\)) s
gs 4163 3709 2034 847 MR c np
c9
349 0 4232 4434 2 MP stroke
gr

c9
gs 4261 4288 293 293 MR c np
4365 4392 mt 4449 4476 L
4449 4392 mt 4365 4476 L
gr

gs 4163 3709 2034 847 MR c np
6 w
gr

6 w

end %%Color Dict

eplot
%%EndObject

epage
end

showpage

%%Trailer
%%EOF
