%!PS-Adobe-2.0 EPSF-1.2
%%Creator: MATLAB, The MathWorks, Inc. Version 7.14.0.739 (R2012a). Operating System: Microsoft Windows 7.
%%Title: .\RATE_CHB_SCHEME1.eps
%%CreationDate: 05/01/2015  16:15:52
%%DocumentNeededFonts: Helvetica
%%DocumentProcessColors: Cyan Magenta Yellow Black
%%Extensions: CMYK
%%Pages: 1
%%BoundingBox:    51   192   552   602
%%EndComments

%%BeginProlog
% MathWorks dictionary
/MathWorks 160 dict begin
% definition operators
/bdef {bind def} bind def
/ldef {load def} bind def
/xdef {exch def} bdef
/xstore {exch store} bdef
% operator abbreviations
/c  /clip ldef
/cc /concat ldef
/cp /closepath ldef
/gr /grestore ldef
/gs /gsave ldef
/mt /moveto ldef
/np /newpath ldef
/cm /currentmatrix ldef
/sm /setmatrix ldef
/rm /rmoveto ldef
/rl /rlineto ldef
/s {show newpath} bdef
/sc {setcmykcolor} bdef
/sr /setrgbcolor ldef
/sg /setgray ldef
/w /setlinewidth ldef
/j /setlinejoin ldef
/cap /setlinecap ldef
/rc {rectclip} bdef
/rf {rectfill} bdef
% page state control
/pgsv () def
/bpage {/pgsv save def} bdef
/epage {pgsv restore} bdef
/bplot /gsave ldef
/eplot {stroke grestore} bdef
% orientation switch
/portraitMode 0 def /landscapeMode 1 def /rotateMode 2 def
% coordinate system mappings
/dpi2point 0 def
% font control
/FontSize 0 def
/FMS {/FontSize xstore findfont [FontSize 0 0 FontSize neg 0 0]
  makefont setfont} bdef
/ISOLatin1Encoding where {pop /WindowsLatin1Encoding 256 array bdef
ISOLatin1Encoding WindowsLatin1Encoding copy pop
/.notdef/.notdef/quotesinglbase/florin/quotedblbase/ellipsis/dagger
/daggerdbl/circumflex/perthousand/Scaron/guilsinglleft/OE/.notdef/.notdef
/.notdef/.notdef/quoteleft/quoteright/quotedblleft/quotedblright/bullet
/endash/emdash/tilde/trademark/scaron/guilsinglright/oe/.notdef/.notdef
/Ydieresis WindowsLatin1Encoding 128 32 getinterval astore pop}
{/WindowsLatin1Encoding StandardEncoding bdef} ifelse
/reencode {exch dup where {pop load} {pop StandardEncoding} ifelse
  exch dup 3 1 roll findfont dup length dict begin
  { 1 index /FID ne {def}{pop pop} ifelse } forall
  /Encoding exch def currentdict end definefont pop} bdef
/isroman {findfont /CharStrings get /Agrave known} bdef
/FMSR {3 1 roll 1 index dup isroman {reencode} {pop pop} ifelse
  exch FMS} bdef
/csm {1 dpi2point div -1 dpi2point div scale neg translate
 dup landscapeMode eq {pop -90 rotate}
  {rotateMode eq {90 rotate} if} ifelse} bdef
% line types: solid, dotted, dashed, dotdash
/SO { [] 0 setdash } bdef
/DO { [.5 dpi2point mul 4 dpi2point mul] 0 setdash } bdef
/DA { [6 dpi2point mul] 0 setdash } bdef
/DD { [.5 dpi2point mul 4 dpi2point mul 6 dpi2point mul 4
  dpi2point mul] 0 setdash } bdef
% macros for lines and objects
/L {lineto stroke} bdef
/MP {3 1 roll moveto 1 sub {rlineto} repeat} bdef
/AP {{rlineto} repeat} bdef
/PDlw -1 def
/W {/PDlw currentlinewidth def setlinewidth} def
/PP {closepath eofill} bdef
/DP {closepath stroke} bdef
/MR {4 -2 roll moveto dup  0 exch rlineto exch 0 rlineto
  neg 0 exch rlineto closepath} bdef
/FR {MR stroke} bdef
/PR {MR fill} bdef
/L1i {{currentfile picstr readhexstring pop} image} bdef
/tMatrix matrix def
/MakeOval {newpath tMatrix currentmatrix pop translate scale
0 0 1 0 360 arc tMatrix setmatrix} bdef
/FO {MakeOval stroke} bdef
/PO {MakeOval fill} bdef
/PD {currentlinewidth 2 div 0 360 arc fill
   PDlw -1 eq not {PDlw w /PDlw -1 def} if} def
/FA {newpath tMatrix currentmatrix pop translate scale
  0 0 1 5 -2 roll arc tMatrix setmatrix stroke} bdef
/PA {newpath tMatrix currentmatrix pop	translate 0 0 moveto scale
  0 0 1 5 -2 roll arc closepath tMatrix setmatrix fill} bdef
/FAn {newpath tMatrix currentmatrix pop translate scale
  0 0 1 5 -2 roll arcn tMatrix setmatrix stroke} bdef
/PAn {newpath tMatrix currentmatrix pop translate 0 0 moveto scale
  0 0 1 5 -2 roll arcn closepath tMatrix setmatrix fill} bdef
/vradius 0 def /hradius 0 def /lry 0 def
/lrx 0 def /uly 0 def /ulx 0 def /rad 0 def
/MRR {/vradius xdef /hradius xdef /lry xdef /lrx xdef /uly xdef
  /ulx xdef newpath tMatrix currentmatrix pop ulx hradius add uly
  vradius add translate hradius vradius scale 0 0 1 180 270 arc 
  tMatrix setmatrix lrx hradius sub uly vradius add translate
  hradius vradius scale 0 0 1 270 360 arc tMatrix setmatrix
  lrx hradius sub lry vradius sub translate hradius vradius scale
  0 0 1 0 90 arc tMatrix setmatrix ulx hradius add lry vradius sub
  translate hradius vradius scale 0 0 1 90 180 arc tMatrix setmatrix
  closepath} bdef
/FRR {MRR stroke } bdef
/PRR {MRR fill } bdef
/MlrRR {/lry xdef /lrx xdef /uly xdef /ulx xdef /rad lry uly sub 2 div def
  newpath tMatrix currentmatrix pop ulx rad add uly rad add translate
  rad rad scale 0 0 1 90 270 arc tMatrix setmatrix lrx rad sub lry rad
  sub translate rad rad scale 0 0 1 270 90 arc tMatrix setmatrix
  closepath} bdef
/FlrRR {MlrRR stroke } bdef
/PlrRR {MlrRR fill } bdef
/MtbRR {/lry xdef /lrx xdef /uly xdef /ulx xdef /rad lrx ulx sub 2 div def
  newpath tMatrix currentmatrix pop ulx rad add uly rad add translate
  rad rad scale 0 0 1 180 360 arc tMatrix setmatrix lrx rad sub lry rad
  sub translate rad rad scale 0 0 1 0 180 arc tMatrix setmatrix
  closepath} bdef
/FtbRR {MtbRR stroke } bdef
/PtbRR {MtbRR fill } bdef
/stri 6 array def /dtri 6 array def
/smat 6 array def /dmat 6 array def
/tmat1 6 array def /tmat2 6 array def /dif 3 array def
/asub {/ind2 exch def /ind1 exch def dup dup
  ind1 get exch ind2 get sub exch } bdef
/tri_to_matrix {
  2 0 asub 3 1 asub 4 0 asub 5 1 asub
  dup 0 get exch 1 get 7 -1 roll astore } bdef
/compute_transform {
  dmat dtri tri_to_matrix tmat1 invertmatrix 
  smat stri tri_to_matrix tmat2 concatmatrix } bdef
/ds {stri astore pop} bdef
/dt {dtri astore pop} bdef
/db {2 copy /cols xdef /rows xdef mul dup 3 mul string
  currentfile exch readhexstring pop
  dup 0 3 index getinterval /rbmap xdef
  dup 2 index dup getinterval /gbmap xdef
  1 index dup 2 mul exch getinterval /bbmap xdef pop pop}bdef
/it {gs np dtri aload pop moveto lineto lineto cp c
  cols rows 8 compute_transform 
  rbmap gbmap bbmap true 3 colorimage gr}bdef
/il {newpath moveto lineto stroke}bdef
currentdict end def
%%EndProlog

%%BeginSetup
MathWorks begin

0 cap

end
%%EndSetup

%%Page: 1 1
%%BeginPageSetup
%%PageBoundingBox:    51   192   552   602
MathWorks begin
bpage
%%EndPageSetup

%%BeginObject: obj1
bplot

/dpi2point 12 def
portraitMode 0204 7344 csm

  417   110  6014  4924 MR c np
87 dict begin %Colortable dictionary
/c0 { 0.000000 0.000000 0.000000 sr} bdef
/c1 { 1.000000 1.000000 1.000000 sr} bdef
/c2 { 0.900000 0.000000 0.000000 sr} bdef
/c3 { 0.000000 0.820000 0.000000 sr} bdef
/c4 { 0.000000 0.000000 0.800000 sr} bdef
/c5 { 0.910000 0.820000 0.320000 sr} bdef
/c6 { 1.000000 0.260000 0.820000 sr} bdef
/c7 { 0.000000 0.820000 0.820000 sr} bdef
c0
1 j
1 sg
   0    0 6913 5185 PR
6 w
0 4225 5356 0 0 -4225 899 4614 4 MP
PP
-5356 0 0 4225 5356 0 0 -4225 899 4614 5 MP stroke
4 w
DO
SO
6 w
0 sg
 899  389 mt 6255  389 L
 899 4614 mt 6255 4614 L
6255 4614 mt 6255  389 L
 899 4614 mt  899  389 L
 899 4614 mt 6255 4614 L
 899 4614 mt  899  389 L
 899 4614 mt  899 4560 L
 899  389 mt  899  442 L
%%IncludeResource: font Helvetica
/Helvetica /WindowsLatin1Encoding 120 FMSR

 866 4759 mt 
(0) s
1791 4614 mt 1791 4560 L
1791  389 mt 1791  442 L
1758 4759 mt 
(5) s
2684 4614 mt 2684 4560 L
2684  389 mt 2684  442 L
2618 4759 mt 
(10) s
3577 4614 mt 3577 4560 L
3577  389 mt 3577  442 L
3511 4759 mt 
(15) s
4469 4614 mt 4469 4560 L
4469  389 mt 4469  442 L
4403 4759 mt 
(20) s
5362 4614 mt 5362 4560 L
5362  389 mt 5362  442 L
5296 4759 mt 
(25) s
6255 4614 mt 6255 4560 L
6255  389 mt 6255  442 L
6189 4759 mt 
(30) s
 899 4614 mt  952 4614 L
6255 4614 mt 6201 4614 L
 798 4658 mt 
(0) s
 899 4085 mt  952 4085 L
6255 4085 mt 6201 4085 L
 798 4129 mt 
(5) s
 899 3557 mt  952 3557 L
6255 3557 mt 6201 3557 L
 731 3601 mt 
(10) s
 899 3029 mt  952 3029 L
6255 3029 mt 6201 3029 L
 731 3073 mt 
(15) s
 899 2501 mt  952 2501 L
6255 2501 mt 6201 2501 L
 731 2545 mt 
(20) s
 899 1973 mt  952 1973 L
6255 1973 mt 6201 1973 L
 731 2017 mt 
(25) s
 899 1445 mt  952 1445 L
6255 1445 mt 6201 1445 L
 731 1489 mt 
(30) s
 899  917 mt  952  917 L
6255  917 mt 6201  917 L
 731  961 mt 
(35) s
 899  389 mt  952  389 L
6255  389 mt 6201  389 L
 731  433 mt 
(40) s
 899  389 mt 6255  389 L
 899 4614 mt 6255 4614 L
6255 4614 mt 6255  389 L
 899 4614 mt  899  389 L
gs 899 389 5357 4226 MR c np
24 w
/c8 { 0.000000 1.000000 0.000000 sr} bdef
c8
179 -169 179 -169 178 -169 179 -168 178 -167 179 -167 178 -166 179 -165 
178 -164 179 -162 178 -160 179 -158 178 -155 179 -151 178 -147 179 -142 
179 -136 178 -130 179 -122 178 -113 179 -105 178 -95 179 -85 178 -75 
179 -67 178 -57 179 -48 178 -41 179 -35 178 -28 899 4492 31 MP stroke
gr

24 w
c8
gs 753 630 5649 4009 MR c np
 839 4492 mt  959 4492 L
 899 4432 mt  899 4552 L
1017 4464 mt 1137 4464 L
1077 4404 mt 1077 4524 L
1196 4429 mt 1316 4429 L
1256 4369 mt 1256 4489 L
1374 4388 mt 1494 4388 L
1434 4328 mt 1434 4448 L
1553 4340 mt 1673 4340 L
1613 4280 mt 1613 4400 L
1731 4283 mt 1851 4283 L
1791 4223 mt 1791 4343 L
1910 4216 mt 2030 4216 L
1970 4156 mt 1970 4276 L
2088 4141 mt 2208 4141 L
2148 4081 mt 2148 4201 L
2267 4056 mt 2387 4056 L
2327 3996 mt 2327 4116 L
2445 3961 mt 2565 3961 L
2505 3901 mt 2505 4021 L
2624 3856 mt 2744 3856 L
2684 3796 mt 2684 3916 L
2802 3743 mt 2922 3743 L
2862 3683 mt 2862 3803 L
2981 3621 mt 3101 3621 L
3041 3561 mt 3041 3681 L
3159 3491 mt 3279 3491 L
3219 3431 mt 3219 3551 L
3338 3355 mt 3458 3355 L
3398 3295 mt 3398 3415 L
3517 3213 mt 3637 3213 L
3577 3153 mt 3577 3273 L
3695 3066 mt 3815 3066 L
3755 3006 mt 3755 3126 L
3874 2915 mt 3994 2915 L
3934 2855 mt 3934 2975 L
4052 2760 mt 4172 2760 L
4112 2700 mt 4112 2820 L
4231 2602 mt 4351 2602 L
4291 2542 mt 4291 2662 L
4409 2442 mt 4529 2442 L
4469 2382 mt 4469 2502 L
4588 2280 mt 4708 2280 L
4648 2220 mt 4648 2340 L
4766 2116 mt 4886 2116 L
4826 2056 mt 4826 2176 L
4945 1951 mt 5065 1951 L
5005 1891 mt 5005 2011 L
5123 1785 mt 5243 1785 L
5183 1725 mt 5183 1845 L
5302 1618 mt 5422 1618 L
5362 1558 mt 5362 1678 L
5480 1451 mt 5600 1451 L
5540 1391 mt 5540 1511 L
5659 1283 mt 5779 1283 L
5719 1223 mt 5719 1343 L
5837 1114 mt 5957 1114 L
5897 1054 mt 5897 1174 L
6016  945 mt 6136  945 L
6076  885 mt 6076 1005 L
6195  776 mt 6315  776 L
6255  716 mt 6255  836 L
 857 4450 mt  941 4534 L
 941 4450 mt  857 4534 L
1035 4422 mt 1119 4506 L
1119 4422 mt 1035 4506 L
1214 4387 mt 1298 4471 L
1298 4387 mt 1214 4471 L
1392 4346 mt 1476 4430 L
1476 4346 mt 1392 4430 L
1571 4298 mt 1655 4382 L
1655 4298 mt 1571 4382 L
1749 4241 mt 1833 4325 L
1833 4241 mt 1749 4325 L
1928 4174 mt 2012 4258 L
2012 4174 mt 1928 4258 L
2106 4099 mt 2190 4183 L
2190 4099 mt 2106 4183 L
2285 4014 mt 2369 4098 L
2369 4014 mt 2285 4098 L
2463 3919 mt 2547 4003 L
2547 3919 mt 2463 4003 L
2642 3814 mt 2726 3898 L
2726 3814 mt 2642 3898 L
2820 3701 mt 2904 3785 L
2904 3701 mt 2820 3785 L
2999 3579 mt 3083 3663 L
3083 3579 mt 2999 3663 L
3177 3449 mt 3261 3533 L
3261 3449 mt 3177 3533 L
3356 3313 mt 3440 3397 L
3440 3313 mt 3356 3397 L
3535 3171 mt 3619 3255 L
3619 3171 mt 3535 3255 L
3713 3024 mt 3797 3108 L
3797 3024 mt 3713 3108 L
3892 2873 mt 3976 2957 L
3976 2873 mt 3892 2957 L
4070 2718 mt 4154 2802 L
4154 2718 mt 4070 2802 L
4249 2560 mt 4333 2644 L
4333 2560 mt 4249 2644 L
4427 2400 mt 4511 2484 L
4511 2400 mt 4427 2484 L
4606 2238 mt 4690 2322 L
4690 2238 mt 4606 2322 L
4784 2074 mt 4868 2158 L
4868 2074 mt 4784 2158 L
4963 1909 mt 5047 1993 L
5047 1909 mt 4963 1993 L
5141 1743 mt 5225 1827 L
5225 1743 mt 5141 1827 L
5320 1576 mt 5404 1660 L
5404 1576 mt 5320 1660 L
5498 1409 mt 5582 1493 L
5582 1409 mt 5498 1493 L
5677 1241 mt 5761 1325 L
5761 1241 mt 5677 1325 L
5855 1072 mt 5939 1156 L
5939 1072 mt 5855 1156 L
6034  903 mt 6118  987 L
6118  903 mt 6034  987 L
6213  734 mt 6297  818 L
6297  734 mt 6213  818 L
gr

gs 899 389 5357 4226 MR c np
gr

0 sg
2994  294 mt 
(Channel B, Scheme 1) s
%%IncludeResource: font Helvetica
/Helvetica /WindowsLatin1Encoding 204 FMSR

3140 4964 mt 
(SNR \(dB\)) s
 631 3783 mt  -90 rotate
(Information Rates \(nats/sec\)) s
90 rotate
gs 899 389 5357 4226 MR c np
/c9 { 0.000000 0.000000 1.000000 sr} bdef
c9
179 -168 179 -168 178 -168 179 -167 178 -166 179 -165 178 -164 179 -162 
178 -160 179 -158 178 -154 179 -152 178 -147 179 -142 178 -137 179 -130 
179 -123 178 -115 179 -107 178 -98 179 -89 178 -79 179 -71 178 -62 
179 -53 178 -46 179 -39 178 -33 179 -27 178 -23 899 4517 31 MP stroke
gr

c9
gs 753 898 5649 3766 MR c np
0 j
0 -94 -94 0 0 94 94 0 852 4470 5 MP
DP
0 -94 -94 0 0 94 94 0 1030 4447 5 MP
DP
0 -94 -94 0 0 94 94 0 1209 4420 5 MP
DP
0 -94 -94 0 0 94 94 0 1387 4387 5 MP
DP
0 -94 -94 0 0 94 94 0 1566 4348 5 MP
DP
0 -94 -94 0 0 94 94 0 1744 4302 5 MP
DP
0 -94 -94 0 0 94 94 0 1923 4249 5 MP
DP
0 -94 -94 0 0 94 94 0 2101 4187 5 MP
DP
0 -94 -94 0 0 94 94 0 2280 4116 5 MP
DP
0 -94 -94 0 0 94 94 0 2458 4037 5 MP
DP
0 -94 -94 0 0 94 94 0 2637 3948 5 MP
DP
0 -94 -94 0 0 94 94 0 2815 3850 5 MP
DP
0 -94 -94 0 0 94 94 0 2994 3743 5 MP
DP
0 -94 -94 0 0 94 94 0 3172 3628 5 MP
DP
0 -94 -94 0 0 94 94 0 3351 3505 5 MP
DP
0 -94 -94 0 0 94 94 0 3530 3375 5 MP
DP
0 -94 -94 0 0 94 94 0 3708 3238 5 MP
DP
0 -94 -94 0 0 94 94 0 3887 3096 5 MP
DP
0 -94 -94 0 0 94 94 0 4065 2949 5 MP
DP
0 -94 -94 0 0 94 94 0 4244 2797 5 MP
DP
0 -94 -94 0 0 94 94 0 4422 2643 5 MP
DP
0 -94 -94 0 0 94 94 0 4601 2485 5 MP
DP
0 -94 -94 0 0 94 94 0 4779 2325 5 MP
DP
0 -94 -94 0 0 94 94 0 4958 2163 5 MP
DP
0 -94 -94 0 0 94 94 0 5136 1999 5 MP
DP
0 -94 -94 0 0 94 94 0 5315 1834 5 MP
DP
0 -94 -94 0 0 94 94 0 5493 1668 5 MP
DP
0 -94 -94 0 0 94 94 0 5672 1501 5 MP
DP
0 -94 -94 0 0 94 94 0 5850 1333 5 MP
DP
0 -94 -94 0 0 94 94 0 6029 1165 5 MP
DP
0 -94 -94 0 0 94 94 0 6208 997 5 MP
DP
gr

gs 899 389 5357 4226 MR c np
/c10 { 1.000000 0.000000 1.000000 sr} bdef
c10
179 -168 179 -169 178 -167 179 -167 178 -166 179 -165 178 -164 179 -162 
178 -160 179 -158 178 -154 179 -152 178 -147 179 -142 178 -137 179 -130 
179 -123 178 -116 179 -106 178 -98 179 -89 178 -79 179 -71 178 -62 
179 -53 178 -46 179 -39 178 -33 179 -27 178 -23 899 4517 31 MP stroke
gr

c10
gs 753 898 5649 3766 MR c np
 839 4517 mt  959 4517 L
 899 4457 mt  899 4577 L
1017 4494 mt 1137 4494 L
1077 4434 mt 1077 4554 L
1196 4467 mt 1316 4467 L
1256 4407 mt 1256 4527 L
1374 4434 mt 1494 4434 L
1434 4374 mt 1434 4494 L
1553 4395 mt 1673 4395 L
1613 4335 mt 1613 4455 L
1731 4349 mt 1851 4349 L
1791 4289 mt 1791 4409 L
1910 4296 mt 2030 4296 L
1970 4236 mt 1970 4356 L
2088 4234 mt 2208 4234 L
2148 4174 mt 2148 4294 L
2267 4163 mt 2387 4163 L
2327 4103 mt 2327 4223 L
2445 4084 mt 2565 4084 L
2505 4024 mt 2505 4144 L
2624 3995 mt 2744 3995 L
2684 3935 mt 2684 4055 L
2802 3897 mt 2922 3897 L
2862 3837 mt 2862 3957 L
2981 3791 mt 3101 3791 L
3041 3731 mt 3041 3851 L
3159 3675 mt 3279 3675 L
3219 3615 mt 3219 3735 L
3338 3552 mt 3458 3552 L
3398 3492 mt 3398 3612 L
3517 3422 mt 3637 3422 L
3577 3362 mt 3577 3482 L
3695 3285 mt 3815 3285 L
3755 3225 mt 3755 3345 L
3874 3143 mt 3994 3143 L
3934 3083 mt 3934 3203 L
4052 2996 mt 4172 2996 L
4112 2936 mt 4112 3056 L
4231 2844 mt 4351 2844 L
4291 2784 mt 4291 2904 L
4409 2690 mt 4529 2690 L
4469 2630 mt 4469 2750 L
4588 2532 mt 4708 2532 L
4648 2472 mt 4648 2592 L
4766 2372 mt 4886 2372 L
4826 2312 mt 4826 2432 L
4945 2210 mt 5065 2210 L
5005 2150 mt 5005 2270 L
5123 2046 mt 5243 2046 L
5183 1986 mt 5183 2106 L
5302 1881 mt 5422 1881 L
5362 1821 mt 5362 1941 L
5480 1715 mt 5600 1715 L
5540 1655 mt 5540 1775 L
5659 1548 mt 5779 1548 L
5719 1488 mt 5719 1608 L
5837 1381 mt 5957 1381 L
5897 1321 mt 5897 1441 L
6016 1212 mt 6136 1212 L
6076 1152 mt 6076 1272 L
6195 1044 mt 6315 1044 L
6255  984 mt 6255 1104 L
gr

gs 899 389 5357 4226 MR c np
/c11 { 1.000000 0.000000 0.000000 sr} bdef
c11
179 -166 179 -165 178 -165 179 -165 178 -164 179 -164 178 -162 179 -161 
178 -159 179 -157 178 -154 179 -150 178 -147 179 -142 178 -136 179 -130 
179 -123 178 -115 179 -107 178 -98 179 -88 178 -80 179 -70 178 -62 
179 -53 178 -46 179 -39 178 -33 179 -27 178 -23 899 4517 31 MP stroke
gr

c11
gs 753 920 5649 3744 MR c np
 857 4475 mt  941 4559 L
 941 4475 mt  857 4559 L
1035 4452 mt 1119 4536 L
1119 4452 mt 1035 4536 L
1214 4425 mt 1298 4509 L
1298 4425 mt 1214 4509 L
1392 4392 mt 1476 4476 L
1476 4392 mt 1392 4476 L
1571 4353 mt 1655 4437 L
1655 4353 mt 1571 4437 L
1749 4307 mt 1833 4391 L
1833 4307 mt 1749 4391 L
1928 4254 mt 2012 4338 L
2012 4254 mt 1928 4338 L
2106 4192 mt 2190 4276 L
2190 4192 mt 2106 4276 L
2285 4122 mt 2369 4206 L
2369 4122 mt 2285 4206 L
2463 4042 mt 2547 4126 L
2547 4042 mt 2463 4126 L
2642 3954 mt 2726 4038 L
2726 3954 mt 2642 4038 L
2820 3856 mt 2904 3940 L
2904 3856 mt 2820 3940 L
2999 3749 mt 3083 3833 L
3083 3749 mt 2999 3833 L
3177 3634 mt 3261 3718 L
3261 3634 mt 3177 3718 L
3356 3511 mt 3440 3595 L
3440 3511 mt 3356 3595 L
3535 3381 mt 3619 3465 L
3619 3381 mt 3535 3465 L
3713 3245 mt 3797 3329 L
3797 3245 mt 3713 3329 L
3892 3103 mt 3976 3187 L
3976 3103 mt 3892 3187 L
4070 2956 mt 4154 3040 L
4154 2956 mt 4070 3040 L
4249 2806 mt 4333 2890 L
4333 2806 mt 4249 2890 L
4427 2652 mt 4511 2736 L
4511 2652 mt 4427 2736 L
4606 2495 mt 4690 2579 L
4690 2495 mt 4606 2579 L
4784 2336 mt 4868 2420 L
4868 2336 mt 4784 2420 L
4963 2175 mt 5047 2259 L
5047 2175 mt 4963 2259 L
5141 2013 mt 5225 2097 L
5225 2013 mt 5141 2097 L
5320 1849 mt 5404 1933 L
5404 1849 mt 5320 1933 L
5498 1685 mt 5582 1769 L
5582 1685 mt 5498 1769 L
5677 1520 mt 5761 1604 L
5761 1520 mt 5677 1604 L
5855 1355 mt 5939 1439 L
5939 1355 mt 5855 1439 L
6034 1190 mt 6118 1274 L
6118 1190 mt 6034 1274 L
6213 1024 mt 6297 1108 L
6297 1024 mt 6213 1108 L
gr

gs 899 389 5357 4226 MR c np
gr

0 sg
%%IncludeResource: font Helvetica
/Helvetica /WindowsLatin1Encoding 120 FMSR

 882 4657 mt 
( ) s
6239  431 mt 
( ) s
6 w
1 sg
0 907 1367 0 0 -907 4828 4555 4 MP
PP
-1367 0 0 907 1367 0 0 -907 4828 4555 5 MP stroke
4 w
DO
SO
6 w
0 sg
4828 3648 mt 6195 3648 L
4828 4555 mt 6195 4555 L
6195 4555 mt 6195 3648 L
4828 4555 mt 4828 3648 L
4828 4555 mt 6195 4555 L
4828 4555 mt 4828 3648 L
4828 3648 mt 6195 3648 L
4828 4555 mt 6195 4555 L
6195 4555 mt 6195 3648 L
4828 4555 mt 4828 3648 L
%%IncludeResource: font Helvetica
/Helvetica /WindowsLatin1Encoding 168 FMSR

5281 3830 mt 
(Optimal Rx) s
gs 4828 3648 1368 908 MR c np
24 w
c8
348 0 4897 3769 2 MP stroke
gr

24 w
c8
gs 4925 3623 293 293 MR c np
5011 3769 mt 5131 3769 L
5071 3709 mt 5071 3829 L
5029 3727 mt 5113 3811 L
5113 3727 mt 5029 3811 L
gr

gs 4828 3648 1368 908 MR c np
gr

0 sg
5281 4090 mt 
(EB, K=K) s
%%IncludeResource: font Symbol
/Symbol /WindowsLatin1Encoding 132 FMSR

5917 4006 mt 
(\242) s
%%IncludeResource: font Helvetica
/Helvetica /WindowsLatin1Encoding 168 FMSR

5949 4090 mt 
(+1) s
gs 4828 3648 1368 908 MR c np
c9
348 0 4897 3999 2 MP stroke
gs 4925 3853 293 293 MR c np
0 j
0 -94 -94 0 0 94 94 0 5024 3952 5 MP
DP
gr

gr

c9
0 sg
5281 4289 mt 
(SB, JLD) s
gs 4828 3648 1368 908 MR c np
c10
348 0 4897 4228 2 MP stroke
gs 4925 4082 293 293 MR c np
5011 4228 mt 5131 4228 L
5071 4168 mt 5071 4288 L
gr

gr

c10
0 sg
5281 4494 mt 
(SB, ILD) s
gs 4828 3648 1368 908 MR c np
c11
348 0 4897 4433 2 MP stroke
gr

c11
gs 4925 4287 293 293 MR c np
5029 4391 mt 5113 4475 L
5113 4391 mt 5029 4475 L
gr

gs 4828 3648 1368 908 MR c np
6 w
gr

6 w

end %%Color Dict

eplot
%%EndObject

epage
end

showpage

%%Trailer
%%EOF
