\relax 
\citation{MSML-TSP2006}
\citation{MSML-TSP2013}
\citation{MSML-TSP2013}
\citation{MSML-TSP2013}
\citation{MSML-TSP2013}
\@writefile{toc}{\contentsline {section}{\numberline {I}Introduction}{1}}
\newlabel{sec:intro}{{I}{1}}
\@writefile{toc}{\contentsline {section}{\numberline {II}Channel Model}{1}}
\newlabel{sec:ch-model}{{II}{1}}
\newlabel{eq:rt_wltv}{{1}{1}}
\newlabel{eq:rt_approx}{{3}{1}}
\@writefile{toc}{\contentsline {section}{\numberline {III}Multi-layer Transmission}{1}}
\newlabel{sec:multi-layer}{{III}{1}}
\citation{MSML-TSP2013}
\citation{MSML-TSP2013}
\bibstyle{unsrt}
\bibdata{uac1}
\bibcite{MSML-TSP2006}{1}
\bibcite{MSML-TSP2013}{2}
\@writefile{toc}{\contentsline {section}{\numberline {IV}Information Rates}{2}}
\newlabel{sec:info_rates}{{IV}{2}}
\newlabel{eq:rate_jointenc_jointdec}{{13}{2}}
\newlabel{eq:rate_indivenc_indivdec}{{14}{2}}
\@writefile{toc}{\contentsline {section}{References}{2}}
