\begin{thebibliography}{1}

\bibitem{MSML-TSP2006}
Ye~Jiang and A.~Papandreou-Suppappola.
\newblock Discrete time-scale characterization of wideband time-varying
  systems.
\newblock {\em IEEE Transactions on Signal Processing}, vol. 54(no. 4):pp.
  1364--1375, April 2006.

\bibitem{MSML-TSP2013}
Tao Xu, Zijian Tang, G.~Leus, and U.~Mitra.
\newblock Multi-rate block transmission over wideband multi-scale multi-lag
  channels.
\newblock {\em IEEE Transactions on Signal Processing}, vol. 61(no. 4):pp.
  964--979, Feb. 2013.

\end{thebibliography}
