\relax 
\providecommand\hyper@newdestlabel[2]{}
\providecommand\HyperFirstAtBeginDocument{\AtBeginDocument}
\HyperFirstAtBeginDocument{\ifx\hyper@anchor\@undefined
\global\let\oldcontentsline\contentsline
\gdef\contentsline#1#2#3#4{\oldcontentsline{#1}{#2}{#3}}
\global\let\oldnewlabel\newlabel
\gdef\newlabel#1#2{\newlabelxx{#1}#2}
\gdef\newlabelxx#1#2#3#4#5#6{\oldnewlabel{#1}{{#2}{#3}}}
\AtEndDocument{\ifx\hyper@anchor\@undefined
\let\contentsline\oldcontentsline
\let\newlabel\oldnewlabel
\fi}
\fi}
\global\let\hyper@last\relax 
\gdef\HyperFirstAtBeginDocument#1{#1}
\providecommand\HyField@AuxAddToFields[1]{}
\providecommand\HyField@AuxAddToCoFields[2]{}
\@writefile{toc}{\beamer@endinputifotherversion {3.27pt}}
\@writefile{nav}{\beamer@endinputifotherversion {3.27pt}}
\@writefile{nav}{\headcommand {\sectionentry {1}{Title}{1}{Title}{0}}}
\@writefile{nav}{\headcommand {\beamer@sectionpages {1}{0}}}
\@writefile{nav}{\headcommand {\beamer@subsectionpages {1}{0}}}
\@writefile{nav}{\headcommand {\slideentry {1}{0}{1}{1/1}{}{0}}}
\@writefile{nav}{\headcommand {\beamer@framepages {1}{1}}}
\@writefile{toc}{\beamer@sectionintoc {2}{Wideband Representation of Linear Time-Varying Channels}{2}{0}{1}}
\@writefile{nav}{\headcommand {\sectionentry {2}{Wideband Representation of Linear Time-Varying Channels}{2}{Wideband Representation of Linear Time-Varying Channels}{0}}}
\@writefile{nav}{\headcommand {\beamer@sectionpages {1}{1}}}
\@writefile{nav}{\headcommand {\beamer@subsectionpages {1}{1}}}
\@writefile{nav}{\headcommand {\slideentry {2}{0}{2}{2/2}{}{0}}}
\@writefile{nav}{\headcommand {\beamer@framepages {2}{2}}}
\@writefile{nav}{\headcommand {\slideentry {2}{0}{3}{3/5}{}{0}}}
\@writefile{nav}{\headcommand {\beamer@framepages {3}{5}}}
\@writefile{nav}{\headcommand {\slideentry {2}{0}{4}{6/6}{}{0}}}
\@writefile{nav}{\headcommand {\beamer@framepages {6}{6}}}
\@writefile{toc}{\beamer@sectionintoc {3}{Multi-layer Transmission Scheme}{7}{0}{2}}
\@writefile{nav}{\headcommand {\sectionentry {3}{Multi-layer Transmission Scheme}{7}{Multi-layer Transmission Scheme}{0}}}
\@writefile{nav}{\headcommand {\beamer@sectionpages {2}{6}}}
\@writefile{nav}{\headcommand {\beamer@subsectionpages {2}{6}}}
\@writefile{nav}{\headcommand {\slideentry {3}{0}{5}{7/7}{}{0}}}
\@writefile{nav}{\headcommand {\beamer@framepages {7}{7}}}
\@writefile{nav}{\headcommand {\slideentry {3}{0}{6}{8/8}{}{0}}}
\@writefile{nav}{\headcommand {\beamer@framepages {8}{8}}}
\@writefile{nav}{\headcommand {\slideentry {3}{0}{7}{9/9}{}{0}}}
\@writefile{nav}{\headcommand {\beamer@framepages {9}{9}}}
\@writefile{nav}{\headcommand {\slideentry {3}{0}{8}{10/11}{}{0}}}
\@writefile{nav}{\headcommand {\beamer@framepages {10}{11}}}
\@writefile{nav}{\headcommand {\slideentry {3}{0}{9}{12/13}{}{0}}}
\@writefile{nav}{\headcommand {\beamer@framepages {12}{13}}}
\@writefile{nav}{\headcommand {\slideentry {3}{0}{10}{14/14}{}{0}}}
\@writefile{nav}{\headcommand {\beamer@framepages {14}{14}}}
\@writefile{toc}{\beamer@sectionintoc {4}{Information Rates}{15}{0}{3}}
\@writefile{nav}{\headcommand {\sectionentry {4}{Information Rates}{15}{Information Rates}{0}}}
\@writefile{nav}{\headcommand {\beamer@sectionpages {7}{14}}}
\@writefile{nav}{\headcommand {\beamer@subsectionpages {7}{14}}}
\@writefile{nav}{\headcommand {\slideentry {4}{0}{11}{15/15}{}{0}}}
\@writefile{nav}{\headcommand {\beamer@framepages {15}{15}}}
\@writefile{nav}{\headcommand {\slideentry {4}{0}{12}{16/18}{}{0}}}
\@writefile{nav}{\headcommand {\beamer@framepages {16}{18}}}
\@writefile{nav}{\headcommand {\slideentry {4}{0}{13}{19/20}{}{0}}}
\@writefile{nav}{\headcommand {\beamer@framepages {19}{20}}}
\@writefile{nav}{\headcommand {\slideentry {4}{0}{14}{21/22}{}{0}}}
\@writefile{nav}{\headcommand {\beamer@framepages {21}{22}}}
\@writefile{toc}{\beamer@sectionintoc {5}{Numerical Simulation}{23}{0}{4}}
\@writefile{nav}{\headcommand {\sectionentry {5}{Numerical Simulation}{23}{Numerical Simulation}{0}}}
\@writefile{nav}{\headcommand {\beamer@sectionpages {15}{22}}}
\@writefile{nav}{\headcommand {\beamer@subsectionpages {15}{22}}}
\@writefile{nav}{\headcommand {\slideentry {5}{0}{15}{23/23}{}{0}}}
\@writefile{nav}{\headcommand {\beamer@framepages {23}{23}}}
\@writefile{nav}{\headcommand {\slideentry {5}{0}{16}{24/25}{}{0}}}
\@writefile{nav}{\headcommand {\beamer@framepages {24}{25}}}
\@writefile{nav}{\headcommand {\slideentry {5}{0}{17}{26/26}{}{0}}}
\@writefile{nav}{\headcommand {\beamer@framepages {26}{26}}}
\@writefile{nav}{\headcommand {\slideentry {5}{0}{18}{27/27}{}{0}}}
\@writefile{nav}{\headcommand {\beamer@framepages {27}{27}}}
\@writefile{nav}{\headcommand {\slideentry {5}{0}{19}{28/28}{}{0}}}
\@writefile{nav}{\headcommand {\beamer@framepages {28}{28}}}
\@writefile{nav}{\headcommand {\slideentry {5}{0}{20}{29/29}{}{0}}}
\@writefile{nav}{\headcommand {\beamer@framepages {29}{29}}}
\@writefile{nav}{\headcommand {\slideentry {5}{0}{21}{30/30}{}{0}}}
\@writefile{nav}{\headcommand {\beamer@framepages {30}{30}}}
\@writefile{nav}{\headcommand {\slideentry {5}{0}{22}{31/31}{}{0}}}
\@writefile{nav}{\headcommand {\beamer@framepages {31}{31}}}
\@writefile{nav}{\headcommand {\slideentry {5}{0}{23}{32/32}{}{0}}}
\@writefile{nav}{\headcommand {\beamer@framepages {32}{32}}}
\@writefile{nav}{\headcommand {\sectionentry {6}{Thank You}{33}{Thank You}{0}}}
\@writefile{nav}{\headcommand {\beamer@sectionpages {23}{32}}}
\@writefile{nav}{\headcommand {\beamer@subsectionpages {23}{32}}}
\@writefile{nav}{\headcommand {\slideentry {6}{0}{24}{33/33}{}{0}}}
\@writefile{nav}{\headcommand {\beamer@framepages {33}{33}}}
\@writefile{nav}{\headcommand {\sectionentry {7}{Back-up Slides}{34}{Back-up Slides}{0}}}
\@writefile{nav}{\headcommand {\beamer@sectionpages {33}{33}}}
\@writefile{nav}{\headcommand {\beamer@subsectionpages {33}{33}}}
\@writefile{nav}{\headcommand {\slideentry {7}{0}{25}{34/34}{}{0}}}
\@writefile{nav}{\headcommand {\beamer@framepages {34}{34}}}
\@writefile{nav}{\headcommand {\slideentry {7}{0}{26}{35/36}{}{0}}}
\@writefile{nav}{\headcommand {\beamer@framepages {35}{36}}}
\@writefile{nav}{\headcommand {\slideentry {7}{0}{27}{37/37}{}{0}}}
\@writefile{nav}{\headcommand {\beamer@framepages {37}{37}}}
\@writefile{nav}{\headcommand {\slideentry {7}{0}{28}{38/38}{}{0}}}
\@writefile{nav}{\headcommand {\beamer@framepages {38}{38}}}
\@writefile{nav}{\headcommand {\slideentry {7}{0}{29}{39/40}{}{0}}}
\@writefile{nav}{\headcommand {\beamer@framepages {39}{40}}}
\@writefile{nav}{\headcommand {\slideentry {7}{0}{30}{41/42}{}{0}}}
\@writefile{nav}{\headcommand {\beamer@framepages {41}{42}}}
\@writefile{nav}{\headcommand {\slideentry {7}{0}{31}{43/44}{}{0}}}
\@writefile{nav}{\headcommand {\beamer@framepages {43}{44}}}
\@writefile{nav}{\headcommand {\slideentry {7}{0}{32}{45/45}{}{0}}}
\@writefile{nav}{\headcommand {\beamer@framepages {45}{45}}}
\@writefile{nav}{\headcommand {\beamer@partpages {1}{45}}}
\@writefile{nav}{\headcommand {\beamer@subsectionpages {34}{45}}}
\@writefile{nav}{\headcommand {\beamer@sectionpages {34}{45}}}
\@writefile{nav}{\headcommand {\beamer@documentpages {45}}}
\@writefile{nav}{\headcommand {\def \inserttotalframenumber {24}}}
