\relax 
\providecommand\hyper@newdestlabel[2]{}
\providecommand\HyperFirstAtBeginDocument{\AtBeginDocument}
\HyperFirstAtBeginDocument{\ifx\hyper@anchor\@undefined
\global\let\oldcontentsline\contentsline
\gdef\contentsline#1#2#3#4{\oldcontentsline{#1}{#2}{#3}}
\global\let\oldnewlabel\newlabel
\gdef\newlabel#1#2{\newlabelxx{#1}#2}
\gdef\newlabelxx#1#2#3#4#5#6{\oldnewlabel{#1}{{#2}{#3}}}
\AtEndDocument{\ifx\hyper@anchor\@undefined
\let\contentsline\oldcontentsline
\let\newlabel\oldnewlabel
\fi}
\fi}
\global\let\hyper@last\relax 
\gdef\HyperFirstAtBeginDocument#1{#1}
\providecommand\HyField@AuxAddToFields[1]{}
\providecommand\HyField@AuxAddToCoFields[2]{}
\@writefile{toc}{\beamer@endinputifotherversion {3.27pt}}
\@writefile{nav}{\beamer@endinputifotherversion {3.27pt}}
\@writefile{nav}{\headcommand {\sectionentry {1}{Title}{1}{Title}{0}}}
\@writefile{nav}{\headcommand {\beamer@sectionpages {1}{0}}}
\@writefile{nav}{\headcommand {\beamer@subsectionpages {1}{0}}}
\@writefile{nav}{\headcommand {\slideentry {1}{0}{1}{1/1}{}{0}}}
\@writefile{nav}{\headcommand {\beamer@framepages {1}{1}}}
\@writefile{toc}{\beamer@sectionintoc {2}{Wideband Representation of Linear Time-Varying Channels}{2}{0}{1}}
\@writefile{nav}{\headcommand {\sectionentry {2}{Wideband Representation of Linear Time-Varying Channels}{2}{Wideband Representation of Linear Time-Varying Channels}{0}}}
\@writefile{nav}{\headcommand {\beamer@sectionpages {1}{1}}}
\@writefile{nav}{\headcommand {\beamer@subsectionpages {1}{1}}}
\@writefile{nav}{\headcommand {\slideentry {2}{0}{2}{2/2}{}{0}}}
\@writefile{nav}{\headcommand {\beamer@framepages {2}{2}}}
\@writefile{nav}{\headcommand {\slideentry {2}{0}{3}{3/4}{}{0}}}
\@writefile{nav}{\headcommand {\beamer@framepages {3}{4}}}
\@writefile{nav}{\headcommand {\slideentry {2}{0}{4}{5/5}{}{0}}}
\@writefile{nav}{\headcommand {\beamer@framepages {5}{5}}}
\@writefile{nav}{\headcommand {\slideentry {2}{0}{5}{6/7}{}{0}}}
\@writefile{nav}{\headcommand {\beamer@framepages {6}{7}}}
\@writefile{nav}{\headcommand {\slideentry {2}{0}{6}{8/8}{}{0}}}
\@writefile{nav}{\headcommand {\beamer@framepages {8}{8}}}
\@writefile{nav}{\headcommand {\slideentry {2}{0}{7}{9/10}{}{0}}}
\@writefile{nav}{\headcommand {\beamer@framepages {9}{10}}}
\@writefile{toc}{\beamer@sectionintoc {3}{Multi-layer Transmission Scheme}{11}{0}{2}}
\@writefile{nav}{\headcommand {\sectionentry {3}{Multi-layer Transmission Scheme}{11}{Multi-layer Transmission Scheme}{0}}}
\@writefile{nav}{\headcommand {\beamer@sectionpages {2}{10}}}
\@writefile{nav}{\headcommand {\beamer@subsectionpages {2}{10}}}
\@writefile{nav}{\headcommand {\slideentry {3}{0}{8}{11/11}{}{0}}}
\@writefile{nav}{\headcommand {\beamer@framepages {11}{11}}}
\@writefile{nav}{\headcommand {\slideentry {3}{0}{9}{12/12}{}{0}}}
\@writefile{nav}{\headcommand {\beamer@framepages {12}{12}}}
\@writefile{nav}{\headcommand {\slideentry {3}{0}{10}{13/14}{}{0}}}
\@writefile{nav}{\headcommand {\beamer@framepages {13}{14}}}
\@writefile{nav}{\headcommand {\slideentry {3}{0}{11}{15/16}{}{0}}}
\@writefile{nav}{\headcommand {\beamer@framepages {15}{16}}}
\@writefile{nav}{\headcommand {\slideentry {3}{0}{12}{17/17}{}{0}}}
\@writefile{nav}{\headcommand {\beamer@framepages {17}{17}}}
\@writefile{toc}{\beamer@sectionintoc {4}{Information Rates}{18}{0}{3}}
\@writefile{nav}{\headcommand {\sectionentry {4}{Information Rates}{18}{Information Rates}{0}}}
\@writefile{nav}{\headcommand {\beamer@sectionpages {11}{17}}}
\@writefile{nav}{\headcommand {\beamer@subsectionpages {11}{17}}}
\@writefile{nav}{\headcommand {\slideentry {4}{0}{13}{18/18}{}{0}}}
\@writefile{nav}{\headcommand {\beamer@framepages {18}{18}}}
\@writefile{nav}{\headcommand {\slideentry {4}{0}{14}{19/20}{}{0}}}
\@writefile{nav}{\headcommand {\beamer@framepages {19}{20}}}
\@writefile{nav}{\headcommand {\slideentry {4}{0}{15}{21/22}{}{0}}}
\@writefile{nav}{\headcommand {\beamer@framepages {21}{22}}}
\@writefile{nav}{\headcommand {\slideentry {4}{0}{16}{23/24}{}{0}}}
\@writefile{nav}{\headcommand {\beamer@framepages {23}{24}}}
\@writefile{nav}{\headcommand {\slideentry {4}{0}{17}{25/26}{}{0}}}
\@writefile{nav}{\headcommand {\beamer@framepages {25}{26}}}
\@writefile{toc}{\beamer@sectionintoc {5}{Numerical Simulation}{27}{0}{4}}
\@writefile{nav}{\headcommand {\sectionentry {5}{Numerical Simulation}{27}{Numerical Simulation}{0}}}
\@writefile{nav}{\headcommand {\beamer@sectionpages {18}{26}}}
\@writefile{nav}{\headcommand {\beamer@subsectionpages {18}{26}}}
\@writefile{nav}{\headcommand {\slideentry {5}{0}{18}{27/27}{}{0}}}
\@writefile{nav}{\headcommand {\beamer@framepages {27}{27}}}
\@writefile{nav}{\headcommand {\slideentry {5}{0}{19}{28/29}{}{0}}}
\@writefile{nav}{\headcommand {\beamer@framepages {28}{29}}}
\@writefile{nav}{\headcommand {\slideentry {5}{0}{20}{30/30}{}{0}}}
\@writefile{nav}{\headcommand {\beamer@framepages {30}{30}}}
\@writefile{nav}{\headcommand {\slideentry {5}{0}{21}{31/31}{}{0}}}
\@writefile{nav}{\headcommand {\beamer@framepages {31}{31}}}
\@writefile{nav}{\headcommand {\slideentry {5}{0}{22}{32/32}{}{0}}}
\@writefile{nav}{\headcommand {\beamer@framepages {32}{32}}}
\@writefile{nav}{\headcommand {\sectionentry {6}{Thank You}{33}{Thank You}{0}}}
\@writefile{nav}{\headcommand {\beamer@sectionpages {27}{32}}}
\@writefile{nav}{\headcommand {\beamer@subsectionpages {27}{32}}}
\@writefile{nav}{\headcommand {\slideentry {6}{0}{23}{33/33}{}{0}}}
\@writefile{nav}{\headcommand {\beamer@framepages {33}{33}}}
\@writefile{nav}{\headcommand {\sectionentry {7}{Back-up Slides}{34}{Back-up Slides}{0}}}
\@writefile{nav}{\headcommand {\beamer@sectionpages {33}{33}}}
\@writefile{nav}{\headcommand {\beamer@subsectionpages {33}{33}}}
\@writefile{nav}{\headcommand {\slideentry {7}{0}{24}{34/34}{}{0}}}
\@writefile{nav}{\headcommand {\beamer@framepages {34}{34}}}
\@writefile{nav}{\headcommand {\slideentry {7}{0}{25}{35/35}{}{0}}}
\@writefile{nav}{\headcommand {\beamer@framepages {35}{35}}}
\@writefile{nav}{\headcommand {\slideentry {7}{0}{26}{36/36}{}{0}}}
\@writefile{nav}{\headcommand {\beamer@framepages {36}{36}}}
\@writefile{nav}{\headcommand {\beamer@partpages {1}{36}}}
\@writefile{nav}{\headcommand {\beamer@subsectionpages {34}{36}}}
\@writefile{nav}{\headcommand {\beamer@sectionpages {34}{36}}}
\@writefile{nav}{\headcommand {\beamer@documentpages {36}}}
\@writefile{nav}{\headcommand {\def \inserttotalframenumber {23}}}
