%!PS-Adobe-2.0 EPSF-1.2
%%Creator: MATLAB, The MathWorks, Inc. Version 7.14.0.739 (R2012a). Operating System: Microsoft Windows 7.
%%Title: .\tdomain_wiener_vs_pulsetrain_thick.eps
%%CreationDate: 06/21/2014  13:15:11
%%DocumentNeededFonts: Helvetica
%%DocumentProcessColors: Cyan Magenta Yellow Black
%%Extensions: CMYK
%%Pages: 1
%%BoundingBox:    49   192   546   606
%%EndComments

%%BeginProlog
% MathWorks dictionary
/MathWorks 160 dict begin
% definition operators
/bdef {bind def} bind def
/ldef {load def} bind def
/xdef {exch def} bdef
/xstore {exch store} bdef
% operator abbreviations
/c  /clip ldef
/cc /concat ldef
/cp /closepath ldef
/gr /grestore ldef
/gs /gsave ldef
/mt /moveto ldef
/np /newpath ldef
/cm /currentmatrix ldef
/sm /setmatrix ldef
/rm /rmoveto ldef
/rl /rlineto ldef
/s {show newpath} bdef
/sc {setcmykcolor} bdef
/sr /setrgbcolor ldef
/sg /setgray ldef
/w /setlinewidth ldef
/j /setlinejoin ldef
/cap /setlinecap ldef
/rc {rectclip} bdef
/rf {rectfill} bdef
% page state control
/pgsv () def
/bpage {/pgsv save def} bdef
/epage {pgsv restore} bdef
/bplot /gsave ldef
/eplot {stroke grestore} bdef
% orientation switch
/portraitMode 0 def /landscapeMode 1 def /rotateMode 2 def
% coordinate system mappings
/dpi2point 0 def
% font control
/FontSize 0 def
/FMS {/FontSize xstore findfont [FontSize 0 0 FontSize neg 0 0]
  makefont setfont} bdef
/ISOLatin1Encoding where {pop /WindowsLatin1Encoding 256 array bdef
ISOLatin1Encoding WindowsLatin1Encoding copy pop
/.notdef/.notdef/quotesinglbase/florin/quotedblbase/ellipsis/dagger
/daggerdbl/circumflex/perthousand/Scaron/guilsinglleft/OE/.notdef/.notdef
/.notdef/.notdef/quoteleft/quoteright/quotedblleft/quotedblright/bullet
/endash/emdash/tilde/trademark/scaron/guilsinglright/oe/.notdef/.notdef
/Ydieresis WindowsLatin1Encoding 128 32 getinterval astore pop}
{/WindowsLatin1Encoding StandardEncoding bdef} ifelse
/reencode {exch dup where {pop load} {pop StandardEncoding} ifelse
  exch dup 3 1 roll findfont dup length dict begin
  { 1 index /FID ne {def}{pop pop} ifelse } forall
  /Encoding exch def currentdict end definefont pop} bdef
/isroman {findfont /CharStrings get /Agrave known} bdef
/FMSR {3 1 roll 1 index dup isroman {reencode} {pop pop} ifelse
  exch FMS} bdef
/csm {1 dpi2point div -1 dpi2point div scale neg translate
 dup landscapeMode eq {pop -90 rotate}
  {rotateMode eq {90 rotate} if} ifelse} bdef
% line types: solid, dotted, dashed, dotdash
/SO { [] 0 setdash } bdef
/DO { [.5 dpi2point mul 4 dpi2point mul] 0 setdash } bdef
/DA { [6 dpi2point mul] 0 setdash } bdef
/DD { [.5 dpi2point mul 4 dpi2point mul 6 dpi2point mul 4
  dpi2point mul] 0 setdash } bdef
% macros for lines and objects
/L {lineto stroke} bdef
/MP {3 1 roll moveto 1 sub {rlineto} repeat} bdef
/AP {{rlineto} repeat} bdef
/PDlw -1 def
/W {/PDlw currentlinewidth def setlinewidth} def
/PP {closepath eofill} bdef
/DP {closepath stroke} bdef
/MR {4 -2 roll moveto dup  0 exch rlineto exch 0 rlineto
  neg 0 exch rlineto closepath} bdef
/FR {MR stroke} bdef
/PR {MR fill} bdef
/L1i {{currentfile picstr readhexstring pop} image} bdef
/tMatrix matrix def
/MakeOval {newpath tMatrix currentmatrix pop translate scale
0 0 1 0 360 arc tMatrix setmatrix} bdef
/FO {MakeOval stroke} bdef
/PO {MakeOval fill} bdef
/PD {currentlinewidth 2 div 0 360 arc fill
   PDlw -1 eq not {PDlw w /PDlw -1 def} if} def
/FA {newpath tMatrix currentmatrix pop translate scale
  0 0 1 5 -2 roll arc tMatrix setmatrix stroke} bdef
/PA {newpath tMatrix currentmatrix pop	translate 0 0 moveto scale
  0 0 1 5 -2 roll arc closepath tMatrix setmatrix fill} bdef
/FAn {newpath tMatrix currentmatrix pop translate scale
  0 0 1 5 -2 roll arcn tMatrix setmatrix stroke} bdef
/PAn {newpath tMatrix currentmatrix pop translate 0 0 moveto scale
  0 0 1 5 -2 roll arcn closepath tMatrix setmatrix fill} bdef
/vradius 0 def /hradius 0 def /lry 0 def
/lrx 0 def /uly 0 def /ulx 0 def /rad 0 def
/MRR {/vradius xdef /hradius xdef /lry xdef /lrx xdef /uly xdef
  /ulx xdef newpath tMatrix currentmatrix pop ulx hradius add uly
  vradius add translate hradius vradius scale 0 0 1 180 270 arc 
  tMatrix setmatrix lrx hradius sub uly vradius add translate
  hradius vradius scale 0 0 1 270 360 arc tMatrix setmatrix
  lrx hradius sub lry vradius sub translate hradius vradius scale
  0 0 1 0 90 arc tMatrix setmatrix ulx hradius add lry vradius sub
  translate hradius vradius scale 0 0 1 90 180 arc tMatrix setmatrix
  closepath} bdef
/FRR {MRR stroke } bdef
/PRR {MRR fill } bdef
/MlrRR {/lry xdef /lrx xdef /uly xdef /ulx xdef /rad lry uly sub 2 div def
  newpath tMatrix currentmatrix pop ulx rad add uly rad add translate
  rad rad scale 0 0 1 90 270 arc tMatrix setmatrix lrx rad sub lry rad
  sub translate rad rad scale 0 0 1 270 90 arc tMatrix setmatrix
  closepath} bdef
/FlrRR {MlrRR stroke } bdef
/PlrRR {MlrRR fill } bdef
/MtbRR {/lry xdef /lrx xdef /uly xdef /ulx xdef /rad lrx ulx sub 2 div def
  newpath tMatrix currentmatrix pop ulx rad add uly rad add translate
  rad rad scale 0 0 1 180 360 arc tMatrix setmatrix lrx rad sub lry rad
  sub translate rad rad scale 0 0 1 0 180 arc tMatrix setmatrix
  closepath} bdef
/FtbRR {MtbRR stroke } bdef
/PtbRR {MtbRR fill } bdef
/stri 6 array def /dtri 6 array def
/smat 6 array def /dmat 6 array def
/tmat1 6 array def /tmat2 6 array def /dif 3 array def
/asub {/ind2 exch def /ind1 exch def dup dup
  ind1 get exch ind2 get sub exch } bdef
/tri_to_matrix {
  2 0 asub 3 1 asub 4 0 asub 5 1 asub
  dup 0 get exch 1 get 7 -1 roll astore } bdef
/compute_transform {
  dmat dtri tri_to_matrix tmat1 invertmatrix 
  smat stri tri_to_matrix tmat2 concatmatrix } bdef
/ds {stri astore pop} bdef
/dt {dtri astore pop} bdef
/db {2 copy /cols xdef /rows xdef mul dup 3 mul string
  currentfile exch readhexstring pop
  dup 0 3 index getinterval /rbmap xdef
  dup 2 index dup getinterval /gbmap xdef
  1 index dup 2 mul exch getinterval /bbmap xdef pop pop}bdef
/it {gs np dtri aload pop moveto lineto lineto cp c
  cols rows 8 compute_transform 
  rbmap gbmap bbmap true 3 colorimage gr}bdef
/il {newpath moveto lineto stroke}bdef
currentdict end def
%%EndProlog

%%BeginSetup
MathWorks begin

0 cap

end
%%EndSetup

%%Page: 1 1
%%BeginPageSetup
%%PageBoundingBox:    49   192   546   606
MathWorks begin
bpage
%%EndPageSetup

%%BeginObject: obj1
bplot

/dpi2point 12 def
portraitMode 0216 7344 csm

  383    70  5954  4965 MR c np
85 dict begin %Colortable dictionary
/c0 { 0.000000 0.000000 0.000000 sr} bdef
/c1 { 1.000000 1.000000 1.000000 sr} bdef
/c2 { 0.900000 0.000000 0.000000 sr} bdef
/c3 { 0.000000 0.820000 0.000000 sr} bdef
/c4 { 0.000000 0.000000 0.800000 sr} bdef
/c5 { 0.910000 0.820000 0.320000 sr} bdef
/c6 { 1.000000 0.260000 0.820000 sr} bdef
/c7 { 0.000000 0.820000 0.820000 sr} bdef
c0
1 j
1 sg
   0    0 6913 5186 PR
6 w
0 1622 5356 0 0 -1622 899 2158 4 MP
PP
-5356 0 0 1622 5356 0 0 -1622 899 2158 5 MP stroke
4 w
DO
SO
6 w
0 sg
 899  536 mt 6255  536 L
 899 2158 mt 6255 2158 L
6255 2158 mt 6255  536 L
 899 2158 mt  899  536 L
 899 2158 mt 6255 2158 L
 899 2158 mt  899  536 L
 899 2158 mt  899 2104 L
 899  537 mt  899  590 L
%%IncludeResource: font Helvetica
/Helvetica /WindowsLatin1Encoding 120 FMSR

 866 2303 mt 
(0) s
1568 2158 mt 1568 2104 L
1568  537 mt 1568  590 L
1485 2303 mt 
(0.5) s
2238 2158 mt 2238 2104 L
2238  537 mt 2238  590 L
2205 2303 mt 
(1) s
2907 2158 mt 2907 2104 L
2907  537 mt 2907  590 L
2824 2303 mt 
(1.5) s
3577 2158 mt 3577 2104 L
3577  537 mt 3577  590 L
3544 2303 mt 
(2) s
4246 2158 mt 4246 2104 L
4246  537 mt 4246  590 L
4163 2303 mt 
(2.5) s
4916 2158 mt 4916 2104 L
4916  537 mt 4916  590 L
4883 2303 mt 
(3) s
5585 2158 mt 5585 2104 L
5585  537 mt 5585  590 L
5502 2303 mt 
(3.5) s
6255 2158 mt 6255 2104 L
6255  537 mt 6255  590 L
6222 2303 mt 
(4) s
 899 2121 mt  952 2121 L
6255 2121 mt 6201 2121 L
 728 2165 mt 
(-3) s
 899 1863 mt  952 1863 L
6255 1863 mt 6201 1863 L
 728 1907 mt 
(-2) s
 899 1605 mt  952 1605 L
6255 1605 mt 6201 1605 L
 728 1649 mt 
(-1) s
 899 1347 mt  952 1347 L
6255 1347 mt 6201 1347 L
 798 1391 mt 
(0) s
 899 1089 mt  952 1089 L
6255 1089 mt 6201 1089 L
 798 1133 mt 
(1) s
 899  831 mt  952  831 L
6255  831 mt 6201  831 L
 798  875 mt 
(2) s
 899  573 mt  952  573 L
6255  573 mt 6201  573 L
 798  617 mt 
(3) s
 899  536 mt 6255  536 L
 899 2158 mt 6255 2158 L
6255 2158 mt 6255  536 L
 899 2158 mt  899  536 L
gs 899 537 5357 1622 MR c np
24 w
/c8 { 0.000000 0.000000 1.000000 sr} bdef
c8
1 -8 1 14 2 -4 1 11 1 -26 2 -3 1 18 1 6 
2 -3 1 8 1 1 1 1 2 4 1 -4 1 12 2 -2 
1 -1 1 -19 2 -7 1 -1 1 5 2 5 1 -3 1 -5 
1 -14 2 -1 1 6 1 -5 2 -4 1 10 1 3 2 -7 
1 -11 1 15 2 -4 1 -9 1 -4 1 4 2 -18 1 -2 
1 -11 2 5 1 -1 1 11 2 7 1 3 1 1 2 -1 
1 -10 1 6 1 11 2 0 1 -12 1 3 2 5 1 -5 
1 -2 2 -12 1 20 1 -5 2 0 1 5 1 -1 1 -5 
2 10 1 6 1 -1 2 9 1 -10 1 0 2 -6 1 7 
1 0 2 8 1 -8 1 -5 1 7 2 0 1 -8 1 -7 
2 -9 1 8 1 -5 2 0 1 -5 1 -22 2 -5 1 4 
1 -15 1 -4 2 -24 1 -18 1 -13 2 7 1 -10 1 0 
2 -3 1 3 1 -10 6124 1395 100 MP stroke
2 5 1 14 1 7 1 13 2 24 1 3 1 -6 2 -10 
1 -13 1 -4 2 1 1 -1 1 -24 2 19 1 1 1 19 
1 6 2 11 1 -2 1 -7 2 -11 1 1 1 -11 2 7 
1 -4 1 20 2 -15 1 10 1 3 1 -3 2 -9 1 17 
1 -10 2 21 1 -8 1 -12 2 -23 1 -24 1 -19 2 -20 
1 -8 1 7 1 -8 2 -1 1 9 1 8 2 -2 1 -3 
1 -3 2 -8 1 -16 1 -1 2 -5 1 7 1 -2 1 3 
2 3 1 3 1 23 2 -7 1 -13 1 -6 2 4 1 3 
1 19 2 2 1 12 1 -3 1 11 2 -19 1 2 1 11 
2 2 1 -6 1 -6 2 15 1 3 1 15 2 -13 1 -4 
1 -9 1 -8 2 25 1 -2 1 5 2 -2 1 -1 1 14 
2 9 1 4 1 -8 2 11 1 5 1 6 1 -9 2 -29 
1 -21 1 0 2 -2 5994 1413 100 MP stroke
1 15 1 15 2 -4 1 8 1 -7 2 11 1 -5 1 7 
1 10 2 -9 1 3 1 7 2 3 1 14 1 -5 2 0 
1 -5 1 -10 2 0 1 9 1 11 1 -5 2 -25 1 8 
1 -9 2 -10 1 5 1 -3 2 14 1 -8 1 -2 2 24 
1 3 1 20 1 2 2 -19 1 -2 1 -12 2 1 1 4 
1 11 2 17 1 5 1 5 2 -7 1 5 1 -3 1 -9 
2 -2 1 -11 1 2 2 -7 1 10 1 5 2 -9 1 -10 
1 -6 2 4 1 5 1 20 1 -4 2 1 1 15 1 -7 
2 -1 1 -5 1 0 2 10 1 -6 1 7 2 -1 1 14 
1 14 1 21 2 3 1 14 1 1 2 -15 1 19 1 -8 
2 5 1 15 1 7 2 29 1 9 1 12 1 6 2 11 
1 -5 1 -9 2 3 1 1 1 15 2 9 1 2 1 5 
2 23 1 12 1 -11 5865 1123 100 MP stroke
1 6 2 -7 1 4 1 -14 2 1 1 5 1 -15 2 2 
1 14 1 -14 2 -3 1 -6 1 -3 1 8 2 9 1 -7 
1 -8 2 9 1 -4 1 -18 2 -19 1 -23 1 -16 2 -20 
1 15 1 14 1 6 2 5 1 -12 1 8 2 0 1 -30 
1 3 2 -2 1 3 1 8 2 -6 1 -7 1 -3 1 -5 
2 3 1 -9 1 -8 2 -12 1 16 1 2 2 14 1 -16 
1 2 2 11 1 4 1 -4 1 8 2 -11 1 4 1 -15 
2 26 1 14 1 11 2 12 1 16 1 9 2 -17 1 -5 
1 15 1 7 2 20 1 -8 1 6 2 18 1 10 1 7 
2 -14 1 -1 1 3 2 -3 1 7 1 12 1 2 2 1 
1 2 1 -28 2 13 1 -16 1 -7 2 1 1 -4 1 10 
2 2 1 8 1 21 1 -5 2 2 1 1 1 12 2 -13 
1 6 1 1 2 -15 5735 1117 100 MP stroke
1 -9 1 -7 2 13 1 23 1 5 1 -20 2 -8 1 18 
1 -4 2 -15 1 3 1 10 2 -1 1 -10 1 2 2 8 
1 -4 1 -8 1 12 2 2 1 9 1 13 2 -8 1 10 
1 -2 2 -12 1 12 1 -14 2 -6 1 1 1 6 1 -4 
2 5 1 -3 1 5 2 0 1 -7 1 -1 2 -10 1 13 
1 1 2 -4 1 -1 1 0 1 10 2 -6 1 -19 1 -3 
2 9 1 -12 1 -1 2 -9 1 1 1 -13 2 3 1 -12 
1 6 1 -5 2 1 1 17 1 -5 2 -5 1 -8 1 -2 
2 4 1 1 1 2 2 -11 1 -3 1 16 1 6 2 -7 
1 15 1 2 2 0 1 5 1 16 2 20 1 1 1 4 
2 -6 1 -21 1 9 1 -15 2 -3 1 -21 1 -11 2 -10 
1 0 1 10 2 -6 1 -2 1 8 2 -16 1 -13 1 -17 
1 10 2 -2 1 15 5606 1177 100 MP stroke
1 30 2 4 1 9 1 12 2 10 1 -1 1 6 2 -1 
1 -1 1 0 1 2 2 -12 1 2 1 -2 2 6 1 -3 
1 2 2 -13 1 -23 1 -4 2 18 1 10 1 0 1 -10 
2 0 1 -4 1 1 2 -2 1 -17 1 -1 2 4 1 5 
1 3 2 -8 1 -17 1 -9 1 13 2 -8 1 -8 1 5 
2 0 1 1 1 -8 2 -1 1 -12 1 4 2 3 1 -12 
1 0 1 -2 2 -9 1 -6 1 3 2 -9 1 5 1 -16 
2 9 1 12 1 4 2 -1 1 -14 1 -12 1 8 2 -12 
1 -2 1 -1 2 0 1 -5 1 -8 2 3 1 18 1 -3 
2 -1 1 -19 1 22 1 -22 2 8 1 -6 1 5 2 -15 
1 14 1 -5 2 18 1 -1 1 -13 2 7 1 1 1 8 
1 -3 2 17 1 -15 1 -6 2 -1 1 2 1 -13 2 -15 
1 14 1 9 2 10 5476 1242 100 MP stroke
1 -10 1 18 1 -7 2 -9 1 9 1 -11 2 -20 1 -4 
1 15 2 -5 1 -6 1 -2 2 6 1 -26 1 -5 1 -1 
2 -3 1 -3 1 16 2 16 1 -12 1 -13 2 1 1 -7 
1 -11 2 13 1 -3 1 -32 1 1 2 5 1 10 1 4 
2 0 1 -4 1 -6 2 15 1 8 1 14 2 -32 1 10 
1 -8 1 0 2 -10 1 -2 1 -14 2 10 1 3 1 1 
2 15 1 0 1 3 2 12 1 4 1 0 1 10 2 15 
1 3 1 -14 2 -11 1 14 1 18 2 3 1 -8 1 15 
2 26 1 3 1 19 1 20 2 3 1 -6 1 -10 2 0 
1 8 1 28 2 7 1 3 1 -2 2 8 1 11 1 1 
1 6 2 1 1 -2 1 5 2 1 1 -3 1 -9 2 14 
1 14 1 7 2 -13 1 -2 1 1 1 -16 2 3 1 -13 
1 -4 2 -4 1 -1 5347 1150 100 MP stroke
1 6 2 -5 1 -7 1 -10 2 -19 1 22 1 -1 1 -9 
2 6 1 13 1 2 2 14 1 10 1 2 2 0 1 -10 
1 3 2 -25 1 2 1 18 1 3 2 -8 1 1 1 1 
2 -2 1 -17 1 -14 2 -18 1 -1 1 3 2 2 1 -6 
1 -17 1 0 2 -6 1 -3 1 10 2 21 1 1 1 8 
2 -13 1 7 1 -6 2 -1 1 11 1 -3 1 -6 2 0 
1 -17 1 -1 2 0 1 7 1 14 2 -10 1 -6 1 10 
2 4 1 2 1 -11 1 15 2 -13 1 -23 1 3 2 1 
1 -4 1 -3 2 -4 1 8 1 -9 2 -10 1 -1 1 -7 
1 4 2 2 1 15 1 -3 2 -7 1 0 1 1 2 5 
1 -2 1 -6 2 -6 1 -2 1 8 1 1 2 0 1 7 
1 14 2 -9 1 0 1 1 2 -9 1 -5 1 -12 2 -2 
1 -2 1 -2 1 13 5218 1242 100 MP stroke
2 -17 1 -6 1 -9 2 21 1 -15 1 -26 2 4 1 -21 
1 1 2 13 1 5 1 -5 1 -33 2 3 1 13 1 4 
2 24 1 15 1 7 2 6 1 -12 1 6 2 2 1 5 
1 13 1 9 2 -14 1 -9 1 1 2 -3 1 5 1 2 
2 -11 1 4 1 -14 2 -1 1 -1 1 8 1 -2 2 -6 
1 5 1 -6 2 -1 1 -15 1 0 2 0 1 -12 1 0 
2 1 1 -6 1 16 1 9 2 -13 1 -3 1 4 2 2 
1 -11 1 5 2 -28 1 -6 1 -19 2 -13 1 5 1 -3 
1 7 2 -5 1 -1 1 -5 2 0 1 8 1 8 2 4 
1 4 1 -27 2 11 1 -10 1 0 1 -25 2 -2 1 11 
1 -9 2 -5 1 -12 1 0 2 -16 1 1 1 9 2 2 
1 20 1 3 1 -11 2 -6 1 2 1 7 2 -5 1 2 
1 -14 2 -21 1 2 5088 1438 100 MP stroke
1 -15 2 0 1 4 1 -4 1 6 2 3 1 -8 1 4 
2 8 1 7 1 -1 2 1 1 -19 1 5 2 -13 1 1 
1 3 1 -12 2 -6 1 -3 1 -15 2 9 1 -1 1 3 
2 13 1 -8 1 -13 2 -25 1 -20 1 -4 1 -24 2 -7 
1 -7 1 4 2 -2 1 2 1 6 2 -6 1 8 1 1 
2 -2 1 -18 1 -4 1 -10 2 -8 1 -12 1 -9 2 5 
1 10 1 10 2 -8 1 4 1 7 2 -3 1 3 1 25 
1 8 2 -1 1 -6 1 12 2 10 1 -7 1 8 2 12 
1 17 1 2 2 -12 1 -10 1 -5 1 -5 2 7 1 -14 
1 7 2 -5 1 -26 1 -6 2 9 1 -5 1 21 2 10 
1 -14 1 -11 1 -3 2 10 1 -19 1 4 2 3 1 -6 
1 6 2 -8 1 2 1 17 2 4 1 16 1 -1 1 1 
2 -6 1 11 1 -14 4959 1560 100 MP stroke
2 6 1 -15 1 -11 2 9 1 -4 1 -5 2 -13 1 4 
1 5 1 20 2 -10 1 7 1 7 2 9 1 10 1 19 
2 18 1 6 1 -17 2 -16 1 2 1 -5 1 -15 2 -2 
1 19 1 14 2 -9 1 22 1 3 2 7 1 1 1 -13 
1 -4 2 18 1 6 1 19 2 -6 1 -5 1 1 2 6 
1 16 1 4 2 -9 1 -4 1 15 1 -4 2 1 1 6 
1 -9 2 -18 1 10 1 0 2 12 1 7 1 13 2 1 
1 -5 1 11 1 -9 2 1 1 -5 1 8 2 8 1 7 
1 13 2 1 1 4 1 8 2 4 1 0 1 3 1 1 
2 -16 1 -5 1 9 2 -20 1 -2 1 -14 2 13 1 -4 
1 8 2 -11 1 -13 1 7 1 -5 2 9 1 -3 1 -1 
2 -17 1 2 1 -9 2 -13 1 7 1 0 2 -17 1 21 
1 11 1 -7 2 3 4829 1448 100 MP stroke
1 19 1 6 2 -7 1 -2 1 11 2 6 1 8 1 -1 
2 2 1 -1 1 -5 1 -10 2 -13 1 4 1 -5 2 13 
1 1 1 -25 2 11 1 1 1 -11 2 -1 1 -26 1 1 
1 -12 2 16 1 -8 1 -9 2 -15 1 6 1 14 2 10 
1 3 1 -3 2 -7 1 -5 1 5 1 -8 2 12 1 -19 
1 -8 2 15 1 -6 1 -19 2 8 1 -16 1 23 2 -9 
1 31 1 -5 1 -14 2 3 1 -7 1 10 2 -7 1 10 
1 9 2 -13 1 6 1 0 2 7 1 1 1 -10 1 9 
2 4 1 8 1 16 2 -6 1 7 1 5 2 15 1 13 
1 -1 2 -12 1 7 1 -9 1 13 2 11 1 -1 1 2 
2 4 1 4 1 -1 2 -3 1 -18 1 -5 2 6 1 2 
1 -8 1 -1 2 -7 1 12 1 -13 2 -2 1 -2 1 -7 
2 11 1 1 1 9 4700 1420 100 MP stroke
2 4 1 11 1 14 1 10 2 -7 1 2 1 -8 2 -6 
1 11 1 1 2 2 1 5 1 4 2 3 1 -11 1 -8 
1 7 2 3 1 21 1 -3 2 -11 1 7 1 -5 2 -7 
1 14 1 -20 2 15 1 -4 1 -7 1 -5 2 -30 1 -8 
1 -7 2 5 1 -2 1 -5 2 -23 1 -3 1 -11 2 -16 
1 4 1 1 1 2 2 6 1 3 1 5 2 -8 1 1 
1 -4 2 14 1 -3 1 -24 2 19 1 15 1 -1 1 9 
2 -16 1 -5 1 5 2 -1 1 -3 1 -2 2 -17 1 2 
1 -11 2 -6 1 9 1 -2 1 -20 2 5 1 -3 1 -21 
2 13 1 7 1 15 2 6 1 -5 1 -9 2 -7 1 -2 
1 -6 1 -5 2 5 1 6 1 -7 2 6 1 -6 1 10 
2 -4 1 4 1 4 2 1 1 0 1 4 1 -18 2 -17 
1 21 1 10 2 15 4570 1494 100 MP stroke
1 -6 1 13 2 10 1 -15 1 -20 2 0 1 -25 1 -11 
1 -7 2 -1 1 18 1 -2 2 -10 1 -22 1 11 2 -7 
1 0 1 -4 2 14 1 6 1 11 1 1 2 -11 1 8 
1 -10 2 5 1 5 1 -14 2 1 1 2 1 -5 2 15 
1 -7 1 6 1 -14 2 11 1 -1 1 0 2 -20 1 -6 
1 5 2 6 1 1 1 0 2 2 1 -7 1 -16 1 -3 
2 10 1 1 1 9 2 12 1 -23 1 -6 2 -5 1 -3 
1 -4 2 -5 1 -6 1 3 1 19 2 -13 1 23 1 4 
2 -6 1 -1 1 11 2 12 1 9 1 -1 2 3 1 -14 
1 -11 1 -12 2 -7 1 1 1 10 2 16 1 -17 1 -4 
2 -2 1 -15 1 -9 2 -15 1 -1 1 13 1 13 2 -6 
1 9 1 15 2 3 1 12 1 -4 2 -11 1 2 1 5 
2 -14 1 15 1 -4 4441 1576 100 MP stroke
1 -6 2 7 1 -1 1 7 2 13 1 6 1 -1 2 6 
1 15 1 -6 2 -5 1 -10 1 -8 1 15 2 3 1 -5 
1 -10 2 -1 1 -3 1 19 2 -5 1 5 1 -2 2 -10 
1 -8 1 -1 1 0 2 -22 1 -22 1 6 2 17 1 -2 
1 -5 2 6 1 -4 1 -2 2 26 1 -8 1 -3 1 -15 
2 18 1 -7 1 -23 2 8 1 2 1 -7 2 1 1 -12 
1 0 2 10 1 9 1 3 1 0 2 4 1 17 1 13 
2 9 1 -14 1 1 2 28 1 20 1 -5 2 4 1 0 
1 26 1 -15 2 -4 1 -10 1 1 2 -4 1 10 1 -3 
2 20 1 23 1 7 2 -4 1 -3 1 -15 1 -17 2 -16 
1 9 1 -10 2 -16 1 -15 1 15 2 -7 1 3 1 -11 
2 14 1 3 1 2 1 -5 2 1 1 2 1 2 2 2 
1 2 1 -4 2 15 4311 1513 100 MP stroke
1 -8 1 -1 2 -7 1 14 1 -13 1 7 2 -12 1 -5 
1 3 2 -8 1 8 1 12 2 3 1 4 1 3 2 -2 
1 5 1 -3 1 -5 2 3 1 3 1 2 2 16 1 -2 
1 -5 2 11 1 -4 1 -5 2 -7 1 -5 1 4 1 13 
2 6 1 13 1 -3 2 -2 1 -14 1 3 2 3 1 -11 
1 3 2 -7 1 7 1 -5 1 -8 2 9 1 6 1 7 
2 4 1 4 1 3 2 0 1 -16 1 -5 2 5 1 2 
1 8 1 -8 2 2 1 -15 1 13 2 5 1 -5 1 -1 
2 -5 1 6 1 -3 2 -6 1 -11 1 -15 1 -7 2 -2 
1 11 1 3 2 10 1 15 1 7 2 -14 1 -2 1 -1 
2 3 1 -15 1 9 1 2 2 -10 1 8 1 -12 2 6 
1 -1 1 0 2 5 1 -7 1 -20 2 -5 1 8 1 3 
1 7 2 -4 1 -10 4182 1538 100 MP stroke
1 -3 2 -9 1 -1 1 -6 2 4 1 4 1 -2 2 -2 
1 -10 1 5 1 -7 2 16 1 11 1 9 2 9 1 -7 
1 2 2 8 1 -13 1 -2 2 9 1 -14 1 35 1 -12 
2 6 1 1 1 -1 2 -15 1 12 1 0 2 13 1 -3 
1 -7 2 3 1 8 1 13 1 0 2 1 1 -1 1 -16 
2 -9 1 9 1 2 2 -2 1 1 1 -20 2 6 1 -12 
1 2 1 8 2 12 1 8 1 -11 2 -2 1 -11 1 -3 
2 -9 1 -13 1 7 2 11 1 16 1 15 1 -1 2 -28 
1 6 1 17 2 3 1 -12 1 15 2 -8 1 2 1 13 
2 -7 1 -11 1 8 1 -2 2 6 1 0 1 15 2 11 
1 14 1 1 2 8 1 15 1 10 2 1 1 1 1 -1 
1 -3 2 13 1 4 1 12 2 3 1 9 1 -6 2 8 
1 6 1 1 2 3 4052 1369 100 MP stroke
1 -2 1 1 1 -3 2 11 1 2 1 -10 2 -1 1 4 
1 -10 2 -1 1 -8 1 -15 2 -14 1 3 1 3 1 -2 
2 -2 1 2 1 -11 2 -12 1 -9 1 2 2 3 1 0 
1 8 2 -10 1 -9 1 10 1 -4 2 6 1 10 1 -3 
2 0 1 -3 1 -16 2 -2 1 -11 1 13 2 6 1 7 
1 -1 1 10 2 -11 1 -15 1 4 2 -9 1 10 1 20 
2 6 1 0 1 4 2 -1 1 -6 1 -15 1 -23 2 -10 
1 2 1 19 2 2 1 2 1 -18 2 -3 1 5 1 2 
2 -3 1 2 1 3 1 11 2 -4 1 -1 1 6 2 14 
1 24 1 14 2 6 1 -2 1 -7 2 -8 1 12 1 -6 
1 1 2 -9 1 15 1 -9 2 -14 1 -3 1 -1 2 0 
1 19 1 14 2 10 1 -8 1 -5 1 -1 2 -7 1 -4 
1 -10 2 17 1 -6 3923 1402 100 MP stroke
1 23 2 -5 1 1 1 6 2 5 1 -14 1 3 1 3 
2 11 1 -1 1 -16 2 -3 1 3 1 15 2 -2 1 10 
1 -13 2 9 1 -1 1 21 1 2 2 15 1 -9 1 11 
2 6 1 -1 1 -24 2 -12 1 -5 1 -4 2 -8 1 -4 
1 0 1 -1 2 14 1 7 1 9 2 7 1 -7 1 16 
2 8 1 3 1 -2 2 -8 1 -3 1 -14 1 -1 2 10 
1 4 1 -2 2 10 1 5 1 -9 2 -5 1 2 1 -3 
2 9 1 -1 1 -16 1 8 2 15 1 -4 1 -1 2 3 
1 -1 1 1 2 -8 1 -2 1 -2 2 -1 1 12 1 -8 
1 8 2 9 1 0 1 -3 2 3 1 -1 1 -11 2 11 
1 12 1 -1 2 12 1 -1 1 2 1 9 2 -21 1 1 
1 -1 2 -9 1 -15 1 4 2 6 1 -3 1 15 2 7 
1 3 1 -2 1 -14 3794 1316 100 MP stroke
2 -12 1 -6 1 -13 2 12 1 1 1 -12 2 -12 1 0 
1 -8 2 7 1 -13 1 2 1 4 2 4 1 16 1 0 
2 3 1 -22 1 2 2 15 1 -11 1 2 2 8 1 -11 
1 -2 1 4 2 -4 1 -5 1 10 2 24 1 19 1 8 
2 -6 1 11 1 -7 2 -9 1 0 1 -3 1 -8 2 -4 
1 6 1 -9 2 3 1 3 1 1 2 0 1 -2 1 10 
2 -7 1 19 1 -5 1 -2 2 13 1 1 1 7 2 4 
1 -14 1 -3 2 2 1 -7 1 -7 2 -11 1 -10 1 -7 
1 5 2 -12 1 -2 1 -1 2 -7 1 -2 1 -8 2 8 
1 -7 1 -3 2 2 1 12 1 1 1 10 2 -9 1 -11 
1 1 2 3 1 17 1 -7 2 6 1 -6 1 -1 2 -12 
1 -10 1 -17 1 -4 2 13 1 -16 1 -18 2 -3 1 3 
1 -8 2 -9 1 1 3664 1438 100 MP stroke
1 -11 2 6 1 15 1 -14 1 -18 2 5 1 -8 1 -10 
2 -4 1 -4 1 3 2 5 1 17 1 0 2 -13 1 6 
1 0 1 -18 2 -26 1 -9 1 -7 2 -11 1 13 1 5 
2 -13 1 -23 1 -8 2 18 1 9 1 4 1 -9 2 7 
1 -20 1 -13 2 1 1 -23 1 0 2 1 1 12 1 19 
2 13 1 -9 1 -2 1 -13 2 -22 1 17 1 -8 2 -9 
1 0 1 3 2 -2 1 -8 1 3 2 -16 1 -5 1 4 
1 -13 2 -9 1 10 1 -2 2 -12 1 -8 1 3 2 -1 
1 -14 1 4 1 -10 2 11 1 -11 1 5 2 -2 1 -3 
1 -10 2 -2 1 -15 1 -1 2 16 1 0 1 13 1 17 
2 2 1 10 1 9 2 5 1 1 1 16 2 11 1 -1 
1 2 2 0 1 -8 1 11 1 -22 2 12 1 -6 1 12 
2 18 1 9 1 7 3535 1554 100 MP stroke
2 1 1 -13 1 -17 2 24 1 1 1 -18 1 1 2 -3 
1 17 1 -14 2 -8 1 18 1 14 2 11 1 -11 1 -12 
2 -9 1 1 1 -10 1 -7 2 -5 1 -21 1 1 2 16 
1 -14 1 7 2 -3 1 19 1 14 2 -15 1 -5 1 6 
1 -2 2 16 1 -8 1 -19 2 -11 1 0 1 -6 2 5 
1 -3 1 -3 2 -6 1 -4 1 9 1 -3 2 8 1 -6 
1 26 2 -13 1 0 1 -9 2 7 1 -29 1 -16 2 11 
1 1 1 2 1 16 2 10 1 13 1 9 2 6 1 -1 
1 7 2 5 1 2 1 5 2 -3 1 -8 1 -12 1 3 
2 -9 1 1 1 -5 2 -10 1 8 1 -7 2 0 1 5 
1 9 2 -6 1 21 1 -13 1 6 2 10 1 7 1 -6 
2 11 1 1 1 -5 2 5 1 9 1 5 2 -1 1 -1 
1 21 1 18 2 -3 3405 1518 100 MP stroke
1 -4 1 11 2 -4 1 -12 1 -11 2 7 1 -4 1 8 
2 4 1 19 1 -8 1 19 2 -1 1 10 1 3 2 10 
1 1 1 11 2 -8 1 5 1 7 2 -2 1 -4 1 4 
1 -23 2 0 1 2 1 -3 2 -22 1 -3 1 23 2 15 
1 -12 1 3 2 5 1 -5 1 3 1 4 2 -5 1 4 
1 -6 2 10 1 -5 1 12 2 12 1 20 1 2 2 -7 
1 -7 1 -6 1 8 2 -7 1 -6 1 -26 2 2 1 -4 
1 7 2 9 1 12 1 -5 2 6 1 -14 1 -8 1 8 
2 -10 1 -4 1 12 2 -17 1 23 1 12 2 15 1 -20 
1 -7 2 4 1 -2 1 -11 1 -2 2 -12 1 6 1 -7 
2 7 1 -2 1 1 2 1 1 7 1 -4 2 -5 1 7 
1 -11 1 -8 2 4 1 6 1 9 2 -2 1 -9 1 18 
2 6 1 -25 1 10 3276 1474 100 MP stroke
2 8 1 -2 1 2 1 -5 2 -25 1 -9 1 9 2 14 
1 19 1 1 2 -18 1 3 1 -8 2 -2 1 10 1 8 
1 -1 2 8 1 7 1 10 2 22 1 19 1 -7 2 0 
1 -4 1 0 2 -4 1 -3 1 -1 1 5 2 21 1 13 
1 17 2 -2 1 4 1 10 2 -5 1 0 1 -1 2 -7 
1 -6 1 19 1 2 2 0 1 0 1 31 2 -7 1 0 
1 18 2 1 1 0 1 5 2 -5 1 1 1 -21 1 11 
2 -2 1 3 1 5 2 3 1 -6 1 -2 2 -10 1 8 
1 -8 2 -25 1 7 1 2 1 14 2 0 1 -15 1 7 
2 -6 1 5 1 1 2 -4 1 -7 1 0 2 3 1 8 
1 -11 1 -13 2 8 1 0 1 -1 2 -26 1 0 1 -6 
2 23 1 -4 1 -1 2 4 1 11 1 2 1 -1 2 -1 
1 8 1 5 2 -8 3146 1349 100 MP stroke
1 1 1 5 2 -1 1 13 1 -13 2 6 1 -16 1 2 
1 22 2 11 1 -8 1 -9 2 -6 1 -3 1 0 2 -20 
1 17 1 -16 2 2 1 4 1 -1 1 -23 2 5 1 -13 
1 14 2 2 1 -1 1 -8 2 2 1 7 1 19 2 -1 
1 8 1 -9 1 5 2 5 1 1 1 6 2 11 1 7 
1 15 2 -21 1 -10 1 -13 2 22 1 -7 1 -9 1 3 
2 5 1 -7 1 -10 2 18 1 -6 1 9 2 3 1 -25 
1 -4 2 10 1 -9 1 7 1 -21 2 11 1 16 1 7 
2 5 1 -20 1 -2 2 6 1 9 1 10 2 -22 1 -1 
1 -7 1 20 2 -8 1 19 1 14 2 -1 1 0 1 20 
2 -12 1 10 1 3 2 10 1 3 1 -9 1 2 2 14 
1 -4 1 0 2 -19 1 8 1 2 2 -10 1 -6 1 -1 
2 -2 1 0 1 -9 3017 1316 100 MP stroke
1 8 2 0 1 10 1 -3 2 4 1 -3 1 -11 2 7 
1 2 1 1 2 13 1 -16 1 -11 1 20 2 5 1 -2 
1 -12 2 6 1 8 1 0 2 -11 1 -5 1 -7 2 -9 
1 2 1 -17 1 -5 2 1 1 3 1 7 2 24 1 -13 
1 1 2 6 1 4 1 -4 2 -10 1 -1 1 1 1 8 
2 3 1 10 1 20 2 13 1 -5 1 -17 2 2 1 4 
1 1 2 -4 1 -17 1 1 1 0 2 -4 1 -11 1 13 
2 11 1 1 1 5 2 -3 1 -2 1 -11 2 -6 1 0 
1 10 1 -20 2 -12 1 20 1 -3 2 22 1 -7 1 12 
2 2 1 -6 1 2 2 -2 1 -5 1 -16 1 19 2 10 
1 6 1 -12 2 10 1 2 1 -4 2 -17 1 -26 1 -15 
2 -10 1 2 1 0 1 -4 2 -1 1 -8 1 11 2 -11 
1 2 1 -11 2 -5 2887 1376 100 MP stroke
1 -15 1 -1 2 4 1 -8 1 -17 1 -6 2 13 1 5 
1 3 2 15 1 -5 1 6 2 -2 1 15 1 0 2 -6 
1 17 1 -5 1 7 2 7 1 5 1 4 2 21 1 -3 
1 19 2 -6 1 -5 1 -2 2 -10 1 4 1 -4 1 0 
2 11 1 -4 1 -3 2 9 1 -2 1 4 2 -1 1 -4 
1 -3 2 14 1 11 1 2 1 10 2 5 1 -5 1 -6 
2 9 1 -6 1 7 2 8 1 10 1 8 2 9 1 -6 
1 -1 1 3 2 7 1 19 1 -31 2 -7 1 -1 1 1 
2 3 1 -4 1 6 2 -6 1 -1 1 -12 1 25 2 -2 
1 -11 1 -7 2 2 1 -9 1 -7 2 8 1 6 1 -17 
2 -3 1 13 1 21 1 7 2 -19 1 -3 1 15 2 -7 
1 11 1 1 2 17 1 0 1 19 2 19 1 -1 1 -22 
1 -7 2 19 1 -3 2758 1208 100 MP stroke
1 8 2 -4 1 10 1 -8 2 16 1 7 1 29 2 -13 
1 9 1 1 1 -4 2 -1 1 0 1 -21 2 -11 1 -3 
1 9 2 1 1 9 1 10 2 -12 1 14 1 -10 1 -14 
2 2 1 18 1 -4 2 1 1 3 1 6 2 -5 1 -3 
1 -6 2 -4 1 5 1 -10 1 18 2 -11 1 -1 1 5 
2 -4 1 2 1 4 2 -4 1 0 1 -1 2 -3 1 -12 
1 1 1 4 2 5 1 9 1 -3 2 10 1 -5 1 10 
2 5 1 -4 1 1 2 7 1 -5 1 0 1 -12 2 2 
1 -4 1 -6 2 11 1 13 1 -1 2 6 1 3 1 3 
2 -6 1 0 1 1 1 5 2 1 1 -11 1 7 2 -6 
1 7 1 -26 2 0 1 -23 1 8 2 30 1 -2 1 -20 
1 -7 2 -10 1 10 1 7 2 -1 1 1 1 -7 2 -10 
1 2 1 -5 2 -15 2628 1210 100 MP stroke
1 -1 1 4 1 -4 2 1 1 2 1 0 2 7 1 19 
1 -5 2 -3 1 -20 1 0 2 6 1 10 1 19 1 -15 
2 5 1 -7 1 -2 2 -2 1 -1 1 10 2 -2 1 -4 
1 8 2 10 1 -2 1 5 1 23 2 -2 1 -5 1 7 
2 -4 1 10 1 11 2 -11 1 -1 1 -20 2 -18 1 -14 
1 -4 1 0 2 3 1 -5 1 1 2 5 1 8 1 -5 
2 -1 1 3 1 13 2 -6 1 -4 1 -2 1 -2 2 14 
1 1 1 14 2 3 1 1 1 11 2 4 1 9 1 5 
2 11 1 -4 1 -3 1 0 2 -15 1 -2 1 -19 2 -6 
1 -20 1 12 2 20 1 -21 1 -11 2 -2 1 -5 1 -4 
1 16 2 -6 1 -15 1 14 2 0 1 2 1 1 2 -17 
1 -6 1 -7 2 -30 1 -5 1 11 1 -9 2 4 1 -20 
1 5 2 -3 1 -8 2499 1272 100 MP stroke
1 -18 2 -1 1 -11 1 -9 2 -10 1 8 1 -8 1 -1 
2 -6 1 4 1 -2 2 13 1 3 1 21 2 13 1 10 
1 2 2 12 1 0 1 1 1 4 2 -6 1 -1 1 -1 
2 -9 1 -12 1 1 2 9 1 -1 1 -6 2 2 1 -12 
1 -1 1 -3 2 3 1 7 1 0 2 -5 1 -6 1 -11 
2 2 1 10 1 -9 2 14 1 -19 1 -5 1 -5 2 -6 
1 -4 1 2 2 -10 1 13 1 -17 2 13 1 -10 1 0 
2 -5 1 -8 1 2 1 -2 2 -4 1 -15 1 2 2 -5 
1 4 1 5 2 31 1 -31 1 -1 2 4 1 -3 1 -5 
1 -1 2 -3 1 -15 1 -8 2 3 1 -2 1 1 2 -5 
1 19 1 8 2 3 1 -11 1 13 1 8 2 -13 1 -6 
1 -4 2 16 1 -4 1 4 2 -7 1 6 1 -2 2 7 
1 -5 1 -11 1 1 2370 1369 100 MP stroke
2 -10 1 -12 1 -12 2 1 1 -25 1 -5 2 8 1 -9 
1 7 2 14 1 3 1 8 1 -3 2 1 1 -6 1 22 
2 -4 1 -8 1 -12 2 -19 1 -5 1 14 2 -11 1 -19 
1 -3 1 18 2 3 1 11 1 20 2 11 1 6 1 2 
2 -5 1 12 1 -15 2 5 1 2 1 -5 1 22 2 -22 
1 -5 1 8 2 -2 1 -2 1 4 2 -9 1 10 1 6 
2 0 1 1 1 -14 1 6 2 11 1 -7 1 -6 2 -9 
1 -3 1 11 2 -16 1 -6 1 -4 2 19 1 -2 1 -16 
1 -2 2 13 1 6 1 0 2 3 1 4 1 -18 2 -10 
1 -11 1 19 2 -10 1 -5 1 -4 1 12 2 -2 1 -5 
1 -9 2 11 1 3 1 3 2 -8 1 -15 1 -3 2 12 
1 -14 1 11 1 -3 2 -23 1 0 1 -6 2 -3 1 0 
1 0 2 -8 1 3 2240 1473 100 MP stroke
1 -4 1 18 2 9 1 9 1 -11 2 -11 1 8 1 15 
2 -14 1 -8 1 18 2 -20 1 11 1 7 1 -6 2 4 
1 -2 1 7 2 1 1 5 1 3 2 6 1 -16 1 1 
2 2 1 10 1 -6 1 -14 2 -20 1 9 1 7 2 -5 
1 20 1 -1 2 0 1 6 1 5 2 15 1 5 1 14 
1 5 2 17 1 3 1 11 2 -13 1 -1 1 -2 2 -2 
1 -1 1 0 2 7 1 8 1 2 1 -7 2 -8 1 0 
1 1 2 15 1 -3 1 2 2 7 1 11 1 2 2 -4 
1 -4 1 -8 1 -20 2 4 1 -3 1 0 2 15 1 15 
1 7 2 8 1 -1 1 -4 2 27 1 -12 1 1 1 5 
2 -8 1 -1 1 14 2 0 1 14 1 3 2 6 1 1 
1 17 2 -17 1 -15 1 -14 1 12 2 -5 1 -24 1 7 
2 -7 1 9 1 -6 2111 1330 100 MP stroke
2 11 1 -8 1 -3 2 1 1 -1 1 -2 1 -11 2 -5 
1 6 1 3 2 20 1 3 1 -1 2 4 1 -16 1 -4 
2 -11 1 4 1 4 1 -8 2 -19 1 -9 1 0 2 -3 
1 0 1 3 2 -6 1 0 1 8 2 -2 1 -2 1 12 
1 8 2 5 1 6 1 4 2 4 1 9 1 -13 2 3 
1 -19 1 13 2 -14 1 -8 1 3 1 -4 2 11 1 -10 
1 5 2 13 1 3 1 7 2 14 1 -6 1 1 2 4 
1 -6 1 21 1 15 2 -5 1 21 1 0 2 -15 1 -7 
1 6 2 15 1 -1 1 -5 2 2 1 -7 1 -3 1 23 
2 14 1 6 1 10 2 -13 1 -7 1 -1 2 19 1 -10 
1 -12 2 -9 1 -18 1 -12 1 -9 2 20 1 -10 1 -4 
2 7 1 1 1 0 2 1 1 -2 1 12 2 1 1 -12 
1 7 1 2 2 -2 1981 1290 100 MP stroke
1 -2 1 -11 2 6 1 -1 1 10 2 -5 1 6 1 9 
2 -10 1 4 1 -8 1 2 2 -6 1 -15 1 -8 2 -2 
1 1 1 1 2 -8 1 15 1 -13 2 -8 1 10 1 7 
1 -12 2 -2 1 -20 1 -7 2 8 1 -10 1 -16 2 -7 
1 17 1 9 2 2 1 -3 1 -17 1 3 2 -15 1 -10 
1 -1 2 -6 1 -8 1 12 2 -2 1 -7 1 -14 2 -8 
1 -3 1 -9 1 -12 2 -12 1 20 1 29 2 -7 1 0 
1 -3 2 2 1 -9 1 10 2 -10 1 -10 1 -6 1 -7 
2 9 1 -5 1 2 2 -32 1 0 1 -1 2 -9 1 -12 
1 -5 2 -3 1 -5 1 11 1 -9 2 -7 1 -1 1 4 
2 -3 1 -5 1 9 2 -6 1 15 1 10 2 28 1 1 
1 16 1 11 2 6 1 1 1 -20 2 6 1 -3 1 5 
2 -15 1 -5 1 -21 1852 1490 100 MP stroke
2 -4 1 21 1 9 1 9 2 -13 1 -10 1 9 2 -4 
1 9 1 17 2 19 1 -6 1 4 2 11 1 -6 1 -10 
1 3 2 -1 1 -10 1 6 2 -4 1 -15 1 9 2 2 
1 -10 1 -4 2 19 1 10 1 -14 1 12 2 -1 1 -7 
1 -7 2 16 1 0 1 -3 2 9 1 12 1 -9 2 15 
1 -4 1 9 1 -17 2 -7 1 -7 1 12 2 14 1 5 
1 -10 2 8 1 11 1 -1 2 -7 1 2 1 36 1 10 
2 6 1 -12 1 6 2 -16 1 1 1 -13 2 9 1 -5 
1 -3 2 10 1 3 1 -11 1 2 2 15 1 0 1 -4 
2 6 1 1 1 -13 2 3 1 8 1 -11 2 -14 1 -12 
1 3 1 -1 2 -7 1 -24 1 9 2 -8 1 -1 1 6 
2 0 1 6 1 -1 2 22 1 -8 1 6 1 10 2 -15 
1 9 1 10 2 0 1722 1381 100 MP stroke
1 -10 1 -13 2 -2 1 23 1 2 2 -4 1 -4 1 11 
1 2 2 10 1 -5 1 15 2 6 1 -17 1 -8 2 -1 
1 3 1 -7 2 2 1 3 1 -8 1 7 2 8 1 10 
1 -1 2 4 1 1 1 9 2 -9 1 -1 1 4 2 -7 
1 -8 1 -10 1 1 2 21 1 4 1 3 2 2 1 -3 
1 23 2 -12 1 20 1 -15 2 5 1 -11 1 1 1 22 
2 8 1 5 1 -3 2 9 1 0 1 7 2 3 1 -7 
1 18 2 14 1 -13 1 -12 1 15 2 5 1 -2 1 8 
2 13 1 6 1 -16 2 7 1 -13 1 -1 2 3 1 -6 
1 -11 1 11 2 -8 1 -1 1 -5 2 -1 1 -15 1 -17 
2 6 1 -4 1 11 2 -3 1 -1 1 16 1 -6 2 9 
1 -13 1 -4 2 -9 1 -1 1 8 2 -12 1 4 1 -7 
2 -1 1 1 1 -9 1593 1329 100 MP stroke
1 14 2 5 1 -7 1 -17 2 2 1 9 1 -1 2 1 
1 23 1 14 2 6 1 -1 1 -5 1 -1 2 3 1 3 
1 -4 2 -21 1 -4 1 -15 2 -6 1 9 1 1 2 8 
1 6 1 -8 1 -2 2 3 1 0 1 0 2 25 1 11 
1 -12 2 3 1 8 1 -10 2 2 1 6 1 -11 1 -15 
2 17 1 -6 1 2 2 5 1 4 1 -15 2 -8 1 11 
1 5 2 9 1 -2 1 11 1 -15 2 6 1 15 1 16 
2 -9 1 -10 1 0 2 -4 1 11 1 -14 2 0 1 5 
1 -6 1 -13 2 -14 1 -5 1 -26 2 -10 1 -3 1 -12 
2 -16 1 -13 1 4 2 12 1 -1 1 5 1 16 2 1 
1 -2 1 -17 2 -3 1 1 1 -8 2 -15 1 -5 1 8 
2 -12 1 -1 1 6 1 9 2 5 1 1 1 12 2 -2 
1 -1 1 0 2 10 1463 1368 100 MP stroke
1 1 1 3 2 21 1 -12 1 5 1 -6 2 5 1 11 
1 -7 2 9 1 -1 1 4 2 2 1 2 1 10 2 -8 
1 -2 1 2 1 6 2 -13 1 15 1 4 2 4 1 1 
1 -17 2 -5 1 -11 1 2 2 5 1 2 1 12 1 2 
2 14 1 4 1 8 2 -5 1 17 1 21 2 9 1 14 
1 23 2 6 1 -15 1 -14 1 -13 2 -12 1 -23 1 13 
2 10 1 -8 1 5 2 14 1 -11 1 -8 2 -6 1 4 
1 -1 1 5 2 -2 1 -9 1 1 2 3 1 -12 1 0 
2 7 1 10 1 -10 2 -8 1 4 1 -18 1 -8 2 6 
1 12 1 -2 2 -2 1 4 1 3 2 0 1 -11 1 -3 
2 7 1 -9 1 5 1 7 2 -5 1 -18 1 -3 2 -20 
1 -13 1 14 2 -6 1 15 1 10 2 -18 1 10 1 -2 
1 12 2 7 1 -8 1334 1321 100 MP stroke
1 28 2 14 1 -17 1 20 2 17 1 17 1 1 2 17 
1 7 1 -1 1 19 2 4 1 -2 1 7 2 2 1 2 
1 9 2 7 1 0 1 28 2 12 1 -7 1 3 1 -7 
2 8 1 -12 1 -9 2 7 1 -9 1 -1 2 -8 1 -7 
1 1 2 4 1 -5 1 -13 1 -19 2 8 1 -5 1 -5 
2 -12 1 -14 1 -13 2 21 1 2 1 -11 2 3 1 1 
1 26 1 5 2 20 1 1 1 -1 2 -3 1 -6 1 5 
2 -5 1 1 1 15 2 2 1 -19 1 5 1 9 2 9 
1 11 1 13 2 5 1 -3 1 10 2 8 1 -1 1 3 
2 -24 1 4 1 -6 1 0 2 6 1 -2 1 8 2 -6 
1 -1 1 -15 2 -8 1 4 1 17 2 -3 1 -13 1 2 
1 -9 2 -4 1 6 1 -11 2 -4 1 -12 1 -10 2 -2 
1 -14 1 -10 2 -6 1204 1232 100 MP stroke
1 0 1 3 1 -22 2 15 1 -4 1 7 2 3 1 -5 
1 -8 2 14 1 -18 1 -1 2 -18 1 -7 1 10 1 -5 
2 -13 1 -11 1 -9 2 5 1 0 1 1 2 -17 1 7 
1 -5 2 -5 1 -3 1 4 1 2 2 3 1 0 1 6 
2 -16 1 20 1 1 2 -6 1 -9 1 14 2 -7 1 12 
1 7 1 4 2 18 1 11 1 14 2 2 1 -2 1 -19 
2 1 1 2 1 -11 2 14 1 -4 1 14 1 -6 2 -12 
1 6 1 -29 2 12 1 7 1 -6 2 -17 1 -7 1 -22 
2 -11 1 -10 1 -10 1 -6 2 -7 1 -8 1 -12 2 -20 
1 4 1 5 2 12 1 -21 1 -5 2 -8 1 22 1 5 
1 27 2 -2 1 9 1 7 2 13 1 18 1 -3 2 10 
1 -4 1 15 2 2 1 10 1 -1 1 -5 2 28 1 -6 
1 -4 2 2 1 1 1075 1270 100 MP stroke
1 10 2 -8 1 -23 1 -4 2 -6 1 14 1 -2 1 -6 
2 -1 1 -5 1 5 2 -10 1 0 1 8 2 9 1 2 
1 -10 2 0 1 -2 1 10 1 1 2 0 1 1 1 12 
2 0 1 -11 1 -11 2 -7 1 -26 1 -4 2 5 1 0 
1 0 1 3 2 -12 1 -12 1 -7 2 31 1 5 1 -16 
2 2 1 1 1 -16 2 14 1 17 1 -2 1 -11 2 0 
1 2 1 7 2 -14 1 -10 1 8 2 4 1 -29 1 5 
2 -17 1 7 1 13 1 7 2 22 1 -5 1 -11 2 -8 
1 -15 1 9 2 21 1 -12 1 1 2 10 1 -18 1 3 
1 0 2 -2 1 -5 1 -2 2 3 1 -12 1 6 2 -5 
1 -1 1 1 2 -8 1 1 1 1 1 -8 2 4 1 0 
1 -1 2 -18 1 21 1 6 2 5 1 3 1 12 2 -3 
1 -1 1 4 1 -10 946 1361 100 MP stroke
2 -8 1 -11 1 -10 2 4 1 4 1 9 2 4 1 8 
1 3 2 1 1 -11 1 12 1 2 2 7 1 -10 1 5 
2 -6 1 10 1 7 2 -5 1 2 1 8 2 -3 1 8 
1 -6 1 -9 2 -16 1 8 1 -6 2 -14 1 -19 1 -13 
2 15 1 8 1 5 1 5 899 1373 37 MP stroke
gr

24 w
c8
0 sg
%%IncludeResource: font Helvetica
/Helvetica /WindowsLatin1Encoding 204 FMSR

3293 2508 mt 
(t \(sec\)) s
%%IncludeResource: font Symbol
/Symbol /WindowsLatin1Encoding 204 FMSR

 614 1760 mt  -90 rotate
(Q) s
90 rotate
%%IncludeResource: font Helvetica
/Helvetica /WindowsLatin1Encoding 204 FMSR

 614 1609 mt  -90 rotate
(\(t\) \(rad\)) s
90 rotate
2776  332 mt 
(f) s
%%IncludeResource: font Helvetica
/Helvetica /WindowsLatin1Encoding 156 FMSR

2832  434 mt 
(HWHM) s
%%IncludeResource: font Helvetica
/Helvetica /WindowsLatin1Encoding 204 FMSR

3334  332 mt 
( = 0.125 Hz) s
6 w
1 sg
0 1621 5356 0 0 -1621 899 4615 4 MP
PP
-5356 0 0 1621 5356 0 0 -1621 899 4615 5 MP stroke
4 w
DO
SO
6 w
0 sg
 899 2994 mt 6255 2994 L
 899 4615 mt 6255 4615 L
6255 4615 mt 6255 2994 L
 899 4615 mt  899 2994 L
 899 4615 mt 6255 4615 L
 899 4615 mt  899 2994 L
 899 4615 mt  899 4561 L
 899 2994 mt  899 3047 L
%%IncludeResource: font Helvetica
/Helvetica /WindowsLatin1Encoding 120 FMSR

 866 4760 mt 
(0) s
1568 4615 mt 1568 4561 L
1568 2994 mt 1568 3047 L
1485 4760 mt 
(0.5) s
2238 4615 mt 2238 4561 L
2238 2994 mt 2238 3047 L
2205 4760 mt 
(1) s
2907 4615 mt 2907 4561 L
2907 2994 mt 2907 3047 L
2824 4760 mt 
(1.5) s
3577 4615 mt 3577 4561 L
3577 2994 mt 3577 3047 L
3544 4760 mt 
(2) s
4246 4615 mt 4246 4561 L
4246 2994 mt 4246 3047 L
4163 4760 mt 
(2.5) s
4916 4615 mt 4916 4561 L
4916 2994 mt 4916 3047 L
4883 4760 mt 
(3) s
5585 4615 mt 5585 4561 L
5585 2994 mt 5585 3047 L
5502 4760 mt 
(3.5) s
6255 4615 mt 6255 4561 L
6255 2994 mt 6255 3047 L
6222 4760 mt 
(4) s
 899 4615 mt  952 4615 L
6255 4615 mt 6201 4615 L
 698 4659 mt 
(0.4) s
 899 4290 mt  952 4290 L
6255 4290 mt 6201 4290 L
 698 4334 mt 
(0.6) s
 899 3966 mt  952 3966 L
6255 3966 mt 6201 3966 L
 698 4010 mt 
(0.8) s
 899 3642 mt  952 3642 L
6255 3642 mt 6201 3642 L
 798 3686 mt 
(1) s
 899 3318 mt  952 3318 L
6255 3318 mt 6201 3318 L
 698 3362 mt 
(1.2) s
 899 2994 mt  952 2994 L
6255 2994 mt 6201 2994 L
 698 3038 mt 
(1.4) s
 899 2994 mt 6255 2994 L
 899 4615 mt 6255 4615 L
6255 4615 mt 6255 2994 L
 899 4615 mt  899 2994 L
gs 899 2994 5357 1622 MR c np
24 w
/c9 { 1.000000 0.000000 0.000000 sr} bdef
c9
1 0 1 0 2 0 1 0 1 0 2 0 1 0 1 0 
2 0 1 0 1 0 1 0 2 0 1 0 1 0 2 0 
1 0 1 0 2 0 1 0 1 0 2 0 1 0 1 0 
1 0 2 0 1 0 1 0 2 0 1 0 1 0 2 0 
1 0 1 0 2 0 1 0 1 0 1 0 2 0 1 0 
1 0 2 0 1 0 1 0 2 0 1 0 1 0 2 0 
1 0 1 0 1 0 2 0 1 0 1 0 2 0 1 0 
1 0 2 0 1 0 1 0 2 0 1 0 1 0 1 0 
2 0 1 0 1 0 2 0 1 0 1 0 2 0 1 0 
1 0 2 0 1 0 1 0 1 0 2 0 1 0 1 0 
2 0 1 0 1 0 2 0 1 0 1 0 2 0 1 0 
1 0 1 0 2 0 1 0 1 0 2 0 1 0 1 0 
2 0 1 0 1 0 6124 3088 100 MP stroke
2 0 1 0 1 0 1 0 2 0 1 0 1 0 2 0 
1 0 1 0 2 0 1 0 1 0 2 0 1 0 1 0 
1 0 2 0 1 0 1 0 2 0 1 0 1 0 2 0 
1 0 1 0 2 0 1 0 1 0 1 0 2 0 1 0 
1 0 2 0 1 0 1 0 2 0 1 0 1 0 2 0 
1 0 1 0 1 0 2 0 1 0 1 0 2 0 1 0 
1 0 2 0 1 0 1 0 2 0 1 0 1 0 1 0 
2 0 1 0 1 0 2 0 1 0 1 0 2 0 1 0 
1 0 2 0 1 0 1 0 1 0 2 0 1 0 1 0 
2 0 1 0 1 0 2 0 1 0 1 0 2 0 1 0 
1 0 1 0 2 0 1 0 1 0 2 0 1 0 1 0 
2 0 1 0 1 0 2 0 1 0 1 0 1 0 2 0 
1 0 1 0 2 0 5994 3088 100 MP stroke
1 0 1 0 2 0 1 0 1 0 2 0 1 0 1 0 
1 0 2 0 1 0 1 0 2 0 1 0 1 0 2 0 
1 0 1 0 2 0 1 0 1 0 1 0 2 0 1 0 
1 0 2 0 1 0 1 0 2 0 1 0 1 0 2 0 
1 0 1 0 1 0 2 0 1 0 1 0 2 0 1 0 
1 0 2 0 1 0 1 0 2 0 1 0 1 0 1 0 
2 0 1 0 1 0 2 0 1 0 1 0 2 0 1 0 
1 0 2 0 1 0 1 0 1 0 2 0 1 0 1 0 
2 0 1 0 1 0 2 0 1 0 1 0 2 0 1 0 
1 0 1 0 2 0 1 0 1 0 2 0 1 0 1 0 
2 0 1 0 1 0 2 0 1 0 1 0 1 0 2 0 
1 0 1 0 2 0 1 0 1 0 2 0 1 0 1 0 
2 0 1 0 1 0 5865 3088 100 MP stroke
1 0 2 0 1 0 1 0 2 0 1 0 1 0 2 0 
1 0 1 0 2 0 1 0 1 0 1 0 2 0 1 0 
1 0 2 0 1 0 1 0 2 0 1 0 1 0 2 0 
1 0 1 0 1 0 2 0 1 0 1 0 2 0 1 0 
1 0 2 0 1 0 1 0 2 0 1 0 1 0 1 0 
2 0 1 0 1 0 2 0 1 0 1 0 2 0 1 0 
1 0 2 0 1 0 1 0 1 0 2 0 1 0 1 0 
2 0 1 0 1 0 2 0 1 0 1 0 2 0 1 0 
1 0 1 0 2 0 1 0 1 0 2 0 1 0 1 0 
2 0 1 0 1 0 2 0 1 0 1 0 1 0 2 0 
1 0 1 0 2 0 1 0 1 0 2 0 1 0 1 0 
2 0 1 0 1 0 1 0 2 0 1 0 1 0 2 0 
1 0 1 0 2 0 5735 3088 100 MP stroke
1 0 1 0 2 0 1 0 1 0 1 0 2 0 1 0 
1 0 2 0 1 0 1 0 2 0 1 0 1 0 2 0 
1 0 1 0 1 0 2 0 1 0 1 0 2 0 1 0 
1 0 2 0 1 0 1 0 2 0 1 0 1 0 1 0 
2 0 1 0 1 0 2 0 1 0 1 0 2 0 1 0 
1 0 2 0 1 0 1 0 1 0 2 0 1 0 1 0 
2 0 1 0 1 0 2 0 1 0 1 0 2 0 1 0 
1 0 1 0 2 0 1 0 1 0 2 0 1 0 1 0 
2 0 1 0 1 0 2 0 1 0 1 0 1 0 2 0 
1 0 1 0 2 0 1 0 1 0 2 0 1 0 1 0 
2 0 1 0 1 0 1 0 2 0 1 0 1 0 2 0 
1 0 1 0 2 0 1 0 1 0 2 0 1 0 1 0 
1 0 2 0 1 0 5606 3088 100 MP stroke
1 0 2 0 1 0 1 0 2 0 1 0 1 0 2 0 
1 0 1 0 1 0 2 0 1 0 1 0 2 0 1 0 
1 0 2 0 1 0 1 0 2 0 1 0 1 0 1 0 
2 0 1 0 1 0 2 0 1 0 1 0 2 0 1 0 
1 0 2 0 1 0 1 0 1 0 2 0 1 0 1 0 
2 0 1 0 1 0 2 0 1 0 1 0 2 0 1 0 
1 0 1 0 2 0 1 0 1 0 2 0 1 0 1 0 
2 0 1 0 1 0 2 0 1 0 1 0 1 0 2 0 
1 0 1 0 2 0 1 0 1 0 2 0 1 0 1 0 
2 0 1 0 1 0 1 0 2 0 1 0 1 0 2 0 
1 0 1 0 2 0 1 0 1 0 2 0 1 0 1 0 
1 0 2 0 1 0 1 0 2 0 1 0 1 0 2 0 
1 0 1 0 2 0 5476 3088 100 MP stroke
1 0 1 0 1 0 2 0 1 0 1 0 2 0 1 0 
1 0 2 0 1 0 1 0 2 0 1 0 1 0 1 0 
2 0 1 0 1 0 2 0 1 0 1 0 2 0 1 0 
1 0 2 0 1 0 1 0 1 0 2 0 1 0 1 0 
2 0 1 0 1 0 2 0 1 0 1 0 2 0 1 0 
1 0 1 0 2 0 1 0 1 0 2 0 1 0 1 0 
2 0 1 0 1 0 2 0 1 0 1 0 1 0 2 0 
1 0 1 0 2 0 1 0 1 0 2 0 1 0 1 0 
2 0 1 0 1 0 1 0 2 0 1 0 1 0 2 0 
1 0 1 0 2 0 1 0 1 0 2 0 1 0 1 0 
1 0 2 0 1 0 1 0 2 0 1 0 1 0 2 0 
1 0 1 0 2 0 1 0 1 0 1 0 2 0 1 0 
1 0 2 0 1 0 5347 3088 100 MP stroke
1 0 2 0 1 0 1 0 2 0 1 0 1 0 1 0 
2 0 1 0 1 0 2 0 1 0 1 0 2 0 1 0 
1 0 2 0 1 0 1 0 1 0 2 0 1 0 1 0 
2 0 1 0 1 0 2 0 1 0 1 0 2 0 1 0 
1 0 1 0 2 0 1 0 1 0 2 0 1 0 1 0 
2 0 1 0 1 0 2 0 1 0 1 0 1 0 2 0 
1 0 1 0 2 0 1 0 1 0 2 0 1 0 1 0 
2 0 1 0 1 0 1 0 2 0 1 0 1 0 2 0 
1 0 1 0 2 0 1 0 1 0 2 0 1 0 1 0 
1 0 2 0 1 0 1 0 2 0 1 0 1 0 2 0 
1 0 1 0 2 0 1 0 1 0 1 0 2 0 1 0 
1 0 2 0 1 0 1 0 2 0 1 0 1 0 2 0 
1 0 1 0 1 0 5218 3088 100 MP stroke
2 0 1 0 1 0 2 0 1 0 1 0 2 0 1 0 
1 0 2 0 1 0 1 0 1 0 2 0 1 0 1 0 
2 0 1 0 1 0 2 0 1 0 1 0 2 0 1 0 
1 0 1 0 2 0 1 0 1 0 2 0 1 0 1 0 
2 0 1 0 1 0 2 0 1 0 1 0 1 0 2 0 
1 0 1 0 2 0 1 0 1 0 2 0 1 0 1 0 
2 0 1 0 1 0 1 0 2 0 1 0 1 0 2 0 
1 0 1 0 2 0 1 0 1 0 2 0 1 0 1 0 
1 0 2 0 1 0 1 0 2 0 1 0 1 0 2 0 
1 0 1 0 2 0 1 0 1 0 1 0 2 0 1 0 
1 0 2 0 1 0 1 0 2 0 1 0 1 0 2 0 
1 0 1 0 1 0 2 0 1 0 1 0 2 0 1 0 
1 0 2 0 1 0 5088 3088 100 MP stroke
1 0 2 0 1 0 1 0 1 0 2 0 1 0 1 0 
2 0 1 0 1 0 2 0 1 0 1 0 2 0 1 0 
1 0 1 0 2 0 1 0 1 0 2 0 1 0 1 0 
2 0 1 0 1 0 2 0 1 0 1 0 1 0 2 0 
1 0 1 0 2 0 1 0 1 0 2 0 1 0 1 0 
2 0 1 0 1 0 1 0 2 0 1 0 1 0 2 0 
1 0 1 0 2 0 1 0 1 0 2 0 1 0 1 0 
1 0 2 0 1 0 1 0 2 0 1 0 1 0 2 0 
1 0 1 0 2 0 1 0 1 0 1 0 2 0 1 0 
1 0 2 0 1 0 1 0 2 0 1 0 1 0 2 0 
1 0 1 0 1 0 2 0 1 0 1 0 2 0 1 0 
1 0 2 0 1 0 1 0 2 0 1 0 1 0 1 0 
2 0 1 0 1 0 4959 3088 100 MP stroke
2 0 1 0 1 0 2 0 1 0 1 0 2 0 1 0 
1 0 1 0 2 0 1 0 1 0 2 0 1 0 1 0 
2 0 1 0 1 0 2 0 1 0 1 0 1 0 2 0 
1 0 1 0 2 0 1 0 1 0 2 0 1 0 1 0 
1 0 2 -1450 1 0 1 0 2 0 1 0 1 0 2 0 
1 0 1 0 2 0 1 0 1 0 1 0 2 0 1 0 
1 0 2 0 1 0 1 0 2 0 1 0 1 0 2 0 
1 0 1 0 1 0 2 0 1 0 1 0 2 0 1 0 
1 0 2 0 1 0 1 0 2 0 1 0 1 0 1 0 
2 0 1 0 1 0 2 0 1 0 1 0 2 0 1 0 
1 0 2 0 1 0 1 0 1 0 2 0 1 0 1 0 
2 0 1 0 1 0 2 0 1 0 1 0 2 0 1 0 
1 0 1 0 2 0 4829 4538 100 MP stroke
1 0 1 0 2 0 1 0 1 0 2 0 1 0 1 0 
2 0 1 0 1 0 1 0 2 0 1 0 1 0 2 0 
1 0 1 0 2 0 1 0 1 0 2 0 1 0 1 0 
1 0 2 0 1 0 1 0 2 0 1 0 1 0 2 0 
1 0 1 0 2 0 1 0 1 0 1 0 2 0 1 0 
1 0 2 0 1 0 1 0 2 0 1 0 1 0 2 0 
1 0 1 0 1 0 2 0 1 0 1 0 2 0 1 0 
1 0 2 0 1 0 1 0 2 0 1 0 1 0 1 0 
2 0 1 0 1 0 2 0 1 0 1 0 2 0 1 0 
1 0 2 0 1 0 1 0 1 0 2 0 1 0 1 0 
2 0 1 0 1 0 2 0 1 0 1 0 2 0 1 0 
1 0 1 0 2 0 1 0 1 0 2 0 1 0 1 0 
2 0 1 0 1 0 4700 4538 100 MP stroke
2 0 1 0 1 0 1 0 2 0 1 0 1 0 2 0 
1 0 1 0 2 0 1 0 1 0 2 0 1 0 1 0 
1 0 2 0 1 0 1 0 2 0 1 0 1 0 2 0 
1 0 1 0 2 0 1 0 1 0 1 0 2 0 1 0 
1 0 2 0 1 0 1 0 2 0 1 0 1 0 2 0 
1 0 1 0 1 0 2 0 1 0 1 0 2 0 1 0 
1 0 2 0 1 0 1 0 2 0 1 0 1 0 1 0 
2 0 1 0 1 0 2 0 1 0 1 0 2 0 1 0 
1 0 2 0 1 0 1 0 1 0 2 0 1 0 1 0 
2 0 1 0 1 0 2 0 1 0 1 0 2 0 1 0 
1 0 1 0 2 0 1 0 1 0 2 0 1 0 1 0 
2 0 1 0 1 0 2 0 1 0 1 0 1 0 2 0 
1 0 1 0 2 0 4570 4538 100 MP stroke
1 0 1 0 2 0 1 0 1 0 2 0 1 0 1 0 
1 0 2 0 1 0 1 0 2 0 1 0 1 0 2 0 
1 0 1 0 2 0 1 0 1 0 1 0 2 0 1 0 
1 0 2 0 1 0 1 0 2 0 1 0 1 0 2 0 
1 0 1 0 1 0 2 0 1 0 1 0 2 0 1 0 
1 0 2 0 1 0 1 0 2 0 1 0 1 0 1 0 
2 0 1 0 1 0 2 0 1 0 1 0 2 0 1 0 
1 0 2 0 1 0 1 0 1 0 2 0 1 0 1 0 
2 0 1 0 1 0 2 0 1 0 1 0 2 0 1 0 
1 0 1 0 2 0 1 0 1 0 2 0 1 0 1 0 
2 0 1 0 1 0 2 0 1 0 1 0 1 0 2 0 
1 0 1 0 2 0 1 0 1 0 2 0 1 0 1 0 
2 0 1 0 1 0 4441 4538 100 MP stroke
1 0 2 0 1 0 1 0 2 0 1 0 1 0 2 0 
1 0 1 0 2 0 1 0 1 0 1 0 2 0 1 0 
1 0 2 0 1 0 1 0 2 0 1 0 1 0 2 0 
1 0 1 0 1 0 2 0 1 0 1 0 2 0 1 0 
1 0 2 0 1 0 1 0 2 0 1 0 1 0 1 0 
2 0 1 0 1 0 2 0 1 0 1 0 2 0 1 0 
1 0 2 0 1 0 1 0 1 0 2 0 1 0 1 0 
2 0 1 0 1 0 2 0 1 0 1 0 2 0 1 0 
1 0 1 0 2 0 1 0 1 0 2 0 1 0 1 0 
2 0 1 0 1 0 2 0 1 0 1 0 1 0 2 0 
1 0 1 0 2 0 1 0 1 0 2 0 1 0 1 0 
2 0 1 0 1 0 1 0 2 0 1 0 1 0 2 0 
1 0 1 0 2 0 4311 4538 100 MP stroke
1 0 1 0 2 0 1 0 1 0 1 0 2 0 1 0 
1 0 2 0 1 0 1 0 2 0 1 0 1 0 2 0 
1 0 1 0 1 0 2 0 1 0 1 0 2 0 1 0 
1 0 2 0 1 0 1 0 2 0 1 0 1 0 1 0 
2 0 1 0 1 0 2 0 1 0 1 0 2 0 1 0 
1 0 2 0 1 0 1 0 1 0 2 0 1 0 1 0 
2 0 1 0 1 0 2 0 1 0 1 0 2 0 1 0 
1 0 1 0 2 0 1 0 1 0 2 0 1 0 1 0 
2 0 1 0 1 0 2 0 1 0 1 0 1 0 2 0 
1 0 1 0 2 0 1 0 1 0 2 0 1 0 1 0 
2 0 1 0 1 0 1 0 2 0 1 0 1 0 2 0 
1 0 1 0 2 0 1 0 1 0 2 0 1 0 1 0 
1 0 2 0 1 0 4182 4538 100 MP stroke
1 0 2 0 1 0 1 0 2 0 1 0 1 0 2 0 
1 0 1 0 1 0 2 0 1 0 1 0 2 0 1 0 
1 0 2 0 1 0 1 0 2 0 1 0 1 0 1 0 
2 0 1 0 1 0 2 0 1 0 1 0 2 0 1 0 
1 0 2 0 1 0 1 0 1 0 2 0 1 0 1 0 
2 0 1 0 1 0 2 0 1 0 1 0 2 0 1 0 
1 0 1 0 2 0 1 0 1 0 2 0 1 0 1 0 
2 0 1 0 1 0 2 0 1 0 1 0 1 0 2 0 
1 0 1 0 2 0 1 0 1 0 2 0 1 0 1 0 
2 0 1 0 1 0 1 0 2 0 1 0 1 0 2 0 
1 0 1 0 2 0 1 0 1 0 2 0 1 0 1 0 
1 0 2 0 1 0 1 0 2 0 1 0 1 0 2 0 
1 0 1 0 2 0 4052 4538 100 MP stroke
1 0 1 0 1 0 2 0 1 0 1 0 2 0 1 0 
1 0 2 0 1 0 1 0 2 0 1 0 1 0 1 0 
2 0 1 0 1 0 2 0 1 0 1 0 2 0 1 0 
1 0 2 0 1 0 1 0 1 0 2 0 1 0 1 0 
2 0 1 0 1 0 2 0 1 0 1 0 2 0 1 0 
1 0 1 0 2 0 1 0 1 0 2 0 1 0 1 0 
2 0 1 0 1 0 2 0 1 0 1 0 1 0 2 0 
1 0 1 0 2 0 1 0 1 0 2 0 1 0 1 0 
2 0 1 0 1 0 1 0 2 0 1 0 1 0 2 0 
1 0 1 0 2 0 1 0 1 0 2 0 1 0 1 0 
1 0 2 0 1 0 1 0 2 0 1 0 1 0 2 0 
1 0 1 0 2 0 1 0 1 0 1 0 2 0 1 0 
1 0 2 0 1 0 3923 4538 100 MP stroke
1 0 2 0 1 0 1 0 2 0 1 0 1 0 1 0 
2 0 1 0 1 0 2 0 1 0 1 0 2 0 1 0 
1 0 2 0 1 0 1 0 1 0 2 0 1 0 1 0 
2 0 1 0 1 0 2 0 1 0 1 0 2 0 1 0 
1 0 1 0 2 0 1 0 1 0 2 0 1 0 1 0 
2 0 1 0 1 0 2 0 1 0 1 0 1 0 2 0 
1 0 1 0 2 0 1 0 1 0 2 0 1 0 1 0 
2 0 1 0 1 0 1 0 2 0 1 0 1 0 2 0 
1 0 1 0 2 0 1 0 1 0 2 0 1 0 1 0 
1 0 2 0 1 0 1 0 2 0 1 0 1 0 2 0 
1 0 1 0 2 0 1 0 1 0 1 0 2 0 1 0 
1 0 2 0 1 0 1 0 2 0 1 0 1 0 2 0 
1 0 1 0 1 0 3794 4538 100 MP stroke
2 0 1 0 1 0 2 0 1 0 1 0 2 0 1 0 
1 0 2 0 1 0 1 0 1 0 2 0 1 0 1 0 
2 0 1 0 1 0 2 0 1 0 1 0 2 0 1 0 
1 0 1 0 2 0 1 0 1 0 2 0 1 0 1 0 
2 0 1 0 1 0 2 0 1 0 1 0 1 0 2 0 
1 0 1 0 2 0 1 0 1 0 2 0 1 0 1 0 
2 0 1 0 1 0 1 0 2 0 1 0 1 0 2 0 
1 0 1 0 2 0 1 0 1 0 2 0 1 0 1 0 
1 0 2 0 1 0 1 0 2 0 1 0 1 0 2 0 
1 0 1 0 2 0 1 0 1 0 1 0 2 0 1 0 
1 0 2 0 1 0 1 0 2 0 1 0 1 0 2 0 
1 0 1 0 1 0 2 0 1 0 1 0 2 0 1 0 
1 0 2 0 1 0 3664 4538 100 MP stroke
1 0 2 0 1 0 1 0 1 0 2 0 1 0 1 0 
2 0 1 0 1 0 2 0 1 0 1 0 2 0 1 0 
1 0 1 0 2 0 1 0 1 0 2 0 1 0 1 0 
2 0 1 0 1 0 2 0 1 0 1 0 1 0 2 0 
1 0 1 0 2 0 1 0 1 0 2 0 1 0 1 0 
2 0 1 0 1 0 1 0 2 0 1 0 1 0 2 0 
1 0 1 0 2 0 1 0 1 0 2 0 1 0 1 0 
1 0 2 0 1 0 1 0 2 0 1 0 1 0 2 0 
1 0 1 0 1 0 2 1450 1 0 1 0 2 0 1 0 
1 0 2 0 1 0 1 0 2 0 1 0 1 0 1 0 
2 0 1 0 1 0 2 0 1 0 1 0 2 0 1 0 
1 0 2 0 1 0 1 0 1 0 2 0 1 0 1 0 
2 0 1 0 1 0 3535 3088 100 MP stroke
2 0 1 0 1 0 2 0 1 0 1 0 1 0 2 0 
1 0 1 0 2 0 1 0 1 0 2 0 1 0 1 0 
2 0 1 0 1 0 1 0 2 0 1 0 1 0 2 0 
1 0 1 0 2 0 1 0 1 0 2 0 1 0 1 0 
1 0 2 0 1 0 1 0 2 0 1 0 1 0 2 0 
1 0 1 0 2 0 1 0 1 0 1 0 2 0 1 0 
1 0 2 0 1 0 1 0 2 0 1 0 1 0 2 0 
1 0 1 0 1 0 2 0 1 0 1 0 2 0 1 0 
1 0 2 0 1 0 1 0 2 0 1 0 1 0 1 0 
2 0 1 0 1 0 2 0 1 0 1 0 2 0 1 0 
1 0 2 0 1 0 1 0 1 0 2 0 1 0 1 0 
2 0 1 0 1 0 2 0 1 0 1 0 2 0 1 0 
1 0 1 0 2 0 3405 3088 100 MP stroke
1 0 1 0 2 0 1 0 1 0 2 0 1 0 1 0 
2 0 1 0 1 0 1 0 2 0 1 0 1 0 2 0 
1 0 1 0 2 0 1 0 1 0 2 0 1 0 1 0 
1 0 2 0 1 0 1 0 2 0 1 0 1 0 2 0 
1 0 1 0 2 0 1 0 1 0 1 0 2 0 1 0 
1 0 2 0 1 0 1 0 2 0 1 0 1 0 2 0 
1 0 1 0 1 0 2 0 1 0 1 0 2 0 1 0 
1 0 2 0 1 0 1 0 2 0 1 0 1 0 1 0 
2 0 1 0 1 0 2 0 1 0 1 0 2 0 1 0 
1 0 2 0 1 0 1 0 1 0 2 0 1 0 1 0 
2 0 1 0 1 0 2 0 1 0 1 0 2 0 1 0 
1 0 1 0 2 0 1 0 1 0 2 0 1 0 1 0 
2 0 1 0 1 0 3276 3088 100 MP stroke
2 0 1 0 1 0 1 0 2 0 1 0 1 0 2 0 
1 0 1 0 2 0 1 0 1 0 2 0 1 0 1 0 
1 0 2 0 1 0 1 0 2 0 1 0 1 0 2 0 
1 0 1 0 2 0 1 0 1 0 1 0 2 0 1 0 
1 0 2 0 1 0 1 0 2 0 1 0 1 0 2 0 
1 0 1 0 1 0 2 0 1 0 1 0 2 0 1 0 
1 0 2 0 1 0 1 0 2 0 1 0 1 0 1 0 
2 0 1 0 1 0 2 0 1 0 1 0 2 0 1 0 
1 0 2 0 1 0 1 0 1 0 2 0 1 0 1 0 
2 0 1 0 1 0 2 0 1 0 1 0 2 0 1 0 
1 0 1 0 2 0 1 0 1 0 2 0 1 0 1 0 
2 0 1 0 1 0 2 0 1 0 1 0 1 0 2 0 
1 0 1 0 2 0 3146 3088 100 MP stroke
1 0 1 0 2 0 1 0 1 0 2 0 1 0 1 0 
1 0 2 0 1 0 1 0 2 0 1 0 1 0 2 0 
1 0 1 0 2 0 1 0 1 0 1 0 2 0 1 0 
1 0 2 0 1 0 1 0 2 0 1 0 1 0 2 0 
1 0 1 0 1 0 2 0 1 0 1 0 2 0 1 0 
1 0 2 0 1 0 1 0 2 0 1 0 1 0 1 0 
2 0 1 0 1 0 2 0 1 0 1 0 2 0 1 0 
1 0 2 0 1 0 1 0 1 0 2 0 1 0 1 0 
2 0 1 0 1 0 2 0 1 0 1 0 2 0 1 0 
1 0 1 0 2 0 1 0 1 0 2 0 1 0 1 0 
2 0 1 0 1 0 2 0 1 0 1 0 1 0 2 0 
1 0 1 0 2 0 1 0 1 0 2 0 1 0 1 0 
2 0 1 0 1 0 3017 3088 100 MP stroke
1 0 2 0 1 0 1 0 2 0 1 0 1 0 2 0 
1 0 1 0 2 0 1 0 1 0 1 0 2 0 1 0 
1 0 2 0 1 0 1 0 2 0 1 0 1 0 2 0 
1 0 1 0 1 0 2 0 1 0 1 0 2 0 1 0 
1 0 2 0 1 0 1 0 2 0 1 0 1 0 1 0 
2 0 1 0 1 0 2 0 1 0 1 0 2 0 1 0 
1 0 2 0 1 0 1 0 1 0 2 0 1 0 1 0 
2 0 1 0 1 0 2 0 1 0 1 0 2 0 1 0 
1 0 1 0 2 0 1 0 1 0 2 0 1 0 1 0 
2 0 1 0 1 0 2 0 1 0 1 0 1 0 2 0 
1 0 1 0 2 0 1 0 1 0 2 0 1 0 1 0 
2 0 1 0 1 0 1 0 2 0 1 0 1 0 2 0 
1 0 1 0 2 0 2887 3088 100 MP stroke
1 0 1 0 2 0 1 0 1 0 1 0 2 0 1 0 
1 0 2 0 1 0 1 0 2 0 1 0 1 0 2 0 
1 0 1 0 1 0 2 0 1 0 1 0 2 0 1 0 
1 0 2 0 1 0 1 0 2 0 1 0 1 0 1 0 
2 0 1 0 1 0 2 0 1 0 1 0 2 0 1 0 
1 0 2 0 1 0 1 0 1 0 2 0 1 0 1 0 
2 0 1 0 1 0 2 0 1 0 1 0 2 0 1 0 
1 0 1 0 2 0 1 0 1 0 2 0 1 0 1 0 
2 0 1 0 1 0 2 0 1 0 1 0 1 0 2 0 
1 0 1 0 2 0 1 0 1 0 2 0 1 0 1 0 
2 0 1 0 1 0 1 0 2 0 1 0 1 0 2 0 
1 0 1 0 2 0 1 0 1 0 2 0 1 0 1 0 
1 0 2 0 1 0 2758 3088 100 MP stroke
1 0 2 0 1 0 1 0 2 0 1 0 1 0 2 0 
1 0 1 0 1 0 2 0 1 0 1 0 2 0 1 0 
1 0 2 0 1 0 1 0 2 0 1 0 1 0 1 0 
2 0 1 0 1 0 2 0 1 0 1 0 2 0 1 0 
1 0 2 0 1 0 1 0 1 0 2 0 1 0 1 0 
2 0 1 0 1 0 2 0 1 0 1 0 2 0 1 0 
1 0 1 0 2 0 1 0 1 0 2 0 1 0 1 0 
2 0 1 0 1 0 2 0 1 0 1 0 1 0 2 0 
1 0 1 0 2 0 1 0 1 0 2 0 1 0 1 0 
2 0 1 0 1 0 1 0 2 0 1 0 1 0 2 0 
1 0 1 0 2 0 1 0 1 0 2 0 1 0 1 0 
1 0 2 0 1 0 1 0 2 0 1 0 1 0 2 0 
1 0 1 0 2 0 2628 3088 100 MP stroke
1 0 1 0 1 0 2 0 1 0 1 0 2 0 1 0 
1 0 2 0 1 0 1 0 2 0 1 0 1 0 1 0 
2 0 1 0 1 0 2 0 1 0 1 0 2 0 1 0 
1 0 2 0 1 0 1 0 1 0 2 0 1 0 1 0 
2 0 1 0 1 0 2 0 1 0 1 0 2 0 1 0 
1 0 1 0 2 0 1 0 1 0 2 0 1 0 1 0 
2 0 1 0 1 0 2 0 1 0 1 0 1 0 2 0 
1 0 1 0 2 0 1 0 1 0 2 0 1 0 1 0 
2 0 1 0 1 0 1 0 2 0 1 0 1 0 2 0 
1 0 1 0 2 0 1 0 1 0 2 0 1 0 1 0 
1 0 2 0 1 0 1 0 2 0 1 0 1 0 2 0 
1 0 1 0 2 0 1 0 1 0 1 0 2 0 1 0 
1 0 2 0 1 0 2499 3088 100 MP stroke
1 0 2 0 1 0 1 0 2 0 1 0 1 0 1 0 
2 0 1 0 1 0 2 0 1 0 1 0 2 0 1 0 
1 0 2 0 1 0 1 0 1 0 2 0 1 0 1 0 
2 0 1 0 1 0 2 0 1 0 1 0 2 0 1 0 
1 0 1 0 2 0 1 0 1 0 2 0 1 0 1 0 
2 0 1 0 1 0 2 0 1 0 1 0 1 0 2 0 
1 0 1 0 2 0 1 0 1 0 2 0 1 0 1 0 
2 0 1 0 1 0 1 0 2 0 1 0 1 0 2 0 
1 0 1 0 2 0 1 0 1 0 2 0 1 0 1 0 
1 0 2 0 1 0 1 0 2 0 1 0 1 0 2 0 
1 0 1 0 2 0 1 0 1 0 1 0 2 0 1 0 
1 0 2 0 1 0 1 0 2 0 1 0 1 0 2 0 
1 0 1 0 1 0 2370 3088 100 MP stroke
2 0 1 0 1 0 2 0 1 0 1 0 2 0 1 0 
1 0 2 0 1 0 1 0 1 0 2 0 1 0 1 0 
2 0 1 0 1 0 2 0 1 0 1 0 2 0 1 0 
1 0 1 0 2 0 1 0 1 0 2 0 1 0 1 0 
2 0 1 0 1 0 2 0 1 0 1 0 1 0 2 0 
1 0 1 0 2 0 1 0 1 0 2 0 1 0 1 0 
2 0 1 0 1 0 1 0 2 0 1 0 1 0 2 0 
1 0 1 0 2 0 1 0 1 0 2 0 1 0 1 0 
1 0 2 0 1 0 1 0 2 0 1 0 1 0 2 0 
1 0 1 0 2 0 1 0 1 0 1 0 2 0 1 0 
1 0 2 0 1 0 1 0 2 0 1 0 1 0 2 0 
1 0 1 0 1 0 2 0 1 0 1 0 2 0 1 0 
1 0 2 0 1 0 2240 3088 100 MP stroke
1 0 1 0 2 -1450 1 0 1 0 2 0 1 0 1 0 
2 0 1 0 1 0 2 0 1 0 1 0 1 0 2 0 
1 0 1 0 2 0 1 0 1 0 2 0 1 0 1 0 
2 0 1 0 1 0 1 0 2 0 1 0 1 0 2 0 
1 0 1 0 2 0 1 0 1 0 2 0 1 0 1 0 
1 0 2 0 1 0 1 0 2 0 1 0 1 0 2 0 
1 0 1 0 2 0 1 0 1 0 1 0 2 0 1 0 
1 0 2 0 1 0 1 0 2 0 1 0 1 0 2 0 
1 0 1 0 1 0 2 0 1 0 1 0 2 0 1 0 
1 0 2 0 1 0 1 0 2 0 1 0 1 0 1 0 
2 0 1 0 1 0 2 0 1 0 1 0 2 0 1 0 
1 0 2 0 1 0 1 0 1 0 2 0 1 0 1 0 
2 0 1 0 1 0 2111 4538 100 MP stroke
2 0 1 0 1 0 2 0 1 0 1 0 1 0 2 0 
1 0 1 0 2 0 1 0 1 0 2 0 1 0 1 0 
2 0 1 0 1 0 1 0 2 0 1 0 1 0 2 0 
1 0 1 0 2 0 1 0 1 0 2 0 1 0 1 0 
1 0 2 0 1 0 1 0 2 0 1 0 1 0 2 0 
1 0 1 0 2 0 1 0 1 0 1 0 2 0 1 0 
1 0 2 0 1 0 1 0 2 0 1 0 1 0 2 0 
1 0 1 0 1 0 2 0 1 0 1 0 2 0 1 0 
1 0 2 0 1 0 1 0 2 0 1 0 1 0 1 0 
2 0 1 0 1 0 2 0 1 0 1 0 2 0 1 0 
1 0 2 0 1 0 1 0 1 0 2 0 1 0 1 0 
2 0 1 0 1 0 2 0 1 0 1 0 2 0 1 0 
1 0 1 0 2 0 1981 4538 100 MP stroke
1 0 1 0 2 0 1 0 1 0 2 0 1 0 1 0 
2 0 1 0 1 0 1 0 2 0 1 0 1 0 2 0 
1 0 1 0 2 0 1 0 1 0 2 0 1 0 1 0 
1 0 2 0 1 0 1 0 2 0 1 0 1 0 2 0 
1 0 1 0 2 0 1 0 1 0 1 0 2 0 1 0 
1 0 2 0 1 0 1 0 2 0 1 0 1 0 2 0 
1 0 1 0 1 0 2 0 1 0 1 0 2 0 1 0 
1 0 2 0 1 0 1 0 2 0 1 0 1 0 1 0 
2 0 1 0 1 0 2 0 1 0 1 0 2 0 1 0 
1 0 2 0 1 0 1 0 1 0 2 0 1 0 1 0 
2 0 1 0 1 0 2 0 1 0 1 0 2 0 1 0 
1 0 1 0 2 0 1 0 1 0 2 0 1 0 1 0 
2 0 1 0 1 0 1852 4538 100 MP stroke
2 0 1 0 1 0 1 0 2 0 1 0 1 0 2 0 
1 0 1 0 2 0 1 0 1 0 2 0 1 0 1 0 
1 0 2 0 1 0 1 0 2 0 1 0 1 0 2 0 
1 0 1 0 2 0 1 0 1 0 1 0 2 0 1 0 
1 0 2 0 1 0 1 0 2 0 1 0 1 0 2 0 
1 0 1 0 1 0 2 0 1 0 1 0 2 0 1 0 
1 0 2 0 1 0 1 0 2 0 1 0 1 0 1 0 
2 0 1 0 1 0 2 0 1 0 1 0 2 0 1 0 
1 0 2 0 1 0 1 0 1 0 2 0 1 0 1 0 
2 0 1 0 1 0 2 0 1 0 1 0 2 0 1 0 
1 0 1 0 2 0 1 0 1 0 2 0 1 0 1 0 
2 0 1 0 1 0 2 0 1 0 1 0 1 0 2 0 
1 0 1 0 2 0 1722 4538 100 MP stroke
1 0 1 0 2 0 1 0 1 0 2 0 1 0 1 0 
1 0 2 0 1 0 1 0 2 0 1 0 1 0 2 0 
1 0 1 0 2 0 1 0 1 0 1 0 2 0 1 0 
1 0 2 0 1 0 1 0 2 0 1 0 1 0 2 0 
1 0 1 0 1 0 2 0 1 0 1 0 2 0 1 0 
1 0 2 0 1 0 1 0 2 0 1 0 1 0 1 0 
2 0 1 0 1 0 2 0 1 0 1 0 2 0 1 0 
1 0 2 0 1 0 1 0 1 0 2 0 1 0 1 0 
2 0 1 0 1 0 2 0 1 0 1 0 2 0 1 0 
1 0 1 0 2 0 1 0 1 0 2 0 1 0 1 0 
2 0 1 0 1 0 2 0 1 0 1 0 1 0 2 0 
1 0 1 0 2 0 1 0 1 0 2 0 1 0 1 0 
2 0 1 0 1 0 1593 4538 100 MP stroke
1 0 2 0 1 0 1 0 2 0 1 0 1 0 2 0 
1 0 1 0 2 0 1 0 1 0 1 0 2 0 1 0 
1 0 2 0 1 0 1 0 2 0 1 0 1 0 2 0 
1 0 1 0 1 0 2 0 1 0 1 0 2 0 1 0 
1 0 2 0 1 0 1 0 2 0 1 0 1 0 1 0 
2 0 1 0 1 0 2 0 1 0 1 0 2 0 1 0 
1 0 2 0 1 0 1 0 1 0 2 0 1 0 1 0 
2 0 1 0 1 0 2 0 1 0 1 0 2 0 1 0 
1 0 1 0 2 0 1 0 1 0 2 0 1 0 1 0 
2 0 1 0 1 0 2 0 1 0 1 0 1 0 2 0 
1 0 1 0 2 0 1 0 1 0 2 0 1 0 1 0 
2 0 1 0 1 0 1 0 2 0 1 0 1 0 2 0 
1 0 1 0 2 0 1463 4538 100 MP stroke
1 0 1 0 2 0 1 0 1 0 1 0 2 0 1 0 
1 0 2 0 1 0 1 0 2 0 1 0 1 0 2 0 
1 0 1 0 1 0 2 0 1 0 1 0 2 0 1 0 
1 0 2 0 1 0 1 0 2 0 1 0 1 0 1 0 
2 0 1 0 1 0 2 0 1 0 1 0 2 0 1 0 
1 0 2 0 1 0 1 0 1 0 2 0 1 0 1 0 
2 0 1 0 1 0 2 0 1 0 1 0 2 0 1 0 
1 0 1 0 2 0 1 0 1 0 2 0 1 0 1 0 
2 0 1 0 1 0 2 0 1 0 1 0 1 0 2 0 
1 0 1 0 2 0 1 0 1 0 2 0 1 0 1 0 
2 0 1 0 1 0 1 0 2 0 1 0 1 0 2 0 
1 0 1 0 2 0 1 0 1 0 2 0 1 0 1 0 
1 0 2 0 1 0 1334 4538 100 MP stroke
1 0 2 0 1 0 1 0 2 0 1 0 1 0 2 0 
1 0 1 0 1 0 2 0 1 0 1 0 2 0 1 0 
1 0 2 0 1 0 1 0 2 0 1 0 1 0 1 0 
2 0 1 0 1 0 2 0 1 0 1 0 2 0 1 0 
1 0 2 0 1 0 1 0 1 0 2 0 1 0 1 0 
2 0 1 0 1 0 2 0 1 0 1 0 2 0 1 0 
1 0 1 0 2 0 1 0 1 0 2 0 1 0 1 0 
2 0 1 0 1 0 2 0 1 0 1 0 1 0 2 0 
1 0 1 0 2 0 1 0 1 0 2 0 1 0 1 0 
2 0 1 0 1 0 1 0 2 0 1 0 1 0 2 0 
1 0 1 0 2 0 1 0 1 0 2 0 1 0 1 0 
1 0 2 0 1 0 1 0 2 0 1 0 1 0 2 0 
1 0 1 0 2 0 1204 4538 100 MP stroke
1 0 1 0 1 0 2 0 1 0 1 0 2 0 1 0 
1 0 2 0 1 0 1 0 2 0 1 0 1 0 1 0 
2 0 1 0 1 0 2 0 1 0 1 0 2 0 1 0 
1 0 2 0 1 0 1 0 1 0 2 0 1 0 1 0 
2 0 1 0 1 0 2 0 1 0 1 0 2 0 1 0 
1 0 1 0 2 0 1 0 1 0 2 0 1 0 1 0 
2 0 1 0 1 0 2 0 1 0 1 0 1 0 2 0 
1 0 1 0 2 0 1 0 1 0 2 0 1 0 1 0 
2 0 1 0 1 0 1 0 2 0 1 0 1 0 2 0 
1 0 1 0 2 0 1 0 1 0 2 0 1 0 1 0 
1 0 2 0 1 0 1 0 2 0 1 0 1 0 2 0 
1 0 1 0 2 0 1 0 1 0 1 0 2 0 1 0 
1 0 2 0 1 0 1075 4538 100 MP stroke
1 0 2 0 1 0 1 0 2 0 1 0 1 0 1 0 
2 0 1 0 1 0 2 0 1 0 1 0 2 0 1 0 
1 0 2 0 1 0 1 0 1 0 2 0 1 0 1 0 
2 0 1 0 1 0 2 0 1 0 1 0 2 0 1 0 
1 0 1 0 2 0 1 0 1 0 2 0 1 0 1 0 
2 0 1 0 1 0 2 0 1 0 1 0 1 0 2 0 
1 0 1 0 2 0 1 0 1 0 2 0 1 0 1 0 
2 0 1 0 1 0 1 0 2 0 1 0 1 0 2 0 
1 0 1 0 2 0 1 0 1 0 2 0 1 0 1 0 
1 0 2 0 1 0 1 0 2 0 1 0 1 0 2 0 
1 0 1 0 2 0 1 0 1 0 1 0 2 0 1 0 
1 0 2 0 1 0 1 0 2 0 1 0 1 0 2 0 
1 0 1 0 1 0 946 4538 100 MP stroke
2 0 1 0 1 0 2 0 1 0 1 0 2 0 1 0 
1 0 2 0 1 0 1 0 1 0 2 0 1 0 1 0 
2 0 1 0 1 0 2 0 1 0 1 0 2 0 1 0 
1 0 1 0 2 0 1 0 1 0 2 0 1 0 1 0 
2 0 1 0 1 0 1 0 899 4538 37 MP stroke
gr

24 w
c9
0 sg
%%IncludeResource: font Helvetica
/Helvetica /WindowsLatin1Encoding 204 FMSR

3017 2789 mt 
(T) s
%%IncludeResource: font Helvetica
/Helvetica /WindowsLatin1Encoding 156 FMSR

3141 2891 mt 
(symbol) s
%%IncludeResource: font Helvetica
/Helvetica /WindowsLatin1Encoding 204 FMSR

3635 2789 mt 
( = 1 s) s
3293 4965 mt 
(t \(sec\)) s
 598 4005 mt  -90 rotate
(|x\(t\)|) s
90 rotate
6 w

end %%Color Dict

eplot
%%EndObject

epage
end

showpage

%%Trailer
%%EOF
