%!PS-Adobe-2.0 EPSF-1.2
%%Creator: MATLAB, The MathWorks, Inc. Version 8.0.0.783 (R2012b). Operating System: Linux 2.6.37.6-0.20-desktop #1 SMP PREEMPT 2011-12-19 23:39:38 +0100 x86_64.
%%Title: ./tdomain_wiener_vs_pulsetrain.eps
%%CreationDate: 11/21/2012  19:57:09
%%DocumentNeededFonts: Helvetica
%%DocumentProcessColors: Cyan Magenta Yellow Black
%%Extensions: CMYK
%%Pages: 1
%%BoundingBox:    59   199   546   606
%%EndComments

%%BeginProlog
% MathWorks dictionary
/MathWorks 160 dict begin
% definition operators
/bdef {bind def} bind def
/ldef {load def} bind def
/xdef {exch def} bdef
/xstore {exch store} bdef
% operator abbreviations
/c  /clip ldef
/cc /concat ldef
/cp /closepath ldef
/gr /grestore ldef
/gs /gsave ldef
/mt /moveto ldef
/np /newpath ldef
/cm /currentmatrix ldef
/sm /setmatrix ldef
/rm /rmoveto ldef
/rl /rlineto ldef
/s {show newpath} bdef
/sc {setcmykcolor} bdef
/sr /setrgbcolor ldef
/sg /setgray ldef
/w /setlinewidth ldef
/j /setlinejoin ldef
/cap /setlinecap ldef
/rc {rectclip} bdef
/rf {rectfill} bdef
% page state control
/pgsv () def
/bpage {/pgsv save def} bdef
/epage {pgsv restore} bdef
/bplot /gsave ldef
/eplot {stroke grestore} bdef
% orientation switch
/portraitMode 0 def /landscapeMode 1 def /rotateMode 2 def
% coordinate system mappings
/dpi2point 0 def
% font control
/FontSize 0 def
/FMS {/FontSize xstore findfont [FontSize 0 0 FontSize neg 0 0]
  makefont setfont} bdef
/reencode {exch dup where {pop load} {pop StandardEncoding} ifelse
  exch dup 3 1 roll findfont dup length dict begin
  { 1 index /FID ne {def}{pop pop} ifelse } forall
  /Encoding exch def currentdict end definefont pop} bdef
/isroman {findfont /CharStrings get /Agrave known} bdef
/FMSR {3 1 roll 1 index dup isroman {reencode} {pop pop} ifelse
  exch FMS} bdef
/csm {1 dpi2point div -1 dpi2point div scale neg translate
 dup landscapeMode eq {pop -90 rotate}
  {rotateMode eq {90 rotate} if} ifelse} bdef
% line types: solid, dotted, dashed, dotdash
/SO { [] 0 setdash } bdef
/DO { [.5 dpi2point mul 4 dpi2point mul] 0 setdash } bdef
/DA { [6 dpi2point mul] 0 setdash } bdef
/DD { [.5 dpi2point mul 4 dpi2point mul 6 dpi2point mul 4
  dpi2point mul] 0 setdash } bdef
% macros for lines and objects
/L {lineto stroke} bdef
/MP {3 1 roll moveto 1 sub {rlineto} repeat} bdef
/AP {{rlineto} repeat} bdef
/PDlw -1 def
/W {/PDlw currentlinewidth def setlinewidth} def
/PP {closepath eofill} bdef
/DP {closepath stroke} bdef
/MR {4 -2 roll moveto dup  0 exch rlineto exch 0 rlineto
  neg 0 exch rlineto closepath} bdef
/FR {MR stroke} bdef
/PR {MR fill} bdef
/L1i {{currentfile picstr readhexstring pop} image} bdef
/tMatrix matrix def
/MakeOval {newpath tMatrix currentmatrix pop translate scale
0 0 1 0 360 arc tMatrix setmatrix} bdef
/FO {MakeOval stroke} bdef
/PO {MakeOval fill} bdef
/PD {currentlinewidth 2 div 0 360 arc fill
   PDlw -1 eq not {PDlw w /PDlw -1 def} if} def
/FA {newpath tMatrix currentmatrix pop translate scale
  0 0 1 5 -2 roll arc tMatrix setmatrix stroke} bdef
/PA {newpath tMatrix currentmatrix pop	translate 0 0 moveto scale
  0 0 1 5 -2 roll arc closepath tMatrix setmatrix fill} bdef
/FAn {newpath tMatrix currentmatrix pop translate scale
  0 0 1 5 -2 roll arcn tMatrix setmatrix stroke} bdef
/PAn {newpath tMatrix currentmatrix pop translate 0 0 moveto scale
  0 0 1 5 -2 roll arcn closepath tMatrix setmatrix fill} bdef
/vradius 0 def /hradius 0 def /lry 0 def
/lrx 0 def /uly 0 def /ulx 0 def /rad 0 def
/MRR {/vradius xdef /hradius xdef /lry xdef /lrx xdef /uly xdef
  /ulx xdef newpath tMatrix currentmatrix pop ulx hradius add uly
  vradius add translate hradius vradius scale 0 0 1 180 270 arc 
  tMatrix setmatrix lrx hradius sub uly vradius add translate
  hradius vradius scale 0 0 1 270 360 arc tMatrix setmatrix
  lrx hradius sub lry vradius sub translate hradius vradius scale
  0 0 1 0 90 arc tMatrix setmatrix ulx hradius add lry vradius sub
  translate hradius vradius scale 0 0 1 90 180 arc tMatrix setmatrix
  closepath} bdef
/FRR {MRR stroke } bdef
/PRR {MRR fill } bdef
/MlrRR {/lry xdef /lrx xdef /uly xdef /ulx xdef /rad lry uly sub 2 div def
  newpath tMatrix currentmatrix pop ulx rad add uly rad add translate
  rad rad scale 0 0 1 90 270 arc tMatrix setmatrix lrx rad sub lry rad
  sub translate rad rad scale 0 0 1 270 90 arc tMatrix setmatrix
  closepath} bdef
/FlrRR {MlrRR stroke } bdef
/PlrRR {MlrRR fill } bdef
/MtbRR {/lry xdef /lrx xdef /uly xdef /ulx xdef /rad lrx ulx sub 2 div def
  newpath tMatrix currentmatrix pop ulx rad add uly rad add translate
  rad rad scale 0 0 1 180 360 arc tMatrix setmatrix lrx rad sub lry rad
  sub translate rad rad scale 0 0 1 0 180 arc tMatrix setmatrix
  closepath} bdef
/FtbRR {MtbRR stroke } bdef
/PtbRR {MtbRR fill } bdef
/stri 6 array def /dtri 6 array def
/smat 6 array def /dmat 6 array def
/tmat1 6 array def /tmat2 6 array def /dif 3 array def
/asub {/ind2 exch def /ind1 exch def dup dup
  ind1 get exch ind2 get sub exch } bdef
/tri_to_matrix {
  2 0 asub 3 1 asub 4 0 asub 5 1 asub
  dup 0 get exch 1 get 7 -1 roll astore } bdef
/compute_transform {
  dmat dtri tri_to_matrix tmat1 invertmatrix 
  smat stri tri_to_matrix tmat2 concatmatrix } bdef
/ds {stri astore pop} bdef
/dt {dtri astore pop} bdef
/db {2 copy /cols xdef /rows xdef mul dup 3 mul string
  currentfile exch readhexstring pop
  dup 0 3 index getinterval /rbmap xdef
  dup 2 index dup getinterval /gbmap xdef
  1 index dup 2 mul exch getinterval /bbmap xdef pop pop}bdef
/it {gs np dtri aload pop moveto lineto lineto cp c
  cols rows 8 compute_transform 
  rbmap gbmap bbmap true 3 colorimage gr}bdef
/il {newpath moveto lineto stroke}bdef
currentdict end def
%%EndProlog

%%BeginSetup
MathWorks begin

0 cap

end
%%EndSetup

%%Page: 1 1
%%BeginPageSetup
%%PageBoundingBox:    59   199   546   606
MathWorks begin
bpage
%%EndPageSetup

%%BeginObject: obj1
bplot

/dpi2point 12 def
portraitMode 0216 7344 csm

  492    70  5845  4885 MR c np
85 dict begin %Colortable dictionary
/c0 { 0.000000 0.000000 0.000000 sr} bdef
/c1 { 1.000000 1.000000 1.000000 sr} bdef
/c2 { 0.900000 0.000000 0.000000 sr} bdef
/c3 { 0.000000 0.820000 0.000000 sr} bdef
/c4 { 0.000000 0.000000 0.800000 sr} bdef
/c5 { 0.910000 0.820000 0.320000 sr} bdef
/c6 { 1.000000 0.260000 0.820000 sr} bdef
/c7 { 0.000000 0.820000 0.820000 sr} bdef
c0
1 j
1 sg
   0    0 6913 5186 PR
6 w
0 1755 5356 0 0 -1755 899 2158 4 MP
PP
-5356 0 0 1755 5356 0 0 -1755 899 2158 5 MP stroke
4 w
DO
SO
6 w
0 sg
 899 2158 mt 6255 2158 L
 899  403 mt 6255  403 L
 899 2158 mt  899  403 L
6255 2158 mt 6255  403 L
 899 2158 mt 6255 2158 L
 899 2158 mt  899  403 L
 899 2158 mt  899 2104 L
 899  403 mt  899  456 L
%%IncludeResource: font Helvetica
/Helvetica /ISOLatin1Encoding 120 FMSR

 866 2303 mt 
(0) s
1568 2158 mt 1568 2104 L
1568  403 mt 1568  456 L
1485 2303 mt 
(0.5) s
2238 2158 mt 2238 2104 L
2238  403 mt 2238  456 L
2205 2303 mt 
(1) s
2907 2158 mt 2907 2104 L
2907  403 mt 2907  456 L
2824 2303 mt 
(1.5) s
3577 2158 mt 3577 2104 L
3577  403 mt 3577  456 L
3544 2303 mt 
(2) s
4246 2158 mt 4246 2104 L
4246  403 mt 4246  456 L
4163 2303 mt 
(2.5) s
4916 2158 mt 4916 2104 L
4916  403 mt 4916  456 L
4883 2303 mt 
(3) s
5585 2158 mt 5585 2104 L
5585  403 mt 5585  456 L
5502 2303 mt 
(3.5) s
6255 2158 mt 6255 2104 L
6255  403 mt 6255  456 L
6222 2303 mt 
(4) s
 899 2118 mt  952 2118 L
6255 2118 mt 6201 2118 L
 728 2162 mt 
(-3) s
 899 1839 mt  952 1839 L
6255 1839 mt 6201 1839 L
 728 1883 mt 
(-2) s
 899 1559 mt  952 1559 L
6255 1559 mt 6201 1559 L
 728 1603 mt 
(-1) s
 899 1280 mt  952 1280 L
6255 1280 mt 6201 1280 L
 798 1324 mt 
(0) s
 899 1001 mt  952 1001 L
6255 1001 mt 6201 1001 L
 798 1045 mt 
(1) s
 899  721 mt  952  721 L
6255  721 mt 6201  721 L
 798  765 mt 
(2) s
 899  442 mt  952  442 L
6255  442 mt 6201  442 L
 798  486 mt 
(3) s
 899 2158 mt 6255 2158 L
 899  403 mt 6255  403 L
 899 2158 mt  899  403 L
6255 2158 mt 6255  403 L
gs 899 403 5357 1756 MR c np
/c8 { 0.000000 0.000000 1.000000 sr} bdef
c8
0 -2 1 -12 2 -2 1 -4 1 -12 2 -18 1 -10 1 -7 
2 -7 1 1 1 -19 2 2 1 -12 1 -5 1 2 2 -10 
1 -6 1 11 2 8 1 -17 1 -7 2 -4 1 -11 1 -16 
2 13 1 -1 1 7 1 -17 2 -17 1 -2 1 6 2 -16 
1 5 1 5 2 -11 1 7 1 12 2 5 1 9 1 -10 
1 22 2 5 1 -8 1 -4 2 -8 1 0 1 -13 2 -10 
1 18 1 15 2 -4 1 -4 1 -20 1 0 2 8 1 16 
1 -11 2 13 1 0 1 13 2 21 1 -19 1 2 2 8 
1 -16 1 -3 1 11 2 -8 1 -23 1 -6 2 -16 1 -3 
1 -17 2 -28 1 -3 1 -14 2 8 1 6 1 -8 1 -2 
2 1 1 8 1 6 2 -4 1 -4 1 7 2 -2 1 -21 
1 4 2 -12 1 -4 1 -4 1 27 2 4 1 5 1 1 
2 -3 1 3 1 0 3025 635 100 MP stroke
2 14 1 4 1 -17 2 -6 1 8 1 9 1 -15 2 1 
1 -5 1 -9 2 5 1 -4 1 28 2 -16 1 4 1 11 
2 1 1 11 1 28 1 0 2 0 1 25 1 -13 2 -2 
1 -18 1 15 2 12 1 -19 1 -15 2 -5 1 -8 1 3 
1 18 2 17 1 -19 1 -19 2 0 1 7 1 -7 2 -2 
1 -1 1 5 2 -8 1 -12 1 3 1 12 2 -1 1 15 
1 -20 2 -25 1 -5 1 -12 2 9 1 4 1 -1 2 -7 
1 1 1 3 1 -3 2 5 1 14 1 17 2 -28 1 15 
1 -11 2 -5 1 -14 1 8 2 13 1 -4 1 1 1 -7 
2 10 1 -22 1 -9 2 19 1 -3 1 -5 2 -14 1 -6 
1 -5 2 -4 1 -2 1 11 1 -7 2 10 1 -6 1 -24 
2 -19 1 -13 1 5 2 10 1 -4 1 -8 2 0 1 -5 
1 7 1 -14 2 3 2895 747 100 MP stroke
1 -2 1 14 2 -2 1 5 1 12 2 4 1 1 1 12 
2 13 1 -9 1 -14 1 9 2 10 1 -10 1 -12 2 -9 
1 7 1 -6 2 -6 1 -3 1 -5 2 1 1 -6 1 5 
1 5 2 15 1 13 1 15 2 -2 1 6 1 -24 2 -1 
1 4 1 6 2 -25 1 -16 1 -24 1 -3 2 6 1 1 
1 3 2 -10 1 -1 1 4 2 6 1 1 1 -2 2 -3 
1 -8 1 3 1 -19 2 8 1 12 1 -23 2 11 1 -12 
1 -6 2 3 1 -4 1 19 2 -1 1 -32 1 -1 1 7 
2 4 1 10 1 -2 2 -1 1 5 1 20 2 3 1 -18 
1 4 2 2 1 -2 1 3 1 11 2 5 1 -15 1 -13 
2 8 1 5 1 -23 2 5 1 15 1 17 2 7 1 -22 
1 1 1 -15 2 7 1 -5 1 -10 2 -36 1 18 1 -20 
2 -14 1 14 1 -4 2766 843 100 MP stroke
2 12 1 17 1 0 1 -11 2 -8 1 6 1 2 2 2 
1 13 1 -4 2 6 1 0 1 -14 2 13 1 9 1 18 
1 8 2 27 1 14 1 2 2 1 1 7 1 6 2 -29 
1 2 1 9 2 -8 1 4 1 11 1 2 2 -15 1 7 
1 -17 2 5 1 -2 1 -10 2 -11 1 5 1 28 2 -21 
1 -1 1 2 1 -2 2 0 1 -7 1 10 2 1 1 2 
1 -2 2 13 1 -1 1 4 2 5 1 -2 1 -2 1 3 
2 0 1 -7 1 15 2 -3 1 -5 1 2 2 5 1 7 
1 -3 2 8 1 12 1 -21 1 8 2 -1 1 9 1 4 
2 -11 1 -3 1 -6 2 0 1 -14 1 -4 2 14 1 -18 
1 7 1 -12 2 -15 1 -1 1 5 2 -15 1 -2 1 -6 
2 -7 1 5 1 4 2 -1 1 -9 1 2 1 -22 2 14 
1 10 1 25 2 -5 2636 769 100 MP stroke
1 -15 1 11 2 -11 1 -16 1 -24 2 14 1 2 1 -1 
1 -13 2 -8 1 -1 1 -2 2 -7 1 -3 1 -14 2 -2 
1 8 1 5 2 -6 1 4 1 -7 1 8 2 -7 1 -7 
1 -12 2 13 1 8 1 18 2 9 1 -3 1 4 2 2 
1 -24 1 -13 1 19 2 8 1 2 1 -7 2 9 1 -13 
1 8 2 -2 1 -9 1 -7 2 -13 1 -10 1 -19 1 -27 
2 -8 1 2 1 -11 2 1 1 -1 1 -14 2 -4 1 -2 
1 -7 2 -9 1 1 1 15 1 6 2 25 1 1 1 -14 
2 -17 1 18 1 -2 2 -8 1 -4 1 19 2 26 1 -11 
1 -5 1 -1 2 -23 1 8 1 -1 2 1 1 0 1 7 
2 5 1 7 1 16 2 4 1 -5 1 2 1 9 2 12 
1 6 1 6 2 10 1 9 1 3 2 -3 1 -2 1 11 
2 11 1 -5 1 13 2507 823 100 MP stroke
1 -10 2 -15 1 -3 1 25 2 -29 1 -5 1 9 2 16 
1 3 1 -4 2 -6 1 13 1 -19 1 -6 2 0 1 4 
1 13 2 -18 1 -7 1 2 2 -10 1 -6 1 1 2 -10 
1 10 1 15 1 5 2 4 1 -10 1 1 2 11 1 -6 
1 10 2 -7 1 14 1 0 2 4 1 -8 1 -6 1 0 
2 -2 1 -6 1 4 2 14 1 15 1 -11 2 -5 1 10 
1 6 2 -3 1 -13 1 6 1 -1 2 13 1 -5 1 6 
2 -9 1 -9 1 -6 2 -4 1 1 1 2 2 7 1 5 
1 14 1 2 2 1 1 11 1 -2 2 5 1 4 1 -1 
2 1 1 7 1 10 2 9 1 -11 1 16 1 1 2 -4 
1 4 1 -7 2 -13 1 3 1 -11 2 -21 1 6 1 9 
2 -20 1 -25 1 -6 1 -1 2 -3 1 -5 1 -1 2 -10 
1 -7 1 1 2 1 2377 876 100 MP stroke
1 9 1 0 2 8 1 1 1 8 1 4 2 -30 1 -4 
1 -11 2 -1 1 1 1 -2 2 -25 1 -2 1 4 2 -15 
1 6 1 -4 1 -1 2 -1 1 22 1 23 2 4 1 2 
1 0 2 -20 1 -9 1 -4 2 -6 1 -11 1 -29 1 -3 
2 -5 1 4 1 3 2 9 1 16 1 -2 2 24 1 8 
1 9 2 -10 1 23 1 -10 1 4 2 -17 1 11 1 -7 
2 12 1 -6 1 0 2 -17 1 4 1 21 2 -19 1 6 
1 -14 1 8 2 26 1 -8 1 14 2 -1 1 5 1 5 
2 5 1 -2 1 2 2 12 1 4 1 2 1 -7 2 -14 
1 -21 1 21 2 -12 1 -16 1 4 2 26 1 -1 1 0 
2 0 1 -13 1 -4 1 11 2 -4 1 -3 1 17 2 10 
1 -3 1 4 2 -9 1 -8 1 10 2 -15 1 2 1 -13 
1 -3 2 0 1 -7 2248 891 100 MP stroke
1 -12 2 4 1 -17 1 17 2 6 1 -1 1 3 1 8 
2 1 1 -4 1 3 2 4 1 6 1 -2 2 -13 1 10 
1 -2 2 8 1 9 1 0 1 -7 2 -9 1 1 1 -8 
2 -15 1 -8 1 -5 2 7 1 11 1 -11 2 -10 1 7 
1 -8 1 19 2 -7 1 2 1 -7 2 -7 1 3 1 -33 
2 5 1 -5 1 -9 2 -24 1 -12 1 -12 1 -8 2 13 
1 2 1 6 2 0 1 2 1 5 2 8 1 5 1 -7 
2 -1 1 -36 1 10 1 -7 2 0 1 -8 1 2 2 -8 
1 -2 1 -1 2 -3 1 4 1 -2 2 20 1 -1 1 2 
1 -16 2 -8 1 -3 1 15 2 -7 1 0 1 -9 2 -2 
1 -24 1 -2 2 -12 1 -3 1 -5 1 -11 2 -1 1 -2 
1 -7 2 -13 1 -23 1 -7 2 2 1 7 1 8 2 2 
1 5 1 -14 1 9 2119 1131 100 MP stroke
2 -14 1 -3 1 -3 2 -5 1 24 1 -10 2 -4 1 -10 
1 1 2 12 1 0 1 -12 1 -14 2 5 1 7 1 -4 
2 -10 1 13 1 2 2 -2 1 -2 1 1 2 -7 1 -4 
1 4 1 -7 2 7 1 -8 1 9 2 -17 1 2 1 -4 
2 2 1 4 1 17 2 -6 1 10 1 -6 1 1 2 13 
1 -5 1 1 2 -1 1 -3 1 -3 2 9 1 -6 1 -7 
2 -9 1 -4 1 12 1 -2 2 -12 1 6 1 -8 2 9 
1 -22 1 4 2 0 1 -6 1 18 2 -10 1 -2 1 3 
1 -5 2 -19 1 9 1 9 2 -28 1 9 1 -6 2 2 
1 -5 1 -14 2 -3 1 2 1 -10 1 7 2 9 1 6 
1 2 2 -7 1 13 1 11 2 4 1 -8 1 -7 2 -14 
1 -4 1 -7 1 3 2 -5 1 -16 1 5 2 -4 1 -2 
1 -10 2 -8 1 -1 1989 1279 100 MP stroke
1 0 2 -2 1 6 1 -9 1 19 2 -1 1 -11 1 1 
2 -7 1 -3 1 5 2 -9 1 -17 1 -26 2 10 1 -18 
1 -11 1 -11 2 4 1 26 1 5 2 4 1 4 1 2 
2 -9 1 9 1 8 2 -22 1 6 1 4 1 2 2 5 
1 2 1 -12 2 -15 1 5 1 -2 2 2 1 -3 1 11 
2 -4 1 6 1 -6 1 22 2 21 1 9 1 -7 2 10 
1 -8 1 -4 2 9 1 3 1 14 2 -22 1 -3 1 -10 
1 9 2 3 1 20 1 -15 2 -12 1 12 1 -5 2 -5 
1 -20 1 -8 2 12 1 -5 1 2 1 8 2 -1 1 12 
1 -23 2 13 1 -24 1 -17 2 -1 1 -2 1 8 2 -14 
1 -16 1 -7 1 -7 2 -10 1 -2 1 -15 2 -7 1 4 
1 1 2 -7 1 13 1 6 2 2 1 0 1 2 1 -11 
2 10 1 1 1 2 1860 1391 100 MP stroke
2 1 1 -4 1 2 2 -19 1 -10 1 -1 2 -12 1 3 
1 3 1 -4 2 -16 1 -24 1 -5 2 12 1 -11 1 4 
2 -2 1 -5 1 2 2 4 1 -8 1 4 1 7 2 -10 
1 2 1 -30 2 -16 1 -17 1 4 2 9 1 5 1 13 
2 21 1 2 1 14 1 -1 2 -6 1 -8 1 8 2 -23 
1 -6 1 14 2 -16 1 -13 1 7 2 -9 1 -9 1 6 
1 -1 2 -12 1 9 1 20 2 -12 1 15 1 -33 2 -4 
1 1 1 4 2 -1 1 4 1 0 1 -5 2 3 1 -5 
1 12 2 0 1 -3 1 1 2 -1 1 16 1 -1 2 -3 
1 4 1 -9 1 -15 2 7 1 -2 1 3 2 6 1 9 
1 -10 2 6 1 16 1 12 2 6 1 9 1 -2 1 8 
2 -6 1 20 1 -8 2 -16 1 13 1 -4 2 -14 1 -4 
1 -15 2 0 1 -6 1730 1517 100 MP stroke
1 4 1 6 2 2 1 -9 1 13 2 10 1 -10 1 0 
2 -6 1 -23 1 2 2 -3 1 -14 1 11 1 -8 2 -1 
1 -1 1 21 2 -3 1 17 1 -6 2 0 1 -2 1 3 
2 -14 1 -5 1 -4 1 -13 2 8 1 -10 1 -6 2 1 
1 -6 1 -8 2 -23 1 -18 1 -15 2 -9 1 19 1 -7 
1 7 2 3 1 3 1 -6 2 -20 1 -14 1 -17 2 3 
1 -17 1 29 2 9 1 -1 1 8 1 -4 2 -6 1 3 
1 -5 2 5 1 3 1 1 2 9 1 7 1 8 2 7 
1 -13 1 10 1 19 2 14 1 4 1 -1 2 7 1 -9 
1 -1 2 -2 1 -4 1 1 2 12 1 3 1 2 1 6 
2 -15 1 3 1 -9 2 6 1 6 1 1 2 -18 1 -5 
1 -3 2 1 1 9 1 -2 1 -1 2 -2 1 -9 1 -10 
2 -14 1 30 1 17 1601 1576 100 MP stroke
2 2 1 17 1 1 2 7 1 4 1 -12 1 2 2 -11 
1 -3 1 -14 2 -1 1 6 1 17 2 21 1 -9 1 15 
2 8 1 -9 1 4 1 -3 2 14 1 -2 1 -14 2 -2 
1 0 1 7 2 11 1 5 1 3 2 -26 1 13 1 4 
1 0 2 2 1 -7 1 -5 2 1 1 12 1 9 2 3 
1 -2 1 7 2 -4 1 -6 1 2 1 -12 2 8 1 -11 
1 -7 2 2 1 4 1 -19 2 -4 1 4 1 14 2 0 
1 -6 1 7 1 1 2 24 1 5 1 -12 2 -1 1 6 
1 2 2 -3 1 -5 1 -16 2 -19 1 20 1 -15 1 -13 
2 8 1 -1 1 -18 2 3 1 -11 1 -2 2 -4 1 18 
1 11 2 -7 1 -12 1 11 1 10 2 -14 1 -3 1 -8 
2 5 1 -5 1 5 2 5 1 10 1 -9 2 -3 1 6 
1 -1 1 -12 2 1 1471 1572 100 MP stroke
1 -11 1 -9 2 8 1 6 1 -3 2 -1 1 -15 1 2 
2 6 1 -7 1 -8 1 -1 2 7 1 6 1 -20 2 9 
1 4 1 2 2 14 1 -10 1 7 2 -21 1 -5 1 2 
1 13 2 2 1 4 1 -3 2 -22 1 -9 1 4 2 -7 
1 -4 1 -14 2 5 1 11 1 7 1 -3 2 -6 1 9 
1 -11 2 1 1 10 1 8 2 5 1 10 1 19 2 -6 
1 -3 1 -8 1 18 2 13 1 -11 1 -2 2 -9 1 -20 
1 -5 2 -3 1 -21 1 15 2 -7 1 2 1 0 1 3 
2 -1 1 -4 1 -13 2 4 1 2 1 2 2 -4 1 -6 
1 5 2 -3 1 -14 1 3 1 2 2 9 1 14 1 14 
2 -2 1 -20 1 19 2 -9 1 35 1 16 2 -13 1 35 
1 7 1 3 2 -3 1 -22 1 10 2 -10 1 4 1 3 
2 7 1 -4 1 -17 1342 1576 100 MP stroke
2 18 1 -8 1 -3 1 19 2 10 1 -20 1 11 2 -5 
1 13 1 3 2 10 1 -13 1 4 2 3 1 -5 1 5 
1 2 2 7 1 11 1 3 2 9 1 -6 1 -4 2 11 
1 1 1 -14 2 2 1 -12 1 18 1 -6 2 10 1 -8 
1 -7 2 7 1 7 1 -4 2 -3 1 11 1 26 2 32 
1 -22 1 3 1 8 2 18 1 -10 1 -6 2 -1 1 -11 
1 -25 2 11 1 -4 1 -5 2 -5 1 2 1 2 1 21 
2 -26 1 10 1 1 2 10 1 10 1 4 2 1 1 4 
1 -9 2 -12 1 -2 1 -8 1 -12 2 4 1 -16 1 -12 
2 -9 1 -4 1 -7 2 14 1 -11 1 9 2 15 1 -3 
1 14 1 13 2 3 1 -11 1 -6 2 -1 1 14 1 -12 
2 8 1 2 1 -1 2 -1 1 4 1 19 1 -13 2 -5 
1 -15 1 6 2 -8 1212 1504 100 MP stroke
1 5 1 5 2 2 1 -10 1 14 2 2 1 0 1 -16 
1 23 2 -8 1 8 1 15 2 11 1 12 1 -6 2 13 
1 -7 1 7 2 -15 1 3 1 -16 1 4 2 2 1 0 
1 9 2 0 1 -13 1 -4 2 -6 1 -12 1 -6 2 2 
1 -16 1 20 1 -4 2 12 1 -2 1 20 2 0 1 -7 
1 10 2 -4 1 -4 1 -7 2 -8 1 -8 1 -8 1 17 
2 0 1 11 1 -1 2 12 1 -4 1 2 2 -2 1 -2 
1 5 2 8 1 -9 1 14 1 19 2 -8 1 5 1 -5 
2 -3 1 6 1 2 2 10 1 -7 1 -7 2 8 1 -9 
1 11 1 -1 2 -1 1 9 1 -4 2 16 1 -1 1 11 
2 1 1 -4 1 16 2 3 1 -3 1 -9 1 -11 2 -2 
1 -5 1 0 2 2 1 11 1 -6 2 11 1 13 1 -7 
2 7 1 4 1 -14 1083 1383 100 MP stroke
1 -4 2 11 1 25 1 -1 2 3 1 12 1 -8 2 -7 
1 0 1 -1 2 11 1 4 1 -10 1 0 2 16 1 7 
1 23 2 -15 1 -5 1 12 2 -14 1 -5 1 -2 2 -13 
1 9 1 -6 1 15 2 26 1 -2 1 1 2 -8 1 -2 
1 -16 2 -3 1 -5 1 -1 2 4 1 13 1 24 1 -4 
2 10 1 -16 1 -12 2 -7 1 -10 1 7 2 1 1 1 
1 9 2 -10 1 -9 1 -9 1 -4 2 6 1 6 1 17 
2 3 1 -15 1 12 2 23 1 10 1 12 2 -1 1 1 
1 11 1 1 2 0 1 -7 1 6 2 -6 1 -9 1 12 
2 3 1 -1 1 4 2 11 1 -15 1 -5 1 5 2 -14 
1 -8 1 4 2 6 1 -17 1 3 2 -2 1 -11 1 0 
2 -2 1 15 1 -17 1 -21 2 -31 1 11 1 15 2 -1 
1 24 1 -1 2 12 953 1299 100 MP stroke
1 -4 1 -22 2 -9 1 9 1 -1 1 11 2 2 1 15 
1 5 2 3 1 -2 1 16 2 -5 1 12 1 -3 2 -2 
1 -7 1 15 1 12 2 3 1 7 1 -17 2 1 1 19 
1 3 2 1 1 -12 1 6 2 19 1 -18 1 -16 1 20 
2 13 1 -7 1 -11 2 1 1 -5 1 3 2 -11 1 -2 
1 -6 1 -8 899 1271 43 MP stroke
1 -3 1 0 0 3 3174 403 4 MP stroke
0 -5 2 -21 1 15 1 11 3187 403 5 MP stroke
0 -1 1 -8 2 3 0 6 3197 403 5 MP stroke
1 -11 2 -12 1 -2 1 5 2 -14 1 16 1 2 1 2 
2 -6 1 9 1 -4 2 4 1 11 1 0 3212 403 15 MP stroke
1 10 1 28 2 -7 1 5 1 3 2 -10 1 15 1 -15 
2 18 1 -1 1 18 1 0 2 -6 1 2 1 -16 2 -3 
1 -12 1 23 2 -4 1 -3 1 15 2 6 1 -10 1 7 
1 -17 2 -2 1 6 1 6 2 -3 1 -7 1 -4 2 -8 
1 -1 1 -1 2 -22 1 -10 1 -1 1 -17 2 -12 1 -18 
1 5 2 12 1 -4 1 14 2 8 1 -10 1 17 2 10 
1 8 1 6 1 4 2 -14 1 -8 1 -8 2 10 1 -9 
1 19 2 -6 1 -22 1 14 2 7 1 3 1 3 1 -6 
2 7 1 -6 1 7 2 -4 1 8 1 -3 2 4 1 10 
1 0 2 5 1 17 1 -5 1 -5 2 0 1 -4 1 9 
2 8 1 -2 1 6 2 10 1 13 1 -1 2 1 1 10 
1 8 1 -11 2 0 1 -12 1 -19 2 -6 1 2 1 8 
2 -27 1 15 1 6 6124 645 100 MP stroke
2 9 1 -22 1 -10 1 9 2 -3 1 -2 1 0 2 -8 
1 -22 1 -8 2 -1 1 4 1 -3 2 -6 1 -2 1 -2 
1 -8 2 -15 1 0 1 -6 2 1 1 -3 1 -1 2 5 
1 12 1 12 2 -10 1 -14 1 8 1 7 2 -15 1 0 
1 18 2 -23 1 -5 1 10 2 3 1 -7 1 -10 2 -7 
1 -4 1 3 1 -7 2 -6 1 7 1 26 2 20 1 8 
1 7 2 5 1 21 1 -10 2 5 1 -12 1 12 1 -2 
2 -16 1 -8 1 10 2 5 1 -3 1 -15 2 1 1 -10 
1 1 2 17 1 -10 1 -13 1 0 2 -19 1 -1 1 -5 
2 10 1 1 1 2 2 -14 1 2 1 -11 2 10 1 32 
1 -4 1 3 2 -7 1 -13 1 11 2 -7 1 5 1 -13 
2 -2 1 -11 1 16 2 -1 1 5 1 0 1 -4 2 -1 
1 20 1 -4 2 -4 5994 732 100 MP stroke
1 5 1 15 2 7 1 1 1 0 2 -12 1 -6 1 -26 
1 -12 2 8 1 8 1 2 2 -13 1 0 1 -10 2 -17 
1 3 1 8 2 -22 1 0 1 5 1 18 2 -6 1 -1 
1 19 2 8 1 -9 1 -6 2 4 1 -7 1 2 2 9 
1 -28 1 12 1 9 2 -19 1 21 1 4 2 6 1 -16 
1 -1 2 3 1 19 1 -1 2 -8 1 -5 1 0 1 9 
2 7 1 -4 1 9 2 -15 1 17 1 -21 2 -5 1 1 
1 8 2 12 1 1 1 28 1 13 2 -6 1 1 1 5 
2 8 1 -1 1 -26 2 -8 1 0 1 6 2 25 1 -11 
1 0 1 11 2 5 1 -2 1 8 2 -2 1 -2 1 -20 
2 4 1 -3 1 -1 2 -10 1 6 1 -15 1 2 2 -6 
1 12 1 0 2 8 1 -5 1 2 2 7 1 11 1 4 
2 -22 1 -23 1 9 5865 730 100 MP stroke
1 8 2 4 1 2 1 -25 2 4 1 -6 1 -5 2 -17 
1 1 1 -3 2 19 1 10 1 2 1 5 2 -29 1 12 
1 1 2 12 1 15 1 14 2 12 1 -4 1 7 2 -11 
1 10 1 -8 1 3 2 -16 1 -2 1 -6 2 5 1 4 
1 -2 2 -2 1 2 1 11 2 4 1 15 1 -12 1 5 
2 18 1 -10 1 8 2 -9 1 5 1 10 2 3 1 -10 
1 1 2 11 1 -12 1 2 1 2 2 -10 1 3 1 3 
2 6 1 -4 1 -1 2 17 1 -11 1 -12 2 8 1 -3 
1 4 1 -9 2 -10 1 -5 1 -12 2 0 1 3 1 2 
2 -2 1 -4 1 -8 2 -4 1 -3 1 -8 1 -10 2 -3 
1 -5 1 -6 2 10 1 10 1 11 2 6 1 -5 1 12 
2 3 1 23 1 -11 1 6 2 -14 1 -19 1 17 2 3 
1 5 1 6 2 5 5735 688 100 MP stroke
1 12 1 15 2 -5 1 10 1 6 1 -11 2 -3 1 -4 
1 8 2 1 1 6 1 6 2 21 1 -14 1 8 2 -5 
1 -15 1 8 1 0 2 8 1 -14 1 10 2 -22 1 6 
1 4 2 -9 1 6 1 2 2 4 1 7 1 -24 1 12 
2 -4 1 -13 1 -8 2 13 1 -9 1 -4 2 -3 1 -17 
1 -2 2 -6 1 5 1 9 1 14 2 -3 1 -21 1 -4 
2 8 1 2 1 9 2 12 1 6 1 -9 2 -12 1 9 
1 -8 1 10 2 3 1 5 1 2 2 -11 1 3 1 -4 
2 5 1 -3 1 7 2 -1 1 -5 1 0 1 -3 2 3 
1 -4 1 -15 2 -8 1 -7 1 -18 2 -14 1 1 1 -13 
2 -22 1 5 1 6 1 14 2 -9 1 12 1 -4 2 8 
1 22 1 17 2 14 1 -14 1 -9 2 -3 1 -20 1 4 
1 12 2 18 1 11 5606 695 100 MP stroke
1 -18 2 -10 1 4 1 8 2 -3 1 12 1 11 2 1 
1 -9 1 0 1 0 2 7 1 -4 1 -15 2 3 1 3 
1 12 2 0 1 0 1 -35 2 9 1 13 1 6 1 10 
2 -8 1 -12 1 3 2 -24 1 -8 1 8 2 7 1 7 
1 -12 2 3 1 -13 1 -9 1 25 2 13 1 15 1 -9 
2 -12 1 -13 1 -2 2 21 1 4 1 -17 2 -14 1 2 
1 0 1 2 2 14 1 6 1 -2 2 -9 1 -17 1 -2 
2 15 1 -4 1 -18 2 2 1 1 1 3 1 9 2 -1 
1 -12 1 0 2 -14 1 3 1 -2 2 -4 1 6 1 14 
2 1 1 -34 1 -13 1 6 2 -11 1 16 1 8 2 -3 
1 -5 1 -18 2 -4 1 8 1 15 2 16 1 7 1 -8 
1 20 2 4 1 -8 1 -1 2 -5 1 18 1 -1 2 -16 
1 -10 1 -23 2 -10 5476 796 100 MP stroke
1 -11 1 0 1 4 2 7 1 9 1 -7 2 -12 1 -20 
1 -6 2 -3 1 -16 1 -2 2 -2 1 6 1 16 1 -1 
2 2 1 -17 1 0 2 1 1 4 1 4 2 32 1 11 
1 30 2 -23 1 4 1 5 1 3 2 4 1 -5 1 4 
2 1 1 4 1 -1 2 8 1 3 1 -21 2 -31 1 -4 
1 -8 1 0 2 0 1 -8 1 0 2 -12 1 -2 1 -9 
2 13 1 -14 1 -9 2 18 1 -24 1 -2 1 -7 2 30 
1 3 1 -1 2 4 1 -2 1 2 2 5 1 7 1 8 
2 11 1 10 1 -13 1 10 2 1 1 -10 1 -4 2 -3 
1 -2 1 3 2 -11 1 -8 1 -10 2 18 1 -13 1 3 
1 9 2 2 1 -6 1 -15 2 5 1 -12 1 -2 2 -8 
1 -7 1 0 2 13 1 23 1 -18 1 -5 2 28 1 7 
1 27 2 4 1 -22 5347 819 100 MP stroke
1 5 2 3 1 -5 1 -1 2 11 1 -17 1 -3 1 -8 
2 25 1 6 1 -30 2 -17 1 19 1 3 2 19 1 7 
1 8 2 10 1 18 1 -7 1 18 2 5 1 -2 1 7 
2 11 1 4 1 -4 2 6 1 -8 1 4 2 9 1 16 
1 9 1 -11 2 6 1 -2 1 6 2 -1 1 -2 1 1 
2 5 1 0 1 -2 2 -15 1 15 1 4 1 7 2 5 
1 -1 1 4 2 -11 1 15 1 -8 2 15 1 2 1 25 
2 1 1 -2 1 -4 1 6 2 -26 1 2 1 8 2 7 
1 4 1 -6 2 10 1 -11 1 4 2 -8 1 8 1 11 
1 9 2 15 1 3 1 -10 2 -3 1 2 1 16 2 -7 
1 -2 1 -10 2 2 1 12 1 19 1 -5 2 19 1 -2 
1 5 2 -7 1 -2 1 4 2 -7 1 -12 1 -1 2 4 
1 11 1 -5 1 1 5218 588 100 MP stroke
2 10 1 -11 1 10 2 0 1 -10 1 2 2 -2 1 3 
1 16 2 -8 1 -3 1 -7 1 -17 2 -6 1 8 1 11 
2 7 1 1 1 -18 2 3 1 14 1 -9 2 14 1 11 
1 6 1 -6 2 1 1 -2 1 8 2 -4 1 2 1 10 
2 21 1 19 1 4 2 -8 1 -20 1 3 1 -9 2 0 
1 -4 1 19 2 -1 1 -4 1 3 2 -3 1 -18 1 1 
2 -4 1 0 1 14 1 -3 2 4 1 -3 1 -21 2 -4 
1 5 1 -23 2 -10 1 -11 1 -17 2 -11 1 -7 1 5 
1 7 2 -5 1 9 1 8 2 1 1 -16 1 1 2 -26 
1 -6 1 -8 2 -11 1 -8 1 15 1 -8 2 -6 1 17 
1 12 2 12 1 -4 1 -10 2 -8 1 -5 1 0 2 0 
1 11 1 8 1 0 2 15 1 -10 1 -1 2 7 1 -9 
1 -8 2 -2 1 13 5088 652 100 MP stroke
1 2 2 -13 1 6 1 -10 1 -14 2 -22 1 -15 1 6 
2 3 1 4 1 -8 2 5 1 -7 1 -10 2 19 1 25 
1 21 1 -10 2 4 1 0 1 -3 2 -6 1 -11 1 -3 
2 3 1 4 1 17 2 25 1 13 1 -3 1 13 2 -1 
1 7 1 -2 2 1 1 10 1 7 2 -28 1 -34 1 -6 
2 -17 1 -19 1 3 1 -8 2 3 1 17 1 -10 2 -1 
1 -11 1 2 2 -2 1 -24 1 -14 2 -7 1 0 1 1 
1 0 2 -21 1 13 1 12 2 17 1 -9 1 -12 2 -11 
1 -8 1 -4 2 -19 1 -22 1 12 1 5 2 -5 1 -10 
1 -11 2 -5 1 -1 1 -5 2 -3 1 -16 1 20 2 -4 
1 -6 1 -3 1 7 2 -13 1 0 1 -10 2 -4 1 12 
1 0 2 17 1 -15 1 4 2 -8 1 -15 1 7 1 -16 
2 6 1 -9 1 6 4959 877 100 MP stroke
2 -1 1 -12 1 -7 2 0 1 -13 1 -12 2 0 1 7 
1 -5 1 5 2 -8 1 18 1 14 2 4 1 3 1 -9 
2 31 1 0 1 -10 2 8 1 21 1 24 1 -18 2 -1 
1 3 1 -1 2 -13 1 14 1 2 2 1 1 25 1 -1 
1 0 2 -11 1 -5 1 -7 2 -4 1 2 1 13 2 -8 
1 2 1 1 2 -25 1 4 1 5 1 24 2 6 1 10 
1 17 2 11 1 22 1 -2 2 6 1 2 1 -9 2 -1 
1 1 1 22 1 -12 2 0 1 -16 1 5 2 1 1 -15 
1 14 2 16 1 -3 1 -3 2 1 1 -3 1 -21 1 -4 
2 2 1 1 1 2 2 5 1 28 1 -11 2 -11 1 -1 
1 -16 2 -8 1 11 1 2 1 31 2 -1 1 -10 1 -3 
2 4 1 10 1 10 2 3 1 2 1 14 2 -9 1 -3 
1 -20 1 5 2 -14 4829 749 100 MP stroke
1 8 1 3 2 17 1 5 1 2 2 -6 1 -13 1 7 
2 -21 1 1 1 4 1 4 2 -4 1 -7 1 2 2 10 
1 -7 1 8 2 1 1 2 1 -1 2 -3 1 10 1 -10 
1 -17 2 5 1 5 1 11 2 0 1 3 1 17 2 23 
1 5 1 1 2 -32 1 -14 1 -9 1 13 2 -17 1 7 
1 16 2 4 1 -8 1 -3 2 -7 1 -4 1 -13 2 0 
1 16 1 -11 1 -8 2 10 1 -2 1 7 2 -10 1 -4 
1 9 2 3 1 5 1 0 2 -24 1 -17 1 6 1 -1 
2 9 1 -17 1 -21 2 -3 1 3 1 4 2 5 1 12 
1 -2 2 -12 1 16 1 -7 1 7 2 -10 1 -5 1 0 
2 -5 1 -5 1 1 2 10 1 -3 1 0 2 1 1 1 
1 -19 1 8 2 -17 1 -7 1 18 2 -7 1 21 1 10 
2 -11 1 6 1 3 4700 788 100 MP stroke
2 3 1 -3 1 13 1 -6 2 -11 1 -14 1 -14 2 2 
1 -5 1 3 2 -10 1 -3 1 18 2 -13 1 7 1 19 
1 -2 2 -3 1 1 1 -26 2 -8 1 -4 1 9 2 7 
1 10 1 25 2 4 1 -2 1 0 1 -21 2 -3 1 13 
1 -18 2 8 1 -26 1 -10 2 -2 1 1 1 9 2 1 
1 26 1 -11 1 -7 2 17 1 -3 1 -10 2 9 1 2 
1 8 2 13 1 3 1 2 2 13 1 25 1 3 1 4 
2 -19 1 14 1 3 2 -15 1 5 1 -33 2 3 1 4 
1 -6 2 -16 1 1 1 19 1 -10 2 -1 1 -1 1 4 
2 7 1 -4 1 -21 2 5 1 -4 1 -4 2 -14 1 1 
1 12 1 -18 2 -7 1 4 1 -10 2 21 1 18 1 -3 
2 -8 1 -4 1 -19 2 0 1 -19 1 17 1 2 2 7 
1 -7 1 1 2 -6 4570 846 100 MP stroke
1 -15 1 1 2 -7 1 11 1 3 2 -23 1 11 1 -9 
1 2 2 -3 1 -3 1 -7 2 -6 1 15 1 -11 2 15 
1 11 1 4 2 1 1 0 1 7 1 -7 2 -9 1 23 
1 -9 2 4 1 5 1 3 2 6 1 0 1 3 2 -6 
1 27 1 6 1 2 2 1 1 15 1 6 2 16 1 -10 
1 3 2 -19 1 -13 1 2 2 3 1 -14 1 13 1 7 
2 4 1 -4 1 -6 2 -1 1 8 1 -3 2 -18 1 15 
1 5 2 4 1 -7 1 -16 1 -11 2 -10 1 20 1 11 
2 -3 1 9 1 7 2 -4 1 -4 1 1 2 -5 1 0 
1 3 1 -3 2 -20 1 -6 1 4 2 4 1 13 1 11 
2 -14 1 -17 1 -1 2 -3 1 1 1 4 1 -20 2 1 
1 -10 1 5 2 4 1 -7 1 11 2 -4 1 1 1 0 
2 3 1 4 1 10 4441 825 100 MP stroke
1 -13 2 -3 1 7 1 9 2 -26 1 0 1 14 2 -5 
1 0 1 15 2 -4 1 11 1 3 1 8 2 -13 1 1 
1 20 2 6 1 6 1 25 2 -5 1 -20 1 -13 2 0 
1 11 1 12 1 14 2 16 1 -7 1 12 2 8 1 4 
1 -3 2 20 1 -15 1 4 2 -3 1 3 1 6 1 -6 
2 8 1 -6 1 18 2 16 1 9 1 -35 2 19 1 -5 
1 -6 2 4 1 -3 1 17 1 -5 2 18 1 11 1 -19 
2 8 1 27 1 -7 2 -10 1 -7 1 -17 2 9 1 -17 
1 12 1 -16 2 4 1 27 1 1 2 9 1 -10 1 -12 
2 20 1 11 1 6 2 -11 1 3 1 -31 1 -11 2 -6 
1 9 1 12 2 -7 1 7 1 20 2 2 1 -9 1 -3 
2 -1 1 -13 1 3 1 3 2 8 1 -14 1 -1 2 -32 
1 3 1 0 2 14 4311 702 100 MP stroke
1 11 1 -3 2 2 1 -29 1 5 1 -8 2 17 1 -19 
1 -7 2 5 1 0 1 -5 2 9 1 -11 1 -26 2 -14 
1 -10 1 -6 1 14 2 -7 1 11 1 0 2 24 1 -6 
1 -1 2 -11 1 2 1 0 2 -3 1 3 1 -16 1 -9 
2 4 1 0 1 22 2 17 1 -2 1 6 2 6 1 6 
1 8 2 9 1 1 1 23 1 -15 2 7 1 20 1 -5 
2 12 1 -5 1 -2 2 7 1 -1 1 11 2 -18 1 -1 
1 6 1 -14 2 8 1 -1 1 -4 2 -3 1 16 1 4 
2 -29 1 -11 1 7 2 -3 1 -11 1 0 1 11 2 6 
1 4 1 -7 2 -28 1 5 1 3 2 0 1 -2 1 3 
2 14 1 -11 1 -1 1 -19 2 -10 1 0 1 -10 2 8 
1 -14 1 15 2 11 1 3 1 8 2 -19 1 16 1 10 
1 14 2 6 1 -10 4182 709 100 MP stroke
1 -1 2 0 1 -8 1 -17 2 -4 1 -5 1 1 2 18 
1 9 1 12 1 18 2 -6 1 0 1 -11 2 -2 1 6 
1 -14 2 7 1 -20 1 -4 2 -6 1 3 1 2 1 -2 
2 -10 1 5 1 -1 2 22 1 -6 1 1 2 12 1 -2 
1 -12 2 -1 1 -5 1 -3 1 -15 2 -14 1 -12 1 -6 
2 -8 1 -13 1 6 2 24 1 10 1 -11 2 -5 1 -3 
1 20 1 -3 2 3 1 -5 1 13 2 11 1 17 1 4 
2 -5 1 -7 1 15 2 -4 1 4 1 16 1 7 2 10 
1 -30 1 -20 2 1 1 3 1 0 2 16 1 -3 1 4 
2 -13 1 -4 1 12 1 -24 2 5 1 24 1 2 2 -18 
1 12 1 3 2 -8 1 9 1 -13 2 -6 1 -12 1 -8 
1 -16 2 13 1 -6 1 -6 2 -1 1 19 1 14 2 -3 
1 4 1 -8 2 -13 4052 755 100 MP stroke
1 -7 1 -9 1 7 2 32 1 -1 1 0 2 -11 1 2 
1 5 2 6 1 -1 1 -15 2 28 1 -3 1 -13 1 -10 
2 4 1 -12 1 6 2 -9 1 19 1 -8 2 12 1 -2 
1 12 2 -10 1 8 1 -2 1 8 2 2 1 -10 1 0 
2 -9 1 3 1 -2 2 4 1 -3 1 -7 2 8 1 15 
1 4 1 1 2 4 1 14 1 -4 2 10 1 -12 1 10 
2 -2 1 2 1 -3 2 -17 1 -10 1 -8 1 5 2 -1 
1 -6 1 9 2 6 1 -11 1 -2 2 3 1 -13 1 -1 
2 -13 1 -11 1 -5 1 3 2 5 1 7 1 -11 2 -4 
1 0 1 14 2 4 1 6 1 0 2 16 1 -20 1 -3 
1 23 2 7 1 -2 1 17 2 13 1 -13 1 2 2 -2 
1 4 1 15 2 -8 1 3 1 -16 1 6 2 -3 1 -21 
1 1 2 -22 1 5 3923 743 100 MP stroke
1 8 2 -4 1 7 1 11 2 -6 1 0 1 -3 1 6 
2 -6 1 -12 1 -2 2 -8 1 1 1 26 2 -10 1 29 
1 -30 2 12 1 0 1 4 1 17 2 -3 1 4 1 -5 
2 6 1 -3 1 4 2 7 1 17 1 -6 2 2 1 -7 
1 2 1 7 2 2 1 -4 1 0 2 29 1 32 1 0 
2 3 1 0 1 7 2 6 1 20 1 -1 1 0 2 -12 
1 -28 1 -15 2 -16 1 14 1 5 2 -11 1 -8 1 -4 
2 0 1 1 1 6 1 20 2 10 1 -12 1 11 2 -6 
1 -12 1 -1 2 -2 1 0 1 5 2 12 1 -7 1 0 
1 -14 2 20 1 -10 1 -5 2 -12 1 -4 1 -9 2 -6 
1 0 1 -7 2 21 1 9 1 -3 1 6 2 1 1 11 
1 -10 2 17 1 -1 1 9 2 -2 1 -11 1 -16 2 9 
1 -1 1 7 1 -5 3794 640 100 MP stroke
2 9 1 -12 1 14 2 -14 1 14 1 -18 2 0 1 -23 
1 -6 2 8 1 15 1 2 1 16 2 -2 1 13 1 -8 
2 10 1 -19 1 -2 2 -8 1 1 1 8 2 6 1 -26 
1 16 1 -8 2 1 1 0 1 -16 2 10 1 -18 1 11 
2 2 1 -4 1 14 2 1 1 11 1 4 1 -8 2 9 
1 -10 1 5 2 3 1 9 1 2 2 -20 1 2 1 9 
2 -6 1 -11 1 -12 1 4 2 4 1 17 1 3 2 -7 
1 -1 1 25 2 17 1 14 1 -3 2 -2 1 -14 1 20 
1 20 2 -4 1 7 1 10 2 -4 1 22 1 11 2 -5 
1 4 1 14 2 -3 1 -4 1 12 1 -2 2 -15 1 4 
1 5 2 -5 1 -24 1 12 2 -6 1 9 1 -8 2 -9 
1 3 1 -13 1 3 2 12 1 3 1 -17 2 -1 1 -5 
1 0 2 -12 1 -17 3664 592 100 MP stroke
1 6 2 0 1 0 1 9 1 3 2 -3 1 17 1 -1 
2 -19 1 4 1 -7 2 -11 1 15 1 9 2 -16 1 1 
1 7 1 0 2 -3 1 1 1 -7 2 -11 1 10 1 8 
2 0 1 -14 1 -7 2 -22 1 -11 1 -9 1 16 2 4 
1 17 1 -7 2 1 1 12 1 -10 2 3 1 11 1 1 
2 6 1 2 1 -20 1 -2 2 -7 1 10 1 8 2 7 
1 -8 1 -5 2 22 1 -7 1 6 2 -19 1 -7 1 11 
1 4 2 -8 1 7 1 -3 2 2 1 6 1 10 2 4 
1 -5 1 8 1 8 2 -24 1 2 1 -3 2 4 1 -18 
1 14 2 -3 1 -3 1 -17 2 1 1 -6 1 10 1 -15 
2 6 1 -1 1 4 2 -11 1 -6 1 1 2 2 1 -4 
1 7 2 -10 1 14 1 -1 1 -17 2 4 1 16 1 8 
2 -8 1 10 1 5 3535 604 100 MP stroke
2 -19 1 5 1 2 2 -11 1 13 1 -2 1 -1 2 1 
1 -4 1 14 2 16 1 -22 1 -7 2 -8 1 6 1 -4 
2 4 1 3 1 -11 1 -4 2 -6 1 -3 1 -14 2 5 
1 -1 1 -17 2 -7 1 -9 1 -10 2 2 1 16 1 -2 
1 20 2 -6 1 6 1 13 2 -2 1 1 1 12 2 19 
1 -2 1 -2 2 10 1 -4 1 16 1 21 2 17 1 -2 
1 -10 2 2 1 9 1 3 2 -4 1 -12 1 -25 2 -14 
1 5 1 -16 1 10 2 10 1 -4 1 8 2 -14 1 7 
1 -16 2 7 1 2 1 -7 2 11 1 -2 1 -1 1 -8 
2 8 1 -6 1 3 2 15 1 -5 1 19 2 -12 1 -2 
1 11 2 10 1 -2 1 17 1 5 2 -13 1 -13 1 9 
2 -11 1 4 1 15 2 7 1 9 1 10 2 -2 1 7 
1 0 1 6 2 3 3405 529 100 MP stroke
1 -18 1 3 2 -11 1 4 1 2 2 -2 1 4 1 3 
2 12 1 -4 1 6 1 0 2 -3 1 -7 1 2 2 3 
1 4 1 2 2 5 1 -5 1 5 2 -2 1 -10 1 -15 
1 -2 2 -4 1 -3 1 11 2 -25 1 17 1 -23 2 -5 
1 8 1 10 2 11 1 -4 1 7 1 -19 2 2 1 22 
1 7 2 5 1 -4 1 10 2 -12 1 7 1 1 2 5 
1 -16 1 3 1 -15 2 12 1 1 1 -13 2 -10 1 7 
1 2 2 -1 1 -17 1 -10 2 -9 1 5 1 -4 1 -5 
2 7 1 8 1 -21 2 -3 1 11 1 5 2 -18 1 3 
1 -10 2 12 1 1 1 -4 1 8 2 -4 1 22 1 9 
2 -21 1 23 1 2 2 -3 1 -2 1 -8 2 1 1 3 
1 5 1 -18 2 23 1 15 1 15 2 19 1 -8 1 -8 
2 11 1 -16 1 8 3276 532 100 MP stroke
2 10 1 5 1 -11 1 -5 2 0 1 0 1 -12 2 -5 
1 8 1 -10 2 21 1 6 1 30 2 -1 1 -4 1 16 
1 6 2 -22 1 1 1 28 2 22 1 1 1 9 2 -7 
1 -10 1 34 2 14 1 -3 1 -7 1 7 2 8 1 -7 
1 -6 2 1 1 12 3230 403 36 MP stroke
gr

c8
0 sg
3409 2446 mt 
(t \(sec\)) s
%%IncludeResource: font Symbol
/Symbol /ISOLatin1Encoding 120 FMSR

 638 1522 mt  -90 rotate
(Q) s
90 rotate
%%IncludeResource: font Helvetica
/Helvetica /ISOLatin1Encoding 120 FMSR

 638 1434 mt  -90 rotate
(\(t\) \(rad\)) s
90 rotate
3100  254 mt 
(f) s
%%IncludeResource: font Helvetica
/Helvetica /ISOLatin1Encoding 96 FMSR

3133  314 mt 
(HWHM) s
%%IncludeResource: font Helvetica
/Helvetica /ISOLatin1Encoding 120 FMSR

3442  254 mt 
( = 0.125 Hz) s
1 sg
0 1755 5356 0 0 -1755 899 4615 4 MP
PP
-5356 0 0 1755 5356 0 0 -1755 899 4615 5 MP stroke
4 w
DO
SO
6 w
0 sg
 899 4615 mt 6255 4615 L
 899 2860 mt 6255 2860 L
 899 4615 mt  899 2860 L
6255 4615 mt 6255 2860 L
 899 4615 mt 6255 4615 L
 899 4615 mt  899 2860 L
 899 4615 mt  899 4561 L
 899 2860 mt  899 2913 L
 866 4760 mt 
(0) s
1568 4615 mt 1568 4561 L
1568 2860 mt 1568 2913 L
1485 4760 mt 
(0.5) s
2238 4615 mt 2238 4561 L
2238 2860 mt 2238 2913 L
2205 4760 mt 
(1) s
2907 4615 mt 2907 4561 L
2907 2860 mt 2907 2913 L
2824 4760 mt 
(1.5) s
3577 4615 mt 3577 4561 L
3577 2860 mt 3577 2913 L
3544 4760 mt 
(2) s
4246 4615 mt 4246 4561 L
4246 2860 mt 4246 2913 L
4163 4760 mt 
(2.5) s
4916 4615 mt 4916 4561 L
4916 2860 mt 4916 2913 L
4883 4760 mt 
(3) s
5585 4615 mt 5585 4561 L
5585 2860 mt 5585 2913 L
5502 4760 mt 
(3.5) s
6255 4615 mt 6255 4561 L
6255 2860 mt 6255 2913 L
6222 4760 mt 
(4) s
 899 4615 mt  952 4615 L
6255 4615 mt 6201 4615 L
 628 4659 mt 
(-1.5) s
 899 4322 mt  952 4322 L
6255 4322 mt 6201 4322 L
 728 4366 mt 
(-1) s
 899 4030 mt  952 4030 L
6255 4030 mt 6201 4030 L
 628 4074 mt 
(-0.5) s
 899 3737 mt  952 3737 L
6255 3737 mt 6201 3737 L
 798 3781 mt 
(0) s
 899 3445 mt  952 3445 L
6255 3445 mt 6201 3445 L
 698 3489 mt 
(0.5) s
 899 3152 mt  952 3152 L
6255 3152 mt 6201 3152 L
 798 3196 mt 
(1) s
 899 2860 mt  952 2860 L
6255 2860 mt 6201 2860 L
 698 2904 mt 
(1.5) s
 899 4615 mt 6255 4615 L
 899 2860 mt 6255 2860 L
 899 4615 mt  899 2860 L
6255 4615 mt 6255 2860 L
gs 899 2860 5357 1756 MR c np
/c9 { 1.000000 0.000000 0.000000 sr} bdef
c9
1 0 1 0 2 0 1 0 1 0 2 0 1 0 1 0 
2 0 1 0 1 0 1 0 2 0 1 0 1 0 2 0 
1 0 1 0 2 0 1 0 1 0 2 0 1 0 1 0 
1 0 2 0 1 0 1 0 2 0 1 0 1 0 2 0 
1 0 1 0 2 0 1 0 1 0 1 0 2 0 1 0 
1 0 2 0 1 0 1 0 2 0 1 0 1 0 2 0 
1 0 1 0 1 0 2 0 1 0 1 0 2 0 1 0 
1 0 2 0 1 0 1 0 2 0 1 0 1 0 1 0 
2 0 1 0 1 0 2 0 1 0 1 0 2 0 1 0 
1 0 2 0 1 0 1 0 1 0 2 0 1 0 1 0 
2 0 1 0 1 0 2 0 1 0 1 0 2 0 1 0 
1 0 1 0 2 0 1 0 1 0 2 0 1 0 1 0 
2 0 1 0 1 0 6124 2952 100 MP stroke
2 0 1 0 1 0 1 0 2 0 1 0 1 0 2 0 
1 0 1 0 2 0 1 0 1 0 2 0 1 0 1 0 
1 0 2 0 1 0 1 0 2 0 1 0 1 0 2 0 
1 0 1 0 2 0 1 0 1 0 1 0 2 0 1 0 
1 0 2 0 1 0 1 0 2 0 1 0 1 0 2 0 
1 0 1 0 1 0 2 0 1 0 1 0 2 0 1 0 
1 0 2 0 1 0 1 0 2 0 1 0 1 0 1 0 
2 0 1 0 1 0 2 0 1 0 1 0 2 0 1 0 
1 0 2 0 1 0 1 0 1 0 2 0 1 0 1 0 
2 0 1 0 1 0 2 0 1 0 1 0 2 0 1 0 
1 0 1 0 2 0 1 0 1 0 2 0 1 0 1 0 
2 0 1 0 1 0 2 0 1 0 1 0 1 0 2 0 
1 0 1 0 2 0 5994 2952 100 MP stroke
1 0 1 0 2 0 1 0 1 0 2 0 1 0 1 0 
1 0 2 0 1 0 1 0 2 0 1 0 1 0 2 0 
1 0 1 0 2 0 1 0 1 0 1 0 2 0 1 0 
1 0 2 0 1 0 1 0 2 0 1 0 1 0 2 0 
1 0 1 0 1 0 2 0 1 0 1 0 2 0 1 0 
1 0 2 0 1 0 1 0 2 0 1 0 1 0 1 0 
2 0 1 0 1 0 2 0 1 0 1 0 2 0 1 0 
1 0 2 0 1 0 1 0 1 0 2 0 1 0 1 0 
2 0 1 0 1 0 2 0 1 0 1 0 2 0 1 0 
1 0 1 0 2 0 1 0 1 0 2 0 1 0 1 0 
2 0 1 0 1 0 2 0 1 0 1 0 1 0 2 0 
1 0 1 0 2 0 1 0 1 0 2 0 1 0 1 0 
2 0 1 0 1 0 5865 2952 100 MP stroke
1 0 2 0 1 0 1 0 2 0 1 0 1 0 2 0 
1 0 1 0 2 0 1 0 1 0 1 0 2 0 1 0 
1 0 2 0 1 0 1 0 2 0 1 0 1 0 2 0 
1 0 1 0 1 0 2 0 1 0 1 0 2 0 1 0 
1 0 2 0 1 0 1 0 2 0 1 0 1 0 1 0 
2 0 1 0 1 0 2 0 1 0 1 0 2 0 1 0 
1 0 2 0 1 0 1 0 1 0 2 0 1 0 1 0 
2 0 1 0 1 0 2 0 1 0 1 0 2 0 1 0 
1 0 1 0 2 0 1 0 1 0 2 0 1 0 1 0 
2 0 1 0 1 0 2 0 1 0 1 0 1 0 2 0 
1 0 1 0 2 0 1 0 1 0 2 0 1 0 1 0 
2 0 1 0 1 0 1 0 2 0 1 0 1 0 2 0 
1 0 1 0 2 0 5735 2952 100 MP stroke
1 0 1 0 2 0 1 0 1 0 1 0 2 0 1 0 
1 0 2 0 1 0 1 0 2 0 1 0 1 0 2 0 
1 0 1 0 1 0 2 0 1 0 1 0 2 0 1 0 
1 0 2 0 1 0 1 0 2 0 1 0 1 0 1 0 
2 0 1 0 1 0 2 0 1 0 1 0 2 0 1 0 
1 0 2 0 1 0 1 0 1 0 2 0 1 0 1 0 
2 0 1 0 1 0 2 0 1 0 1 0 2 0 1 0 
1 0 1 0 2 0 1 0 1 0 2 0 1 0 1 0 
2 0 1 0 1 0 2 0 1 0 1 0 1 0 2 0 
1 0 1 0 2 0 1 0 1 0 2 0 1 0 1 0 
2 0 1 0 1 0 1 0 2 0 1 0 1 0 2 0 
1 0 1 0 2 0 1 0 1 0 2 0 1 0 1 0 
1 0 2 0 1 0 5606 2952 100 MP stroke
1 0 2 0 1 0 1 0 2 0 1 0 1 0 2 0 
1 0 1 0 1 0 2 0 1 0 1 0 2 0 1 0 
1 0 2 0 1 0 1 0 2 0 1 0 1 0 1 0 
2 0 1 0 1 0 2 0 1 0 1 0 2 0 1 0 
1 0 2 0 1 0 1 0 1 0 2 0 1 0 1 0 
2 0 1 0 1 0 2 0 1 0 1 0 2 0 1 0 
1 0 1 0 2 0 1 0 1 0 2 0 1 0 1 0 
2 0 1 0 1 0 2 0 1 0 1 0 1 0 2 0 
1 0 1 0 2 0 1 0 1 0 2 0 1 0 1 0 
2 0 1 0 1 0 1 0 2 0 1 0 1 0 2 0 
1 0 1 0 2 0 1 0 1 0 2 0 1 0 1 0 
1 0 2 0 1 0 1 0 2 0 1 0 1 0 2 0 
1 0 1 0 2 0 5476 2952 100 MP stroke
1 0 1 0 1 0 2 0 1 0 1 0 2 0 1 0 
1 0 2 0 1 0 1 0 2 0 1 0 1 0 1 0 
2 0 1 0 1 0 2 0 1 0 1 0 2 0 1 0 
1 0 2 0 1 0 1 0 1 0 2 0 1 0 1 0 
2 0 1 0 1 0 2 0 1 0 1 0 2 0 1 0 
1 0 1 0 2 0 1 0 1 0 2 0 1 0 1 0 
2 0 1 0 1 0 2 0 1 0 1 0 1 0 2 0 
1 0 1 0 2 0 1 0 1 0 2 0 1 0 1 0 
2 0 1 0 1 0 1 0 2 0 1 0 1 0 2 0 
1 0 1 0 2 0 1 0 1 0 2 0 1 0 1 0 
1 0 2 0 1 0 1 0 2 0 1 0 1 0 2 0 
1 0 1 0 2 0 1 0 1 0 1 0 2 0 1 0 
1 0 2 0 1 0 5347 2952 100 MP stroke
1 0 2 0 1 0 1 0 2 0 1 0 1 0 1 0 
2 0 1 0 1 0 2 0 1 0 1 0 2 0 1 0 
1 0 2 0 1 0 1 0 1 0 2 0 1 0 1 0 
2 0 1 0 1 0 2 0 1 0 1 0 2 0 1 0 
1 0 1 0 2 0 1 0 1 0 2 0 1 0 1 0 
2 0 1 0 1 0 2 0 1 0 1 0 1 0 2 0 
1 0 1 0 2 0 1 0 1 0 2 0 1 0 1 0 
2 0 1 0 1 0 1 0 2 0 1 0 1 0 2 0 
1 0 1 0 2 0 1 0 1 0 2 0 1 0 1 0 
1 0 2 0 1 0 1 0 2 0 1 0 1 0 2 0 
1 0 1 0 2 0 1 0 1 0 1 0 2 0 1 0 
1 0 2 0 1 0 1 0 2 0 1 0 1 0 2 0 
1 0 1 0 1 0 5218 2952 100 MP stroke
2 0 1 0 1 0 2 0 1 0 1 0 2 0 1 0 
1 0 2 0 1 0 1 0 1 0 2 0 1 0 1 0 
2 0 1 0 1 0 2 0 1 0 1 0 2 0 1 0 
1 0 1 0 2 0 1 0 1 0 2 0 1 0 1 0 
2 0 1 0 1 0 2 0 1 0 1 0 1 0 2 0 
1 0 1 0 2 0 1 0 1 0 2 0 1 0 1 0 
2 0 1 0 1 0 1 0 2 0 1 0 1 0 2 0 
1 0 1 0 2 0 1 0 1 0 2 0 1 0 1 0 
1 0 2 0 1 0 1 0 2 0 1 0 1 0 2 0 
1 0 1 0 2 0 1 0 1 0 1 0 2 0 1 0 
1 0 2 0 1 0 1 0 2 0 1 0 1 0 2 0 
1 0 1 0 1 0 2 0 1 0 1 0 2 0 1 0 
1 0 2 0 1 0 5088 2952 100 MP stroke
1 0 2 0 1 0 1 0 1 0 2 0 1 0 1 0 
2 0 1 0 1 0 2 0 1 0 1 0 2 0 1 0 
1 0 1 0 2 0 1 0 1 0 2 0 1 0 1 0 
2 0 1 0 1 0 2 0 1 0 1 0 1 0 2 0 
1 0 1 0 2 0 1 0 1 0 2 0 1 0 1 0 
2 0 1 0 1 0 1 0 2 0 1 0 1 0 2 0 
1 0 1 0 2 0 1 0 1 0 2 0 1 0 1 0 
1 0 2 0 1 0 1 0 2 0 1 0 1 0 2 0 
1 0 1 0 2 0 1 0 1 0 1 0 2 0 1 0 
1 0 2 0 1 0 1 0 2 0 1 0 1 0 2 0 
1 0 1 0 1 0 2 0 1 0 1 0 2 0 1 0 
1 0 2 0 1 0 1 0 2 0 1 0 1 0 1 0 
2 0 1 0 1 0 4959 2952 100 MP stroke
2 0 1 0 1 0 2 0 1 0 1 0 2 0 1 0 
1 0 1 0 2 0 1 0 1 0 2 0 1 0 1 0 
2 0 1 0 1 0 2 0 1 0 1 0 1 0 2 0 
1 0 1 0 2 0 1 0 1 0 2 0 1 0 1 0 
1 0 2 -1570 1 0 1 0 2 0 1 0 1 0 2 0 
1 0 1 0 2 0 1 0 1 0 1 0 2 0 1 0 
1 0 2 0 1 0 1 0 2 0 1 0 1 0 2 0 
1 0 1 0 1 0 2 0 1 0 1 0 2 0 1 0 
1 0 2 0 1 0 1 0 2 0 1 0 1 0 1 0 
2 0 1 0 1 0 2 0 1 0 1 0 2 0 1 0 
1 0 2 0 1 0 1 0 1 0 2 0 1 0 1 0 
2 0 1 0 1 0 2 0 1 0 1 0 2 0 1 0 
1 0 1 0 2 0 4829 4522 100 MP stroke
1 0 1 0 2 0 1 0 1 0 2 0 1 0 1 0 
2 0 1 0 1 0 1 0 2 0 1 0 1 0 2 0 
1 0 1 0 2 0 1 0 1 0 2 0 1 0 1 0 
1 0 2 0 1 0 1 0 2 0 1 0 1 0 2 0 
1 0 1 0 2 0 1 0 1 0 1 0 2 0 1 0 
1 0 2 0 1 0 1 0 2 0 1 0 1 0 2 0 
1 0 1 0 1 0 2 0 1 0 1 0 2 0 1 0 
1 0 2 0 1 0 1 0 2 0 1 0 1 0 1 0 
2 0 1 0 1 0 2 0 1 0 1 0 2 0 1 0 
1 0 2 0 1 0 1 0 1 0 2 0 1 0 1 0 
2 0 1 0 1 0 2 0 1 0 1 0 2 0 1 0 
1 0 1 0 2 0 1 0 1 0 2 0 1 0 1 0 
2 0 1 0 1 0 4700 4522 100 MP stroke
2 0 1 0 1 0 1 0 2 0 1 0 1 0 2 0 
1 0 1 0 2 0 1 0 1 0 2 0 1 0 1 0 
1 0 2 0 1 0 1 0 2 0 1 0 1 0 2 0 
1 0 1 0 2 0 1 0 1 0 1 0 2 0 1 0 
1 0 2 0 1 0 1 0 2 0 1 0 1 0 2 0 
1 0 1 0 1 0 2 0 1 0 1 0 2 0 1 0 
1 0 2 0 1 0 1 0 2 0 1 0 1 0 1 0 
2 0 1 0 1 0 2 0 1 0 1 0 2 0 1 0 
1 0 2 0 1 0 1 0 1 0 2 0 1 0 1 0 
2 0 1 0 1 0 2 0 1 0 1 0 2 0 1 0 
1 0 1 0 2 0 1 0 1 0 2 0 1 0 1 0 
2 0 1 0 1 0 2 0 1 0 1 0 1 0 2 0 
1 0 1 0 2 0 4570 4522 100 MP stroke
1 0 1 0 2 0 1 0 1 0 2 0 1 0 1 0 
1 0 2 0 1 0 1 0 2 0 1 0 1 0 2 0 
1 0 1 0 2 0 1 0 1 0 1 0 2 0 1 0 
1 0 2 0 1 0 1 0 2 0 1 0 1 0 2 0 
1 0 1 0 1 0 2 0 1 0 1 0 2 0 1 0 
1 0 2 0 1 0 1 0 2 0 1 0 1 0 1 0 
2 0 1 0 1 0 2 0 1 0 1 0 2 0 1 0 
1 0 2 0 1 0 1 0 1 0 2 0 1 0 1 0 
2 0 1 0 1 0 2 0 1 0 1 0 2 0 1 0 
1 0 1 0 2 0 1 0 1 0 2 0 1 0 1 0 
2 0 1 0 1 0 2 0 1 0 1 0 1 0 2 0 
1 0 1 0 2 0 1 0 1 0 2 0 1 0 1 0 
2 0 1 0 1 0 4441 4522 100 MP stroke
1 0 2 0 1 0 1 0 2 0 1 0 1 0 2 0 
1 0 1 0 2 0 1 0 1 0 1 0 2 0 1 0 
1 0 2 0 1 0 1 0 2 0 1 0 1 0 2 0 
1 0 1 0 1 0 2 0 1 0 1 0 2 0 1 0 
1 0 2 0 1 0 1 0 2 0 1 0 1 0 1 0 
2 0 1 0 1 0 2 0 1 0 1 0 2 0 1 0 
1 0 2 0 1 0 1 0 1 0 2 0 1 0 1 0 
2 0 1 0 1 0 2 0 1 0 1 0 2 0 1 0 
1 0 1 0 2 0 1 0 1 0 2 0 1 0 1 0 
2 0 1 0 1 0 2 0 1 0 1 0 1 0 2 0 
1 0 1 0 2 0 1 0 1 0 2 0 1 0 1 0 
2 0 1 0 1 0 1 0 2 0 1 0 1 0 2 0 
1 0 1 0 2 0 4311 4522 100 MP stroke
1 0 1 0 2 0 1 0 1 0 1 0 2 0 1 0 
1 0 2 0 1 0 1 0 2 0 1 0 1 0 2 0 
1 0 1 0 1 0 2 0 1 0 1 0 2 0 1 0 
1 0 2 0 1 0 1 0 2 0 1 0 1 0 1 0 
2 0 1 0 1 0 2 0 1 0 1 0 2 0 1 0 
1 0 2 0 1 0 1 0 1 0 2 0 1 0 1 0 
2 0 1 0 1 0 2 0 1 0 1 0 2 0 1 0 
1 0 1 0 2 0 1 0 1 0 2 0 1 0 1 0 
2 0 1 0 1 0 2 0 1 0 1 0 1 0 2 0 
1 0 1 0 2 0 1 0 1 0 2 0 1 0 1 0 
2 0 1 0 1 0 1 0 2 0 1 0 1 0 2 0 
1 0 1 0 2 0 1 0 1 0 2 0 1 0 1 0 
1 0 2 0 1 0 4182 4522 100 MP stroke
1 0 2 0 1 0 1 0 2 0 1 0 1 0 2 0 
1 0 1 0 1 0 2 0 1 0 1 0 2 0 1 0 
1 0 2 0 1 0 1 0 2 0 1 0 1 0 1 0 
2 0 1 0 1 0 2 0 1 0 1 0 2 0 1 0 
1 0 2 0 1 0 1 0 1 0 2 0 1 0 1 0 
2 0 1 0 1 0 2 0 1 0 1 0 2 0 1 0 
1 0 1 0 2 0 1 0 1 0 2 0 1 0 1 0 
2 0 1 0 1 0 2 0 1 0 1 0 1 0 2 0 
1 0 1 0 2 0 1 0 1 0 2 0 1 0 1 0 
2 0 1 0 1 0 1 0 2 0 1 0 1 0 2 0 
1 0 1 0 2 0 1 0 1 0 2 0 1 0 1 0 
1 0 2 0 1 0 1 0 2 0 1 0 1 0 2 0 
1 0 1 0 2 0 4052 4522 100 MP stroke
1 0 1 0 1 0 2 0 1 0 1 0 2 0 1 0 
1 0 2 0 1 0 1 0 2 0 1 0 1 0 1 0 
2 0 1 0 1 0 2 0 1 0 1 0 2 0 1 0 
1 0 2 0 1 0 1 0 1 0 2 0 1 0 1 0 
2 0 1 0 1 0 2 0 1 0 1 0 2 0 1 0 
1 0 1 0 2 0 1 0 1 0 2 0 1 0 1 0 
2 0 1 0 1 0 2 0 1 0 1 0 1 0 2 0 
1 0 1 0 2 0 1 0 1 0 2 0 1 0 1 0 
2 0 1 0 1 0 1 0 2 0 1 0 1 0 2 0 
1 0 1 0 2 0 1 0 1 0 2 0 1 0 1 0 
1 0 2 0 1 0 1 0 2 0 1 0 1 0 2 0 
1 0 1 0 2 0 1 0 1 0 1 0 2 0 1 0 
1 0 2 0 1 0 3923 4522 100 MP stroke
1 0 2 0 1 0 1 0 2 0 1 0 1 0 1 0 
2 0 1 0 1 0 2 0 1 0 1 0 2 0 1 0 
1 0 2 0 1 0 1 0 1 0 2 0 1 0 1 0 
2 0 1 0 1 0 2 0 1 0 1 0 2 0 1 0 
1 0 1 0 2 0 1 0 1 0 2 0 1 0 1 0 
2 0 1 0 1 0 2 0 1 0 1 0 1 0 2 0 
1 0 1 0 2 0 1 0 1 0 2 0 1 0 1 0 
2 0 1 0 1 0 1 0 2 0 1 0 1 0 2 0 
1 0 1 0 2 0 1 0 1 0 2 0 1 0 1 0 
1 0 2 0 1 0 1 0 2 0 1 0 1 0 2 0 
1 0 1 0 2 0 1 0 1 0 1 0 2 0 1 0 
1 0 2 0 1 0 1 0 2 0 1 0 1 0 2 0 
1 0 1 0 1 0 3794 4522 100 MP stroke
2 0 1 0 1 0 2 0 1 0 1 0 2 0 1 0 
1 0 2 0 1 0 1 0 1 0 2 0 1 0 1 0 
2 0 1 0 1 0 2 0 1 0 1 0 2 0 1 0 
1 0 1 0 2 0 1 0 1 0 2 0 1 0 1 0 
2 0 1 0 1 0 2 0 1 0 1 0 1 0 2 0 
1 0 1 0 2 0 1 0 1 0 2 0 1 0 1 0 
2 0 1 0 1 0 1 0 2 0 1 0 1 0 2 0 
1 0 1 0 2 0 1 0 1 0 2 0 1 0 1 0 
1 0 2 0 1 0 1 0 2 0 1 0 1 0 2 0 
1 0 1 0 2 0 1 0 1 0 1 0 2 0 1 0 
1 0 2 0 1 0 1 0 2 0 1 0 1 0 2 0 
1 0 1 0 1 0 2 0 1 0 1 0 2 0 1 0 
1 0 2 0 1 0 3664 4522 100 MP stroke
1 0 2 0 1 0 1 0 1 0 2 0 1 0 1 0 
2 0 1 0 1 0 2 0 1 0 1 0 2 0 1 0 
1 0 1 0 2 0 1 0 1 0 2 0 1 0 1 0 
2 0 1 0 1 0 2 0 1 0 1 0 1 0 2 0 
1 0 1 0 2 0 1 0 1 0 2 0 1 0 1 0 
2 0 1 0 1 0 1 0 2 0 1 0 1 0 2 0 
1 0 1 0 2 0 1 0 1 0 2 0 1 0 1 0 
1 0 2 0 1 0 1 0 2 0 1 0 1 0 2 0 
1 0 1 0 1 0 2 1047 1 0 1 0 2 0 1 0 
1 0 2 0 1 0 1 0 2 0 1 0 1 0 1 0 
2 0 1 0 1 0 2 0 1 0 1 0 2 0 1 0 
1 0 2 0 1 0 1 0 1 0 2 0 1 0 1 0 
2 0 1 0 1 0 3535 3475 100 MP stroke
2 0 1 0 1 0 2 0 1 0 1 0 1 0 2 0 
1 0 1 0 2 0 1 0 1 0 2 0 1 0 1 0 
2 0 1 0 1 0 1 0 2 0 1 0 1 0 2 0 
1 0 1 0 2 0 1 0 1 0 2 0 1 0 1 0 
1 0 2 0 1 0 1 0 2 0 1 0 1 0 2 0 
1 0 1 0 2 0 1 0 1 0 1 0 2 0 1 0 
1 0 2 0 1 0 1 0 2 0 1 0 1 0 2 0 
1 0 1 0 1 0 2 0 1 0 1 0 2 0 1 0 
1 0 2 0 1 0 1 0 2 0 1 0 1 0 1 0 
2 0 1 0 1 0 2 0 1 0 1 0 2 0 1 0 
1 0 2 0 1 0 1 0 1 0 2 0 1 0 1 0 
2 0 1 0 1 0 2 0 1 0 1 0 2 0 1 0 
1 0 1 0 2 0 3405 3475 100 MP stroke
1 0 1 0 2 0 1 0 1 0 2 0 1 0 1 0 
2 0 1 0 1 0 1 0 2 0 1 0 1 0 2 0 
1 0 1 0 2 0 1 0 1 0 2 0 1 0 1 0 
1 0 2 0 1 0 1 0 2 0 1 0 1 0 2 0 
1 0 1 0 2 0 1 0 1 0 1 0 2 0 1 0 
1 0 2 0 1 0 1 0 2 0 1 0 1 0 2 0 
1 0 1 0 1 0 2 0 1 0 1 0 2 0 1 0 
1 0 2 0 1 0 1 0 2 0 1 0 1 0 1 0 
2 0 1 0 1 0 2 0 1 0 1 0 2 0 1 0 
1 0 2 0 1 0 1 0 1 0 2 0 1 0 1 0 
2 0 1 0 1 0 2 0 1 0 1 0 2 0 1 0 
1 0 1 0 2 0 1 0 1 0 2 0 1 0 1 0 
2 0 1 0 1 0 3276 3475 100 MP stroke
2 0 1 0 1 0 1 0 2 0 1 0 1 0 2 0 
1 0 1 0 2 0 1 0 1 0 2 0 1 0 1 0 
1 0 2 0 1 0 1 0 2 0 1 0 1 0 2 0 
1 0 1 0 2 0 1 0 1 0 1 0 2 0 1 0 
1 0 2 0 1 0 1 0 2 0 1 0 1 0 2 0 
1 0 1 0 1 0 2 0 1 0 1 0 2 0 1 0 
1 0 2 0 1 0 1 0 2 0 1 0 1 0 1 0 
2 0 1 0 1 0 2 0 1 0 1 0 2 0 1 0 
1 0 2 0 1 0 1 0 1 0 2 0 1 0 1 0 
2 0 1 0 1 0 2 0 1 0 1 0 2 0 1 0 
1 0 1 0 2 0 1 0 1 0 2 0 1 0 1 0 
2 0 1 0 1 0 2 0 1 0 1 0 1 0 2 0 
1 0 1 0 2 0 3146 3475 100 MP stroke
1 0 1 0 2 0 1 0 1 0 2 0 1 0 1 0 
1 0 2 0 1 0 1 0 2 0 1 0 1 0 2 0 
1 0 1 0 2 0 1 0 1 0 1 0 2 0 1 0 
1 0 2 0 1 0 1 0 2 0 1 0 1 0 2 0 
1 0 1 0 1 0 2 0 1 0 1 0 2 0 1 0 
1 0 2 0 1 0 1 0 2 0 1 0 1 0 1 0 
2 0 1 0 1 0 2 0 1 0 1 0 2 0 1 0 
1 0 2 0 1 0 1 0 1 0 2 0 1 0 1 0 
2 0 1 0 1 0 2 0 1 0 1 0 2 0 1 0 
1 0 1 0 2 0 1 0 1 0 2 0 1 0 1 0 
2 0 1 0 1 0 2 0 1 0 1 0 1 0 2 0 
1 0 1 0 2 0 1 0 1 0 2 0 1 0 1 0 
2 0 1 0 1 0 3017 3475 100 MP stroke
1 0 2 0 1 0 1 0 2 0 1 0 1 0 2 0 
1 0 1 0 2 0 1 0 1 0 1 0 2 0 1 0 
1 0 2 0 1 0 1 0 2 0 1 0 1 0 2 0 
1 0 1 0 1 0 2 0 1 0 1 0 2 0 1 0 
1 0 2 0 1 0 1 0 2 0 1 0 1 0 1 0 
2 0 1 0 1 0 2 0 1 0 1 0 2 0 1 0 
1 0 2 0 1 0 1 0 1 0 2 0 1 0 1 0 
2 0 1 0 1 0 2 0 1 0 1 0 2 0 1 0 
1 0 1 0 2 0 1 0 1 0 2 0 1 0 1 0 
2 0 1 0 1 0 2 0 1 0 1 0 1 0 2 0 
1 0 1 0 2 0 1 0 1 0 2 0 1 0 1 0 
2 0 1 0 1 0 1 0 2 0 1 0 1 0 2 0 
1 0 1 0 2 0 2887 3475 100 MP stroke
1 0 1 0 2 0 1 0 1 0 1 0 2 0 1 0 
1 0 2 0 1 0 1 0 2 0 1 0 1 0 2 0 
1 0 1 0 1 0 2 0 1 0 1 0 2 0 1 0 
1 0 2 0 1 0 1 0 2 0 1 0 1 0 1 0 
2 0 1 0 1 0 2 0 1 0 1 0 2 0 1 0 
1 0 2 0 1 0 1 0 1 0 2 0 1 0 1 0 
2 0 1 0 1 0 2 0 1 0 1 0 2 0 1 0 
1 0 1 0 2 0 1 0 1 0 2 0 1 0 1 0 
2 0 1 0 1 0 2 0 1 0 1 0 1 0 2 0 
1 0 1 0 2 0 1 0 1 0 2 0 1 0 1 0 
2 0 1 0 1 0 1 0 2 0 1 0 1 0 2 0 
1 0 1 0 2 0 1 0 1 0 2 0 1 0 1 0 
1 0 2 0 1 0 2758 3475 100 MP stroke
1 0 2 0 1 0 1 0 2 0 1 0 1 0 2 0 
1 0 1 0 1 0 2 0 1 0 1 0 2 0 1 0 
1 0 2 0 1 0 1 0 2 0 1 0 1 0 1 0 
2 0 1 0 1 0 2 0 1 0 1 0 2 0 1 0 
1 0 2 0 1 0 1 0 1 0 2 0 1 0 1 0 
2 0 1 0 1 0 2 0 1 0 1 0 2 0 1 0 
1 0 1 0 2 0 1 0 1 0 2 0 1 0 1 0 
2 0 1 0 1 0 2 0 1 0 1 0 1 0 2 0 
1 0 1 0 2 0 1 0 1 0 2 0 1 0 1 0 
2 0 1 0 1 0 1 0 2 0 1 0 1 0 2 0 
1 0 1 0 2 0 1 0 1 0 2 0 1 0 1 0 
1 0 2 0 1 0 1 0 2 0 1 0 1 0 2 0 
1 0 1 0 2 0 2628 3475 100 MP stroke
1 0 1 0 1 0 2 0 1 0 1 0 2 0 1 0 
1 0 2 0 1 0 1 0 2 0 1 0 1 0 1 0 
2 0 1 0 1 0 2 0 1 0 1 0 2 0 1 0 
1 0 2 0 1 0 1 0 1 0 2 0 1 0 1 0 
2 0 1 0 1 0 2 0 1 0 1 0 2 0 1 0 
1 0 1 0 2 0 1 0 1 0 2 0 1 0 1 0 
2 0 1 0 1 0 2 0 1 0 1 0 1 0 2 0 
1 0 1 0 2 0 1 0 1 0 2 0 1 0 1 0 
2 0 1 0 1 0 1 0 2 0 1 0 1 0 2 0 
1 0 1 0 2 0 1 0 1 0 2 0 1 0 1 0 
1 0 2 0 1 0 1 0 2 0 1 0 1 0 2 0 
1 0 1 0 2 0 1 0 1 0 1 0 2 0 1 0 
1 0 2 0 1 0 2499 3475 100 MP stroke
1 0 2 0 1 0 1 0 2 0 1 0 1 0 1 0 
2 0 1 0 1 0 2 0 1 0 1 0 2 0 1 0 
1 0 2 0 1 0 1 0 1 0 2 0 1 0 1 0 
2 0 1 0 1 0 2 0 1 0 1 0 2 0 1 0 
1 0 1 0 2 0 1 0 1 0 2 0 1 0 1 0 
2 0 1 0 1 0 2 0 1 0 1 0 1 0 2 0 
1 0 1 0 2 0 1 0 1 0 2 0 1 0 1 0 
2 0 1 0 1 0 1 0 2 0 1 0 1 0 2 0 
1 0 1 0 2 0 1 0 1 0 2 0 1 0 1 0 
1 0 2 0 1 0 1 0 2 0 1 0 1 0 2 0 
1 0 1 0 2 0 1 0 1 0 1 0 2 0 1 0 
1 0 2 0 1 0 1 0 2 0 1 0 1 0 2 0 
1 0 1 0 1 0 2370 3475 100 MP stroke
2 0 1 0 1 0 2 0 1 0 1 0 2 0 1 0 
1 0 2 0 1 0 1 0 1 0 2 0 1 0 1 0 
2 0 1 0 1 0 2 0 1 0 1 0 2 0 1 0 
1 0 1 0 2 0 1 0 1 0 2 0 1 0 1 0 
2 0 1 0 1 0 2 0 1 0 1 0 1 0 2 0 
1 0 1 0 2 0 1 0 1 0 2 0 1 0 1 0 
2 0 1 0 1 0 1 0 2 0 1 0 1 0 2 0 
1 0 1 0 2 0 1 0 1 0 2 0 1 0 1 0 
1 0 2 0 1 0 1 0 2 0 1 0 1 0 2 0 
1 0 1 0 2 0 1 0 1 0 1 0 2 0 1 0 
1 0 2 0 1 0 1 0 2 0 1 0 1 0 2 0 
1 0 1 0 1 0 2 0 1 0 1 0 2 0 1 0 
1 0 2 0 1 0 2240 3475 100 MP stroke
1 0 1 0 2 523 1 0 1 0 2 0 1 0 1 0 
2 0 1 0 1 0 2 0 1 0 1 0 1 0 2 0 
1 0 1 0 2 0 1 0 1 0 2 0 1 0 1 0 
2 0 1 0 1 0 1 0 2 0 1 0 1 0 2 0 
1 0 1 0 2 0 1 0 1 0 2 0 1 0 1 0 
1 0 2 0 1 0 1 0 2 0 1 0 1 0 2 0 
1 0 1 0 2 0 1 0 1 0 1 0 2 0 1 0 
1 0 2 0 1 0 1 0 2 0 1 0 1 0 2 0 
1 0 1 0 1 0 2 0 1 0 1 0 2 0 1 0 
1 0 2 0 1 0 1 0 2 0 1 0 1 0 1 0 
2 0 1 0 1 0 2 0 1 0 1 0 2 0 1 0 
1 0 2 0 1 0 1 0 1 0 2 0 1 0 1 0 
2 0 1 0 1 0 2111 2952 100 MP stroke
2 0 1 0 1 0 2 0 1 0 1 0 1 0 2 0 
1 0 1 0 2 0 1 0 1 0 2 0 1 0 1 0 
2 0 1 0 1 0 1 0 2 0 1 0 1 0 2 0 
1 0 1 0 2 0 1 0 1 0 2 0 1 0 1 0 
1 0 2 0 1 0 1 0 2 0 1 0 1 0 2 0 
1 0 1 0 2 0 1 0 1 0 1 0 2 0 1 0 
1 0 2 0 1 0 1 0 2 0 1 0 1 0 2 0 
1 0 1 0 1 0 2 0 1 0 1 0 2 0 1 0 
1 0 2 0 1 0 1 0 2 0 1 0 1 0 1 0 
2 0 1 0 1 0 2 0 1 0 1 0 2 0 1 0 
1 0 2 0 1 0 1 0 1 0 2 0 1 0 1 0 
2 0 1 0 1 0 2 0 1 0 1 0 2 0 1 0 
1 0 1 0 2 0 1981 2952 100 MP stroke
1 0 1 0 2 0 1 0 1 0 2 0 1 0 1 0 
2 0 1 0 1 0 1 0 2 0 1 0 1 0 2 0 
1 0 1 0 2 0 1 0 1 0 2 0 1 0 1 0 
1 0 2 0 1 0 1 0 2 0 1 0 1 0 2 0 
1 0 1 0 2 0 1 0 1 0 1 0 2 0 1 0 
1 0 2 0 1 0 1 0 2 0 1 0 1 0 2 0 
1 0 1 0 1 0 2 0 1 0 1 0 2 0 1 0 
1 0 2 0 1 0 1 0 2 0 1 0 1 0 1 0 
2 0 1 0 1 0 2 0 1 0 1 0 2 0 1 0 
1 0 2 0 1 0 1 0 1 0 2 0 1 0 1 0 
2 0 1 0 1 0 2 0 1 0 1 0 2 0 1 0 
1 0 1 0 2 0 1 0 1 0 2 0 1 0 1 0 
2 0 1 0 1 0 1852 2952 100 MP stroke
2 0 1 0 1 0 1 0 2 0 1 0 1 0 2 0 
1 0 1 0 2 0 1 0 1 0 2 0 1 0 1 0 
1 0 2 0 1 0 1 0 2 0 1 0 1 0 2 0 
1 0 1 0 2 0 1 0 1 0 1 0 2 0 1 0 
1 0 2 0 1 0 1 0 2 0 1 0 1 0 2 0 
1 0 1 0 1 0 2 0 1 0 1 0 2 0 1 0 
1 0 2 0 1 0 1 0 2 0 1 0 1 0 1 0 
2 0 1 0 1 0 2 0 1 0 1 0 2 0 1 0 
1 0 2 0 1 0 1 0 1 0 2 0 1 0 1 0 
2 0 1 0 1 0 2 0 1 0 1 0 2 0 1 0 
1 0 1 0 2 0 1 0 1 0 2 0 1 0 1 0 
2 0 1 0 1 0 2 0 1 0 1 0 1 0 2 0 
1 0 1 0 2 0 1722 2952 100 MP stroke
1 0 1 0 2 0 1 0 1 0 2 0 1 0 1 0 
1 0 2 0 1 0 1 0 2 0 1 0 1 0 2 0 
1 0 1 0 2 0 1 0 1 0 1 0 2 0 1 0 
1 0 2 0 1 0 1 0 2 0 1 0 1 0 2 0 
1 0 1 0 1 0 2 0 1 0 1 0 2 0 1 0 
1 0 2 0 1 0 1 0 2 0 1 0 1 0 1 0 
2 0 1 0 1 0 2 0 1 0 1 0 2 0 1 0 
1 0 2 0 1 0 1 0 1 0 2 0 1 0 1 0 
2 0 1 0 1 0 2 0 1 0 1 0 2 0 1 0 
1 0 1 0 2 0 1 0 1 0 2 0 1 0 1 0 
2 0 1 0 1 0 2 0 1 0 1 0 1 0 2 0 
1 0 1 0 2 0 1 0 1 0 2 0 1 0 1 0 
2 0 1 0 1 0 1593 2952 100 MP stroke
1 0 2 0 1 0 1 0 2 0 1 0 1 0 2 0 
1 0 1 0 2 0 1 0 1 0 1 0 2 0 1 0 
1 0 2 0 1 0 1 0 2 0 1 0 1 0 2 0 
1 0 1 0 1 0 2 0 1 0 1 0 2 0 1 0 
1 0 2 0 1 0 1 0 2 0 1 0 1 0 1 0 
2 0 1 0 1 0 2 0 1 0 1 0 2 0 1 0 
1 0 2 0 1 0 1 0 1 0 2 0 1 0 1 0 
2 0 1 0 1 0 2 0 1 0 1 0 2 0 1 0 
1 0 1 0 2 0 1 0 1 0 2 0 1 0 1 0 
2 0 1 0 1 0 2 0 1 0 1 0 1 0 2 0 
1 0 1 0 2 0 1 0 1 0 2 0 1 0 1 0 
2 0 1 0 1 0 1 0 2 0 1 0 1 0 2 0 
1 0 1 0 2 0 1463 2952 100 MP stroke
1 0 1 0 2 0 1 0 1 0 1 0 2 0 1 0 
1 0 2 0 1 0 1 0 2 0 1 0 1 0 2 0 
1 0 1 0 1 0 2 0 1 0 1 0 2 0 1 0 
1 0 2 0 1 0 1 0 2 0 1 0 1 0 1 0 
2 0 1 0 1 0 2 0 1 0 1 0 2 0 1 0 
1 0 2 0 1 0 1 0 1 0 2 0 1 0 1 0 
2 0 1 0 1 0 2 0 1 0 1 0 2 0 1 0 
1 0 1 0 2 0 1 0 1 0 2 0 1 0 1 0 
2 0 1 0 1 0 2 0 1 0 1 0 1 0 2 0 
1 0 1 0 2 0 1 0 1 0 2 0 1 0 1 0 
2 0 1 0 1 0 1 0 2 0 1 0 1 0 2 0 
1 0 1 0 2 0 1 0 1 0 2 0 1 0 1 0 
1 0 2 0 1 0 1334 2952 100 MP stroke
1 0 2 0 1 0 1 0 2 0 1 0 1 0 2 0 
1 0 1 0 1 0 2 0 1 0 1 0 2 0 1 0 
1 0 2 0 1 0 1 0 2 0 1 0 1 0 1 0 
2 0 1 0 1 0 2 0 1 0 1 0 2 0 1 0 
1 0 2 0 1 0 1 0 1 0 2 0 1 0 1 0 
2 0 1 0 1 0 2 0 1 0 1 0 2 0 1 0 
1 0 1 0 2 0 1 0 1 0 2 0 1 0 1 0 
2 0 1 0 1 0 2 0 1 0 1 0 1 0 2 0 
1 0 1 0 2 0 1 0 1 0 2 0 1 0 1 0 
2 0 1 0 1 0 1 0 2 0 1 0 1 0 2 0 
1 0 1 0 2 0 1 0 1 0 2 0 1 0 1 0 
1 0 2 0 1 0 1 0 2 0 1 0 1 0 2 0 
1 0 1 0 2 0 1204 2952 100 MP stroke
1 0 1 0 1 0 2 0 1 0 1 0 2 0 1 0 
1 0 2 0 1 0 1 0 2 0 1 0 1 0 1 0 
2 0 1 0 1 0 2 0 1 0 1 0 2 0 1 0 
1 0 2 0 1 0 1 0 1 0 2 0 1 0 1 0 
2 0 1 0 1 0 2 0 1 0 1 0 2 0 1 0 
1 0 1 0 2 0 1 0 1 0 2 0 1 0 1 0 
2 0 1 0 1 0 2 0 1 0 1 0 1 0 2 0 
1 0 1 0 2 0 1 0 1 0 2 0 1 0 1 0 
2 0 1 0 1 0 1 0 2 0 1 0 1 0 2 0 
1 0 1 0 2 0 1 0 1 0 2 0 1 0 1 0 
1 0 2 0 1 0 1 0 2 0 1 0 1 0 2 0 
1 0 1 0 2 0 1 0 1 0 1 0 2 0 1 0 
1 0 2 0 1 0 1075 2952 100 MP stroke
1 0 2 0 1 0 1 0 2 0 1 0 1 0 1 0 
2 0 1 0 1 0 2 0 1 0 1 0 2 0 1 0 
1 0 2 0 1 0 1 0 1 0 2 0 1 0 1 0 
2 0 1 0 1 0 2 0 1 0 1 0 2 0 1 0 
1 0 1 0 2 0 1 0 1 0 2 0 1 0 1 0 
2 0 1 0 1 0 2 0 1 0 1 0 1 0 2 0 
1 0 1 0 2 0 1 0 1 0 2 0 1 0 1 0 
2 0 1 0 1 0 1 0 2 0 1 0 1 0 2 0 
1 0 1 0 2 0 1 0 1 0 2 0 1 0 1 0 
1 0 2 0 1 0 1 0 2 0 1 0 1 0 2 0 
1 0 1 0 2 0 1 0 1 0 1 0 2 0 1 0 
1 0 2 0 1 0 1 0 2 0 1 0 1 0 2 0 
1 0 1 0 1 0 946 2952 100 MP stroke
2 0 1 0 1 0 2 0 1 0 1 0 2 0 1 0 
1 0 2 0 1 0 1 0 1 0 2 0 1 0 1 0 
2 0 1 0 1 0 2 0 1 0 1 0 2 0 1 0 
1 0 1 0 2 0 1 0 1 0 2 0 1 0 1 0 
2 0 1 0 1 0 1 0 899 2952 37 MP stroke
gr

c9
0 sg
3241 2711 mt 
(T) s
%%IncludeResource: font Helvetica
/Helvetica /ISOLatin1Encoding 96 FMSR

3314 2771 mt 
(symbol) s
%%IncludeResource: font Helvetica
/Helvetica /ISOLatin1Encoding 120 FMSR

3618 2711 mt 
( = 1 s) s
3279 4903 mt 
(t \(seconds\)) s

end %%Color Dict

eplot
%%EndObject

epage
end

showpage

%%Trailer
%%EOF
