%!PS-Adobe-2.0 EPSF-1.2
%%Creator: MATLAB, The MathWorks, Inc. Version 8.0.0.783 (R2012b). Operating System: Linux 2.6.37.6-0.20-desktop #1 SMP PREEMPT 2011-12-19 23:39:38 +0100 x86_64.
%%Title: ./wiener_realize_complexplane.eps
%%CreationDate: 11/21/2012  18:16:59
%%DocumentNeededFonts: Helvetica
%%DocumentProcessColors: Cyan Magenta Yellow Black
%%Extensions: CMYK
%%Pages: 1
%%BoundingBox:    70   294   549   527
%%EndComments

%%BeginProlog
% MathWorks dictionary
/MathWorks 160 dict begin
% definition operators
/bdef {bind def} bind def
/ldef {load def} bind def
/xdef {exch def} bdef
/xstore {exch store} bdef
% operator abbreviations
/c  /clip ldef
/cc /concat ldef
/cp /closepath ldef
/gr /grestore ldef
/gs /gsave ldef
/mt /moveto ldef
/np /newpath ldef
/cm /currentmatrix ldef
/sm /setmatrix ldef
/rm /rmoveto ldef
/rl /rlineto ldef
/s {show newpath} bdef
/sc {setcmykcolor} bdef
/sr /setrgbcolor ldef
/sg /setgray ldef
/w /setlinewidth ldef
/j /setlinejoin ldef
/cap /setlinecap ldef
/rc {rectclip} bdef
/rf {rectfill} bdef
% page state control
/pgsv () def
/bpage {/pgsv save def} bdef
/epage {pgsv restore} bdef
/bplot /gsave ldef
/eplot {stroke grestore} bdef
% orientation switch
/portraitMode 0 def /landscapeMode 1 def /rotateMode 2 def
% coordinate system mappings
/dpi2point 0 def
% font control
/FontSize 0 def
/FMS {/FontSize xstore findfont [FontSize 0 0 FontSize neg 0 0]
  makefont setfont} bdef
/reencode {exch dup where {pop load} {pop StandardEncoding} ifelse
  exch dup 3 1 roll findfont dup length dict begin
  { 1 index /FID ne {def}{pop pop} ifelse } forall
  /Encoding exch def currentdict end definefont pop} bdef
/isroman {findfont /CharStrings get /Agrave known} bdef
/FMSR {3 1 roll 1 index dup isroman {reencode} {pop pop} ifelse
  exch FMS} bdef
/csm {1 dpi2point div -1 dpi2point div scale neg translate
 dup landscapeMode eq {pop -90 rotate}
  {rotateMode eq {90 rotate} if} ifelse} bdef
% line types: solid, dotted, dashed, dotdash
/SO { [] 0 setdash } bdef
/DO { [.5 dpi2point mul 4 dpi2point mul] 0 setdash } bdef
/DA { [6 dpi2point mul] 0 setdash } bdef
/DD { [.5 dpi2point mul 4 dpi2point mul 6 dpi2point mul 4
  dpi2point mul] 0 setdash } bdef
% macros for lines and objects
/L {lineto stroke} bdef
/MP {3 1 roll moveto 1 sub {rlineto} repeat} bdef
/AP {{rlineto} repeat} bdef
/PDlw -1 def
/W {/PDlw currentlinewidth def setlinewidth} def
/PP {closepath eofill} bdef
/DP {closepath stroke} bdef
/MR {4 -2 roll moveto dup  0 exch rlineto exch 0 rlineto
  neg 0 exch rlineto closepath} bdef
/FR {MR stroke} bdef
/PR {MR fill} bdef
/L1i {{currentfile picstr readhexstring pop} image} bdef
/tMatrix matrix def
/MakeOval {newpath tMatrix currentmatrix pop translate scale
0 0 1 0 360 arc tMatrix setmatrix} bdef
/FO {MakeOval stroke} bdef
/PO {MakeOval fill} bdef
/PD {currentlinewidth 2 div 0 360 arc fill
   PDlw -1 eq not {PDlw w /PDlw -1 def} if} def
/FA {newpath tMatrix currentmatrix pop translate scale
  0 0 1 5 -2 roll arc tMatrix setmatrix stroke} bdef
/PA {newpath tMatrix currentmatrix pop	translate 0 0 moveto scale
  0 0 1 5 -2 roll arc closepath tMatrix setmatrix fill} bdef
/FAn {newpath tMatrix currentmatrix pop translate scale
  0 0 1 5 -2 roll arcn tMatrix setmatrix stroke} bdef
/PAn {newpath tMatrix currentmatrix pop translate 0 0 moveto scale
  0 0 1 5 -2 roll arcn closepath tMatrix setmatrix fill} bdef
/vradius 0 def /hradius 0 def /lry 0 def
/lrx 0 def /uly 0 def /ulx 0 def /rad 0 def
/MRR {/vradius xdef /hradius xdef /lry xdef /lrx xdef /uly xdef
  /ulx xdef newpath tMatrix currentmatrix pop ulx hradius add uly
  vradius add translate hradius vradius scale 0 0 1 180 270 arc 
  tMatrix setmatrix lrx hradius sub uly vradius add translate
  hradius vradius scale 0 0 1 270 360 arc tMatrix setmatrix
  lrx hradius sub lry vradius sub translate hradius vradius scale
  0 0 1 0 90 arc tMatrix setmatrix ulx hradius add lry vradius sub
  translate hradius vradius scale 0 0 1 90 180 arc tMatrix setmatrix
  closepath} bdef
/FRR {MRR stroke } bdef
/PRR {MRR fill } bdef
/MlrRR {/lry xdef /lrx xdef /uly xdef /ulx xdef /rad lry uly sub 2 div def
  newpath tMatrix currentmatrix pop ulx rad add uly rad add translate
  rad rad scale 0 0 1 90 270 arc tMatrix setmatrix lrx rad sub lry rad
  sub translate rad rad scale 0 0 1 270 90 arc tMatrix setmatrix
  closepath} bdef
/FlrRR {MlrRR stroke } bdef
/PlrRR {MlrRR fill } bdef
/MtbRR {/lry xdef /lrx xdef /uly xdef /ulx xdef /rad lrx ulx sub 2 div def
  newpath tMatrix currentmatrix pop ulx rad add uly rad add translate
  rad rad scale 0 0 1 180 360 arc tMatrix setmatrix lrx rad sub lry rad
  sub translate rad rad scale 0 0 1 0 180 arc tMatrix setmatrix
  closepath} bdef
/FtbRR {MtbRR stroke } bdef
/PtbRR {MtbRR fill } bdef
/stri 6 array def /dtri 6 array def
/smat 6 array def /dmat 6 array def
/tmat1 6 array def /tmat2 6 array def /dif 3 array def
/asub {/ind2 exch def /ind1 exch def dup dup
  ind1 get exch ind2 get sub exch } bdef
/tri_to_matrix {
  2 0 asub 3 1 asub 4 0 asub 5 1 asub
  dup 0 get exch 1 get 7 -1 roll astore } bdef
/compute_transform {
  dmat dtri tri_to_matrix tmat1 invertmatrix 
  smat stri tri_to_matrix tmat2 concatmatrix } bdef
/ds {stri astore pop} bdef
/dt {dtri astore pop} bdef
/db {2 copy /cols xdef /rows xdef mul dup 3 mul string
  currentfile exch readhexstring pop
  dup 0 3 index getinterval /rbmap xdef
  dup 2 index dup getinterval /gbmap xdef
  1 index dup 2 mul exch getinterval /bbmap xdef pop pop}bdef
/it {gs np dtri aload pop moveto lineto lineto cp c
  cols rows 8 compute_transform 
  rbmap gbmap bbmap true 3 colorimage gr}bdef
/il {newpath moveto lineto stroke}bdef
currentdict end def
%%EndProlog

%%BeginSetup
MathWorks begin

0 cap

end
%%EndSetup

%%Page: 1 1
%%BeginPageSetup
%%PageBoundingBox:    70   294   549   527
MathWorks begin
bpage
%%EndPageSetup

%%BeginObject: obj1
bplot

/dpi2point 12 def
portraitMode 0216 7344 csm

  628  1012  5745  2793 MR c np
85 dict begin %Colortable dictionary
/c0 { 0.000000 0.000000 0.000000 sr} bdef
/c1 { 1.000000 1.000000 1.000000 sr} bdef
/c2 { 0.900000 0.000000 0.000000 sr} bdef
/c3 { 0.000000 0.820000 0.000000 sr} bdef
/c4 { 0.000000 0.000000 0.800000 sr} bdef
/c5 { 0.910000 0.820000 0.320000 sr} bdef
/c6 { 1.000000 0.260000 0.820000 sr} bdef
/c7 { 0.000000 0.820000 0.820000 sr} bdef
c0
1 j
1 sg
   0    0 6913 5186 PR
6 w
0 2313 2314 0 0 -2313 898 3658 4 MP
PP
-2314 0 0 2313 2314 0 0 -2313 898 3658 5 MP stroke
4 w
DO
SO
6 w
0 sg
 898 3658 mt 3212 3658 L
 898 1345 mt 3212 1345 L
 898 3658 mt  898 1345 L
3212 3658 mt 3212 1345 L
 898 3658 mt 3212 3658 L
 898 3658 mt  898 1345 L
 898 3658 mt  898 3635 L
 898 1345 mt  898 1368 L
%%IncludeResource: font Helvetica
/Helvetica /ISOLatin1Encoding 120 FMSR

 795 3804 mt 
(-1) s
1477 3658 mt 1477 3635 L
1477 1345 mt 1477 1368 L
1324 3804 mt 
(-0.5) s
2055 3658 mt 2055 3635 L
2055 1345 mt 2055 1368 L
2022 3804 mt 
(0) s
2633 3658 mt 2633 3635 L
2633 1345 mt 2633 1368 L
2550 3804 mt 
(0.5) s
3212 3658 mt 3212 3635 L
3212 1345 mt 3212 1368 L
3179 3804 mt 
(1) s
 898 3658 mt  922 3658 L
3212 3658 mt 3188 3658 L
 728 3702 mt 
(-1) s
 898 3080 mt  922 3080 L
3212 3080 mt 3188 3080 L
 628 3124 mt 
(-0.5) s
 898 2502 mt  922 2502 L
3212 2502 mt 3188 2502 L
 798 2546 mt 
(0) s
 898 1923 mt  922 1923 L
3212 1923 mt 3188 1923 L
 698 1967 mt 
(0.5) s
 898 1345 mt  922 1345 L
3212 1345 mt 3188 1345 L
 798 1389 mt 
(1) s
 898 3658 mt 3212 3658 L
 898 1345 mt 3212 1345 L
 898 3658 mt  898 1345 L
3212 3658 mt 3212 1345 L
gs 898 1345 2315 2314 MR c np
/c8 { 0.000000 0.000000 1.000000 sr} bdef
c8
0 -3 1 -4 2 -11 1 -5 0 -4 1 -2 -1 1 1 -5 
1 -4 -1 4 0 3 -1 3 1 -4 -1 3 1 -3 1 -5 
-1 3 0 1 1 -4 -2 8 -1 8 -1 6 1 -6 1 -6 
0 -1 1 -2 -2 9 1 -6 -2 9 0 1 1 -3 -2 13 
1 -7 0 -3 0 4 -1 1 0 5 -1 6 -1 5 -1 8 
-1 6 1 -4 -2 12 -2 16 1 -5 0 -2 -2 16 0 -2 
0 5 1 -8 -1 1 1 -8 1 -6 0 -1 0 4 -1 9 
0 -4 0 4 -1 5 0 5 -1 4 1 -3 -1 8 0 -8 
0 3 1 -9 0 3 1 -11 0 -1 1 -4 0 -2 -1 7 
0 3 0 -5 -1 14 -1 8 0 -4 1 -4 0 -3 0 4 
-1 5 -1 12 0 -4 -1 14 1 -5 0 -8 0 4 -1 8 
0 5 -1 9 0 -1 0 8 -1 9 0 -3 1 -12 0 6 
0 -8 1 -8 -1 10 3209 2579 100 MP stroke
1 -9 0 2 -1 2 0 11 0 -4 -1 12 0 10 -1 12 
0 7 0 -10 1 -6 0 -15 1 -7 0 -7 1 -4 -1 4 
0 8 -1 9 0 -4 0 6 1 -8 0 -14 1 -5 -1 6 
1 -8 0 -1 1 -8 0 -2 1 -10 0 2 -1 7 0 5 
-1 3 1 -6 0 -7 0 6 -1 5 0 11 -1 14 0 -5 
1 -8 0 -11 1 -8 0 2 -1 5 -1 13 0 12 -1 3 
0 14 0 -5 -1 11 1 -7 0 -7 0 11 -1 4 0 3 
0 -3 1 -2 0 -15 0 11 -1 5 1 -8 -1 8 1 -9 
0 -5 0 10 -1 4 0 23 0 -19 1 -6 0 -5 0 5 
-1 14 0 24 0 -34 1 -7 -1 12 0 25 0 -30 0 6 
1 -11 -1 3 1 -5 -1 5 0 5 0 -2 1 -7 0 1 
-1 2 1 -3 0 -10 0 7 -1 12 0 -4 1 -12 0 5 
0 -13 0 4 1 -7 3209 2571 100 MP stroke
0 -9 0 6 1 -16 0 -7 1 -7 0 -2 0 7 -1 8 
0 -1 1 -6 0 -10 1 -3 0 -8 1 -8 0 5 -1 7 
0 5 0 -3 -1 4 0 10 0 -7 -1 10 0 10 0 -11 
0 8 1 -12 -1 4 2 -14 -1 11 -1 13 0 -5 0 6 
-1 2 0 0 0 12 -1 8 0 -5 0 19 -1 3 0 3 
1 -6 -1 9 0 -7 0 7 1 -9 0 -12 0 10 -1 8 
0 26 0 -28 1 -6 0 -14 0 11 -1 7 0 79 0 -80 
0 6 1 -8 0 1 0 -12 0 5 -1 10 0 6 1 -14 
0 3 0 -16 1 -14 0 8 0 -9 1 -7 -1 5 1 0 
-1 0 0 2 0 2 1 -10 0 -5 0 6 -1 8 1 -5 
-1 3 0 1 1 -8 1 -8 -1 11 -1 4 0 11 -1 9 
0 6 1 -14 -1 8 0 3 -1 13 0 12 1 -16 0 1 
0 -1 -1 4 0 12 3211 2536 100 MP stroke
0 -4 1 -11 0 0 0 -10 0 6 -1 9 0 -1 1 -5 
0 -8 0 10 -1 7 0 85 1 8 -1 -8 1 10 0 8 
0 -8 -1 -10 0 1 0 -35 0 34 1 11 0 8 0 -14 
0 3 -1 -6 1 4 -1 -11 0 -52 0 10 3211 2505 31 MP stroke
24 w
gr

24 w
c8
/c9 { 1.000000 0.000000 0.000000 sr} bdef
c9
3187 2477 mt 3237 2527 L
3237 2477 mt 3187 2527 L
gs 898 1345 2315 2314 MR c np
gr

0 sg
1667 1196 mt 
(f) s
%%IncludeResource: font Helvetica
/Helvetica /ISOLatin1Encoding 96 FMSR

1700 1256 mt 
(HWHM) s
%%IncludeResource: font Helvetica
/Helvetica /ISOLatin1Encoding 120 FMSR

2009 1196 mt 
( = 0.002) s
6 w
1 sg
0 2313 2313 0 0 -2313 3942 3658 4 MP
PP
-2313 0 0 2313 2313 0 0 -2313 3942 3658 5 MP stroke
4 w
DO
SO
6 w
0 sg
3942 3658 mt 6255 3658 L
3942 1345 mt 6255 1345 L
3942 3658 mt 3942 1345 L
6255 3658 mt 6255 1345 L
3942 3658 mt 6255 3658 L
3942 3658 mt 3942 1345 L
3942 3658 mt 3942 3635 L
3942 1345 mt 3942 1368 L
3839 3804 mt 
(-1) s
4520 3658 mt 4520 3635 L
4520 1345 mt 4520 1368 L
4367 3804 mt 
(-0.5) s
5098 3658 mt 5098 3635 L
5098 1345 mt 5098 1368 L
5065 3804 mt 
(0) s
5676 3658 mt 5676 3635 L
5676 1345 mt 5676 1368 L
5593 3804 mt 
(0.5) s
6255 3658 mt 6255 3635 L
6255 1345 mt 6255 1368 L
6222 3804 mt 
(1) s
3942 3658 mt 3965 3658 L
6255 3658 mt 6231 3658 L
3771 3702 mt 
(-1) s
3942 3080 mt 3965 3080 L
6255 3080 mt 6231 3080 L
3671 3124 mt 
(-0.5) s
3942 2502 mt 3965 2502 L
6255 2502 mt 6231 2502 L
3841 2546 mt 
(0) s
3942 1923 mt 3965 1923 L
6255 1923 mt 6231 1923 L
3741 1967 mt 
(0.5) s
3942 1345 mt 3965 1345 L
6255 1345 mt 6231 1345 L
3841 1389 mt 
(1) s
3942 3658 mt 6255 3658 L
3942 1345 mt 6255 1345 L
3942 3658 mt 3942 1345 L
6255 3658 mt 6255 1345 L
gs 3942 1345 2314 2314 MR c np
c8
45 11 82 15 -42 -7 -61 -13 0 1 -35 -9 -79 -25 7 2 
-2 0 96 28 -4 -1 61 14 -40 -9 7 2 -33 -8 -32 -9 
-58 -18 7 2 -18 -6 28 9 1 1 -67 -25 -54 -23 32 14 
2 1 87 33 26 8 16 5 -57 -18 -57 -22 47 18 26 9 
12 4 -76 -27 41 16 -36 -14 42 15 33 11 -54 -18 85 28 
-39 -12 -53 -19 50 18 -27 -9 -30 -11 28 10 38 13 13 4 
1 0 -89 -31 -9 -3 65 23 6 3 -25 -9 -57 -22 -30 -13 
48 20 -13 -5 -27 -11 -3 -2 75 30 16 6 16 6 -23 -8 
23 8 -80 -30 -11 -5 1 1 -9 -4 5 2 14 6 -20 -8 
-58 -27 -27 -14 73 35 12 6 -5 -2 -4 -3 -31 -14 15 8 
-18 -9 -38 -19 -34 -19 -19 -11 -10 -6 -71 -47 16 11 47 31 
21 13 85 46 -76 -41 47 26 38 19 -39 -20 6 3 -50 -27 
-6 -4 -22 -13 30 18 5676 1500 100 MP stroke
35 20 -30 -17 13 7 7 4 43 23 -30 -16 -1 0 -27 -15 
-26 -15 3 2 63 34 -44 -23 -44 -27 33 20 42 24 44 22 
16 7 25 11 1 1 -57 -26 23 11 22 9 2 1 33 14 
-13 -5 22 9 -45 -19 7 3 -18 -8 -9 -4 -69 -35 18 10 
28 14 46 21 27 12 -30 -13 32 14 2 0 12 5 -46 -19 
-98 -49 -87 -54 -40 -29 -30 -22 0 -1 -26 -22 13 12 -11 -9 
-50 -46 -33 -32 -12 -13 -41 -46 6 7 -2 -1 19 21 -3 -4 
-19 -21 -4 -5 6 7 8 9 13 15 -12 -14 -11 -12 53 58 
5 5 15 15 -17 -17 9 10 26 24 -4 -4 -30 -29 14 14 
-4 -4 40 38 -6 -5 -35 -34 45 43 23 20 -14 -12 49 40 
-1 -1 -26 -21 -36 -31 18 16 -10 -9 1 1 -38 -35 4 4 
-17 -17 32 31 123 99 -40 -29 12 9 -29 -22 -2 -2 67 49 
-12 -7 22 14 -40 -28 5783 1570 100 MP stroke
-44 -34 -7 -5 -10 -9 27 23 11 8 -22 -18 -86 -77 -61 -66 
-6 -7 8 10 -6 -7 20 22 -54 -65 10 13 -22 -28 18 24 
0 -1 -36 -48 -6 -8 -17 -26 -45 -74 -19 -36 4 6 7 16 
1 1 31 54 -21 -36 21 36 25 40 -24 -39 8 13 18 28 
-35 -56 -26 -46 11 20 -22 -41 -26 -56 25 54 16 30 3 5 
-1 0 19 33 41 64 -37 -57 -23 -40 31 54 23 34 -31 -48 
-18 -31 10 17 -4 -8 19 33 -5 -8 -23 -39 58 94 6 8 
29 41 18 23 -10 -13 -41 -56 7 9 10 15 22 30 -11 -15 
-7 -9 -23 -33 36 50 -51 -72 1 0 29 43 45 59 18 21 
-7 -7 -3 -4 10 12 4 4 -15 -17 -6 -7 -29 -37 -11 -16 
-24 -34 1 2 24 34 58 73 -29 -35 16 20 -13 -16 -5 -6 
-52 -72 -15 -23 48 70 12 16 -25 -34 13 18 -1 -1 -33 -47 
16 23 -15 -21 33 46 6025 1810 100 MP stroke
-60 -89 25 39 10 15 16 23 -13 -18 4 6 -2 -3 -11 -17 
39 55 -8 -12 -10 -12 6 8 -33 -48 -57 -94 -5 -11 -35 -74 
12 28 -21 -48 -22 -57 0 -3 -8 -24 30 84 -41 -118 24 74 
-1 -3 22 55 -8 -17 -34 -98 14 41 2 8 15 39 33 76 
2 4 35 68 -24 -45 -27 -56 31 64 30 54 48 75 -16 -22 
4 5 -1 -2 -5 -7 17 25 25 35 33 42 -38 -48 12 14 
-60 -85 11 17 22 32 4 5 40 54 -54 -74 12 18 -3 -4 
37 50 26 31 27 31 -37 -42 15 17 26 30 0 -1 -32 -36 
-7 -8 -63 -84 -18 -27 -4 -6 5 8 -16 -25 -19 -32 12 19 
-17 -28 -25 -48 31 58 -24 -44 7 13 16 30 18 29 -15 -25 
7 13 18 28 7 11 19 29 -3 -5 12 18 0 1 -11 -16 
-3 -5 -24 -37 6 9 -13 -21 -26 -44 10 18 -11 -19 0 -2 
-4 -6 -9 -17 -5 -11 6131 1982 100 MP stroke
-6 -12 15 29 -20 -40 -35 -81 -1 -3 5 13 -22 -60 -23 -79 
-4 -12 -10 -48 -21 -165 -1 -38 0 -34 1 -39 1 -25 0 5 
11 -105 -3 16 0 5 -2 17 0 -3 2 -19 5 -29 -5 32 
4 -30 0 1 7 -39 -9 56 -6 42 -5 59 3 -30 -2 20 
-2 31 1 -11 -1 12 2 -30 6 -66 1 -9 2 -14 -3 27 
-8 111 0 -11 1 -20 -1 30 0 44 1 49 1 2 -2 -55 
0 29 0 -87 0 24 3 -67 0 4 -2 24 -1 46 0 39 
3 58 -1 -5 -1 -11 -1 -56 1 -73 1 -19 -2 50 1 -26 
1 -12 2 -31 2 -27 0 9 4 -35 15 -88 -11 58 16 -80 
1 -3 21 -78 -10 31 -6 24 -16 71 4 -19 -14 83 4 -31 
7 -38 4 -17 -4 18 14 -62 10 -39 19 -59 -5 17 -4 10 
-4 12 13 -39 6 -17 1 -3 -9 27 -18 58 10 -33 10 -32 
-1 5 18 -50 -39 115 6212 2813 100 MP stroke
0 -1 18 -56 -31 107 5 -17 25 -86 -10 31 28 -83 -4 10 
-5 14 5 -13 24 -58 -22 51 -9 25 -15 48 18 -56 -19 56 
5 -15 -9 30 -6 20 13 -45 1 -2 -11 36 10 -31 -14 45 
12 -39 6 -21 -13 44 -15 59 21 -81 -7 25 12 -40 -2 7 
-10 34 -16 62 -14 73 -2 13 12 -65 8 -39 5 -20 -4 18 
15 -57 15 -46 18 -49 8 -21 -24 65 -2 4 -24 79 -6 23 
11 -40 -20 82 -1 3 -1 4 11 -47 -18 88 -4 30 -6 47 
-2 26 5 -48 -2 19 11 -85 11 -54 -5 23 10 -48 -5 24 
-8 39 -10 66 6 -42 16 -83 10 -37 9 -30 19 -59 -16 47 
-19 66 -11 52 -4 20 16 -74 -1 3 -20 98 -2 11 7 -41 
-9 54 -4 40 12 -86 -11 73 7 -49 -6 44 -3 29 -1 1 
3 -28 -4 51 -3 53 0 74 2 35 6 60 4 34 0 1 
8 43 -12 -77 -2 -12 6248 2375 100 MP stroke
3 20 -2 -17 5 39 3 22 3 13 4 24 20 83 -26 -118 
-3 -18 8 45 -1 -1 4 18 8 37 8 30 21 69 -11 -36 
3 12 -12 -42 -3 -12 14 51 18 51 9 26 0 -2 -8 -20 
30 73 12 26 -1 -1 -12 -27 -8 -19 -7 -16 20 46 -15 -34 
-9 -23 19 47 -36 -91 -8 -24 -18 -60 20 65 -22 -75 12 44 
-10 -37 -6 -21 -8 -38 10 46 3 10 16 57 8 24 15 42 
-5 -15 14 38 10 22 -21 -51 7 18 -2 -5 -17 -47 -5 -14 
-25 -89 14 53 -16 -62 -8 -33 7 30 -4 -20 -6 -28 -6 -35 
1 9 -5 -39 2 13 2 17 -2 -14 -7 -59 -2 -33 2 36 
2 16 3 27 1 4 4 28 9 49 -14 -85 -4 -30 6 45 
4 26 -5 -34 -4 -33 0 -1 -5 -52 -1 -92 0 47 0 -48 
2 -45 0 1 -1 9 0 120 16 140 7 38 -7 -38 2 13 
-7 -43 -6 -48 13 90 6235 2291 100 MP stroke
-2 -8 8 38 -15 -87 0 -2 -5 -41 -4 -59 -1 -32 0 20 
2 30 -2 -27 1 12 1 18 1 24 0 -11 2 32 6 44 
3 20 -8 -61 4 38 -5 -41 6 44 0 1 2 16 4 22 
7 37 -1 -4 -3 -16 -2 -14 -9 -52 6 36 8 43 -3 -11 
10 43 0 3 1 3 4 17 22 76 -1 -4 -10 -34 11 37 
-1 -4 9 26 -11 -31 -17 -59 -7 -27 -10 -49 -6 -37 4 25 
2 13 8 38 6 25 17 62 5 15 -14 -47 19 62 2 4 
27 73 8 18 -18 -43 19 44 -24 -58 -6 -14 -10 -29 -1 -3 
14 39 -12 -33 -5 -17 9 28 -15 -46 -10 -34 -4 -16 -9 -40 
2 10 -15 -77 8 44 -3 -18 2 11 6 31 -12 -64 -9 -72 
4 38 2 14 4 23 0 3 5 27 -6 -33 3 16 5 29 
5 23 0 -1 7 31 17 60 -14 -48 19 64 -9 -29 -11 -41 
-6 -24 -10 -44 3 15 6231 2268 100 MP stroke
-10 -58 2 14 3 15 10 50 7 30 7 24 -14 -53 13 51 
-11 -43 18 69 -17 -63 -2 -11 5 20 -6 -21 11 41 -4 -15 
14 50 2 9 -6 -21 -9 -35 0 2 -5 -22 28 101 23 62 
-13 -34 -15 -44 15 44 18 46 15 35 -20 -49 13 32 4 10 
-17 -42 -23 -62 35 91 29 63 -15 -30 6 13 15 30 8 14 
38 65 -44 -76 -4 -8 -6 -11 -32 -71 7 18 -17 -42 3 8 
12 27 5 14 14 28 -27 -60 7 17 -22 -55 -3 -8 -15 -46 
2 8 13 38 -15 -44 -7 -24 -5 -16 12 39 4 11 -24 -84 
-1 -1 -14 -68 5 26 1 6 7 29 -6 -23 -1 -6 -13 -73 
-2 -15 -4 -41 0 3 8 66 6 37 3 11 -2 -9 -4 -21 
-4 -23 13 70 6 24 4 17 5 20 -9 -36 16 60 -6 -19 
0 -3 -2 -7 -1 -2 -8 -33 -15 -74 -8 -54 4 29 8 46 
3 18 11 46 -12 -53 6233 2280 100 MP stroke
-1 -6 -2 -8 -13 -94 0 1 1 7 5 42 1 8 -5 -42 
0 1 1 10 18 104 -5 -25 5 27 -2 -10 0 2 -11 -64 
2 13 -7 -47 11 73 -4 -24 -10 -72 -4 -55 -1 -56 0 23 
0 -74 1 -12 -1 48 2 79 -1 -8 1 8 0 1 -1 -11 
-1 -17 3 51 -3 -50 0 -74 10 -124 -2 16 0 -5 13 -82 
1 -2 0 -2 -10 58 1 -3 5 -35 7 -33 -2 9 5 -24 
-6 31 -7 38 0 -3 -2 16 -11 97 -2 31 6 -74 -2 20 
-4 73 0 52 1 28 -1 -8 5 70 2 17 -3 -26 -4 -61 
0 -80 3 -50 -2 25 0 5 3 -42 1 -12 2 -26 -3 35 
16 -115 10 -48 4 -15 6 -27 1 -1 -28 132 -6 41 -3 28 
0 9 -4 75 0 -4 0 43 2 57 -1 -7 -1 -34 1 33 
0 -4 1 6 -2 -33 1 29 -1 -33 0 -61 1 -36 8 -79 
-3 26 -5 58 -1 16 6254 2546 100 MP stroke
1 -23 1 -11 5 -56 0 7 -3 21 1 -9 -4 59 -1 19 
0 50 0 -44 6254 2533 11 MP stroke
24 w
gr

24 w
c8
c9
6230 2477 mt 6280 2527 L
6280 2477 mt 6230 2527 L
gs 3942 1345 2314 2314 MR c np
gr

0 sg
4711 1196 mt 
(f) s
%%IncludeResource: font Helvetica
/Helvetica /ISOLatin1Encoding 96 FMSR

4744 1256 mt 
(HWHM) s
%%IncludeResource: font Helvetica
/Helvetica /ISOLatin1Encoding 120 FMSR

5053 1196 mt 
( = 0.125) s
6 w

end %%Color Dict

eplot
%%EndObject

epage
end

showpage

%%Trailer
%%EOF
