%!PS-Adobe-2.0 EPSF-1.2
%%Creator: MATLAB, The MathWorks, Inc. Version 7.14.0.739 (R2012a). Operating System: Microsoft Windows 7.
%%Title: .\wiener_realize_thick.eps
%%CreationDate: 06/21/2014  13:28:16
%%DocumentNeededFonts: Helvetica
%%DocumentProcessColors: Cyan Magenta Yellow Black
%%Extensions: CMYK
%%Pages: 1
%%BoundingBox:    24   192   546   591
%%EndComments

%%BeginProlog
% MathWorks dictionary
/MathWorks 160 dict begin
% definition operators
/bdef {bind def} bind def
/ldef {load def} bind def
/xdef {exch def} bdef
/xstore {exch store} bdef
% operator abbreviations
/c  /clip ldef
/cc /concat ldef
/cp /closepath ldef
/gr /grestore ldef
/gs /gsave ldef
/mt /moveto ldef
/np /newpath ldef
/cm /currentmatrix ldef
/sm /setmatrix ldef
/rm /rmoveto ldef
/rl /rlineto ldef
/s {show newpath} bdef
/sc {setcmykcolor} bdef
/sr /setrgbcolor ldef
/sg /setgray ldef
/w /setlinewidth ldef
/j /setlinejoin ldef
/cap /setlinecap ldef
/rc {rectclip} bdef
/rf {rectfill} bdef
% page state control
/pgsv () def
/bpage {/pgsv save def} bdef
/epage {pgsv restore} bdef
/bplot /gsave ldef
/eplot {stroke grestore} bdef
% orientation switch
/portraitMode 0 def /landscapeMode 1 def /rotateMode 2 def
% coordinate system mappings
/dpi2point 0 def
% font control
/FontSize 0 def
/FMS {/FontSize xstore findfont [FontSize 0 0 FontSize neg 0 0]
  makefont setfont} bdef
/ISOLatin1Encoding where {pop /WindowsLatin1Encoding 256 array bdef
ISOLatin1Encoding WindowsLatin1Encoding copy pop
/.notdef/.notdef/quotesinglbase/florin/quotedblbase/ellipsis/dagger
/daggerdbl/circumflex/perthousand/Scaron/guilsinglleft/OE/.notdef/.notdef
/.notdef/.notdef/quoteleft/quoteright/quotedblleft/quotedblright/bullet
/endash/emdash/tilde/trademark/scaron/guilsinglright/oe/.notdef/.notdef
/Ydieresis WindowsLatin1Encoding 128 32 getinterval astore pop}
{/WindowsLatin1Encoding StandardEncoding bdef} ifelse
/reencode {exch dup where {pop load} {pop StandardEncoding} ifelse
  exch dup 3 1 roll findfont dup length dict begin
  { 1 index /FID ne {def}{pop pop} ifelse } forall
  /Encoding exch def currentdict end definefont pop} bdef
/isroman {findfont /CharStrings get /Agrave known} bdef
/FMSR {3 1 roll 1 index dup isroman {reencode} {pop pop} ifelse
  exch FMS} bdef
/csm {1 dpi2point div -1 dpi2point div scale neg translate
 dup landscapeMode eq {pop -90 rotate}
  {rotateMode eq {90 rotate} if} ifelse} bdef
% line types: solid, dotted, dashed, dotdash
/SO { [] 0 setdash } bdef
/DO { [.5 dpi2point mul 4 dpi2point mul] 0 setdash } bdef
/DA { [6 dpi2point mul] 0 setdash } bdef
/DD { [.5 dpi2point mul 4 dpi2point mul 6 dpi2point mul 4
  dpi2point mul] 0 setdash } bdef
% macros for lines and objects
/L {lineto stroke} bdef
/MP {3 1 roll moveto 1 sub {rlineto} repeat} bdef
/AP {{rlineto} repeat} bdef
/PDlw -1 def
/W {/PDlw currentlinewidth def setlinewidth} def
/PP {closepath eofill} bdef
/DP {closepath stroke} bdef
/MR {4 -2 roll moveto dup  0 exch rlineto exch 0 rlineto
  neg 0 exch rlineto closepath} bdef
/FR {MR stroke} bdef
/PR {MR fill} bdef
/L1i {{currentfile picstr readhexstring pop} image} bdef
/tMatrix matrix def
/MakeOval {newpath tMatrix currentmatrix pop translate scale
0 0 1 0 360 arc tMatrix setmatrix} bdef
/FO {MakeOval stroke} bdef
/PO {MakeOval fill} bdef
/PD {currentlinewidth 2 div 0 360 arc fill
   PDlw -1 eq not {PDlw w /PDlw -1 def} if} def
/FA {newpath tMatrix currentmatrix pop translate scale
  0 0 1 5 -2 roll arc tMatrix setmatrix stroke} bdef
/PA {newpath tMatrix currentmatrix pop	translate 0 0 moveto scale
  0 0 1 5 -2 roll arc closepath tMatrix setmatrix fill} bdef
/FAn {newpath tMatrix currentmatrix pop translate scale
  0 0 1 5 -2 roll arcn tMatrix setmatrix stroke} bdef
/PAn {newpath tMatrix currentmatrix pop translate 0 0 moveto scale
  0 0 1 5 -2 roll arcn closepath tMatrix setmatrix fill} bdef
/vradius 0 def /hradius 0 def /lry 0 def
/lrx 0 def /uly 0 def /ulx 0 def /rad 0 def
/MRR {/vradius xdef /hradius xdef /lry xdef /lrx xdef /uly xdef
  /ulx xdef newpath tMatrix currentmatrix pop ulx hradius add uly
  vradius add translate hradius vradius scale 0 0 1 180 270 arc 
  tMatrix setmatrix lrx hradius sub uly vradius add translate
  hradius vradius scale 0 0 1 270 360 arc tMatrix setmatrix
  lrx hradius sub lry vradius sub translate hradius vradius scale
  0 0 1 0 90 arc tMatrix setmatrix ulx hradius add lry vradius sub
  translate hradius vradius scale 0 0 1 90 180 arc tMatrix setmatrix
  closepath} bdef
/FRR {MRR stroke } bdef
/PRR {MRR fill } bdef
/MlrRR {/lry xdef /lrx xdef /uly xdef /ulx xdef /rad lry uly sub 2 div def
  newpath tMatrix currentmatrix pop ulx rad add uly rad add translate
  rad rad scale 0 0 1 90 270 arc tMatrix setmatrix lrx rad sub lry rad
  sub translate rad rad scale 0 0 1 270 90 arc tMatrix setmatrix
  closepath} bdef
/FlrRR {MlrRR stroke } bdef
/PlrRR {MlrRR fill } bdef
/MtbRR {/lry xdef /lrx xdef /uly xdef /ulx xdef /rad lrx ulx sub 2 div def
  newpath tMatrix currentmatrix pop ulx rad add uly rad add translate
  rad rad scale 0 0 1 180 360 arc tMatrix setmatrix lrx rad sub lry rad
  sub translate rad rad scale 0 0 1 0 180 arc tMatrix setmatrix
  closepath} bdef
/FtbRR {MtbRR stroke } bdef
/PtbRR {MtbRR fill } bdef
/stri 6 array def /dtri 6 array def
/smat 6 array def /dmat 6 array def
/tmat1 6 array def /tmat2 6 array def /dif 3 array def
/asub {/ind2 exch def /ind1 exch def dup dup
  ind1 get exch ind2 get sub exch } bdef
/tri_to_matrix {
  2 0 asub 3 1 asub 4 0 asub 5 1 asub
  dup 0 get exch 1 get 7 -1 roll astore } bdef
/compute_transform {
  dmat dtri tri_to_matrix tmat1 invertmatrix 
  smat stri tri_to_matrix tmat2 concatmatrix } bdef
/ds {stri astore pop} bdef
/dt {dtri astore pop} bdef
/db {2 copy /cols xdef /rows xdef mul dup 3 mul string
  currentfile exch readhexstring pop
  dup 0 3 index getinterval /rbmap xdef
  dup 2 index dup getinterval /gbmap xdef
  1 index dup 2 mul exch getinterval /bbmap xdef pop pop}bdef
/it {gs np dtri aload pop moveto lineto lineto cp c
  cols rows 8 compute_transform 
  rbmap gbmap bbmap true 3 colorimage gr}bdef
/il {newpath moveto lineto stroke}bdef
currentdict end def
%%EndProlog

%%BeginSetup
MathWorks begin

0 cap

end
%%EndSetup

%%Page: 1 1
%%BeginPageSetup
%%PageBoundingBox:    24   192   546   591
MathWorks begin
bpage
%%EndPageSetup

%%BeginObject: obj1
bplot

/dpi2point 12 def
portraitMode 0216 7344 csm

   82   247  6263  4788 MR c np
85 dict begin %Colortable dictionary
/c0 { 0.000000 0.000000 0.000000 sr} bdef
/c1 { 1.000000 1.000000 1.000000 sr} bdef
/c2 { 0.900000 0.000000 0.000000 sr} bdef
/c3 { 0.000000 0.820000 0.000000 sr} bdef
/c4 { 0.000000 0.000000 0.800000 sr} bdef
/c5 { 0.910000 0.820000 0.320000 sr} bdef
/c6 { 1.000000 0.260000 0.820000 sr} bdef
/c7 { 0.000000 0.820000 0.820000 sr} bdef
c0
1 j
1 sg
   0    0 6913 5186 PR
6 w
0 4226 5356 0 0 -4226 899 4615 4 MP
PP
-5356 0 0 4226 5356 0 0 -4226 899 4615 5 MP stroke
4 w
DO
SO
6 w
0 sg
 899  389 mt 6255  389 L
 899 4615 mt 6255 4615 L
6255 4615 mt 6255  389 L
 899 4615 mt  899  389 L
 899 4615 mt 6255 4615 L
 899 4615 mt  899  389 L
 899 4615 mt  899 4561 L
 899  389 mt  899  442 L
%%IncludeResource: font Helvetica
/Helvetica /WindowsLatin1Encoding 120 FMSR

 866 4760 mt 
(0) s
1434 4615 mt 1434 4561 L
1434  389 mt 1434  442 L
1351 4760 mt 
(0.1) s
1970 4615 mt 1970 4561 L
1970  389 mt 1970  442 L
1887 4760 mt 
(0.2) s
2505 4615 mt 2505 4561 L
2505  389 mt 2505  442 L
2422 4760 mt 
(0.3) s
3041 4615 mt 3041 4561 L
3041  389 mt 3041  442 L
2958 4760 mt 
(0.4) s
3577 4615 mt 3577 4561 L
3577  389 mt 3577  442 L
3494 4760 mt 
(0.5) s
4112 4615 mt 4112 4561 L
4112  389 mt 4112  442 L
4029 4760 mt 
(0.6) s
4648 4615 mt 4648 4561 L
4648  389 mt 4648  442 L
4565 4760 mt 
(0.7) s
5183 4615 mt 5183 4561 L
5183  389 mt 5183  442 L
5100 4760 mt 
(0.8) s
5719 4615 mt 5719 4561 L
5719  389 mt 5719  442 L
5636 4760 mt 
(0.9) s
6255 4615 mt 6255 4561 L
6255  389 mt 6255  442 L
6222 4760 mt 
(1) s
 899 4615 mt  952 4615 L
6255 4615 mt 6201 4615 L
 427 4659 mt 
(-3.1416) s
 899 3558 mt  952 3558 L
6255 3558 mt 6201 3558 L
 427 3602 mt 
(-1.5708) s
 899 2502 mt  952 2502 L
6255 2502 mt 6201 2502 L
 798 2546 mt 
(0) s
 899 1445 mt  952 1445 L
6255 1445 mt 6201 1445 L
 498 1489 mt 
(1.5708) s
 899  389 mt  952  389 L
6255  389 mt 6201  389 L
 498  433 mt 
(3.1416) s
 899  389 mt 6255  389 L
 899 4615 mt 6255 4615 L
6255 4615 mt 6255  389 L
 899 4615 mt  899  389 L
gs 899 389 5357 4227 MR c np
24 w
/c8 { 0.000000 0.000000 1.000000 sr} bdef
c8
5 -5 5 2 5 -3 6 0 5 0 5 3 5 3 6 -2 
5 4 5 -2 5 4 5 0 6 4 5 -1 5 1 5 1 
6 6 5 -4 5 4 5 -1 6 -1 5 -3 5 -1 5 -2 
5 -2 6 4 5 -3 5 -2 5 0 6 -7 5 -1 5 -1 
5 5 6 2 5 0 5 3 5 6 5 -2 6 2 5 5 
5 0 5 1 6 -1 5 2 5 1 5 -5 6 -2 5 -3 
5 -2 5 -3 5 -3 6 -2 5 0 5 -1 5 -3 6 -2 
5 3 5 2 5 -6 6 -4 5 4 5 0 5 -2 5 -2 
6 0 5 -3 5 -5 5 -3 6 -5 5 0 5 -4 5 4 
6 -3 5 0 5 -1 5 1 5 -1 6 2 5 -2 5 0 
5 -2 6 7 5 3 5 5 5 0 6 -1 5 3 5 7 
5 -1 5 -4 6 1 5 -3 5 2 5 1 6 3 5 -3 
5 3 5 -3 6 8 5731 2491 100 MP stroke
5 -3 5 4 5 3 5 2 6 7 5 1 5 -5 5 4 
6 -6 5 0 5 2 5 1 6 0 5 4 5 0 5 4 
5 -1 6 -2 5 0 5 0 5 4 6 0 5 1 5 0 
5 5 6 3 5 -8 5 -1 5 4 5 -6 6 -5 5 3 
5 -1 5 -2 6 1 5 -6 5 -2 5 5 6 -6 5 -6 
5 4 5 1 5 2 6 0 5 -3 5 -10 5 2 6 -6 
5 -5 5 -2 5 -4 6 6 5 1 5 -4 5 4 5 -2 
6 1 5 3 5 -3 5 -4 6 3 5 4 5 1 5 2 
6 3 5 -4 5 -3 5 -4 5 -7 6 2 5 4 5 2 
5 2 6 3 5 -1 5 -3 5 -2 6 -2 5 0 5 1 
5 -1 5 -3 6 -1 5 5 5 2 5 8 6 1 5 -3 
5 -2 5 1 6 -5 5 1 5 6 5 1 5 1 6 1 
5 -3 5 3 5 -11 5214 2510 100 MP stroke
6 3 5 -1 5 -2 5 -3 6 -2 5 2 5 -7 5 5 
5 2 6 1 5 2 5 -2 5 3 6 2 5 1 5 2 
5 0 6 -4 5 3 5 6 5 -4 5 3 6 -2 5 2 
5 1 5 6 6 -1 5 2 5 0 5 0 6 -4 5 -4 
5 4 5 -1 5 -3 6 -4 5 -2 5 0 5 -4 6 -3 
5 -3 5 -5 5 5 6 -5 5 1 5 -6 5 9 5 5 
6 -8 5 2 5 -4 5 3 6 5 5 4 5 3 5 1 
5 5 6 0 5 7 5 -2 5 -2 6 6 5 -3 5 -4 
5 6 6 -3 5 0 5 -1 5 -2 5 2 6 1 5 8 
5 -6 5 -2 6 1 5 0 5 -2 5 -5 6 -3 5 6 
5 -3 5 0 5 2 6 -1 5 3 5 4 5 2 6 -3 
5 9 5 2 5 1 6 3 5 -3 5 -2 5 0 5 -2 
6 0 5 -4 5 -1 4696 2492 100 MP stroke
5 2 6 6 5 3 5 -4 5 4 6 3 5 1 5 3 
5 2 5 2 6 -1 5 -6 5 -2 5 -6 6 0 5 6 
5 2 5 2 6 -6 5 1 5 -1 5 3 5 1 6 0 
5 1 5 2 5 0 6 7 5 4 5 2 5 -6 6 -2 
5 3 5 1 5 3 5 0 6 7 5 4 5 3 5 4 
6 0 5 -6 5 6 5 -5 6 3 5 -6 5 -5 5 -3 
5 0 6 2 5 -2 5 4 5 -1 6 0 5 4 5 3 
5 0 6 -1 5 -7 5 -2 5 -6 5 4 6 2 5 -5 
5 1 5 -1 6 1 5 -3 5 -2 5 -4 6 1 5 -1 
5 6 5 0 5 -4 6 -2 5 -4 5 -1 5 5 6 -3 
5 4 5 0 5 5 6 -6 5 -6 5 4 5 -5 5 -5 
6 0 5 -7 5 1 5 1 6 -5 5 0 5 3 5 -1 
6 3 5 5 5 1 4178 2484 100 MP stroke
5 1 5 2 6 0 5 -2 5 5 5 2 6 1 5 -2 
5 1 5 2 6 -7 5 -6 5 -3 5 -2 5 -4 6 -1 
5 6 5 -1 5 -3 6 -1 5 4 5 2 5 -5 6 -5 
5 -1 5 0 5 -4 5 -3 6 6 5 6 5 -2 5 -4 
6 4 5 -4 5 -3 5 -1 6 4 5 -5 5 4 5 -3 
5 -1 6 0 5 5 5 1 5 0 6 4 5 4 5 3 
5 2 6 -1 5 4 5 2 5 -8 5 -4 6 0 5 0 
5 0 5 2 6 -6 5 -1 5 0 5 -2 6 3 5 3 
5 -1 5 -6 5 -5 6 -4 5 -3 5 -2 5 -3 6 0 
5 2 5 9 5 -3 6 1 5 3 5 -4 5 -2 5 2 
6 4 5 5 5 -3 5 -5 6 6 5 -2 5 2 5 -1 
6 -3 5 -4 5 4 5 0 5 -7 6 0 5 3 5 1 
5 -7 6 4 5 -6 3660 2521 100 MP stroke
5 -2 5 4 6 5 5 6 5 1 5 -6 5 1 6 -1 
5 -2 5 5 5 3 6 4 5 -2 5 -1 5 3 5 -5 
6 0 5 -2 5 -2 5 2 6 0 5 -1 5 2 5 2 
6 1 5 0 5 7 5 -2 5 0 6 -4 5 -2 5 -7 
5 -3 6 -6 5 0 5 -3 5 -3 6 2 5 3 5 1 
5 1 5 2 6 -2 5 4 5 1 5 5 6 1 5 3 
5 5 5 -1 6 7 5 -4 5 0 5 -2 5 8 6 5 
5 -2 5 0 5 1 6 -1 5 2 5 1 5 -2 6 -2 
5 6 5 2 5 1 5 -4 6 3 5 1 5 4 5 3 
6 -2 5 7 5 1 5 -1 6 6 5 1 5 -2 5 -6 
5 3 6 -3 5 1 5 -1 5 -3 6 1 5 7 5 1 
5 0 6 -2 5 6 5 7 5 9 5 2 6 6 5 -1 
5 3 5 1 6 1 3142 2435 100 MP stroke
5 7 5 2 5 6 6 -3 5 -2 5 1 5 0 5 0 
6 -1 5 -2 5 -1 5 3 6 -4 5 -1 5 -1 5 -4 
6 6 5 -2 5 -4 5 -2 5 -1 6 -2 5 7 5 7 
5 -5 6 -2 5 3 5 -3 5 -2 6 2 5 2 5 0 
5 4 5 -1 6 2 5 6 5 2 5 5 6 -1 5 -3 
5 -2 5 3 6 1 5 -5 5 7 5 3 5 1 6 -3 
5 3 5 -1 5 0 6 3 5 -6 5 0 5 2 6 1 
5 2 5 -2 5 9 5 3 6 -2 5 2 5 -2 5 -3 
6 -4 5 6 5 -3 5 0 6 -1 5 0 5 5 5 1 
5 3 6 3 5 -3 5 6 5 1 6 -6 5 0 5 1 
5 5 6 -3 5 -3 5 -4 5 -8 5 4 6 5 5 0 
5 0 5 4 6 3 5 2 5 2 5 3 6 0 5 -1 
5 2 5 -6 5 -5 2625 2394 100 MP stroke
6 -2 5 -2 5 -5 5 1 6 -1 5 -3 5 -1 5 3 
6 3 5 1 5 2 5 1 5 -7 6 4 5 -3 5 -2 
5 4 6 -3 5 -7 5 -2 5 -1 6 0 5 0 5 1 
5 -1 5 -3 6 0 5 -5 5 -5 5 5 6 -1 5 0 
5 -4 5 -1 6 5 5 3 5 4 5 -3 5 -3 6 -5 
5 7 5 1 5 -5 6 -8 5 -4 5 5 5 2 6 1 
5 -5 5 6 5 2 5 -6 6 -1 5 -2 5 3 5 2 
6 -5 5 1 5 3 5 3 6 -3 5 0 5 -5 5 7 
5 -4 6 4 5 -3 5 -2 5 3 6 3 5 -2 5 -1 
5 3 5 -2 6 0 5 -3 5 -4 5 -3 6 1 5 -5 
5 -4 5 -3 6 0 5 -1 5 -7 5 5 5 -1 6 1 
5 -2 5 -2 5 -1 6 1 5 0 5 1 5 3 6 -3 
5 1 5 0 5 7 2107 2448 100 MP stroke
5 2 6 4 5 -4 5 0 5 -2 6 3 5 1 5 -2 
5 -7 6 -3 5 0 5 1 5 2 5 -5 6 -3 5 -7 
5 -4 5 4 6 -2 5 0 5 1 5 3 6 -2 5 1 
5 -4 5 -1 5 1 6 0 5 -4 5 -1 5 -1 6 0 
5 -1 5 3 5 0 6 -2 5 -2 5 -3 5 -5 5 -4 
6 1 5 2 5 1 5 0 6 -1 5 1 5 3 5 -4 
6 -5 5 -1 5 -2 5 3 5 0 6 0 5 -6 5 -3 
5 -2 6 7 5 -2 5 1 5 -3 6 -5 5 -2 5 1 
5 6 5 4 6 1 5 4 5 2 5 0 6 -1 5 1 
5 1 5 1 6 -2 5 -1 5 -3 5 -3 5 4 6 8 
5 -4 5 4 5 3 6 0 5 -1 5 1 5 0 6 -1 
5 -4 5 5 5 6 5 0 6 -6 5 -2 5 -4 5 1 
6 -4 5 1 5 -1 1589 2491 100 MP stroke
5 5 6 0 5 -1 5 3 5 -7 5 3 6 -8 5 3 
5 5 5 -4 6 1 5 -3 5 -5 5 4 6 0 5 0 
5 5 5 -1 5 1 6 -2 5 -4 5 9 5 5 6 4 
5 -2 5 -6 5 2 6 -5 5 -2 5 2 5 -4 5 -7 
6 -3 5 3 5 2 5 -7 6 -1 5 -1 5 -4 5 5 
6 0 5 0 5 1 5 -3 5 -1 6 -2 5 6 5 -1 
5 2 6 -3 5 0 5 1 5 1 6 -1 5 5 5 3 
5 -6 5 1 6 10 5 7 5 -1 5 -2 6 -2 5 -5 
5 -1 5 1 6 -1 5 -3 5 -2 5 -4 5 -6 6 -5 
5 -1 5 3 5 1 6 -6 5 -1 5 1 5 -2 6 7 
5 2 5 4 5 -3 5 0 6 0 5 -2 5 3 5 5 
6 -4 5 3 5 4 5 -2 6 1 5 0 5 -3 5 -5 
5 0 6 1 5 3 1071 2508 100 MP stroke
5 -4 5 -5 6 0 5 -1 5 3 5 0 6 3 5 3 
5 -4 5 -2 5 -5 6 0 5 3 5 -3 5 0 6 0 
5 -1 5 2 5 -3 6 4 5 9 5 -5 5 0 5 1 
6 -1 5 5 5 -1 5 4 6 1 5 0 5 -2 5 2 
5 7 899 2498 34 MP stroke
gr

24 w
c8
0 sg
%%IncludeResource: font Helvetica
/Helvetica /WindowsLatin1Encoding 204 FMSR

3293 4965 mt 
(t \(sec\)) s
%%IncludeResource: font Symbol
/Symbol /WindowsLatin1Encoding 204 FMSR

 313 2915 mt  -90 rotate
(Q) s
90 rotate
%%IncludeResource: font Helvetica
/Helvetica /WindowsLatin1Encoding 204 FMSR

 313 2764 mt  -90 rotate
(\(t\) \(rad\)) s
90 rotate
gs 899 389 5357 4227 MR c np
/c9 { 1.000000 0.000000 0.000000 sr} bdef
c9
5 -24 5 24 5 18 6 -29 5 29 5 51 5 7 6 -1 
5 -47 5 -17 5 9 5 48 6 3 5 15 5 23 5 14 
6 41 5 48 5 -42 5 -1 6 -23 5 -9 5 -23 5 -20 
5 -6 6 -9 5 -15 5 -14 5 -18 6 -56 5 7 5 11 
5 35 6 19 5 18 5 0 5 7 5 -5 6 -29 5 -2 
5 31 5 -37 6 41 5 9 5 -51 5 -19 6 45 5 -3 
5 -35 5 -1 5 29 6 -6 5 7 5 46 5 -55 6 7 
5 1 5 3 5 9 6 -21 5 12 5 -3 5 -5 5 1 
6 6 5 7 5 12 5 -3 6 18 5 -19 5 -27 5 -12 
6 -5 5 -4 5 -9 5 18 5 16 6 -18 5 4 5 -9 
5 32 6 -59 5 -8 5 29 5 33 6 -3 5 -12 5 -3 
5 -18 5 24 6 -10 5 3 5 21 5 0 6 -36 5 -13 
5 5 5 -26 6 15 5731 2097 100 MP stroke
5 27 5 55 5 -12 5 5 6 5 5 7 5 8 5 -63 
6 22 5 51 5 11 5 45 6 -10 5 29 5 5 5 -43 
5 12 6 16 5 32 5 3 5 -21 6 17 5 -2 5 24 
5 1 6 0 5 48 5 8 5 22 5 24 6 -35 5 14 
5 27 5 25 6 -33 5 3 5 55 5 -20 6 58 5 8 
5 4 5 40 5 0 6 -39 5 16 5 -33 5 21 6 11 
5 -5 5 -3 5 8 6 39 5 -3 5 -8 5 30 5 -1 
6 -38 5 -2 5 -43 5 -50 6 -25 5 -40 5 -4 5 -21 
6 17 5 0 5 -7 5 11 5 -29 6 41 5 8 5 -3 
5 3 6 8 5 14 5 34 5 21 6 54 5 -2 5 54 
5 24 5 4 6 37 5 -36 5 -31 5 -9 6 -3 5 4 
5 -5 5 9 6 -46 5 24 5 0 5 34 5 -36 6 52 
5 24 5 -44 5 54 5214 1535 100 MP stroke
6 22 5 60 5 -21 5 16 6 -16 5 -44 5 35 5 28 
5 28 6 -8 5 -9 5 -49 5 21 6 -9 5 26 5 17 
5 39 6 -15 5 52 5 9 5 9 5 50 6 -12 5 -5 
5 28 5 -12 6 -33 5 29 5 -10 5 -47 6 -5 5 12 
5 -23 5 4 5 -5 6 -32 5 1 5 -20 5 42 6 -6 
5 13 5 -20 5 -18 6 -2 5 10 5 8 5 19 5 2 
6 27 5 -15 5 30 5 -28 6 -28 5 -29 5 32 5 -13 
5 52 6 -28 5 49 5 7 5 33 6 -17 5 -9 5 -30 
5 -41 6 0 5 10 5 29 5 -21 5 6 6 -10 5 -29 
5 -8 5 46 6 -20 5 -26 5 43 5 -14 6 26 5 -18 
5 1 5 14 5 -34 6 -13 5 -12 5 -22 5 -2 6 -42 
5 -20 5 10 5 -47 6 -13 5 -5 5 35 5 -4 5 1 
6 14 5 -6 5 -23 4696 1538 100 MP stroke
5 52 6 -25 5 15 5 -35 5 -28 6 39 5 -57 5 -2 
5 -12 5 11 6 17 5 -19 5 -7 5 -47 6 37 5 -8 
5 49 5 5 6 -54 5 -54 5 -41 5 15 5 27 6 -53 
5 -20 5 -34 5 -4 6 -50 5 14 5 -28 5 15 6 16 
5 -43 5 -2 5 -20 5 -18 6 -8 5 -14 5 -3 5 -39 
6 13 5 -1 5 18 5 18 6 -7 5 -13 5 -15 5 12 
5 -21 6 -21 5 -46 5 13 5 37 6 -34 5 20 5 -18 
5 -26 6 -9 5 -2 5 -23 5 5 5 -33 6 4 5 -21 
5 2 5 1 6 -1 5 -4 5 -23 5 23 6 -43 5 18 
5 16 5 -30 5 24 6 32 5 -12 5 -24 5 -3 6 7 
5 22 5 18 5 9 6 -35 5 -12 5 -24 5 -16 5 10 
6 -16 5 10 5 -14 5 -36 6 -17 5 -4 5 4 5 -21 
6 -5 5 25 5 -7 4178 2227 100 MP stroke
5 26 5 -23 6 15 5 36 5 25 5 -10 6 -32 5 -8 
5 25 5 21 6 -4 5 -12 5 -6 5 -11 5 26 6 18 
5 -13 5 27 5 18 6 -9 5 -2 5 -19 5 -16 6 18 
5 30 5 6 5 6 5 -7 6 -2 5 36 5 3 5 3 
6 7 5 0 5 21 5 10 6 7 5 -21 5 7 5 -15 
5 15 6 -1 5 -2 5 18 5 -18 6 -16 5 -13 5 -18 
5 17 6 -39 5 -2 5 -63 5 -7 5 6 6 55 5 -18 
5 -7 5 15 6 -12 5 10 5 3 5 -10 6 0 5 -20 
5 -37 5 24 5 31 6 24 5 25 5 37 5 10 6 30 
5 -31 5 -20 5 -47 6 33 5 -24 5 -19 5 30 5 -2 
6 -39 5 -11 5 25 5 3 6 -1 5 -33 5 -21 5 1 
6 -4 5 13 5 -21 5 2 5 -3 6 -8 5 56 5 -13 
5 -53 6 2 5 23 3660 2171 100 MP stroke
5 19 5 43 6 -16 5 -2 5 -11 5 -10 5 19 6 -19 
5 -16 5 12 5 -2 6 40 5 -16 5 -26 5 -30 5 -50 
6 1 5 28 5 -2 5 -54 6 15 5 16 5 -52 5 -4 
6 -11 5 -12 5 8 5 4 5 16 6 6 5 1 5 34 
5 19 6 -41 5 1 5 40 5 -12 6 -25 5 29 5 28 
5 -49 5 8 6 -16 5 6 5 -22 5 11 6 7 5 -14 
5 14 5 17 6 55 5 2 5 12 5 52 5 7 6 46 
5 7 5 14 5 -6 6 -13 5 -16 5 -17 5 3 6 -19 
5 -14 5 -13 5 -6 5 26 6 -19 5 -3 5 26 5 -45 
6 -23 5 -19 5 -8 5 4 6 47 5 22 5 -37 5 -10 
5 24 6 -52 5 -15 5 -12 5 6 6 -31 5 -50 5 -66 
5 -8 6 -16 5 7 5 16 5 -27 5 -4 6 -18 5 4 
5 -73 5 -17 6 -31 3142 2549 100 MP stroke
5 16 5 -6 5 19 6 -53 5 -28 5 -3 5 -25 5 -11 
6 -15 5 18 5 6 5 -5 6 -47 5 -36 5 -19 5 -31 
6 8 5 -2 5 -32 5 40 5 -34 6 -9 5 -49 5 29 
5 -32 6 -20 5 -14 5 -12 5 -1 6 25 5 49 5 -14 
5 -44 5 28 6 61 5 2 5 -13 5 61 6 9 5 -14 
5 -7 5 -18 6 30 5 47 5 21 5 -62 5 -25 6 31 
5 -6 5 -6 5 12 6 37 5 -7 5 8 5 -11 6 17 
5 10 5 -36 5 -10 5 35 6 24 5 -11 5 -8 5 18 
6 27 5 12 5 -40 5 26 6 -11 5 14 5 -10 5 6 
5 12 6 2 5 14 5 29 5 19 6 14 5 -51 5 -1 
5 61 6 6 5 2 5 -62 5 -34 5 4 6 -37 5 2 
5 -30 5 2 6 0 5 10 5 54 5 2 6 -56 5 -10 
5 -29 5 -3 5 -16 2625 2736 100 MP stroke
6 -37 5 18 5 38 5 -6 6 -10 5 -24 5 10 5 -8 
6 -26 5 -28 5 18 5 25 5 -8 6 63 5 29 5 -37 
5 23 6 42 5 1 5 3 5 9 6 -30 5 8 5 7 
5 -29 5 18 6 3 5 -6 5 33 5 15 6 -2 5 22 
5 -25 5 -14 6 -64 5 -11 5 11 5 19 5 26 6 -12 
5 -2 5 -28 5 -12 6 15 5 14 5 12 5 15 6 11 
5 -75 5 -29 5 35 5 40 6 20 5 -12 5 49 5 -2 
6 -5 5 -72 5 12 5 -1 6 22 5 -51 5 -19 5 35 
5 -17 6 -47 5 -57 5 5 5 -33 6 45 5 -14 5 18 
5 10 5 22 6 52 5 0 5 -46 5 11 6 7 5 27 
5 -20 5 -5 6 20 5 10 5 53 5 -29 5 -4 6 3 
5 -13 5 14 5 -12 6 -5 5 15 5 -26 5 -37 6 -8 
5 -3 5 0 5 28 2107 2736 100 MP stroke
5 -2 6 -2 5 57 5 32 5 -39 6 40 5 17 5 16 
5 -6 6 27 5 32 5 20 5 15 5 9 6 -49 5 14 
5 -8 5 -24 6 5 5 32 5 -12 5 29 6 8 5 0 
5 19 5 10 5 -13 6 -57 5 -15 5 -4 5 -30 6 -24 
5 8 5 19 5 21 6 -23 5 -9 5 41 5 14 5 19 
6 -4 5 6 5 51 5 -12 6 1 5 -8 5 23 5 22 
6 -5 5 -41 5 -15 5 -13 5 5 6 3 5 0 5 20 
5 -8 6 4 5 3 5 -4 5 33 6 2 5 -4 5 28 
5 -24 5 -5 6 10 5 -50 5 -49 5 12 6 48 5 -10 
5 -46 5 39 6 12 5 1 5 2 5 38 5 29 6 -15 
5 -23 5 36 5 -11 6 45 5 35 5 24 5 -8 6 -3 
5 10 5 -1 5 42 5 12 6 2 5 -15 5 46 5 17 
6 -7 5 -36 5 -25 1589 2330 100 MP stroke
5 44 6 -37 5 -64 5 3 5 29 5 19 6 24 5 4 
5 -10 5 -5 6 -30 5 -16 5 13 5 -61 6 0 5 -6 
5 14 5 -45 5 -39 6 -8 5 0 5 -32 5 -54 6 -53 
5 33 5 -26 5 2 6 -19 5 19 5 -14 5 -32 5 30 
6 -20 5 42 5 -37 5 0 6 26 5 -7 5 9 5 -11 
6 11 5 11 5 -15 5 44 5 -8 6 1 5 21 5 -18 
5 -9 6 -32 5 28 5 -28 5 42 6 21 5 9 5 -15 
5 -17 5 40 6 -4 5 -19 5 20 5 4 6 5 5 -19 
5 -34 5 29 6 -43 5 -23 5 -16 5 -3 5 -12 6 20 
5 -17 5 25 5 -2 6 43 5 -17 5 -43 5 -22 6 4 
5 67 5 -7 5 -2 5 24 6 -4 5 65 5 -7 5 10 
6 -74 5 -7 5 -6 5 -10 6 -23 5 21 5 -17 5 15 
5 49 6 48 5 30 1071 2511 100 MP stroke
5 -4 5 25 6 25 5 4 5 25 5 -30 6 39 5 -17 
5 -13 5 -4 5 5 6 -7 5 28 5 -2 5 11 6 -2 
5 12 5 8 5 14 6 -38 5 -29 5 -12 5 -14 5 -20 
6 19 5 -15 5 -9 5 -54 6 -8 5 32 5 -7 5 43 
5 23 899 2483 34 MP stroke
gr

c9
0 sg
%%IncludeResource: font Helvetica
/Helvetica /WindowsLatin1Encoding 120 FMSR

 882 4658 mt 
( ) s
6239  431 mt 
( ) s
6 w
1 sg
0 596 1583 0 0 -596 4612 1045 4 MP
PP
-1583 0 0 596 1583 0 0 -596 4612 1045 5 MP stroke
4 w
DO
SO
6 w
0 sg
4612  449 mt 6195  449 L
4612 1045 mt 6195 1045 L
6195 1045 mt 6195  449 L
4612 1045 mt 4612  449 L
4612 1045 mt 6195 1045 L
4612 1045 mt 4612  449 L
4612  449 mt 6195  449 L
4612 1045 mt 6195 1045 L
6195 1045 mt 6195  449 L
4612 1045 mt 4612  449 L
%%IncludeResource: font Helvetica
/Helvetica /WindowsLatin1Encoding 168 FMSR

5069  630 mt 
(f) s
%%IncludeResource: font Helvetica
/Helvetica /WindowsLatin1Encoding 132 FMSR

5115  714 mt 
(HWHM) s
%%IncludeResource: font Helvetica
/Helvetica /WindowsLatin1Encoding 168 FMSR

5540  630 mt 
( = 0.002) s
gs 4612 449 1584 597 MR c np
24 w
c8
351 0 4682 608 2 MP stroke
gr

24 w
c8
0 sg
5069  909 mt 
(f) s
%%IncludeResource: font Helvetica
/Helvetica /WindowsLatin1Encoding 132 FMSR

5115  993 mt 
(HWHM) s
%%IncludeResource: font Helvetica
/Helvetica /WindowsLatin1Encoding 168 FMSR

5540  909 mt 
( = 0.125) s
gs 4612 449 1584 597 MR c np
c9
351 0 4682 885 2 MP stroke
6 w
gr

6 w
c9

end %%Color Dict

eplot
%%EndObject

epage
end

showpage

%%Trailer
%%EOF
