%!PS-Adobe-2.0 EPSF-1.2
%%Creator: MATLAB, The MathWorks, Inc. Version 8.0.0.783 (R2012b). Operating System: Linux 2.6.37.6-0.20-desktop #1 SMP PREEMPT 2011-12-19 23:39:38 +0100 x86_64.
%%Title: ./wiener_realize.eps
%%CreationDate: 11/21/2012  17:02:07
%%DocumentNeededFonts: Helvetica
%%DocumentProcessColors: Cyan Magenta Yellow Black
%%Extensions: CMYK
%%Pages: 1
%%BoundingBox:    33   199   546   591
%%EndComments

%%BeginProlog
% MathWorks dictionary
/MathWorks 160 dict begin
% definition operators
/bdef {bind def} bind def
/ldef {load def} bind def
/xdef {exch def} bdef
/xstore {exch store} bdef
% operator abbreviations
/c  /clip ldef
/cc /concat ldef
/cp /closepath ldef
/gr /grestore ldef
/gs /gsave ldef
/mt /moveto ldef
/np /newpath ldef
/cm /currentmatrix ldef
/sm /setmatrix ldef
/rm /rmoveto ldef
/rl /rlineto ldef
/s {show newpath} bdef
/sc {setcmykcolor} bdef
/sr /setrgbcolor ldef
/sg /setgray ldef
/w /setlinewidth ldef
/j /setlinejoin ldef
/cap /setlinecap ldef
/rc {rectclip} bdef
/rf {rectfill} bdef
% page state control
/pgsv () def
/bpage {/pgsv save def} bdef
/epage {pgsv restore} bdef
/bplot /gsave ldef
/eplot {stroke grestore} bdef
% orientation switch
/portraitMode 0 def /landscapeMode 1 def /rotateMode 2 def
% coordinate system mappings
/dpi2point 0 def
% font control
/FontSize 0 def
/FMS {/FontSize xstore findfont [FontSize 0 0 FontSize neg 0 0]
  makefont setfont} bdef
/reencode {exch dup where {pop load} {pop StandardEncoding} ifelse
  exch dup 3 1 roll findfont dup length dict begin
  { 1 index /FID ne {def}{pop pop} ifelse } forall
  /Encoding exch def currentdict end definefont pop} bdef
/isroman {findfont /CharStrings get /Agrave known} bdef
/FMSR {3 1 roll 1 index dup isroman {reencode} {pop pop} ifelse
  exch FMS} bdef
/csm {1 dpi2point div -1 dpi2point div scale neg translate
 dup landscapeMode eq {pop -90 rotate}
  {rotateMode eq {90 rotate} if} ifelse} bdef
% line types: solid, dotted, dashed, dotdash
/SO { [] 0 setdash } bdef
/DO { [.5 dpi2point mul 4 dpi2point mul] 0 setdash } bdef
/DA { [6 dpi2point mul] 0 setdash } bdef
/DD { [.5 dpi2point mul 4 dpi2point mul 6 dpi2point mul 4
  dpi2point mul] 0 setdash } bdef
% macros for lines and objects
/L {lineto stroke} bdef
/MP {3 1 roll moveto 1 sub {rlineto} repeat} bdef
/AP {{rlineto} repeat} bdef
/PDlw -1 def
/W {/PDlw currentlinewidth def setlinewidth} def
/PP {closepath eofill} bdef
/DP {closepath stroke} bdef
/MR {4 -2 roll moveto dup  0 exch rlineto exch 0 rlineto
  neg 0 exch rlineto closepath} bdef
/FR {MR stroke} bdef
/PR {MR fill} bdef
/L1i {{currentfile picstr readhexstring pop} image} bdef
/tMatrix matrix def
/MakeOval {newpath tMatrix currentmatrix pop translate scale
0 0 1 0 360 arc tMatrix setmatrix} bdef
/FO {MakeOval stroke} bdef
/PO {MakeOval fill} bdef
/PD {currentlinewidth 2 div 0 360 arc fill
   PDlw -1 eq not {PDlw w /PDlw -1 def} if} def
/FA {newpath tMatrix currentmatrix pop translate scale
  0 0 1 5 -2 roll arc tMatrix setmatrix stroke} bdef
/PA {newpath tMatrix currentmatrix pop	translate 0 0 moveto scale
  0 0 1 5 -2 roll arc closepath tMatrix setmatrix fill} bdef
/FAn {newpath tMatrix currentmatrix pop translate scale
  0 0 1 5 -2 roll arcn tMatrix setmatrix stroke} bdef
/PAn {newpath tMatrix currentmatrix pop translate 0 0 moveto scale
  0 0 1 5 -2 roll arcn closepath tMatrix setmatrix fill} bdef
/vradius 0 def /hradius 0 def /lry 0 def
/lrx 0 def /uly 0 def /ulx 0 def /rad 0 def
/MRR {/vradius xdef /hradius xdef /lry xdef /lrx xdef /uly xdef
  /ulx xdef newpath tMatrix currentmatrix pop ulx hradius add uly
  vradius add translate hradius vradius scale 0 0 1 180 270 arc 
  tMatrix setmatrix lrx hradius sub uly vradius add translate
  hradius vradius scale 0 0 1 270 360 arc tMatrix setmatrix
  lrx hradius sub lry vradius sub translate hradius vradius scale
  0 0 1 0 90 arc tMatrix setmatrix ulx hradius add lry vradius sub
  translate hradius vradius scale 0 0 1 90 180 arc tMatrix setmatrix
  closepath} bdef
/FRR {MRR stroke } bdef
/PRR {MRR fill } bdef
/MlrRR {/lry xdef /lrx xdef /uly xdef /ulx xdef /rad lry uly sub 2 div def
  newpath tMatrix currentmatrix pop ulx rad add uly rad add translate
  rad rad scale 0 0 1 90 270 arc tMatrix setmatrix lrx rad sub lry rad
  sub translate rad rad scale 0 0 1 270 90 arc tMatrix setmatrix
  closepath} bdef
/FlrRR {MlrRR stroke } bdef
/PlrRR {MlrRR fill } bdef
/MtbRR {/lry xdef /lrx xdef /uly xdef /ulx xdef /rad lrx ulx sub 2 div def
  newpath tMatrix currentmatrix pop ulx rad add uly rad add translate
  rad rad scale 0 0 1 180 360 arc tMatrix setmatrix lrx rad sub lry rad
  sub translate rad rad scale 0 0 1 0 180 arc tMatrix setmatrix
  closepath} bdef
/FtbRR {MtbRR stroke } bdef
/PtbRR {MtbRR fill } bdef
/stri 6 array def /dtri 6 array def
/smat 6 array def /dmat 6 array def
/tmat1 6 array def /tmat2 6 array def /dif 3 array def
/asub {/ind2 exch def /ind1 exch def dup dup
  ind1 get exch ind2 get sub exch } bdef
/tri_to_matrix {
  2 0 asub 3 1 asub 4 0 asub 5 1 asub
  dup 0 get exch 1 get 7 -1 roll astore } bdef
/compute_transform {
  dmat dtri tri_to_matrix tmat1 invertmatrix 
  smat stri tri_to_matrix tmat2 concatmatrix } bdef
/ds {stri astore pop} bdef
/dt {dtri astore pop} bdef
/db {2 copy /cols xdef /rows xdef mul dup 3 mul string
  currentfile exch readhexstring pop
  dup 0 3 index getinterval /rbmap xdef
  dup 2 index dup getinterval /gbmap xdef
  1 index dup 2 mul exch getinterval /bbmap xdef pop pop}bdef
/it {gs np dtri aload pop moveto lineto lineto cp c
  cols rows 8 compute_transform 
  rbmap gbmap bbmap true 3 colorimage gr}bdef
/il {newpath moveto lineto stroke}bdef
currentdict end def
%%EndProlog

%%BeginSetup
MathWorks begin

0 cap

end
%%EndSetup

%%Page: 1 1
%%BeginPageSetup
%%PageBoundingBox:    33   199   546   591
MathWorks begin
bpage
%%EndPageSetup

%%BeginObject: obj1
bplot

/dpi2point 12 def
portraitMode 0216 7344 csm

  191   247  6154  4708 MR c np
85 dict begin %Colortable dictionary
/c0 { 0.000000 0.000000 0.000000 sr} bdef
/c1 { 1.000000 1.000000 1.000000 sr} bdef
/c2 { 0.900000 0.000000 0.000000 sr} bdef
/c3 { 0.000000 0.820000 0.000000 sr} bdef
/c4 { 0.000000 0.000000 0.800000 sr} bdef
/c5 { 0.910000 0.820000 0.320000 sr} bdef
/c6 { 1.000000 0.260000 0.820000 sr} bdef
/c7 { 0.000000 0.820000 0.820000 sr} bdef
c0
1 j
1 sg
   0    0 6913 5186 PR
6 w
0 4226 5356 0 0 -4226 899 4615 4 MP
PP
-5356 0 0 4226 5356 0 0 -4226 899 4615 5 MP stroke
4 w
DO
SO
6 w
0 sg
 899 4615 mt 6255 4615 L
 899  389 mt 6255  389 L
 899 4615 mt  899  389 L
6255 4615 mt 6255  389 L
 899 4615 mt 6255 4615 L
 899 4615 mt  899  389 L
 899 4615 mt  899 4561 L
 899  389 mt  899  442 L
%%IncludeResource: font Helvetica
/Helvetica /ISOLatin1Encoding 120 FMSR

 866 4760 mt 
(0) s
1434 4615 mt 1434 4561 L
1434  389 mt 1434  442 L
1351 4760 mt 
(0.1) s
1970 4615 mt 1970 4561 L
1970  389 mt 1970  442 L
1887 4760 mt 
(0.2) s
2505 4615 mt 2505 4561 L
2505  389 mt 2505  442 L
2422 4760 mt 
(0.3) s
3041 4615 mt 3041 4561 L
3041  389 mt 3041  442 L
2958 4760 mt 
(0.4) s
3577 4615 mt 3577 4561 L
3577  389 mt 3577  442 L
3494 4760 mt 
(0.5) s
4112 4615 mt 4112 4561 L
4112  389 mt 4112  442 L
4029 4760 mt 
(0.6) s
4648 4615 mt 4648 4561 L
4648  389 mt 4648  442 L
4565 4760 mt 
(0.7) s
5183 4615 mt 5183 4561 L
5183  389 mt 5183  442 L
5100 4760 mt 
(0.8) s
5719 4615 mt 5719 4561 L
5719  389 mt 5719  442 L
5636 4760 mt 
(0.9) s
6255 4615 mt 6255 4561 L
6255  389 mt 6255  442 L
6222 4760 mt 
(1) s
 899 4615 mt  952 4615 L
6255 4615 mt 6201 4615 L
 427 4659 mt 
(-3.1416) s
 899 3558 mt  952 3558 L
6255 3558 mt 6201 3558 L
 427 3602 mt 
(-1.5708) s
 899 2502 mt  952 2502 L
6255 2502 mt 6201 2502 L
 798 2546 mt 
(0) s
 899 1445 mt  952 1445 L
6255 1445 mt 6201 1445 L
 498 1489 mt 
(1.5708) s
 899  389 mt  952  389 L
6255  389 mt 6201  389 L
 498  433 mt 
(3.1416) s
 899 4615 mt 6255 4615 L
 899  389 mt 6255  389 L
 899 4615 mt  899  389 L
6255 4615 mt 6255  389 L
gs 899 389 5357 4227 MR c np
/c8 { 0.000000 0.000000 1.000000 sr} bdef
c8
5 -5 5 1 5 1 6 -7 5 3 5 4 5 0 6 3 
5 0 5 4 5 1 5 1 6 1 5 -2 5 -4 5 -2 
6 -3 5 2 5 1 5 5 6 0 5 3 5 -3 5 -1 
5 -2 6 3 5 -3 5 -1 5 3 6 3 5 1 5 2 
5 4 6 -1 5 7 5 4 5 -3 5 -2 6 1 5 3 
5 3 5 3 6 0 5 1 5 -2 5 -3 6 -3 5 0 
5 -2 5 4 5 0 6 0 5 0 5 3 5 -6 6 -5 
5 1 5 0 5 4 6 -3 5 -1 5 4 5 5 5 -4 
6 -5 5 -4 5 -1 5 -5 6 -4 5 7 5 -4 5 1 
6 5 5 0 5 -1 5 -3 5 -2 6 -3 5 -1 5 -5 
5 3 6 -2 5 1 5 -2 5 -2 6 -4 5 1 5 1 
5 2 5 5 6 -2 5 -1 5 -1 5 6 6 -1 5 -1 
5 -8 5 1 6 4 5731 2550 100 MP stroke
5 -2 5 4 5 -2 5 0 6 6 5 6 5 -1 5 -4 
6 0 5 -2 5 0 5 -1 6 0 5 0 5 2 5 -4 
5 1 6 1 5 -1 5 -4 5 -1 6 -6 5 1 5 -3 
5 0 6 -4 5 -4 5 5 5 1 5 -3 6 3 5 -2 
5 -2 5 1 6 4 5 3 5 -2 5 -3 6 -1 5 2 
5 2 5 -2 5 3 6 -1 5 -4 5 1 5 3 6 0 
5 2 5 0 5 0 6 5 5 -2 5 3 5 -1 5 3 
6 0 5 1 5 -1 5 -7 6 -2 5 -7 5 -5 5 2 
6 1 5 -3 5 -3 5 -1 5 0 6 2 5 1 5 2 
5 1 6 -2 5 -5 5 -4 5 7 6 2 5 -1 5 -3 
5 7 5 -2 6 -2 5 4 5 3 5 2 6 -1 5 -4 
5 0 5 -2 6 -1 5 -2 5 2 5 6 5 5 6 -4 
5 0 5 1 5 -4 5214 2567 100 MP stroke
6 2 5 3 5 -3 5 -2 6 -7 5 4 5 -3 5 2 
5 4 6 2 5 4 5 0 5 6 6 5 5 -2 5 1 
5 1 6 3 5 4 5 -1 5 -1 5 3 6 4 5 0 
5 4 5 3 6 6 5 -5 5 6 5 -4 6 -1 5 2 
5 8 5 -3 5 -2 6 -1 5 6 5 -7 5 1 6 -2 
5 -5 5 -1 5 5 6 3 5 1 5 4 5 6 5 0 
6 3 5 -2 5 -6 5 -1 6 -3 5 -2 5 -5 5 6 
5 9 6 6 5 -6 5 2 5 -5 6 0 5 -5 5 1 
5 4 6 1 5 -7 5 0 5 4 5 -8 6 1 5 1 
5 -4 5 -1 6 2 5 -2 5 -3 5 5 6 2 5 -2 
5 0 5 -5 5 7 6 -1 5 3 5 -2 5 0 6 -1 
5 -2 5 -2 5 1 6 -5 5 4 5 -2 5 1 5 0 
6 -6 5 3 5 4 4696 2532 100 MP stroke
5 0 6 2 5 1 5 -2 5 1 6 1 5 3 5 -3 
5 6 5 4 6 2 5 -1 5 0 5 -2 6 -1 5 -1 
5 0 5 -1 6 3 5 -4 5 0 5 3 5 -1 6 3 
5 6 5 -1 5 -2 6 -4 5 3 5 1 5 1 6 3 
5 5 5 2 5 -7 5 -1 6 -3 5 5 5 3 5 -3 
6 -4 5 -3 5 -3 5 0 6 3 5 3 5 0 5 1 
5 -5 6 -1 5 -2 5 -3 5 1 6 -1 5 5 5 4 
5 4 6 5 5 5 5 0 5 0 5 8 6 -7 5 1 
5 1 5 2 6 1 5 -3 5 0 5 2 6 2 5 0 
5 0 5 -4 5 1 6 -2 5 -1 5 3 5 -2 6 -5 
5 -4 5 -1 5 -5 6 2 5 -7 5 1 5 -2 5 -1 
6 -4 5 -3 5 2 5 -1 6 -1 5 0 5 -3 5 1 
6 2 5 1 5 -2 4178 2530 100 MP stroke
5 -2 5 0 6 -4 5 1 5 1 5 -5 6 2 5 0 
5 2 5 -5 6 3 5 4 5 -2 5 -2 5 1 6 -1 
5 -2 5 0 5 -1 6 -3 5 -1 5 -5 5 -1 6 3 
5 -12 5 -3 5 -3 5 -2 6 4 5 -1 5 5 5 3 
6 5 5 4 5 -1 5 8 6 -4 5 -3 5 3 5 5 
5 -6 6 8 5 5 5 0 5 -3 6 3 5 0 5 3 
5 -6 6 3 5 -4 5 2 5 -2 5 3 6 -1 5 4 
5 -2 5 4 6 -3 5 -2 5 0 5 -1 6 8 5 2 
5 0 5 -3 5 1 6 4 5 -3 5 3 5 -6 6 0 
5 1 5 -3 5 -3 6 4 5 2 5 -3 5 1 5 3 
6 6 5 3 5 -2 5 0 6 -1 5 0 5 4 5 -2 
6 -3 5 1 5 -2 5 -2 5 -2 6 1 5 4 5 4 
5 0 6 1 5 -4 3660 2520 100 MP stroke
5 4 5 -6 6 -3 5 3 5 1 5 0 5 -7 6 -2 
5 -4 5 1 5 0 6 -5 5 2 5 5 5 0 5 -6 
6 -6 5 1 5 2 5 5 6 0 5 -6 5 3 5 4 
6 -3 5 0 5 -2 5 2 5 -4 6 0 5 4 5 4 
5 0 6 -4 5 5 5 2 5 -3 6 2 5 -3 5 0 
5 -1 5 2 6 2 5 4 5 1 5 2 6 4 5 6 
5 0 5 -7 6 4 5 1 5 -4 5 9 5 -1 6 -2 
5 0 5 -2 5 1 6 5 5 -2 5 3 5 3 6 0 
5 6 5 -3 5 -2 5 3 6 -3 5 -1 5 0 5 -3 
6 4 5 -1 5 -4 5 -3 6 4 5 2 5 2 5 -5 
5 1 6 -4 5 -10 5 4 5 1 6 2 5 5 5 -3 
5 -1 6 -4 5 0 5 5 5 3 5 2 6 0 5 1 
5 -2 5 1 6 -4 3142 2513 100 MP stroke
5 2 5 1 5 -1 6 -1 5 3 5 2 5 1 5 4 
6 -1 5 4 5 -4 5 -3 6 3 5 0 5 3 5 -3 
6 4 5 0 5 -5 5 2 5 4 6 1 5 -2 5 -3 
5 2 6 4 5 0 5 -1 5 6 6 2 5 0 5 -2 
5 4 5 -5 6 4 5 -1 5 0 5 -2 6 -4 5 -3 
5 3 5 1 6 2 5 3 5 -3 5 3 5 1 6 -4 
5 1 5 0 5 3 6 3 5 -2 5 0 5 -6 6 1 
5 -1 5 -1 5 3 5 2 6 -3 5 -1 5 1 5 3 
6 0 5 -2 5 -4 5 0 6 0 5 2 5 -5 5 -6 
5 4 6 -2 5 2 5 2 5 -1 6 -2 5 -4 5 1 
5 1 6 4 5 -3 5 7 5 0 5 1 6 2 5 -2 
5 -2 5 -2 6 -3 5 -2 5 3 5 -2 6 1 5 3 
5 -3 5 -6 5 -2 2625 2509 100 MP stroke
6 -1 5 -2 5 3 5 -5 6 1 5 0 5 1 5 3 
6 -2 5 6 5 -3 5 -3 5 -1 6 3 5 -2 5 3 
5 1 6 2 5 4 5 3 5 3 6 -1 5 -2 5 -3 
5 -2 5 -2 6 -2 5 -2 5 3 5 -3 6 -3 5 3 
5 8 5 -4 6 2 5 2 5 5 5 3 5 -2 6 0 
5 -2 5 1 5 1 6 0 5 -1 5 -9 5 -9 6 -9 
5 1 5 -1 5 1 5 -3 6 0 5 -1 5 0 5 0 
6 -1 5 -1 5 7 5 -1 6 2 5 -1 5 -2 5 -5 
5 0 6 -2 5 1 5 3 5 1 6 -3 5 -2 5 6 
5 6 5 -2 6 1 5 -3 5 2 5 2 6 1 5 -5 
5 -4 5 -1 6 -1 5 2 5 5 5 -3 5 -4 6 -4 
5 2 5 -6 5 -5 6 2 5 2 5 0 5 4 6 1 
5 -4 5 -5 5 -3 2107 2544 100 MP stroke
5 -5 6 -7 5 2 5 -7 5 4 6 -2 5 -1 5 -3 
5 2 6 0 5 4 5 5 5 -3 5 -1 6 1 5 0 
5 0 5 -2 6 3 5 -3 5 -1 5 3 6 -1 5 -5 
5 -2 5 0 5 -4 6 10 5 -1 5 -3 5 5 6 -2 
5 2 5 -5 5 4 6 2 5 4 5 3 5 1 5 1 
6 -1 5 1 5 -2 5 -2 6 6 5 5 5 -2 5 4 
6 3 5 -3 5 2 5 5 5 1 6 -3 5 6 5 0 
5 2 6 1 5 -1 5 2 5 -1 6 -1 5 5 5 5 
5 -3 5 8 6 -2 5 1 5 -2 5 -3 6 7 5 5 
5 -4 5 -2 6 0 5 1 5 -1 5 2 5 -1 6 -3 
5 -1 5 -2 5 3 6 1 5 1 5 2 5 1 6 -3 
5 3 5 -1 5 -1 5 0 6 2 5 -1 5 1 5 -2 
6 2 5 -3 5 0 1589 2509 100 MP stroke
5 -2 6 4 5 -1 5 0 5 -3 5 -1 6 -2 5 -2 
5 1 5 -1 6 -5 5 0 5 -1 5 6 6 2 5 -6 
5 -4 5 1 5 -6 6 0 5 0 5 2 5 3 6 3 
5 1 5 1 5 6 6 3 5 -6 5 -3 5 6 5 -1 
6 2 5 -4 5 -1 5 -4 6 -1 5 -1 5 -1 5 2 
6 0 5 1 5 1 5 -1 5 -4 6 3 5 -2 5 -2 
5 0 6 1 5 5 5 -5 5 0 6 -3 5 -7 5 2 
5 2 5 -3 6 -1 5 0 5 6 5 2 6 3 5 3 
5 -1 5 -2 6 0 5 -1 5 0 5 1 5 3 6 1 
5 -2 5 4 5 -1 6 -6 5 1 5 4 5 -4 6 4 
5 4 5 -2 5 6 5 -5 6 2 5 5 5 0 5 -6 
6 0 5 0 5 4 5 2 6 3 5 1 5 1 5 5 
5 1 6 1 5 2 1071 2496 100 MP stroke
5 -2 5 1 6 2 5 6 5 4 5 2 6 5 5 -3 
5 0 5 -2 5 -4 6 3 5 1 5 -3 5 -1 6 5 
5 -4 5 4 5 -1 6 -2 5 -6 5 4 5 -5 5 -4 
6 0 5 -3 5 3 5 4 6 -1 5 -1 5 1 5 -1 
5 -4 899 2498 34 MP stroke
gr

c8
0 sg
3409 4903 mt 
(t \(sec\)) s
%%IncludeResource: font Symbol
/Symbol /ISOLatin1Encoding 120 FMSR

 337 2744 mt  -90 rotate
(Q) s
90 rotate
%%IncludeResource: font Helvetica
/Helvetica /ISOLatin1Encoding 120 FMSR

 337 2656 mt  -90 rotate
(\(t\) \(rad\)) s
90 rotate
gs 899 389 5357 4227 MR c np
/c9 { 1.000000 0.000000 0.000000 sr} bdef
c9
5 38 5 -14 5 -31 6 -47 5 4 5 19 5 20 6 11 
5 7 5 28 5 -23 5 25 6 -16 5 1 5 18 5 -34 
6 15 5 -12 5 -4 5 13 6 1 5 -49 5 -30 5 -48 
5 -43 6 -21 5 4 5 3 5 -36 6 -22 5 12 5 9 
5 9 6 -13 5 14 5 -51 5 5 5 -8 6 0 5 -23 
5 19 5 -1 6 22 5 -26 5 0 5 -11 6 39 5 23 
5 26 5 -20 5 2 6 2 5 -12 5 -8 5 -35 6 -29 
5 -46 5 -5 5 27 6 -44 5 -29 5 -28 5 11 5 17 
6 -53 5 -22 5 10 5 -38 6 18 5 -32 5 -1 5 -16 
6 -32 5 -1 5 27 5 30 5 -40 6 19 5 8 5 -72 
5 -21 6 -18 5 4 5 -23 5 2 6 43 5 -9 5 -4 
5 -15 5 -37 6 21 5 -21 5 -34 5 5 6 11 5 -14 
5 14 5 30 6 -18 5731 2361 100 MP stroke
5 2 5 -28 5 62 5 11 6 36 5 -38 5 -29 5 27 
6 -49 5 -22 5 -23 5 27 6 3 5 15 5 2 5 -19 
5 -4 6 -17 5 -12 5 17 5 -6 6 8 5 100 5 44 
5 -14 6 -13 5 5 5 37 5 34 5 6 6 -18 5 -3 
5 -18 5 -29 6 -16 5 30 5 14 5 7 6 3 5 52 
5 -35 5 47 5 12 6 -13 5 -15 5 21 5 13 6 44 
5 -34 5 -7 5 7 6 -20 5 50 5 5 5 -12 5 15 
6 5 5 31 5 4 5 -7 6 13 5 -26 5 -40 5 10 
6 -37 5 -3 5 28 5 12 5 4 6 21 5 4 5 -27 
5 -9 6 44 5 -33 5 26 5 -15 6 34 5 -20 5 0 
5 22 5 12 6 33 5 -19 5 28 5 -42 6 -27 5 -11 
5 1 5 -8 6 -8 5 15 5 -60 5 -31 5 54 6 27 
5 -10 5 -9 5 -38 5214 2151 100 MP stroke
6 8 5 16 5 3 5 -9 6 -1 5 3 5 7 5 50 
5 4 6 56 5 -75 5 -21 5 1 6 17 5 -15 5 7 
5 -33 6 -60 5 23 5 21 5 -32 5 -15 6 -27 5 -38 
5 12 5 17 6 -10 5 -18 5 -21 5 37 6 -12 5 10 
5 46 5 -25 5 -30 6 -8 5 -42 5 -7 5 -28 6 9 
5 -48 5 11 5 -1 6 -5 5 -2 5 -28 5 -32 5 60 
6 12 5 7 5 -12 5 40 6 -1 5 -10 5 26 5 8 
5 -36 6 -20 5 -1 5 -37 5 -34 6 5 5 26 5 26 
5 -7 6 -10 5 -4 5 -31 5 -11 5 -13 6 9 5 -40 
5 -5 5 -27 6 48 5 -10 5 -6 5 -21 6 14 5 -27 
5 -32 5 -28 5 16 6 23 5 33 5 -45 5 -25 6 56 
5 13 5 5 5 -10 6 -17 5 -17 5 8 5 -3 5 11 
6 21 5 7 5 25 4696 2477 100 MP stroke
5 10 6 68 5 3 5 19 5 -2 6 -11 5 28 5 -4 
5 21 5 -3 6 42 5 15 5 13 5 27 6 -13 5 15 
5 -28 5 17 6 -10 5 26 5 -12 5 4 5 14 6 10 
5 -34 5 -19 5 -12 6 -5 5 71 5 -58 5 21 6 -31 
5 14 5 4 5 16 5 1 6 -25 5 20 5 9 5 -28 
6 -20 5 24 5 -15 5 29 6 -44 5 4 5 16 5 31 
5 85 6 14 5 27 5 -21 5 -29 6 -29 5 -4 5 41 
5 12 6 33 5 26 5 11 5 20 5 21 6 8 5 -31 
5 -50 5 -17 6 23 5 65 5 -27 5 20 6 -8 5 -11 
5 -36 5 45 5 -33 6 0 5 -28 5 -26 5 -9 6 34 
5 -26 5 1 5 -25 6 -20 5 30 5 -11 5 -20 5 -4 
6 7 5 -12 5 6 5 -3 6 -13 5 -29 5 -17 5 6 
6 -16 5 -67 5 11 4178 2335 100 MP stroke
5 9 5 -24 6 -3 5 11 5 -11 5 -56 6 4 5 55 
5 5 5 2 6 -16 5 -39 5 -16 5 -11 5 -42 6 -64 
5 -38 5 7 5 -14 6 53 5 20 5 2 5 21 6 31 
5 44 5 27 5 -25 5 30 6 -7 5 9 5 25 5 22 
6 -2 5 -4 5 -65 5 9 6 2 5 -23 5 -14 5 -2 
5 11 6 -22 5 -17 5 26 5 1 6 7 5 -21 5 -13 
5 8 6 -36 5 -11 5 -7 5 -27 5 8 6 2 5 53 
5 -28 5 33 6 40 5 51 5 -28 5 -12 6 -14 5 31 
5 64 5 33 5 15 6 -23 5 -10 5 -20 5 -8 6 -2 
5 -8 5 -4 5 16 6 -6 5 37 5 9 5 10 5 8 
6 8 5 -6 5 20 5 4 6 9 5 37 5 -49 5 -55 
6 -11 5 12 5 0 5 22 5 -42 6 -7 5 -26 5 15 
5 19 6 21 5 10 3660 2296 100 MP stroke
5 33 5 -13 6 -5 5 -22 5 -6 5 -17 5 -33 6 -52 
5 16 5 5 5 22 6 -25 5 -6 5 29 5 5 5 13 
6 -21 5 7 5 -26 5 37 6 -13 5 -25 5 7 5 45 
6 9 5 -3 5 5 5 -14 5 -12 6 -21 5 -3 5 -17 
5 -22 6 -24 5 -26 5 9 5 -3 6 54 5 -18 5 24 
5 -19 5 3 6 -8 5 35 5 -5 5 -11 6 5 5 22 
5 25 5 5 6 -4 5 32 5 20 5 16 5 13 6 45 
5 -34 5 23 5 -21 6 27 5 38 5 -23 5 -23 6 -4 
5 18 5 -9 5 -34 5 3 6 -12 5 18 5 30 5 14 
6 4 5 10 5 -24 5 -18 6 15 5 -8 5 -6 5 0 
5 10 6 -23 5 23 5 14 5 -24 6 23 5 -5 5 -30 
5 16 6 31 5 -10 5 11 5 -8 5 -24 6 -3 5 11 
5 3 5 20 6 -44 3142 2254 100 MP stroke
5 36 5 -38 5 0 6 -25 5 18 5 -13 5 16 5 -43 
6 -4 5 3 5 -12 5 12 6 12 5 13 5 1 5 -6 
6 1 5 -18 5 -2 5 16 5 -2 6 -25 5 -13 5 -31 
5 8 6 -5 5 -7 5 2 5 11 6 5 5 9 5 -1 
5 -24 5 -14 6 -53 5 -23 5 -13 5 32 6 -20 5 5 
5 -23 5 -28 6 2 5 24 5 5 5 1 5 31 6 18 
5 -25 5 32 5 8 6 58 5 7 5 19 5 22 6 35 
5 10 5 20 5 11 5 -19 6 -11 5 -30 5 10 5 -3 
6 -15 5 13 5 -22 5 -32 6 -14 5 45 5 -18 5 -32 
5 -10 6 18 5 5 5 -1 5 -32 6 -12 5 19 5 12 
5 -6 6 13 5 30 5 -37 5 34 5 -1 6 3 5 2 
5 26 5 10 6 1 5 15 5 6 5 38 6 -23 5 15 
5 -22 5 5 5 -8 2625 2247 100 MP stroke
6 64 5 3 5 12 5 -8 6 -28 5 -33 5 -14 5 37 
6 -15 5 27 5 18 5 -19 5 -44 6 -18 5 6 5 -8 
5 -7 6 -31 5 37 5 42 5 41 6 1 5 20 5 47 
5 7 5 -18 6 -2 5 -4 5 -21 5 -17 6 7 5 22 
5 -8 5 71 6 54 5 -12 5 -28 5 11 5 -7 6 13 
5 20 5 19 5 8 6 -47 5 32 5 -8 5 -8 6 23 
5 14 5 4 5 -2 5 1 6 -43 5 -16 5 -17 5 5 
6 -19 5 -14 5 -7 5 -48 6 21 5 -33 5 -27 5 21 
5 2 6 -14 5 -53 5 -40 5 -13 6 1 5 -18 5 1 
5 14 5 -58 6 -64 5 -4 5 -17 5 5 6 -12 5 -59 
5 25 5 25 6 -11 5 -30 5 0 5 -4 5 1 6 25 
5 35 5 -24 5 -5 6 12 5 -26 5 24 5 41 6 6 
5 -38 5 22 5 -24 2107 2445 100 MP stroke
5 18 6 -11 5 -2 5 -9 5 15 6 -9 5 -11 5 -38 
5 15 6 -1 5 9 5 10 5 -22 5 22 6 0 5 29 
5 -39 5 5 6 11 5 7 5 3 5 -7 6 5 5 -8 
5 1 5 -19 5 32 6 12 5 -18 5 -22 5 12 6 2 
5 -18 5 40 5 -9 6 -13 5 27 5 9 5 -54 5 -30 
6 5 5 58 5 10 5 32 6 14 5 -29 5 -11 5 33 
6 -12 5 27 5 44 5 -35 5 12 6 1 5 19 5 -27 
5 -22 6 -48 5 -14 5 19 5 -10 6 32 5 -18 5 18 
5 51 5 -18 6 -26 5 15 5 48 5 22 6 9 5 29 
5 -41 5 -2 6 -5 5 21 5 -14 5 -15 5 -15 6 -7 
5 -79 5 -15 5 -3 6 -16 5 12 5 -6 5 30 6 25 
5 -12 5 10 5 -11 5 -26 6 4 5 45 5 15 5 -11 
6 -9 5 -7 5 -10 1589 2415 100 MP stroke
5 3 6 -6 5 9 5 -25 5 -18 5 55 6 0 5 -23 
5 26 5 31 6 25 5 -18 5 31 5 6 6 -34 5 2 
5 -6 5 26 5 -57 6 -12 5 -5 5 -16 5 -30 6 -12 
5 -44 5 1 5 -6 6 6 5 -41 5 10 5 33 5 -14 
6 -33 5 16 5 9 5 37 6 -36 5 31 5 43 5 20 
6 -4 5 19 5 -46 5 2 5 -17 6 29 5 -10 5 -15 
5 -49 6 -35 5 -7 5 -8 5 -43 6 1 5 -6 5 -14 
5 -18 5 -20 6 16 5 20 5 -10 5 35 6 40 5 -5 
5 26 5 -53 6 26 5 -17 5 13 5 2 5 0 6 -30 
5 15 5 -10 5 -17 6 -61 5 -10 5 -12 5 1 6 -11 
5 14 5 0 5 11 5 24 6 6 5 6 5 -5 5 -13 
6 -21 5 53 5 -39 5 26 6 22 5 -23 5 5 5 50 
5 14 6 45 5 -26 1071 2565 100 MP stroke
5 -16 5 -4 6 5 5 -30 5 45 5 -15 6 1 5 -7 
5 -31 5 -3 5 -1 6 -2 5 -10 5 38 5 21 6 -23 
5 -14 5 17 5 12 6 -9 5 -20 5 -6 5 64 5 12 
6 -3 5 -34 5 49 5 -41 6 29 5 31 5 55 5 39 
5 -47 899 2463 34 MP stroke
gr

c9
0 sg
 882 4658 mt 
( ) s
6239  431 mt 
( ) s
1 sg
0 442 1279 0 0 -442 4916 891 4 MP
PP
-1279 0 0 442 1279 0 0 -442 4916 891 5 MP stroke
4 w
DO
SO
6 w
0 sg
4916  891 mt 6195  891 L
4916  449 mt 6195  449 L
4916  891 mt 4916  449 L
6195  891 mt 6195  449 L
4916  891 mt 6195  891 L
4916  891 mt 4916  449 L
4916  891 mt 6195  891 L
4916  449 mt 6195  449 L
4916  891 mt 4916  449 L
6195  891 mt 6195  449 L
5370  561 mt 
(f) s
%%IncludeResource: font Helvetica
/Helvetica /ISOLatin1Encoding 96 FMSR

5403  621 mt 
(HWHM) s
%%IncludeResource: font Helvetica
/Helvetica /ISOLatin1Encoding 120 FMSR

5712  561 mt 
( = 0.002) s
gs 4916 449 1280 443 MR c np
c8
349 0 4985 568 2 MP stroke
gr

c8
0 sg
5370  766 mt 
(f) s
%%IncludeResource: font Helvetica
/Helvetica /ISOLatin1Encoding 96 FMSR

5403  826 mt 
(HWHM) s
%%IncludeResource: font Helvetica
/Helvetica /ISOLatin1Encoding 120 FMSR

5712  766 mt 
( = 0.125) s
gs 4916 449 1280 443 MR c np
c9
349 0 4985 771 2 MP stroke
gr

c9

end %%Color Dict

eplot
%%EndObject

epage
end

showpage

%%Trailer
%%EOF
