%!PS-Adobe-2.0 EPSF-1.2
%%Creator: MATLAB, The MathWorks, Inc. Version 8.0.0.783 (R2012b). Operating System: Linux 2.6.37.6-0.20-desktop #1 SMP PREEMPT 2011-12-19 23:39:38 +0100 x86_64.
%%Title: ./wrapped_gaussian_auxiliary.eps
%%CreationDate: 11/21/2012  21:14:21
%%DocumentNeededFonts: Helvetica
%%DocumentProcessColors: Cyan Magenta Yellow Black
%%Extensions: CMYK
%%Pages: 1
%%BoundingBox:    52   199   546   607
%%EndComments

%%BeginProlog
% MathWorks dictionary
/MathWorks 160 dict begin
% definition operators
/bdef {bind def} bind def
/ldef {load def} bind def
/xdef {exch def} bdef
/xstore {exch store} bdef
% operator abbreviations
/c  /clip ldef
/cc /concat ldef
/cp /closepath ldef
/gr /grestore ldef
/gs /gsave ldef
/mt /moveto ldef
/np /newpath ldef
/cm /currentmatrix ldef
/sm /setmatrix ldef
/rm /rmoveto ldef
/rl /rlineto ldef
/s {show newpath} bdef
/sc {setcmykcolor} bdef
/sr /setrgbcolor ldef
/sg /setgray ldef
/w /setlinewidth ldef
/j /setlinejoin ldef
/cap /setlinecap ldef
/rc {rectclip} bdef
/rf {rectfill} bdef
% page state control
/pgsv () def
/bpage {/pgsv save def} bdef
/epage {pgsv restore} bdef
/bplot /gsave ldef
/eplot {stroke grestore} bdef
% orientation switch
/portraitMode 0 def /landscapeMode 1 def /rotateMode 2 def
% coordinate system mappings
/dpi2point 0 def
% font control
/FontSize 0 def
/FMS {/FontSize xstore findfont [FontSize 0 0 FontSize neg 0 0]
  makefont setfont} bdef
/reencode {exch dup where {pop load} {pop StandardEncoding} ifelse
  exch dup 3 1 roll findfont dup length dict begin
  { 1 index /FID ne {def}{pop pop} ifelse } forall
  /Encoding exch def currentdict end definefont pop} bdef
/isroman {findfont /CharStrings get /Agrave known} bdef
/FMSR {3 1 roll 1 index dup isroman {reencode} {pop pop} ifelse
  exch FMS} bdef
/csm {1 dpi2point div -1 dpi2point div scale neg translate
 dup landscapeMode eq {pop -90 rotate}
  {rotateMode eq {90 rotate} if} ifelse} bdef
% line types: solid, dotted, dashed, dotdash
/SO { [] 0 setdash } bdef
/DO { [.5 dpi2point mul 4 dpi2point mul] 0 setdash } bdef
/DA { [6 dpi2point mul] 0 setdash } bdef
/DD { [.5 dpi2point mul 4 dpi2point mul 6 dpi2point mul 4
  dpi2point mul] 0 setdash } bdef
% macros for lines and objects
/L {lineto stroke} bdef
/MP {3 1 roll moveto 1 sub {rlineto} repeat} bdef
/AP {{rlineto} repeat} bdef
/PDlw -1 def
/W {/PDlw currentlinewidth def setlinewidth} def
/PP {closepath eofill} bdef
/DP {closepath stroke} bdef
/MR {4 -2 roll moveto dup  0 exch rlineto exch 0 rlineto
  neg 0 exch rlineto closepath} bdef
/FR {MR stroke} bdef
/PR {MR fill} bdef
/L1i {{currentfile picstr readhexstring pop} image} bdef
/tMatrix matrix def
/MakeOval {newpath tMatrix currentmatrix pop translate scale
0 0 1 0 360 arc tMatrix setmatrix} bdef
/FO {MakeOval stroke} bdef
/PO {MakeOval fill} bdef
/PD {currentlinewidth 2 div 0 360 arc fill
   PDlw -1 eq not {PDlw w /PDlw -1 def} if} def
/FA {newpath tMatrix currentmatrix pop translate scale
  0 0 1 5 -2 roll arc tMatrix setmatrix stroke} bdef
/PA {newpath tMatrix currentmatrix pop	translate 0 0 moveto scale
  0 0 1 5 -2 roll arc closepath tMatrix setmatrix fill} bdef
/FAn {newpath tMatrix currentmatrix pop translate scale
  0 0 1 5 -2 roll arcn tMatrix setmatrix stroke} bdef
/PAn {newpath tMatrix currentmatrix pop translate 0 0 moveto scale
  0 0 1 5 -2 roll arcn closepath tMatrix setmatrix fill} bdef
/vradius 0 def /hradius 0 def /lry 0 def
/lrx 0 def /uly 0 def /ulx 0 def /rad 0 def
/MRR {/vradius xdef /hradius xdef /lry xdef /lrx xdef /uly xdef
  /ulx xdef newpath tMatrix currentmatrix pop ulx hradius add uly
  vradius add translate hradius vradius scale 0 0 1 180 270 arc 
  tMatrix setmatrix lrx hradius sub uly vradius add translate
  hradius vradius scale 0 0 1 270 360 arc tMatrix setmatrix
  lrx hradius sub lry vradius sub translate hradius vradius scale
  0 0 1 0 90 arc tMatrix setmatrix ulx hradius add lry vradius sub
  translate hradius vradius scale 0 0 1 90 180 arc tMatrix setmatrix
  closepath} bdef
/FRR {MRR stroke } bdef
/PRR {MRR fill } bdef
/MlrRR {/lry xdef /lrx xdef /uly xdef /ulx xdef /rad lry uly sub 2 div def
  newpath tMatrix currentmatrix pop ulx rad add uly rad add translate
  rad rad scale 0 0 1 90 270 arc tMatrix setmatrix lrx rad sub lry rad
  sub translate rad rad scale 0 0 1 270 90 arc tMatrix setmatrix
  closepath} bdef
/FlrRR {MlrRR stroke } bdef
/PlrRR {MlrRR fill } bdef
/MtbRR {/lry xdef /lrx xdef /uly xdef /ulx xdef /rad lrx ulx sub 2 div def
  newpath tMatrix currentmatrix pop ulx rad add uly rad add translate
  rad rad scale 0 0 1 180 360 arc tMatrix setmatrix lrx rad sub lry rad
  sub translate rad rad scale 0 0 1 0 180 arc tMatrix setmatrix
  closepath} bdef
/FtbRR {MtbRR stroke } bdef
/PtbRR {MtbRR fill } bdef
/stri 6 array def /dtri 6 array def
/smat 6 array def /dmat 6 array def
/tmat1 6 array def /tmat2 6 array def /dif 3 array def
/asub {/ind2 exch def /ind1 exch def dup dup
  ind1 get exch ind2 get sub exch } bdef
/tri_to_matrix {
  2 0 asub 3 1 asub 4 0 asub 5 1 asub
  dup 0 get exch 1 get 7 -1 roll astore } bdef
/compute_transform {
  dmat dtri tri_to_matrix tmat1 invertmatrix 
  smat stri tri_to_matrix tmat2 concatmatrix } bdef
/ds {stri astore pop} bdef
/dt {dtri astore pop} bdef
/db {2 copy /cols xdef /rows xdef mul dup 3 mul string
  currentfile exch readhexstring pop
  dup 0 3 index getinterval /rbmap xdef
  dup 2 index dup getinterval /gbmap xdef
  1 index dup 2 mul exch getinterval /bbmap xdef pop pop}bdef
/it {gs np dtri aload pop moveto lineto lineto cp c
  cols rows 8 compute_transform 
  rbmap gbmap bbmap true 3 colorimage gr}bdef
/il {newpath moveto lineto stroke}bdef
currentdict end def
%%EndProlog

%%BeginSetup
MathWorks begin

0 cap

end
%%EndSetup

%%Page: 1 1
%%BeginPageSetup
%%PageBoundingBox:    52   199   546   607
MathWorks begin
bpage
%%EndPageSetup

%%BeginObject: obj1
bplot

/dpi2point 12 def
portraitMode 0216 7344 csm

  413    56  5932  4899 MR c np
85 dict begin %Colortable dictionary
/c0 { 0.000000 0.000000 0.000000 sr} bdef
/c1 { 1.000000 1.000000 1.000000 sr} bdef
/c2 { 0.900000 0.000000 0.000000 sr} bdef
/c3 { 0.000000 0.820000 0.000000 sr} bdef
/c4 { 0.000000 0.000000 0.800000 sr} bdef
/c5 { 0.910000 0.820000 0.320000 sr} bdef
/c6 { 1.000000 0.260000 0.820000 sr} bdef
/c7 { 0.000000 0.820000 0.820000 sr} bdef
c0
1 j
1 sg
   0    0 6913 5186 PR
6 w
0 4226 5356 0 0 -4226 899 4615 4 MP
PP
-5356 0 0 4226 5356 0 0 -4226 899 4615 5 MP stroke
4 w
DO
SO
6 w
0 sg
 899 4615 mt 6255 4615 L
 899  389 mt 6255  389 L
 899 4615 mt  899  389 L
6255 4615 mt 6255  389 L
 899 4615 mt 6255 4615 L
 899 4615 mt  899  389 L
1019 4615 mt 1019 4561 L
1019  389 mt 1019  442 L
%%IncludeResource: font Helvetica
/Helvetica /ISOLatin1Encoding 120 FMSR

 916 4760 mt 
(-3) s
1872 4615 mt 1872 4561 L
1872  389 mt 1872  442 L
1769 4760 mt 
(-2) s
2724 4615 mt 2724 4561 L
2724  389 mt 2724  442 L
2621 4760 mt 
(-1) s
3577 4615 mt 3577 4561 L
3577  389 mt 3577  442 L
3544 4760 mt 
(0) s
4429 4615 mt 4429 4561 L
4429  389 mt 4429  442 L
4396 4760 mt 
(1) s
5281 4615 mt 5281 4561 L
5281  389 mt 5281  442 L
5248 4760 mt 
(2) s
6134 4615 mt 6134 4561 L
6134  389 mt 6134  442 L
6101 4760 mt 
(3) s
 899 4615 mt  952 4615 L
6255 4615 mt 6201 4615 L
 798 4659 mt 
(0) s
 899 4066 mt  952 4066 L
6255 4066 mt 6201 4066 L
 631 4110 mt 
(0.05) s
 899 3517 mt  952 3517 L
6255 3517 mt 6201 3517 L
 698 3561 mt 
(0.1) s
 899 2968 mt  952 2968 L
6255 2968 mt 6201 2968 L
 631 3012 mt 
(0.15) s
 899 2419 mt  952 2419 L
6255 2419 mt 6201 2419 L
 698 2463 mt 
(0.2) s
 899 1870 mt  952 1870 L
6255 1870 mt 6201 1870 L
 631 1914 mt 
(0.25) s
 899 1322 mt  952 1322 L
6255 1322 mt 6201 1322 L
 698 1366 mt 
(0.3) s
 899  773 mt  952  773 L
6255  773 mt 6201  773 L
 631  817 mt 
(0.35) s
 899 4615 mt 6255 4615 L
 899  389 mt 6255  389 L
 899 4615 mt  899  389 L
6255 4615 mt 6255  389 L
gs 899 389 5357 4227 MR c np
/c8 { 0.000000 0.000000 1.000000 sr} bdef
c8
1 0 1 0 1 0 1 0 1 0 1 0 1 1 1 0 
1 0 1 0 1 0 1 0 1 0 1 0 1 0 1 0 
1 0 1 0 1 0 1 0 1 0 1 0 1 0 1 0 
1 0 1 0 1 0 1 0 1 0 1 0 1 0 1 0 
1 0 1 0 1 0 1 0 1 0 1 0 1 0 1 1 
1 0 1 0 1 0 1 0 1 0 1 0 1 0 1 0 
1 0 1 0 1 0 1 0 1 0 1 0 1 1 1 0 
1 0 1 0 1 0 1 0 1 0 1 0 1 0 1 0 
1 0 1 0 1 1 1 0 1 0 1 0 1 0 1 0 
1 0 1 0 1 0 1 0 1 1 1 0 1 0 1 0 
1 0 1 0 1 0 1 0 1 0 1 1 1 0 1 0 
1 0 1 0 1 0 1 0 1 0 1 1 1 0 1 0 
1 0 1 0 1 0 6156 4306 100 MP stroke
1 0 1 1 1 0 1 0 1 0 1 0 1 0 1 0 
1 1 1 0 1 0 1 0 1 0 1 0 1 0 1 1 
1 0 1 0 1 0 1 0 1 0 1 1 1 0 1 0 
1 0 1 0 1 0 1 1 1 0 1 0 1 0 1 0 
1 1 1 0 1 0 1 0 1 0 1 1 1 0 1 0 
1 0 1 0 1 0 1 1 1 0 1 0 1 0 1 1 
1 0 1 0 1 0 1 0 1 1 1 0 1 0 1 0 
1 0 1 1 1 0 1 0 1 0 1 0 1 1 1 0 
1 0 1 0 1 1 1 0 1 0 1 0 1 1 1 0 
1 0 1 0 1 1 1 0 1 0 1 0 1 1 1 0 
1 0 1 0 1 1 1 0 1 0 1 0 1 1 1 0 
1 0 1 0 1 1 1 0 1 0 1 0 1 1 1 0 
1 0 1 0 1 1 6057 4285 100 MP stroke
1 0 1 0 1 1 1 0 1 0 1 1 1 0 1 0 
1 0 1 1 1 0 1 0 1 0 1 1 1 0 1 0 
1 1 1 0 1 0 1 1 1 0 1 0 1 0 1 1 
1 0 1 1 1 0 1 0 1 0 1 1 1 0 1 0 
1 1 1 0 1 0 1 1 1 0 1 0 1 1 1 0 
1 0 1 1 1 0 1 0 1 1 1 0 1 0 1 1 
1 0 1 0 1 1 1 0 1 0 1 1 1 0 1 0 
1 1 1 0 1 1 1 0 1 0 1 1 1 0 1 0 
1 1 1 0 1 1 1 0 1 0 1 1 1 0 1 0 
1 1 1 0 1 1 1 0 1 0 1 1 1 0 1 0 
1 1 1 0 1 1 1 0 1 1 1 0 1 0 1 1 
1 0 1 0 1 1 1 0 1 1 1 0 1 1 1 0 
1 0 1 1 1 0 5958 4251 100 MP stroke
1 1 1 0 1 0 1 1 1 0 1 1 1 0 1 1 
1 0 1 1 1 0 1 0 1 1 1 0 1 1 1 0 
1 1 1 0 1 0 1 1 1 0 1 1 1 0 1 1 
1 0 1 0 1 1 1 0 1 1 1 0 1 1 1 0 
1 1 1 0 1 1 1 0 1 1 1 0 1 1 1 0 
1 1 1 0 1 1 1 0 1 1 1 0 1 1 1 0 
1 1 1 0 1 1 1 0 1 1 1 0 1 1 1 0 
1 1 1 0 1 1 1 0 1 1 1 0 1 1 1 0 
1 1 1 0 1 1 1 0 1 1 1 0 1 1 1 0 
1 1 1 0 1 1 1 0 1 1 1 0 1 1 1 0 
1 1 1 0 1 1 1 0 1 1 1 1 1 0 1 1 
1 0 1 1 1 0 1 1 1 0 1 1 1 0 1 1 
1 0 1 1 1 1 5859 4202 100 MP stroke
1 0 1 1 1 0 1 1 1 1 1 0 1 1 1 0 
1 1 1 0 1 1 1 0 1 1 1 1 1 0 1 1 
1 1 1 0 1 1 1 0 1 1 1 0 1 1 1 1 
1 0 1 1 1 1 1 0 1 1 1 0 1 1 1 0 
1 1 1 1 1 0 1 1 1 1 1 0 1 1 1 0 
1 1 1 1 1 0 1 1 1 1 1 0 1 1 1 0 
1 1 1 1 1 1 1 0 1 1 1 0 1 1 1 1 
1 0 1 1 1 1 1 0 1 1 1 0 1 1 1 1 
1 0 1 1 1 1 1 0 1 1 1 1 1 0 1 1 
1 1 1 0 1 1 1 1 1 0 1 1 1 1 1 1 
1 0 1 1 1 0 1 1 1 1 1 1 1 0 1 1 
1 1 1 0 1 1 1 1 1 0 1 1 1 1 1 1 
1 0 1 1 1 1 5760 4139 100 MP stroke
1 1 1 0 1 1 1 0 1 1 1 1 1 1 1 0 
1 1 1 1 1 1 1 0 1 1 1 1 1 1 1 0 
1 1 1 1 1 1 1 0 1 1 1 1 1 1 1 0 
1 1 1 1 1 1 1 0 1 1 1 1 1 1 1 0 
1 1 1 1 1 1 1 0 1 1 1 1 1 1 1 0 
1 1 1 1 1 0 1 1 1 1 1 1 1 0 -1 0 
2 2 1 0 1 1 1 1 1 1 1 0 1 1 1 1 
1 1 1 0 1 1 1 1 1 1 1 1 1 1 1 0 
1 1 1 1 1 1 1 0 -1 0 2 2 1 0 1 1 
1 1 1 1 1 0 1 1 1 1 1 1 1 1 1 1 
1 0 1 1 1 1 1 1 1 1 1 1 1 0 1 1 
1 1 1 1 1 1 1 1 1 0 -1 0 2 2 1 0 
1 1 1 1 1 1 5664 4064 100 MP stroke
1 1 1 1 1 0 1 1 1 1 1 1 1 1 1 1 
1 0 -1 0 2 2 1 0 1 1 1 1 1 1 1 1 
1 1 1 0 -1 0 2 2 1 0 1 1 1 1 1 1 
1 1 1 0 -1 0 2 2 1 0 1 1 1 1 1 1 
1 1 1 1 1 1 1 1 1 0 -1 0 2 2 1 0 
1 1 1 1 1 1 1 1 1 1 1 1 1 1 1 1 
1 1 1 0 -1 0 2 2 1 0 -1 0 2 2 1 0 
1 1 1 1 1 1 1 1 1 1 1 1 1 1 1 1 
1 1 1 1 1 1 1 0 -1 0 2 2 1 0 -1 0 
2 2 1 0 -1 0 2 2 1 0 1 1 1 1 1 1 
1 1 1 1 1 1 1 1 1 1 1 1 1 1 1 1 
1 1 1 1 1 1 1 1 1 1 1 1 1 1 1 1 
1 1 1 1 1 1 5574 3981 100 MP stroke
1 1 1 1 1 1 1 1 1 1 1 1 1 1 1 1 
1 0 -1 0 2 2 1 0 -1 0 2 2 1 0 -1 0 
2 2 1 1 1 1 1 1 1 1 1 1 1 1 1 1 
1 1 1 1 1 1 1 1 1 1 1 1 1 1 1 1 
1 1 1 1 1 1 1 1 1 1 1 1 0 1 1 1 
1 0 -1 0 2 2 1 0 -1 0 2 2 1 0 -1 0 
2 2 1 1 1 1 1 1 1 1 1 1 1 1 1 1 
1 1 1 1 0 1 1 1 1 0 -1 0 2 2 1 0 
-1 0 2 2 1 1 1 1 1 1 1 1 1 1 1 1 
1 1 0 1 1 1 1 0 -1 0 2 2 1 1 1 1 
1 1 1 1 1 1 1 1 1 1 0 1 1 1 1 0 
-1 0 2 2 1 1 1 1 1 1 1 1 1 1 0 1 
1 1 1 0 -1 0 5492 3894 100 MP stroke
2 2 1 1 1 0 -1 0 2 2 1 1 1 1 1 1 
1 1 1 1 0 1 1 1 1 0 -1 0 2 2 1 1 
1 1 1 1 1 1 1 1 0 1 1 1 1 1 1 1 
1 1 1 1 1 1 0 1 1 1 1 0 -1 0 2 2 
1 1 1 1 1 1 0 1 1 1 1 0 -1 0 2 2 
1 1 1 1 1 1 0 1 1 1 1 0 -1 0 2 2 
1 1 1 1 1 1 0 1 1 1 1 1 1 1 1 1 
0 1 1 1 1 0 -1 0 2 2 1 1 1 1 1 1 
0 1 1 1 1 1 1 1 1 1 0 1 1 1 1 0 
-1 0 2 2 1 1 1 1 1 1 0 1 1 1 1 1 
1 1 1 1 0 1 1 1 1 1 1 1 1 1 0 1 
1 1 1 0 -1 0 2 2 1 1 0 1 1 1 1 0 
-1 0 2 2 1 1 5414 3803 100 MP stroke
1 1 1 1 1 1 0 1 1 1 1 1 1 1 1 1 
0 1 1 1 1 1 1 1 1 1 0 1 1 1 1 1 
1 1 1 1 0 1 1 1 1 1 1 1 1 1 0 1 
1 1 1 1 1 1 1 1 0 1 1 1 1 1 0 1 
1 1 1 0 -1 0 2 2 1 1 0 1 1 1 1 1 
1 1 1 1 0 1 1 1 1 1 1 1 1 1 0 1 
1 1 1 1 0 1 1 1 1 0 -1 0 2 2 1 1 
0 1 1 1 1 1 1 1 1 1 0 1 1 1 1 1 
0 1 1 1 1 1 1 1 1 1 0 1 1 1 1 1 
0 1 1 1 1 0 -1 0 2 2 1 1 0 1 1 1 
1 1 0 1 1 1 1 0 -1 0 2 2 1 1 0 1 
1 1 1 1 0 1 1 1 1 0 -1 0 2 2 1 1 
0 1 1 1 1 1 5341 3709 100 MP stroke
0 1 1 1 1 1 1 1 1 1 0 1 1 1 1 1 
1 1 0 1 1 1 1 1 1 1 1 1 0 1 1 1 
1 1 0 1 1 1 1 1 0 1 1 1 1 1 1 1 
1 1 0 1 1 1 1 1 0 1 1 1 1 1 0 1 
1 1 1 1 1 1 1 1 0 1 1 1 1 1 0 1 
1 1 1 1 0 1 1 1 1 1 0 1 1 1 1 0 
-1 0 2 2 1 1 0 1 1 1 1 1 0 1 1 1 
1 1 0 1 1 1 1 1 0 1 1 1 1 1 1 1 
1 1 0 1 1 1 1 1 0 1 1 1 1 1 0 1 
1 1 1 1 0 1 1 1 1 1 0 1 1 1 1 1 
1 1 1 1 0 1 1 1 1 1 0 1 1 1 1 1 
0 1 1 1 1 1 0 1 1 1 1 1 0 1 1 1 
1 1 0 1 1 1 5271 3611 100 MP stroke
1 1 0 1 1 1 1 1 0 1 1 1 1 1 1 1 
1 1 0 1 1 1 1 1 0 1 1 1 1 1 1 1 
0 1 1 1 1 1 0 1 1 1 1 1 0 1 1 1 
1 1 0 1 1 1 1 1 0 1 1 1 1 1 0 1 
1 1 1 1 0 1 1 1 1 1 0 1 1 1 1 1 
0 1 1 1 1 1 0 1 1 1 1 1 0 1 1 1 
1 1 0 1 1 1 1 1 0 1 1 1 1 1 0 1 
1 1 1 1 0 1 1 1 1 1 0 1 1 1 1 1 
0 1 1 1 1 1 0 1 1 1 1 1 0 1 1 1 
1 1 0 1 1 1 1 1 0 1 1 1 1 1 0 1 
1 1 1 1 0 1 1 1 1 1 0 1 1 1 1 1 
0 1 1 1 1 1 0 1 1 1 1 1 0 1 1 1 
1 1 0 1 1 2 5204 3511 100 MP stroke
1 1 0 1 1 1 1 1 0 1 1 1 1 1 0 1 
1 1 1 1 0 1 1 1 1 1 0 1 1 1 1 1 
0 1 1 1 1 1 0 1 1 1 1 1 0 1 1 1 
1 1 0 1 1 1 1 2 0 1 1 1 1 1 1 1 
0 1 1 1 1 1 0 1 1 1 1 1 0 1 1 1 
1 1 0 1 1 1 1 1 0 1 1 1 1 2 0 1 
1 1 1 1 0 1 1 1 1 1 0 1 1 1 1 1 
0 1 1 1 1 1 0 1 1 1 1 1 0 1 1 2 
1 1 0 1 1 1 1 1 0 1 1 1 1 1 0 1 
1 1 1 1 0 1 1 1 1 1 0 2 1 1 1 1 
0 1 1 1 1 1 0 1 1 1 1 1 0 1 1 1 
1 1 0 1 1 2 1 1 0 1 1 1 1 1 0 1 
1 1 1 1 0 1 5138 3407 100 MP stroke
1 1 1 1 0 1 1 2 1 1 0 1 1 1 1 1 
0 1 1 1 1 1 0 1 1 1 1 1 0 2 1 1 
1 1 0 1 1 1 1 1 0 1 1 1 1 1 0 1 
1 2 1 1 0 1 1 1 1 1 0 1 1 1 1 1 
0 1 1 1 1 2 0 1 1 1 1 1 0 1 1 1 
1 1 0 1 1 1 1 2 0 1 1 1 1 1 1 1 
0 1 1 1 1 1 0 1 1 2 1 1 0 1 1 1 
1 1 0 1 1 1 1 1 0 1 1 2 1 1 0 1 
1 1 1 1 0 1 1 1 1 1 0 2 1 1 1 1 
0 1 1 1 1 1 0 1 1 1 1 2 0 1 1 1 
1 1 0 1 1 1 1 1 0 2 1 1 1 1 0 1 
1 1 1 1 0 1 1 1 1 2 0 1 1 1 1 1 
0 1 1 1 1 1 5071 3297 100 MP stroke
0 2 1 1 1 1 0 1 1 1 1 1 0 1 1 2 
1 1 0 1 1 1 1 1 0 1 1 1 1 2 0 1 
1 1 1 1 0 1 1 1 1 1 0 2 1 1 1 1 
0 1 1 1 1 1 0 2 1 1 1 1 0 1 1 1 
1 1 0 1 1 2 1 1 0 1 1 1 1 1 0 1 
1 2 1 1 0 1 1 1 1 1 0 1 1 2 1 1 
0 1 1 1 1 1 0 1 1 2 1 1 0 1 1 1 
1 1 0 1 1 2 1 1 0 1 1 1 1 1 1 1 
0 2 1 1 1 1 0 1 1 1 1 1 0 2 1 1 
1 1 0 1 1 1 1 1 0 2 1 1 1 1 0 1 
1 1 1 2 0 1 1 1 1 1 0 1 1 1 1 2 
0 1 1 1 1 1 0 1 1 2 1 1 0 1 1 1 
1 1 0 2 1 1 5005 3181 100 MP stroke
1 1 0 1 1 1 1 1 0 2 1 1 1 1 0 1 
1 1 1 2 0 1 1 1 1 1 0 1 1 2 1 1 
0 1 1 1 1 1 0 2 1 1 1 1 0 1 1 1 
1 2 0 1 1 1 1 1 0 1 1 2 1 1 0 1 
1 1 1 1 0 2 1 1 1 1 0 1 1 1 1 2 
0 1 1 1 1 1 0 1 1 2 1 1 0 1 1 1 
1 1 0 2 1 1 1 1 0 1 1 2 1 1 0 1 
1 1 1 1 0 2 1 1 1 1 0 1 1 1 1 2 
0 1 1 1 1 1 0 2 1 1 1 1 0 1 1 1 
1 2 0 1 1 1 1 1 1 2 0 1 1 1 1 1 
0 1 1 2 1 1 0 1 1 1 1 2 0 1 1 1 
1 1 0 1 1 2 1 1 0 1 1 1 1 2 0 1 
1 1 1 1 0 1 4939 3062 100 MP stroke
1 2 1 1 0 1 1 1 1 2 0 1 1 1 1 1 
0 2 1 1 1 1 0 1 1 2 1 1 0 1 1 1 
1 1 0 2 1 1 1 1 0 1 1 2 1 1 0 1 
1 1 1 2 0 1 1 1 1 1 0 2 1 1 1 1 
0 1 1 2 1 1 0 1 1 1 1 2 0 1 1 1 
1 1 0 2 1 1 1 1 0 1 1 2 1 1 0 1 
1 1 1 2 0 1 1 1 1 1 0 2 1 1 1 1 
0 1 1 2 1 1 0 1 1 1 1 2 0 1 1 1 
1 1 0 2 1 1 1 1 0 1 1 2 1 1 0 1 
1 1 1 2 0 1 1 1 1 1 0 2 1 1 1 1 
0 1 1 2 1 1 0 1 1 1 1 2 0 1 1 1 
1 2 0 1 1 1 1 1 1 2 0 1 1 1 1 1 
0 2 1 1 1 1 4872 2938 100 MP stroke
0 1 1 2 1 1 0 1 1 2 1 1 0 1 1 1 
1 2 0 1 1 1 1 1 0 2 1 1 1 1 0 1 
1 2 1 1 0 1 1 2 1 1 0 1 1 1 1 2 
0 1 1 1 1 2 0 1 1 1 1 1 0 2 1 1 
1 1 0 1 1 2 1 1 0 1 1 2 1 1 0 1 
1 1 1 2 0 1 1 1 1 2 0 1 1 1 1 1 
0 2 1 1 1 1 0 1 1 2 1 1 0 1 1 2 
1 1 0 1 1 1 1 2 0 1 1 1 1 2 0 1 
1 1 1 1 0 2 1 1 1 1 0 2 1 1 1 1 
0 1 1 2 1 1 0 1 1 2 1 1 0 1 1 1 
1 2 0 1 1 1 1 2 0 1 1 1 1 2 0 1 
1 1 1 1 0 2 1 1 1 1 0 2 1 1 1 1 
0 1 1 2 1 1 4806 2811 100 MP stroke
0 1 1 2 1 1 0 1 1 2 1 1 0 1 1 1 
1 2 1 1 0 1 1 2 1 1 0 1 1 1 1 2 
0 1 1 1 1 2 0 1 1 1 1 2 0 1 1 1 
1 1 0 2 1 1 1 1 0 2 1 1 1 1 0 2 
1 1 1 1 0 2 1 1 1 1 0 1 1 2 1 1 
0 1 1 2 1 1 0 1 1 2 1 1 0 1 1 1 
1 2 0 1 1 1 1 2 0 1 1 1 1 2 0 1 
1 1 1 2 0 1 1 1 1 1 0 2 1 1 1 1 
0 2 1 1 1 1 0 2 1 1 1 1 0 2 1 1 
1 1 0 1 1 2 1 1 0 1 1 2 1 1 0 1 
1 2 1 1 0 1 1 2 1 1 0 1 1 1 1 2 
0 1 1 1 1 2 0 1 1 1 1 2 0 1 1 1 
1 2 0 1 1 1 4740 2682 100 MP stroke
1 2 0 1 1 1 1 2 0 1 1 1 1 1 0 2 
1 1 1 1 0 2 1 1 1 1 0 2 1 1 1 1 
0 2 1 1 1 1 0 2 1 1 1 1 0 2 1 1 
1 1 1 1 0 2 1 1 1 1 0 2 1 1 1 1 
0 2 1 1 1 1 0 2 1 1 1 1 0 2 1 1 
1 1 0 2 1 1 1 1 0 2 1 1 1 1 0 1 
1 2 1 1 0 1 1 2 1 1 0 1 1 2 1 1 
0 1 1 2 1 1 0 1 1 2 1 1 0 1 1 2 
1 1 0 1 1 2 1 1 0 1 1 2 1 1 0 1 
1 2 1 1 0 1 1 1 1 2 0 1 1 1 1 2 
0 1 1 1 1 2 0 1 1 1 1 2 0 1 1 1 
1 2 0 1 1 1 1 2 0 1 1 1 1 2 0 1 
1 1 1 2 0 1 4674 2551 100 MP stroke
1 1 1 2 0 1 1 1 1 2 0 1 1 1 1 2 
0 1 1 1 1 1 0 2 1 1 1 1 0 2 1 1 
1 1 0 2 1 1 1 1 0 2 1 1 1 1 0 2 
1 1 1 1 0 2 1 1 1 1 0 2 1 1 1 1 
0 2 1 1 1 1 0 2 1 1 1 1 1 2 0 1 
1 1 1 2 0 1 1 1 1 2 0 1 1 1 1 2 
0 1 1 1 1 2 0 1 1 1 1 1 0 2 1 1 
1 1 0 2 1 1 1 1 0 2 1 1 1 1 0 2 
1 1 1 1 0 2 1 1 1 1 0 2 1 1 1 1 
0 2 1 1 1 1 0 2 1 1 1 1 0 2 1 1 
1 1 0 2 1 1 1 1 0 2 1 1 1 1 0 2 
1 1 1 1 0 2 1 1 1 1 0 1 1 2 1 1 
0 1 1 2 1 1 4607 2420 100 MP stroke
0 1 1 2 1 1 0 1 1 2 1 1 0 1 1 2 
1 1 0 1 1 2 1 1 0 1 1 2 1 1 0 1 
1 2 1 1 0 1 1 2 1 1 0 1 1 2 1 1 
0 1 1 2 1 1 0 1 1 1 1 2 0 1 1 1 
1 2 0 1 1 1 1 2 0 1 1 1 1 2 0 1 
1 1 1 2 0 1 1 1 1 2 0 1 1 1 1 2 
0 1 1 1 1 2 0 1 1 1 1 1 1 2 0 1 
1 1 1 2 0 1 1 1 1 2 0 1 1 1 1 2 
0 1 1 1 1 2 0 1 1 1 1 2 0 1 1 1 
1 2 0 1 1 1 1 1 0 2 1 1 1 1 0 2 
1 1 1 1 0 2 1 1 1 1 0 2 1 1 1 1 
0 2 1 1 1 1 0 2 1 1 1 1 0 1 1 2 
1 1 0 1 1 2 4541 2289 100 MP stroke
1 1 0 1 1 2 1 1 0 1 1 2 1 1 0 1 
1 2 1 1 0 1 1 1 1 2 0 1 1 1 1 2 
0 1 1 1 1 2 0 1 1 1 1 2 0 1 1 1 
1 2 0 1 1 1 1 1 0 2 1 1 1 1 0 2 
1 1 1 1 0 2 1 1 1 1 0 2 1 1 1 1 
0 1 1 2 1 1 0 1 1 2 1 1 0 1 1 2 
1 1 0 1 1 1 1 2 0 1 1 1 1 2 0 1 
1 1 1 2 0 1 1 1 1 2 0 1 1 1 1 1 
0 2 1 1 1 1 0 2 1 1 1 1 1 2 0 1 
1 1 1 1 0 2 1 1 1 1 0 2 1 1 1 1 
0 1 1 2 1 1 0 1 1 2 1 1 0 1 1 2 
1 1 0 1 1 1 1 2 0 1 1 1 1 2 0 1 
1 1 1 1 0 2 4475 2160 100 MP stroke
1 1 1 1 0 2 1 1 1 1 0 2 1 1 1 1 
0 1 1 2 1 1 0 1 1 2 1 1 0 1 1 1 
1 2 0 1 1 1 1 2 0 1 1 1 1 1 0 2 
1 1 1 1 0 2 1 1 1 1 0 1 1 2 1 1 
0 1 1 2 1 1 0 1 1 1 1 2 0 1 1 1 
1 1 0 2 1 1 1 1 0 2 1 1 1 1 0 1 
1 2 1 1 0 1 1 2 1 1 0 1 1 1 1 2 
0 1 1 1 1 1 0 2 1 1 1 1 0 2 1 1 
1 1 0 1 1 2 1 1 0 1 1 1 1 2 0 1 
1 1 1 1 0 2 1 1 1 1 0 2 1 1 1 1 
0 1 1 2 1 1 0 1 1 1 1 2 1 1 0 1 
1 1 1 2 0 1 1 1 1 2 0 1 1 1 1 1 
0 2 1 1 1 1 4408 2034 100 MP stroke
0 1 1 2 1 1 0 1 1 1 1 2 0 1 1 1 
1 1 0 2 1 1 1 1 0 1 1 2 1 1 0 1 
1 1 1 2 0 1 1 1 1 1 0 2 1 1 1 1 
0 1 1 2 1 1 0 1 1 1 1 2 0 1 1 1 
1 1 0 2 1 1 1 1 0 1 1 2 1 1 0 1 
1 1 1 2 0 1 1 1 1 1 0 1 1 2 1 1 
0 1 1 1 1 2 0 1 1 1 1 1 0 2 1 1 
1 1 0 1 1 2 1 1 0 1 1 1 1 1 0 2 
1 1 1 1 0 1 1 2 1 1 0 1 1 1 1 2 
0 1 1 1 1 1 0 1 1 2 1 1 0 1 1 1 
1 2 0 1 1 1 1 1 0 1 1 2 1 1 0 1 
1 1 1 2 0 1 1 1 1 1 0 1 1 2 1 1 
0 1 1 1 1 1 4342 1912 100 MP stroke
1 2 0 1 1 1 1 1 0 2 1 1 1 1 0 1 
1 1 1 2 0 1 1 1 1 1 0 1 1 2 1 1 
0 1 1 1 1 1 0 2 1 1 1 1 0 1 1 1 
1 2 0 1 1 1 1 1 0 1 1 2 1 1 0 1 
1 1 1 1 0 2 1 1 1 1 0 1 1 1 1 2 
0 1 1 1 1 1 0 1 1 2 1 1 0 1 1 1 
1 1 0 1 1 2 1 1 0 1 1 1 1 1 0 2 
1 1 1 1 0 1 1 1 1 1 0 2 1 1 1 1 
0 1 1 1 1 2 0 1 1 1 1 1 0 1 1 1 
1 2 0 1 1 1 1 1 0 1 1 1 1 2 0 1 
1 1 1 1 0 1 1 1 1 2 0 1 1 1 1 1 
0 1 1 1 1 2 0 1 1 1 1 1 0 1 1 1 
1 2 0 1 1 1 4276 1794 100 MP stroke
1 1 0 1 1 1 1 1 0 2 1 1 1 1 0 1 
1 1 1 1 0 2 1 1 1 1 0 1 1 1 1 1 
1 1 0 2 1 1 1 1 0 1 1 1 1 1 0 1 
1 2 1 1 0 1 1 1 1 1 0 1 1 1 1 2 
0 1 1 1 1 1 0 1 1 1 1 1 0 1 1 2 
1 1 0 1 1 1 1 1 0 1 1 1 1 1 0 2 
1 1 1 1 0 1 1 1 1 1 0 1 1 1 1 2 
0 1 1 1 1 1 0 1 1 1 1 1 0 1 1 2 
1 1 0 1 1 1 1 1 0 1 1 1 1 1 0 1 
1 2 1 1 0 1 1 1 1 1 0 1 1 1 1 1 
0 1 1 1 1 2 0 1 1 1 1 1 0 1 1 1 
1 1 0 1 1 1 1 1 0 2 1 1 1 1 0 1 
1 1 1 1 0 1 4210 1683 100 MP stroke
1 1 1 1 0 1 1 1 1 1 0 2 1 1 1 1 
0 1 1 1 1 1 0 1 1 1 1 1 0 1 1 1 
1 1 0 2 1 1 1 1 0 1 1 1 1 1 0 1 
1 1 1 1 0 1 1 1 1 1 0 1 1 1 1 1 
1 2 0 1 1 1 1 1 0 1 1 1 1 1 0 1 
1 1 1 1 0 1 1 1 1 1 0 1 1 1 1 1 
0 1 1 2 1 1 0 1 1 1 1 1 0 1 1 1 
1 1 0 1 1 1 1 1 0 1 1 1 1 1 0 1 
1 1 1 1 0 1 1 1 1 1 0 1 1 1 1 1 
0 1 1 1 1 1 0 2 1 1 1 1 0 1 1 1 
1 1 0 1 1 1 1 1 0 1 1 1 1 1 0 1 
1 1 1 1 0 1 1 1 1 1 0 1 1 1 1 1 
0 1 1 1 1 1 4143 1579 100 MP stroke
0 1 1 1 1 1 0 1 1 1 1 1 0 1 1 1 
1 1 0 1 1 1 1 1 0 1 1 1 1 1 0 1 
1 1 1 1 0 1 1 1 1 1 0 1 1 1 1 1 
0 1 1 1 1 1 0 1 1 1 1 1 0 1 1 1 
1 1 0 1 1 1 1 1 0 1 1 1 1 1 0 1 
1 1 1 1 1 1 1 1 0 1 1 1 1 1 1 1 
0 1 1 1 1 1 0 1 1 1 1 1 0 1 1 1 
1 1 0 1 1 1 1 1 0 1 1 1 1 1 0 1 
1 1 1 1 1 1 1 1 0 1 1 1 1 1 0 1 
1 1 1 1 0 1 1 1 1 1 0 1 1 1 1 1 
0 1 1 1 1 0 -1 0 2 2 1 1 0 1 1 1 
1 1 0 1 1 1 1 1 0 1 1 1 1 1 1 1 
1 1 0 1 1 1 4075 1481 100 MP stroke
1 1 0 1 1 1 1 1 0 1 1 1 1 1 1 1 
1 1 0 1 1 1 1 1 0 1 1 1 1 1 0 1 
1 1 1 0 -1 0 2 2 1 1 0 1 1 1 1 1 
0 1 1 1 1 0 -1 0 2 2 1 1 0 1 1 1 
1 1 0 1 1 1 1 0 -1 0 2 2 1 1 0 1 
1 1 1 1 1 1 1 1 0 1 1 1 1 1 0 1 
1 1 1 1 1 1 1 1 0 1 1 1 1 1 1 1 
1 1 1 1 0 1 1 1 1 1 1 1 1 1 0 1 
1 1 1 1 1 1 1 1 0 1 1 1 1 1 1 1 
1 1 0 1 1 1 1 1 1 1 1 1 0 1 1 1 
1 1 1 1 1 1 0 1 1 1 1 1 1 1 1 1 
0 1 1 1 1 1 1 1 1 1 0 1 1 1 1 1 
1 1 1 1 0 1 4001 1385 100 MP stroke
1 1 1 0 -1 0 2 2 1 1 1 1 1 1 0 1 
1 1 1 1 1 1 1 1 1 1 1 1 0 1 1 1 
1 1 1 1 1 1 1 1 1 1 0 1 1 1 1 1 
1 1 1 1 1 1 1 1 0 1 1 1 1 0 -1 0 
2 2 1 1 1 1 1 1 0 1 1 1 1 0 -1 0 
2 2 1 1 1 1 1 1 1 1 1 1 0 1 1 1 
1 0 -1 0 2 2 1 0 1 1 0 1 1 1 1 0 
-1 0 2 2 1 1 1 1 1 1 1 1 1 1 1 1 
1 1 0 1 1 1 1 0 -1 0 2 2 1 0 -1 0 
2 2 1 0 -1 0 2 2 1 1 1 1 1 1 1 1 
1 1 1 1 1 1 1 1 1 1 1 1 1 1 1 1 
1 1 1 1 1 1 1 1 1 1 0 1 1 1 1 0 
-1 0 2 2 1 0 3920 1297 100 MP stroke
-1 0 2 2 1 0 -1 0 2 2 1 0 -1 0 2 2 
1 0 1 1 1 1 1 1 1 1 1 1 1 1 1 1 
1 1 1 1 1 1 1 1 1 1 1 1 1 1 1 1 
1 1 1 1 1 1 1 1 1 0 -1 0 2 2 1 0 
1 1 1 1 1 1 1 1 1 1 1 1 1 1 1 1 
1 1 1 0 1 1 1 1 1 1 1 1 1 1 1 1 
1 0 -1 0 2 2 1 0 1 1 1 1 1 1 1 1 
1 1 1 0 1 1 1 1 1 1 1 1 1 1 1 0 
-1 0 2 2 1 0 1 1 1 1 1 1 1 0 -1 0 
2 2 1 0 1 1 1 1 1 1 1 0 1 1 1 1 
1 1 1 1 1 1 1 0 1 1 1 1 1 1 1 0 
1 1 1 1 1 1 1 0 -1 0 2 2 1 0 1 1 
1 1 1 1 1 0 3829 1217 100 MP stroke
1 1 1 1 1 1 1 0 1 1 1 1 1 1 1 0 
1 1 1 0 1 1 1 1 1 1 1 0 1 1 1 1 
1 1 1 0 1 1 1 1 1 1 1 0 1 1 1 0 
1 1 1 1 1 0 1 1 1 1 1 0 1 1 1 1 
1 0 1 1 1 1 1 0 1 1 1 1 1 0 1 1 
1 0 1 1 1 1 1 1 1 0 1 1 1 0 1 1 
1 0 1 1 1 1 1 0 1 1 1 1 1 0 1 1 
1 0 1 1 1 0 1 1 1 1 1 0 1 1 1 1 
1 0 1 1 1 0 1 1 1 0 1 1 1 0 1 1 
1 0 1 1 1 0 1 1 1 1 1 0 1 1 1 0 
1 1 1 0 1 1 1 0 1 1 1 0 1 1 1 0 
1 1 1 0 1 1 1 0 1 1 1 0 1 1 1 0 
1 1 1 0 1 1 3730 1156 100 MP stroke
1 0 1 0 1 1 1 0 1 1 1 0 1 1 1 0 
1 0 1 1 1 0 1 1 1 0 1 1 1 0 1 1 
1 0 1 0 1 1 1 0 1 1 1 0 1 0 1 1 
1 0 1 1 1 0 1 0 1 1 1 0 1 0 1 1 
1 0 1 1 1 0 1 0 1 1 1 0 1 0 1 1 
1 0 1 1 1 0 1 0 1 0 1 1 1 0 1 1 
1 0 1 0 1 0 1 1 1 0 1 0 1 1 1 0 
1 0 1 1 1 0 1 0 1 0 1 1 1 0 1 0 
1 0 1 1 1 0 1 0 1 1 1 0 1 0 1 0 
1 1 1 0 1 0 1 0 1 1 1 0 1 0 1 0 
1 0 1 1 1 0 1 0 1 0 1 0 1 1 1 0 
1 0 1 0 1 0 1 1 1 0 1 0 1 0 1 0 
1 1 1 0 1 0 3631 1125 100 MP stroke
1 0 1 0 1 0 1 1 1 0 1 0 1 0 1 0 
1 0 1 0 1 1 1 0 1 0 1 0 1 0 1 0 
1 0 1 0 1 1 1 0 1 0 1 0 1 0 1 0 
1 0 1 0 1 0 1 0 1 0 1 1 1 0 1 0 
1 0 1 0 1 0 1 0 1 0 1 0 1 0 1 0 
1 0 1 0 1 0 1 0 1 0 1 0 1 0 1 0 
1 0 1 0 1 0 1 0 1 0 1 0 1 0 1 0 
1 0 1 0 1 0 1 0 1 0 1 0 1 0 1 0 
1 0 1 0 1 0 1 0 1 0 1 0 1 0 1 0 
1 0 1 0 1 0 1 0 1 0 1 0 1 0 1 0 
1 -1 1 0 1 0 1 0 1 0 1 0 1 0 1 0 
1 0 1 0 1 -1 1 0 1 0 1 0 1 0 1 0 
1 0 1 0 1 -1 3532 1124 100 MP stroke
1 0 1 0 1 0 1 0 1 0 1 0 1 -1 1 0 
1 0 1 0 1 0 1 0 1 -1 1 0 1 0 1 0 
1 0 1 -1 1 0 1 0 1 0 1 0 1 0 1 -1 
1 0 1 0 1 0 1 -1 1 0 1 0 1 0 1 0 
1 -1 1 0 1 0 1 0 1 -1 1 0 1 0 1 0 
1 -1 1 0 1 0 1 0 1 -1 1 0 1 0 1 0 
1 -1 1 0 1 0 1 -1 1 0 1 0 1 -1 1 0 
1 0 1 0 1 -1 1 0 1 0 1 -1 1 0 1 0 
1 -1 1 0 1 0 1 -1 1 0 1 0 1 -1 1 0 
1 -1 1 0 1 0 1 -1 1 0 1 0 1 -1 1 0 
1 -1 1 0 1 0 1 -1 1 0 1 0 1 -1 1 0 
1 -1 1 0 1 -1 1 0 1 0 1 -1 1 0 1 0 
1 -1 1 0 1 -1 3433 1152 100 MP stroke
1 0 1 -1 1 0 1 -1 1 0 1 -1 1 0 1 -1 
1 0 1 0 1 -1 1 0 1 -1 1 0 1 -1 1 0 
1 -1 1 0 1 -1 1 0 1 -1 1 0 1 -1 1 0 
1 -1 1 0 1 -1 1 0 1 -1 1 0 1 -1 1 0 
1 -1 1 0 1 -1 1 0 1 -1 1 0 1 -1 1 0 
1 -1 1 -1 1 0 1 -1 1 0 1 -1 1 -1 1 0 
1 -1 1 0 1 -1 1 0 1 -1 1 -1 1 0 1 -1 
1 -1 1 0 1 -1 1 0 1 -1 1 0 1 -1 1 -1 
1 0 1 -1 1 -1 1 0 1 -1 1 0 1 -1 1 -1 
1 -1 1 0 1 -1 1 0 1 -1 1 -1 1 -1 1 0 
1 -1 1 0 1 -1 1 -1 1 -1 1 0 1 -1 1 0 
1 -1 1 -1 1 0 1 -1 1 -1 1 -1 1 0 1 -1 
1 -1 1 -1 1 0 3334 1209 100 MP stroke
1 -1 1 0 1 -1 1 -1 1 -1 1 0 1 -1 1 -1 
1 -1 1 0 1 -1 1 -1 1 -1 1 0 1 -1 1 -1 
1 -1 1 -1 1 -1 1 0 1 -1 1 -1 1 -1 1 0 
1 -1 1 -1 1 -1 1 0 -1 0 2 -2 1 0 1 -1 
1 -1 1 -1 1 0 1 -1 1 -1 1 -1 1 -1 1 -1 
1 0 1 -1 1 -1 1 -1 1 -1 1 -1 1 0 -1 0 
2 -2 1 0 1 -1 1 -1 1 -1 1 -1 1 -1 1 0 
1 -1 1 -1 1 -1 1 -1 1 -1 1 -1 1 -1 1 0 
-1 0 2 -2 1 0 1 -1 1 -1 1 -1 1 -1 1 0 
-1 0 2 -2 1 0 -1 0 2 -2 1 0 1 -1 1 -1 
1 -1 1 -1 1 -1 1 -1 1 -1 1 -1 1 -1 1 -1 
1 -1 1 0 -1 0 2 -2 1 0 -1 0 2 -2 1 0 
-1 0 2 -2 1 0 3243 1286 100 MP stroke
-1 0 2 -2 1 0 -1 0 2 -2 1 0 1 -1 1 -1 
1 -1 1 -1 1 -1 1 -1 1 -1 1 -1 1 -1 1 -1 
0 -1 1 -1 1 0 -1 0 2 -2 1 0 -1 0 2 -2 
1 0 -1 0 2 -2 1 0 -1 0 2 -2 1 0 -1 0 
2 -2 1 -1 1 -1 1 -1 1 -1 1 -1 1 -1 1 -1 
1 -1 1 -1 1 -1 1 -1 1 -1 1 -1 0 -1 1 -1 
1 0 -1 0 2 -2 1 -1 1 -1 1 -1 1 -1 1 -1 
1 -1 1 -1 0 -1 1 -1 1 0 1 -1 1 -1 1 -1 
0 -1 1 -1 1 0 -1 0 2 -2 1 -1 1 -1 1 -1 
1 -1 1 -1 0 -1 1 -1 1 0 -1 0 2 -2 1 -1 
1 -1 1 -1 0 -1 1 -1 1 0 -1 0 2 -2 1 -1 
1 -1 1 -1 0 -1 1 -1 1 0 -1 0 2 -2 1 -1 
1 -1 1 -1 0 -1 3164 1372 100 MP stroke
1 -1 1 0 -1 0 2 -2 1 -1 1 -1 1 -1 0 -1 
1 -1 1 0 -1 0 2 -2 1 -1 1 -1 1 -1 0 -1 
1 -1 1 -1 1 -1 1 -1 0 -1 1 -1 1 -1 1 -1 
1 -1 0 -1 1 -1 1 0 -1 0 2 -2 1 -1 0 -1 
1 -1 1 0 -1 0 2 -2 1 -1 0 -1 1 -1 1 0 
-1 0 2 -2 1 -1 0 -1 1 -1 1 0 -1 0 2 -2 
1 -1 0 -1 1 -1 1 0 -1 0 2 -2 1 -1 0 -1 
1 -1 1 0 -1 0 2 -2 1 -1 0 -1 1 -1 1 -1 
1 -1 1 -1 1 -1 0 -1 1 -1 1 -1 1 -1 1 -1 
0 -1 1 -1 1 -1 0 -1 1 -1 1 0 -1 0 2 -2 
1 -1 0 -1 1 -1 1 -1 1 -1 1 -1 0 -1 1 -1 
1 -1 0 -1 1 -1 1 -1 1 -1 1 -1 0 -1 1 -1 
1 -1 0 -1 1 -1 3092 1462 100 MP stroke
1 -1 1 -1 1 -1 0 -1 1 -1 1 -1 0 -1 1 -1 
1 -1 0 -1 1 -1 1 -1 1 -1 1 -1 0 -1 1 -1 
1 -1 0 -1 1 -1 1 -1 0 -1 1 -1 1 0 -1 0 
2 -2 1 -1 0 -1 1 -1 1 -1 0 -1 1 -1 1 -1 
0 -1 1 -1 1 -1 1 -1 1 -1 0 -1 1 -1 1 -1 
0 -1 1 -1 1 -1 0 -1 1 -1 1 -1 0 -1 1 -1 
1 -1 0 -1 1 -1 1 0 -1 0 2 -2 1 -1 0 -1 
1 -1 1 -1 0 -1 1 -1 1 -1 0 -1 1 -1 1 -1 
0 -1 1 -1 1 -1 0 -1 1 -1 1 -1 0 -1 1 -1 
1 -1 1 -1 0 -1 1 -1 1 0 -1 0 2 -2 1 -1 
0 -1 1 -1 1 -1 0 -1 1 -1 1 -1 0 -1 1 -1 
1 -1 0 -1 1 -1 1 -1 0 -1 1 -1 1 -1 0 -1 
1 -1 1 -1 0 -1 3024 1558 100 MP stroke
1 -1 1 -1 0 -1 1 -1 1 -1 0 -1 1 -1 1 -1 
0 -1 1 -1 1 -1 0 -1 1 -1 1 -1 0 -1 1 -1 
1 -1 0 -1 1 -1 1 -1 0 -1 1 -1 1 -1 0 -1 
1 -1 1 -1 0 -1 1 -1 1 -1 0 -1 1 -1 1 -1 
0 -1 1 -1 1 -1 0 -1 1 -1 1 -1 0 -1 1 -1 
1 -1 0 -1 1 -1 1 -1 0 -2 1 -1 1 -1 0 -1 
1 -1 1 -1 0 -1 1 -1 1 -1 0 -1 1 -1 1 -1 
0 -1 1 -1 1 -1 0 -1 1 -1 1 -1 0 -1 1 -1 
1 -1 0 -1 1 -1 1 -1 0 -1 1 -1 1 -2 0 -1 
1 -1 1 -1 0 -1 1 -1 1 -1 0 -1 1 -1 1 -1 
0 -1 1 -1 1 -1 0 -1 1 -1 1 -1 0 -1 1 -2 
1 -1 1 -1 0 -1 1 -1 1 -1 0 -1 1 -1 1 -1 
0 -1 1 -1 1 -1 2957 1660 100 MP stroke
0 -1 1 -1 1 -1 0 -2 1 -1 1 -1 0 -1 1 -1 
1 -1 0 -1 1 -1 1 -1 0 -1 1 -1 1 -1 0 -2 
1 -1 1 -1 0 -1 1 -1 1 -1 0 -1 1 -1 1 -1 
0 -1 1 -1 1 -1 0 -2 1 -1 1 -1 0 -1 1 -1 
1 -1 0 -1 1 -1 1 -1 0 -1 1 -2 1 -1 0 -1 
1 -1 1 -1 0 -1 1 -1 1 -1 0 -1 1 -1 1 -2 
0 -1 1 -1 1 -1 0 -1 1 -1 1 -1 0 -1 1 -1 
1 -2 0 -1 1 -1 1 -1 0 -1 1 -1 1 -1 0 -1 
1 -2 1 -1 0 -1 1 -1 1 -1 0 -1 1 -1 1 -1 
0 -2 1 -1 1 -1 0 -1 1 -1 1 -1 0 -1 1 -1 
1 -2 0 -1 1 -1 1 -1 0 -1 1 -1 1 -1 0 -1 
1 -2 1 -1 0 -1 1 -1 1 -1 0 -1 1 -1 1 -2 
0 -1 1 -1 1 -1 2891 1770 100 MP stroke
0 -1 1 -1 1 -1 0 -2 1 -1 1 -1 1 -1 0 -1 
1 -1 1 -1 0 -2 1 -1 1 -1 0 -1 1 -1 1 -1 
0 -2 1 -1 1 -1 0 -1 1 -1 1 -1 0 -1 1 -2 
1 -1 0 -1 1 -1 1 -1 0 -1 1 -2 1 -1 0 -1 
1 -1 1 -1 0 -1 1 -2 1 -1 0 -1 1 -1 1 -1 
0 -1 1 -2 1 -1 0 -1 1 -1 1 -1 0 -1 1 -2 
1 -1 0 -1 1 -1 1 -1 0 -1 1 -2 1 -1 0 -1 
1 -1 1 -1 0 -2 1 -1 1 -1 0 -1 1 -1 1 -1 
0 -2 1 -1 1 -1 0 -1 1 -1 1 -2 0 -1 1 -1 
1 -1 0 -1 1 -1 1 -2 0 -1 1 -1 1 -1 0 -1 
1 -2 1 -1 0 -1 1 -1 1 -1 0 -2 1 -1 1 -1 
0 -1 1 -1 1 -2 0 -1 1 -1 1 -1 0 -1 1 -2 
1 -1 0 -1 1 -1 2825 1886 100 MP stroke
1 -1 0 -2 1 -1 1 -1 0 -1 1 -1 1 -2 0 -1 
1 -1 1 -1 0 -1 1 -2 1 -1 0 -1 1 -1 1 -1 
0 -2 1 -1 1 -1 0 -1 1 -2 1 -1 1 -1 0 -1 
1 -1 1 -2 0 -1 1 -1 1 -1 0 -1 1 -2 1 -1 
0 -1 1 -1 1 -2 0 -1 1 -1 1 -1 0 -1 1 -2 
1 -1 0 -1 1 -1 1 -2 0 -1 1 -1 1 -1 0 -1 
1 -2 1 -1 0 -1 1 -1 1 -2 0 -1 1 -1 1 -1 
0 -2 1 -1 1 -1 0 -1 1 -1 1 -2 0 -1 1 -1 
1 -1 0 -2 1 -1 1 -1 0 -1 1 -2 1 -1 0 -1 
1 -1 1 -2 0 -1 1 -1 1 -1 0 -1 1 -2 1 -1 
0 -1 1 -1 1 -2 0 -1 1 -1 1 -1 0 -2 1 -1 
1 -1 0 -1 1 -2 1 -1 0 -1 1 -1 1 -2 0 -1 
1 -1 1 -1 0 -2 2759 2008 100 MP stroke
1 -1 1 -1 0 -1 1 -2 1 -1 0 -1 1 -1 1 -2 
0 -1 1 -1 1 -1 0 -2 1 -1 1 -1 0 -1 1 -2 
1 -1 0 -1 1 -1 1 -2 0 -1 1 -1 1 -1 0 -2 
1 -1 1 -1 0 -1 1 -2 1 -1 0 -1 1 -2 1 -1 
0 -1 1 -1 1 -2 1 -1 0 -1 1 -1 1 -2 0 -1 
1 -1 1 -1 0 -2 1 -1 1 -1 0 -2 1 -1 1 -1 
0 -1 1 -2 1 -1 0 -1 1 -1 1 -2 0 -1 1 -1 
1 -1 0 -2 1 -1 1 -1 0 -2 1 -1 1 -1 0 -1 
1 -2 1 -1 0 -1 1 -1 1 -2 0 -1 1 -1 1 -2 
0 -1 1 -1 1 -1 0 -2 1 -1 1 -1 0 -2 1 -1 
1 -1 0 -1 1 -2 1 -1 0 -1 1 -1 1 -2 0 -1 
1 -1 1 -2 0 -1 1 -1 1 -1 0 -2 1 -1 1 -1 
0 -2 1 -1 1 -1 2692 2133 100 MP stroke
0 -1 1 -2 1 -1 0 -1 1 -2 1 -1 0 -1 1 -1 
1 -2 0 -1 1 -1 1 -2 0 -1 1 -1 1 -1 0 -2 
1 -1 1 -1 0 -2 1 -1 1 -1 0 -2 1 -1 1 -1 
0 -1 1 -2 1 -1 0 -1 1 -2 1 -1 0 -1 1 -1 
1 -2 0 -1 1 -1 1 -2 0 -1 1 -1 1 -2 0 -1 
1 -1 1 -1 0 -2 1 -1 1 -1 0 -2 1 -1 1 -1 
0 -1 1 -2 1 -1 1 -1 0 -2 1 -1 1 -1 0 -2 
1 -1 1 -1 0 -1 1 -2 1 -1 0 -1 1 -2 1 -1 
0 -1 1 -2 1 -1 0 -1 1 -2 1 -1 0 -1 1 -1 
1 -2 0 -1 1 -1 1 -2 0 -1 1 -1 1 -2 0 -1 
1 -1 1 -1 0 -2 1 -1 1 -1 0 -2 1 -1 1 -1 
0 -2 1 -1 1 -1 0 -2 1 -1 1 -1 0 -1 1 -2 
1 -1 0 -1 1 -2 2626 2262 100 MP stroke
1 -1 0 -1 1 -2 1 -1 0 -1 1 -2 1 -1 0 -1 
1 -2 1 -1 0 -1 1 -1 1 -2 0 -1 1 -1 1 -2 
0 -1 1 -1 1 -2 0 -1 1 -1 1 -2 0 -1 1 -1 
1 -2 0 -1 1 -1 1 -1 0 -2 1 -1 1 -1 0 -2 
1 -1 1 -1 0 -2 1 -1 1 -1 0 -2 1 -1 1 -1 
0 -2 1 -1 1 -1 0 -2 1 -1 1 -1 0 -1 1 -2 
1 -1 0 -1 1 -2 1 -1 0 -1 1 -2 1 -1 0 -1 
1 -2 1 -1 0 -1 1 -2 1 -1 0 -1 1 -2 1 -1 
0 -1 1 -2 1 -1 1 -1 0 -1 1 -2 1 -1 0 -1 
1 -2 1 -1 0 -1 1 -2 1 -1 0 -1 1 -2 1 -1 
0 -1 1 -2 1 -1 0 -1 1 -2 1 -1 0 -1 1 -2 
1 -1 0 -1 1 -2 1 -1 0 -1 1 -1 1 -2 0 -1 
1 -1 1 -2 0 -1 2560 2392 100 MP stroke
1 -1 1 -2 0 -1 1 -1 1 -2 0 -1 1 -1 1 -2 
0 -1 1 -1 1 -2 0 -1 1 -1 1 -2 0 -1 1 -1 
1 -2 0 -1 1 -1 1 -2 0 -1 1 -1 1 -2 0 -1 
1 -1 1 -2 0 -1 1 -1 1 -1 0 -2 1 -1 1 -1 
0 -2 1 -1 1 -1 0 -2 1 -1 1 -1 0 -2 1 -1 
1 -1 0 -2 1 -1 1 -1 0 -2 1 -1 1 -1 0 -2 
1 -1 1 -1 0 -2 1 -1 1 -1 0 -2 1 -1 1 -1 
0 -2 1 -1 1 -1 0 -2 1 -1 1 -1 0 -2 1 -1 
1 -1 0 -2 1 -1 1 -1 0 -1 1 -2 1 -1 0 -1 
1 -2 1 -1 0 -1 1 -2 1 -1 0 -1 1 -2 1 -1 
0 -1 1 -2 1 -1 1 -1 0 -2 1 -1 1 -1 0 -2 
1 -1 1 -1 0 -2 1 -1 1 -1 0 -2 1 -1 1 -1 
0 -2 1 -1 1 -1 2493 2523 100 MP stroke
0 -2 1 -1 1 -1 0 -2 1 -1 1 -1 0 -2 1 -1 
1 -1 0 -2 1 -1 1 -1 0 -1 1 -2 1 -1 0 -1 
1 -2 1 -1 0 -1 1 -2 1 -1 0 -1 1 -2 1 -1 
0 -1 1 -2 1 -1 0 -1 1 -2 1 -1 0 -1 1 -2 
1 -1 0 -1 1 -2 1 -1 0 -1 1 -2 1 -1 0 -1 
1 -2 1 -1 0 -1 1 -2 1 -1 0 -1 1 -1 1 -2 
0 -1 1 -1 1 -2 0 -1 1 -1 1 -2 0 -1 1 -1 
1 -2 0 -1 1 -1 1 -2 0 -1 1 -1 1 -2 0 -1 
1 -1 1 -2 0 -1 1 -1 1 -2 0 -1 1 -1 1 -2 
0 -1 1 -1 1 -1 0 -2 1 -1 1 -1 0 -2 1 -1 
1 -1 0 -2 1 -1 1 -1 0 -2 1 -1 1 -1 0 -2 
1 -1 1 -1 0 -2 1 -1 1 -1 0 -2 1 -1 1 -1 
1 -1 0 -2 1 -1 2427 2654 100 MP stroke
1 -1 0 -2 1 -1 1 -1 0 -2 1 -1 1 -1 0 -2 
1 -1 1 -1 0 -2 1 -1 1 -1 0 -2 1 -1 1 -1 
0 -1 1 -2 1 -1 0 -1 1 -2 1 -1 0 -1 1 -2 
1 -1 0 -1 1 -2 1 -1 0 -1 1 -2 1 -1 0 -1 
1 -2 1 -1 0 -1 1 -1 1 -2 0 -1 1 -1 1 -2 
0 -1 1 -1 1 -2 0 -1 1 -1 1 -2 0 -1 1 -1 
1 -1 0 -2 1 -1 1 -1 0 -2 1 -1 1 -1 0 -2 
1 -1 1 -1 0 -2 1 -1 1 -1 0 -1 1 -2 1 -1 
0 -1 1 -2 1 -1 0 -1 1 -2 1 -1 0 -1 1 -2 
1 -1 0 -1 1 -1 1 -2 0 -1 1 -1 1 -2 0 -1 
1 -1 1 -2 0 -1 1 -1 1 -1 0 -2 1 -1 1 -1 
0 -2 1 -1 1 -1 0 -2 1 -1 1 -1 0 -2 1 -1 
1 -1 0 -1 1 -2 2361 2784 100 MP stroke
1 -1 0 -1 1 -2 1 -1 0 -1 1 -2 1 -1 0 -1 
1 -1 1 -2 0 -1 1 -1 1 -2 1 -1 0 -1 1 -1 
1 -2 0 -1 1 -1 1 -2 0 -1 1 -1 1 -2 0 -1 
1 -1 1 -1 0 -2 1 -1 1 -1 0 -2 1 -1 1 -1 
0 -1 1 -2 1 -1 0 -1 1 -2 1 -1 0 -1 1 -2 
1 -1 0 -1 1 -1 1 -2 0 -1 1 -1 1 -2 0 -1 
1 -1 1 -1 0 -2 1 -1 1 -1 0 -2 1 -1 1 -1 
0 -1 1 -2 1 -1 0 -1 1 -2 1 -1 0 -1 1 -1 
1 -2 0 -1 1 -1 1 -2 0 -1 1 -1 1 -1 0 -2 
1 -1 1 -1 0 -1 1 -2 1 -1 0 -1 1 -2 1 -1 
0 -1 1 -1 1 -2 0 -1 1 -1 1 -2 0 -1 1 -1 
1 -1 0 -2 1 -1 1 -1 0 -1 1 -2 1 -1 0 -1 
1 -2 1 -1 0 -1 2295 2911 100 MP stroke
1 -1 1 -2 0 -1 1 -1 1 -2 0 -1 1 -1 1 -1 
0 -2 1 -1 1 -1 0 -1 1 -2 1 -1 0 -1 1 -1 
1 -2 0 -1 1 -1 1 -2 0 -1 1 -1 1 -1 0 -2 
1 -1 1 -1 0 -1 1 -2 1 -1 1 -1 0 -1 1 -2 
1 -1 0 -1 1 -2 1 -1 0 -1 1 -1 1 -2 0 -1 
1 -1 1 -1 0 -2 1 -1 1 -1 0 -1 1 -2 1 -1 
0 -1 1 -1 1 -2 0 -1 1 -1 1 -1 0 -2 1 -1 
1 -1 0 -1 1 -2 1 -1 0 -1 1 -1 1 -2 0 -1 
1 -1 1 -1 0 -2 1 -1 1 -1 0 -1 1 -2 1 -1 
0 -1 1 -1 1 -2 0 -1 1 -1 1 -1 0 -2 1 -1 
1 -1 0 -1 1 -2 1 -1 0 -1 1 -1 1 -2 0 -1 
1 -1 1 -1 0 -2 1 -1 1 -1 0 -1 1 -2 1 -1 
0 -1 1 -1 1 -2 2228 3036 100 MP stroke
0 -1 1 -1 1 -1 0 -2 1 -1 1 -1 0 -1 1 -1 
1 -2 0 -1 1 -1 1 -1 0 -2 1 -1 1 -1 0 -1 
1 -2 1 -1 0 -1 1 -1 1 -2 0 -1 1 -1 1 -1 
0 -1 1 -2 1 -1 0 -1 1 -1 1 -2 0 -1 1 -1 
1 -1 0 -1 1 -2 1 -1 0 -1 1 -1 1 -2 0 -1 
1 -1 1 -1 0 -1 1 -2 1 -1 1 -1 0 -1 1 -2 
1 -1 0 -1 1 -1 1 -1 0 -2 1 -1 1 -1 0 -1 
1 -2 1 -1 0 -1 1 -1 1 -1 0 -2 1 -1 1 -1 
0 -1 1 -1 1 -2 0 -1 1 -1 1 -1 0 -2 1 -1 
1 -1 0 -1 1 -1 1 -2 0 -1 1 -1 1 -1 0 -1 
1 -2 1 -1 0 -1 1 -1 1 -1 0 -2 1 -1 1 -1 
0 -1 1 -1 1 -2 0 -1 1 -1 1 -1 0 -1 1 -2 
1 -1 0 -1 1 -1 2162 3156 100 MP stroke
1 -1 0 -2 1 -1 1 -1 0 -1 1 -1 1 -2 0 -1 
1 -1 1 -1 0 -1 1 -2 1 -1 0 -1 1 -1 1 -1 
0 -2 1 -1 1 -1 0 -1 1 -1 1 -1 0 -2 1 -1 
1 -1 0 -1 1 -1 1 -2 0 -1 1 -1 1 -1 0 -1 
1 -2 1 -1 0 -1 1 -1 1 -1 0 -1 1 -2 1 -1 
0 -1 1 -1 1 -1 0 -2 1 -1 1 -1 0 -1 1 -1 
1 -1 0 -2 1 -1 1 -1 0 -1 1 -1 1 -1 0 -2 
1 -1 1 -1 1 -1 0 -1 1 -1 1 -2 0 -1 1 -1 
1 -1 0 -1 1 -1 1 -2 0 -1 1 -1 1 -1 0 -1 
1 -1 1 -2 0 -1 1 -1 1 -1 0 -1 1 -1 1 -2 
0 -1 1 -1 1 -1 0 -1 1 -1 1 -2 0 -1 1 -1 
1 -1 0 -1 1 -1 1 -1 0 -2 1 -1 1 -1 0 -1 
1 -1 1 -1 0 -2 2096 3273 100 MP stroke
1 -1 1 -1 0 -1 1 -1 1 -1 0 -1 1 -2 1 -1 
0 -1 1 -1 1 -1 0 -1 1 -1 1 -2 0 -1 1 -1 
1 -1 0 -1 1 -1 1 -1 0 -2 1 -1 1 -1 0 -1 
1 -1 1 -1 0 -1 1 -2 1 -1 0 -1 1 -1 1 -1 
0 -1 1 -1 1 -1 0 -2 1 -1 1 -1 0 -1 1 -1 
1 -1 0 -1 1 -2 1 -1 0 -1 1 -1 1 -1 0 -1 
1 -1 1 -1 0 -2 1 -1 1 -1 0 -1 1 -1 1 -1 
0 -1 1 -1 1 -2 0 -1 1 -1 1 -1 0 -1 1 -1 
1 -1 0 -1 1 -1 1 -2 0 -1 1 -1 1 -1 0 -1 
1 -1 1 -1 1 -1 0 -1 1 -2 1 -1 0 -1 1 -1 
1 -1 0 -1 1 -1 1 -1 0 -1 1 -2 1 -1 0 -1 
1 -1 1 -1 0 -1 1 -1 1 -1 0 -1 1 -1 1 -2 
0 -1 1 -1 1 -1 2029 3384 100 MP stroke
0 -1 1 -1 1 -1 0 -1 1 -1 1 -1 0 -2 1 -1 
1 -1 0 -1 1 -1 1 -1 0 -1 1 -1 1 -1 0 -1 
1 -1 1 -2 0 -1 1 -1 1 -1 0 -1 1 -1 1 -1 
0 -1 1 -1 1 -1 0 -1 1 -1 1 -2 0 -1 1 -1 
1 -1 0 -1 1 -1 1 -1 0 -1 1 -1 1 -1 0 -1 
1 -1 1 -1 0 -2 1 -1 1 -1 0 -1 1 -1 1 -1 
0 -1 1 -1 1 -1 0 -1 1 -1 1 -1 0 -1 1 -1 
1 -2 0 -1 1 -1 1 -1 0 -1 1 -1 1 -1 0 -1 
1 -1 1 -1 0 -1 1 -1 1 -1 0 -1 1 -1 1 -1 
0 -1 1 -2 1 -1 0 -1 1 -1 1 -1 0 -1 1 -1 
1 -1 0 -1 1 -1 1 -1 0 -1 1 -1 1 -1 0 -1 
1 -1 1 -1 1 -1 0 -1 1 -2 1 -1 0 -1 1 -1 
1 -1 0 -1 1 -1 1963 3490 100 MP stroke
1 -1 0 -1 1 -1 1 -1 0 -1 1 -1 1 -1 0 -1 
1 -1 1 -1 0 -1 1 -1 1 -1 0 -1 1 -1 1 -1 
0 -1 1 -1 1 -1 0 -1 1 -1 1 -2 0 -1 1 -1 
1 -1 0 -1 1 -1 1 -1 0 -1 1 -1 1 -1 0 -1 
1 -1 1 -1 0 -1 1 -1 1 -1 0 -1 1 -1 1 -1 
0 -1 1 -1 1 -1 0 -1 1 -1 1 -1 0 -1 1 -1 
1 -1 0 -1 1 -1 1 -1 0 -1 1 -1 1 -1 0 -1 
1 -1 1 -1 0 -1 1 -1 1 -1 0 -1 1 -1 1 -1 
0 -1 1 -1 1 -1 0 -1 1 -1 1 -1 0 -1 1 -1 
1 -1 0 -1 1 -1 1 -1 0 -1 1 -1 1 -1 0 -1 
1 -1 1 -1 0 -1 1 -1 1 -1 0 -1 1 -1 1 -1 
0 -1 1 -1 1 -1 0 -1 1 -1 1 -1 0 -1 1 -1 
1 -1 0 -1 1 -1 1897 3590 100 MP stroke
1 -1 0 -1 1 -1 1 -1 0 -1 1 -1 1 -1 1 -1 
0 -1 1 -1 1 -1 0 -1 1 -1 1 0 -1 0 2 -2 
1 -1 0 -1 1 -1 1 -1 0 -1 1 -1 1 -1 0 -1 
1 -1 1 -1 0 -1 1 -1 1 -1 0 -1 1 -1 1 -1 
0 -1 1 -1 1 -1 0 -1 1 -1 1 -1 0 -1 1 -1 
1 0 -1 0 2 -2 1 -1 0 -1 1 -1 1 -1 0 -1 
1 -1 1 -1 0 -1 1 -1 1 -1 0 -1 1 -1 1 -1 
0 -1 1 -1 1 -1 1 -1 1 -1 0 -1 1 -1 1 -1 
0 -1 1 -1 1 -1 0 -1 1 -1 1 -1 0 -1 1 -1 
1 -1 1 -1 1 -1 0 -1 1 -1 1 -1 0 -1 1 -1 
1 -1 0 -1 1 -1 1 -1 0 -1 1 -1 1 -1 1 -1 
1 -1 0 -1 1 -1 1 -1 0 -1 1 -1 1 -1 0 -1 
1 -1 1 -1 1 -1 1828 3687 100 MP stroke
1 -1 0 -1 1 -1 1 -1 0 -1 1 -1 1 -1 0 -1 
1 -1 1 -1 1 -1 1 -1 0 -1 1 -1 1 -1 1 -1 
0 -1 1 -1 1 -1 1 -1 1 -1 0 -1 1 -1 1 -1 
0 -1 1 -1 1 -1 1 -1 1 -1 0 -1 1 -1 1 -1 
0 -1 1 -1 1 -1 1 -1 1 -1 0 -1 1 -1 1 -1 
0 -1 1 -1 1 -1 1 -1 1 -1 0 -1 1 -1 1 -1 
0 -1 1 -1 1 -1 1 -1 1 -1 0 -1 1 -1 1 -1 
0 -1 1 -1 1 0 -1 0 2 -2 1 -1 0 -1 1 -1 
1 -1 1 -1 1 -1 0 -1 1 -1 1 -1 0 -1 1 -1 
1 0 -1 0 2 -2 1 -1 0 -1 1 -1 1 -1 1 -1 
1 -1 0 -1 1 -1 1 -1 1 -1 1 -1 0 -1 1 -1 
1 -1 0 -1 1 -1 1 0 -1 0 2 -2 1 -1 0 -1 
1 -1 1 0 -1 0 1757 3781 100 MP stroke
2 -2 1 -1 0 -1 1 -1 1 -1 1 -1 1 -1 0 -1 
1 -1 1 -1 1 -1 1 -1 0 -1 1 -1 1 -1 1 -1 
1 -1 0 -1 1 -1 1 -1 1 0 -1 0 2 -2 1 -1 
1 -1 1 -1 0 -1 1 -1 1 -1 1 -1 1 -1 0 -1 
1 -1 1 -1 1 -1 1 -1 0 -1 1 -1 1 -1 1 -1 
1 -1 0 -1 1 -1 1 0 -1 0 2 -2 1 -1 1 -1 
1 -1 0 -1 1 -1 1 -1 1 -1 1 -1 0 -1 1 -1 
1 0 -1 0 2 -2 1 -1 1 -1 1 -1 0 -1 1 -1 
1 -1 1 -1 1 -1 0 -1 1 -1 1 0 -1 0 2 -2 
1 -1 1 -1 1 -1 0 -1 1 -1 1 0 -1 0 2 -2 
1 -1 1 -1 1 -1 0 -1 1 -1 1 0 -1 0 2 -2 
1 -1 1 -1 1 -1 0 -1 1 -1 1 0 -1 0 2 -2 
1 -1 1 -1 1 -1 1679 3874 100 MP stroke
0 -1 1 -1 1 0 -1 0 2 -2 1 -1 1 -1 1 -1 
1 -1 1 -1 0 -1 1 -1 1 0 -1 0 2 -2 1 -1 
1 -1 1 -1 1 -1 1 -1 1 -1 1 -1 1 -1 0 -1 
1 -1 1 0 -1 0 2 -2 1 -1 1 -1 1 -1 1 -1 
1 -1 0 -1 1 -1 1 0 -1 0 2 -2 1 -1 1 -1 
1 -1 1 -1 1 -1 1 -1 1 -1 0 -1 1 -1 1 0 
-1 0 2 -2 1 0 -1 0 2 -2 1 -1 1 -1 1 -1 
1 -1 1 -1 1 -1 1 -1 0 -1 1 -1 1 0 -1 0 
2 -2 1 0 -1 0 2 -2 1 -1 1 -1 1 -1 1 -1 
1 -1 1 -1 1 -1 1 -1 1 -1 1 -1 1 -1 0 -1 
1 -1 1 0 -1 0 2 -2 1 0 -1 0 2 -2 1 0 
-1 0 2 -2 1 0 -1 0 2 -2 1 -1 1 -1 1 -1 
1 -1 1 -1 1 -1 1599 3961 100 MP stroke
1 -1 1 -1 1 -1 1 -1 1 -1 1 -1 1 -1 1 -1 
1 -1 1 -1 1 -1 1 -1 1 -1 1 -1 1 -1 1 -1 
1 -1 1 -1 1 -1 1 -1 1 -1 1 -1 1 -1 1 -1 
1 -1 1 -1 1 -1 1 -1 1 -1 1 0 -1 0 2 -2 
1 0 -1 0 2 -2 1 0 -1 0 2 -2 1 0 -1 0 
2 -2 1 0 -1 0 2 -2 1 0 -1 0 2 -2 1 0 
1 -1 1 -1 1 -1 1 -1 1 -1 1 -1 1 -1 1 -1 
1 -1 1 -1 1 -1 1 -1 1 -1 1 0 -1 0 2 -2 
1 0 -1 0 2 -2 1 0 1 -1 1 -1 1 -1 1 -1 
1 -1 1 -1 1 -1 1 -1 1 -1 1 0 -1 0 2 -2 
1 0 -1 0 2 -2 1 0 1 -1 1 -1 1 -1 1 -1 
1 -1 1 -1 1 -1 1 0 -1 0 2 -2 1 0 1 -1 
1 -1 1 -1 1 -1 1511 4045 100 MP stroke
1 0 -1 0 2 -2 1 0 1 -1 1 -1 1 -1 1 -1 
1 -1 1 0 -1 0 2 -2 1 0 1 -1 1 -1 1 -1 
1 -1 1 -1 1 0 -1 0 2 -2 1 0 1 -1 1 -1 
1 -1 1 -1 1 -1 1 0 1 -1 1 -1 1 -1 1 -1 
1 -1 1 0 -1 0 2 -2 1 0 1 -1 1 -1 1 -1 
1 0 -1 0 2 -2 1 0 1 -1 1 -1 1 -1 1 0 
-1 0 2 -2 1 0 1 -1 1 -1 1 -1 1 0 1 -1 
1 -1 1 -1 1 -1 1 -1 1 0 1 -1 1 -1 1 -1 
1 0 -1 0 2 -2 1 0 1 -1 1 -1 1 -1 1 0 
1 -1 1 -1 1 -1 1 0 1 -1 1 -1 1 -1 1 -1 
1 -1 1 0 1 -1 1 -1 1 0 1 -1 1 -1 1 -1 
1 0 1 -1 1 -1 1 -1 1 0 1 -1 1 -1 1 -1 
1 0 1 -1 1 -1 1419 4120 100 MP stroke
1 -1 1 0 1 -1 1 -1 1 -1 1 0 1 -1 1 -1 
1 -1 1 0 1 -1 1 -1 1 -1 1 0 1 -1 1 -1 
1 -1 1 0 1 -1 1 -1 1 -1 1 0 1 -1 1 -1 
1 0 1 -1 1 -1 1 0 1 -1 1 -1 1 -1 1 0 
1 -1 1 -1 1 -1 1 0 1 -1 1 0 1 -1 1 -1 
1 -1 1 0 1 -1 1 -1 1 0 1 -1 1 -1 1 0 
1 -1 1 -1 1 -1 1 0 1 -1 1 0 1 -1 1 -1 
1 -1 1 0 1 -1 1 0 1 -1 1 -1 1 0 1 -1 
1 0 1 -1 1 -1 1 -1 1 0 1 -1 1 0 1 -1 
1 -1 1 0 1 -1 1 -1 1 0 1 -1 1 0 1 -1 
1 -1 1 -1 1 0 1 -1 1 0 1 -1 1 0 1 -1 
1 -1 1 -1 1 0 1 -1 1 0 1 -1 1 0 1 -1 
1 -1 1 0 1 -1 1320 4187 100 MP stroke
1 -1 1 0 1 -1 1 0 1 -1 1 0 1 -1 1 -1 
1 0 1 -1 1 -1 1 0 1 -1 1 0 1 -1 1 0 
1 -1 1 0 1 -1 1 -1 1 0 1 -1 1 -1 1 0 
1 -1 1 0 1 -1 1 0 1 -1 1 0 1 -1 1 0 
1 -1 1 -1 1 0 1 -1 1 0 1 -1 1 0 1 -1 
1 0 1 -1 1 0 1 -1 1 0 1 -1 1 0 1 -1 
1 0 1 -1 1 -1 1 0 1 -1 1 0 1 -1 1 0 
1 -1 1 0 1 -1 1 0 1 -1 1 0 1 -1 1 0 
1 -1 1 0 1 -1 1 0 1 -1 1 0 1 -1 1 0 
1 -1 1 0 1 -1 1 0 1 -1 1 0 1 -1 1 0 
1 -1 1 0 1 -1 1 0 1 -1 1 0 1 -1 1 0 
1 -1 1 0 1 -1 1 0 1 0 1 -1 1 0 1 -1 
1 0 1 -1 1 0 1221 4239 100 MP stroke
1 -1 1 0 1 -1 1 0 1 -1 1 0 1 -1 1 0 
1 0 1 -1 1 0 1 -1 1 0 1 -1 1 0 1 0 
1 -1 1 0 1 -1 1 0 1 0 1 -1 1 0 1 -1 
1 0 1 -1 1 0 1 -1 1 0 1 0 1 -1 1 0 
1 0 1 -1 1 0 1 -1 1 0 1 -1 1 0 1 0 
1 -1 1 0 1 -1 1 0 1 0 1 -1 1 0 1 -1 
1 0 1 0 1 -1 1 0 1 0 1 -1 1 0 1 -1 
1 0 1 0 1 -1 1 0 1 0 1 -1 1 0 1 -1 
1 0 1 0 1 -1 1 0 1 0 1 -1 1 0 1 -1 
1 0 1 0 1 0 1 -1 1 0 1 -1 1 0 1 0 
1 -1 1 0 1 0 1 -1 1 0 1 0 1 -1 1 0 
1 0 1 -1 1 0 1 0 1 -1 1 0 1 0 1 0 
1 -1 1 0 1 0 1122 4277 100 MP stroke
1 -1 1 0 1 0 1 -1 1 0 1 0 1 -1 1 0 
1 0 1 -1 1 0 1 0 1 0 1 -1 1 0 1 0 
1 -1 1 0 1 0 1 0 1 -1 1 0 1 0 1 -1 
1 0 1 0 1 0 1 -1 1 0 1 0 1 0 1 -1 
1 0 1 0 1 -1 1 0 1 0 1 0 1 -1 1 0 
1 0 1 0 1 -1 1 0 1 0 1 0 1 -1 1 0 
1 0 1 0 1 -1 1 0 1 0 1 0 1 -1 1 0 
1 0 1 0 1 -1 1 0 1 0 1 0 1 0 1 -1 
1 0 1 0 1 0 1 -1 1 0 1 0 1 0 1 0 
1 -1 1 0 1 0 1 0 1 0 1 -1 1 0 1 0 
1 0 1 0 1 -1 1 0 1 0 1 0 1 0 1 -1 
1 0 1 0 1 0 1 0 1 -1 1 0 1 0 1 0 
1 0 1 0 1 -1 1023 4302 100 MP stroke
1 0 1 0 1 0 1 0 1 0 1 -1 1 0 1 0 
1 0 1 0 1 0 1 -1 1 0 1 0 1 0 1 0 
1 0 1 -1 1 0 1 0 1 0 1 0 1 0 1 0 
1 -1 1 0 1 0 1 0 1 0 1 0 1 0 1 -1 
1 0 1 0 1 0 1 0 1 0 1 0 1 0 1 -1 
1 0 1 0 1 0 1 0 1 0 1 0 1 0 1 0 
1 -1 1 0 1 0 1 0 1 0 1 0 1 0 1 0 
1 0 1 0 1 -1 1 0 1 0 1 0 1 0 1 0 
1 0 1 0 1 0 1 0 1 0 1 0 1 -1 1 0 
1 0 1 0 1 0 1 0 1 0 1 0 1 0 1 0 
1 0 1 0 1 0 1 0 1 0 1 0 1 -1 1 0 
1 0 1 0 1 0 1 0 1 0 1 0 1 0 1 0 
1 0 1 0 1 0 924 4312 100 MP stroke
1 0 1 0 1 0 1 0 1 0 1 0 1 0 1 0 
1 0 1 0 1 0 1 0 1 0 1 0 1 0 1 0 
1 0 1 0 1 0 1 -1 1 0 1 0 1 0 1 0 
1 0 899 4313 26 MP stroke
/c9 { 1.000000 0.000000 0.000000 sr} bdef
c9
1 0 1 0 1 0 1 0 1 0 1 0 1 0 1 0 
1 0 1 0 1 0 1 0 1 0 1 0 1 0 1 0 
1 0 1 0 1 0 1 0 1 0 1 0 1 0 1 0 
1 0 1 0 1 0 1 0 1 0 1 0 1 0 1 0 
1 0 1 0 1 0 1 0 1 0 1 0 1 0 1 0 
1 0 1 0 1 0 1 0 1 0 1 0 1 0 1 0 
1 0 1 0 1 0 1 0 1 0 1 0 1 0 1 0 
1 0 1 0 1 0 1 0 1 0 1 0 1 0 1 0 
1 0 1 0 1 0 1 0 1 0 1 0 1 0 1 0 
1 0 1 0 1 0 1 0 1 0 1 0 1 0 1 0 
1 0 1 0 1 0 1 0 1 0 1 0 1 0 1 0 
1 0 1 0 1 0 1 0 1 0 1 0 1 0 1 0 
1 0 1 0 1 0 6155 4287 100 MP stroke
1 0 1 0 1 0 1 0 1 0 1 0 1 0 1 0 
1 0 1 0 1 0 1 0 1 0 1 0 1 0 1 0 
1 0 1 0 1 0 1 0 1 0 1 0 1 0 1 0 
1 0 1 0 1 0 1 0 1 0 1 0 1 0 1 0 
1 0 1 0 1 0 1 0 1 0 1 0 1 0 1 0 
1 0 1 0 1 0 1 0 1 0 1 0 1 0 1 0 
1 0 1 0 1 0 1 0 1 0 1 0 1 0 1 0 
1 0 1 0 1 0 1 0 1 0 1 0 1 0 1 0 
1 0 1 0 1 0 1 0 1 0 1 0 1 0 1 0 
1 0 1 0 1 0 1 0 1 0 1 0 1 0 1 0 
1 0 1 0 1 0 1 0 1 0 1 0 1 0 1 0 
1 0 1 0 1 0 1 0 1 0 1 0 1 0 1 0 
1 0 1 0 1 0 6056 4287 100 MP stroke
1 0 1 0 1 0 1 0 1 0 1 0 1 0 1 0 
1 0 1 0 1 0 1 0 1 0 1 0 1 0 1 0 
1 0 1 0 1 0 1 0 1 0 1 0 1 0 1 0 
1 0 1 0 1 0 1 0 1 0 1 0 1 0 1 0 
1 0 1 0 1 0 1 0 1 0 1 0 1 0 1 0 
1 0 1 0 1 0 1 0 1 0 1 0 1 0 1 0 
1 0 1 0 1 0 1 0 1 0 1 0 1 0 1 0 
1 0 1 0 1 0 1 0 1 0 1 0 1 0 1 0 
1 0 1 0 1 0 1 0 1 0 1 0 1 0 1 0 
1 0 1 0 1 0 1 0 1 0 1 0 1 0 1 0 
1 0 1 0 1 0 1 0 1 0 1 0 1 0 1 0 
1 0 1 0 1 0 1 0 1 0 1 0 1 0 1 0 
1 0 1 0 1 0 5957 4287 100 MP stroke
1 0 1 0 1 0 1 0 1 0 1 0 1 0 1 0 
1 0 1 0 1 0 1 0 1 0 1 0 1 0 1 0 
1 0 1 0 1 0 1 0 1 0 1 0 1 0 1 0 
1 0 1 0 1 0 1 0 1 0 1 0 1 0 1 0 
1 0 1 0 1 0 1 0 1 0 0 160 1 0 1 0 
1 0 1 0 1 0 1 0 1 0 1 0 1 0 1 0 
1 0 1 0 1 0 1 0 1 0 1 0 1 0 1 0 
1 0 1 0 1 0 1 0 1 0 1 0 1 0 1 0 
1 0 1 0 1 0 1 0 1 0 1 0 1 0 1 0 
1 0 1 0 1 0 1 0 1 0 1 0 1 0 1 0 
1 0 1 0 1 0 1 0 1 0 1 0 1 0 1 0 
1 0 1 0 1 0 1 0 1 0 1 0 1 0 1 0 
1 0 1 0 1 0 5859 4127 100 MP stroke
1 0 1 0 1 0 1 0 1 0 1 0 1 0 1 0 
1 0 1 0 1 0 1 0 1 0 1 0 1 0 1 0 
1 0 1 0 1 0 1 0 1 0 1 0 1 0 1 0 
1 0 1 0 1 0 1 0 1 0 1 0 1 0 1 0 
1 0 1 0 1 0 1 0 1 0 1 0 1 0 1 0 
1 0 1 0 1 0 1 0 1 0 1 0 1 0 1 0 
1 0 1 0 1 0 1 0 1 0 1 0 1 0 1 0 
1 0 1 0 1 0 1 0 1 0 1 0 1 0 1 0 
1 0 1 0 1 0 1 0 1 0 1 0 1 0 1 0 
1 0 1 0 1 0 1 0 1 0 1 0 1 0 1 0 
1 0 1 0 1 0 1 0 1 0 1 0 1 0 1 0 
1 0 1 0 1 0 1 0 1 0 1 0 1 0 1 0 
1 0 1 0 1 0 5760 4127 100 MP stroke
1 0 1 0 1 0 1 0 1 0 1 0 1 0 1 0 
1 0 1 0 1 0 1 0 1 0 1 0 1 0 1 0 
1 0 1 0 1 0 1 0 1 0 1 0 1 0 1 0 
1 0 1 0 1 0 1 0 1 0 1 0 1 0 1 0 
1 0 1 0 1 0 1 0 1 0 1 0 1 0 1 0 
1 0 1 0 1 0 1 0 1 0 1 0 1 0 1 0 
1 0 1 0 1 0 1 0 1 0 1 0 1 0 1 0 
1 0 1 0 1 0 1 0 1 0 1 0 1 0 1 0 
1 0 1 0 1 0 1 0 1 0 1 0 1 0 1 0 
1 0 1 0 1 0 1 0 1 0 1 0 1 0 1 0 
1 0 1 0 1 0 1 0 1 0 1 0 1 0 1 0 
1 0 1 0 1 0 1 0 1 0 1 0 1 0 1 0 
1 0 1 0 1 0 5661 4127 100 MP stroke
1 0 1 0 1 0 1 0 1 0 1 0 1 0 1 0 
1 0 1 0 1 0 1 0 1 0 1 0 1 0 1 0 
1 0 1 0 1 0 1 0 1 0 1 0 1 0 1 0 
1 0 1 0 1 0 1 0 1 0 1 0 1 0 1 0 
1 0 1 0 1 0 1 0 1 0 1 0 1 0 1 0 
1 0 1 0 1 0 1 0 1 0 1 0 1 0 1 0 
1 0 1 0 1 0 1 0 1 0 1 0 1 0 1 0 
1 0 1 0 1 0 1 0 1 0 1 0 1 0 1 0 
1 0 1 0 1 0 1 0 1 0 1 0 1 0 1 0 
1 0 1 0 1 0 1 326 1 0 1 0 1 0 1 0 
1 0 1 0 1 0 1 0 1 0 1 0 1 0 1 0 
1 0 1 0 1 0 1 0 1 0 1 0 1 0 1 0 
1 0 1 0 1 0 5562 3801 100 MP stroke
1 0 1 0 1 0 1 0 1 0 1 0 1 0 1 0 
1 0 1 0 1 0 1 0 1 0 1 0 1 0 1 0 
1 0 1 0 1 0 1 0 1 0 1 0 1 0 1 0 
1 0 1 0 1 0 1 0 1 0 1 0 1 0 1 0 
1 0 1 0 1 0 1 0 1 0 1 0 1 0 1 0 
1 0 1 0 1 0 1 0 1 0 1 0 1 0 1 0 
1 0 1 0 1 0 1 0 1 0 1 0 1 0 1 0 
1 0 1 0 1 0 1 0 1 0 1 0 1 0 1 0 
1 0 1 0 1 0 1 0 1 0 1 0 1 0 1 0 
1 0 1 0 1 0 1 0 1 0 1 0 1 0 1 0 
1 0 1 0 1 0 1 0 1 0 1 0 1 0 1 0 
1 0 1 0 1 0 1 0 1 0 1 0 1 0 1 0 
1 0 1 0 1 0 5463 3801 100 MP stroke
1 0 1 0 1 0 1 0 1 0 1 0 1 0 1 0 
1 0 1 0 1 0 1 0 1 0 1 0 1 0 1 0 
1 0 1 0 1 0 1 0 1 0 1 0 1 0 1 0 
1 0 1 0 1 0 1 0 1 0 1 0 1 0 1 0 
1 0 1 0 1 0 1 0 1 0 1 0 1 0 1 0 
1 0 1 0 1 0 1 0 1 0 1 0 1 0 1 0 
1 0 1 0 1 0 1 0 1 0 1 0 1 0 1 0 
1 0 1 0 1 0 1 0 1 0 1 0 1 0 1 0 
1 0 1 0 1 0 1 0 1 0 1 0 1 0 1 0 
1 0 1 0 1 0 1 0 1 0 1 0 1 0 1 0 
1 0 1 0 1 0 1 0 1 0 1 0 1 0 1 0 
1 0 1 0 1 0 1 0 1 0 1 0 1 0 1 0 
1 0 1 0 1 0 5364 3801 100 MP stroke
1 0 1 0 1 0 1 0 1 0 1 0 1 0 1 0 
1 0 1 0 1 0 1 0 1 0 1 0 1 0 1 0 
1 0 1 0 1 0 1 0 1 0 1 0 1 0 1 0 
1 0 1 0 1 0 1 0 1 0 1 0 1 0 1 0 
1 0 1 0 1 0 1 0 1 0 1 0 1 0 1 0 
1 0 1 0 1 0 1 0 1 0 1 0 1 0 1 0 
1 0 1 0 1 0 1 0 1 0 1 0 1 0 1 0 
1 0 1 0 1 0 1 0 1 0 1 0 1 0 1 0 
1 0 1 0 1 0 1 0 1 0 1 0 1 0 1 0 
1 0 1 0 1 0 1 0 1 0 1 0 1 0 1 0 
1 0 1 0 1 0 1 0 1 0 1 0 1 0 1 0 
1 0 1 0 1 0 1 0 1 0 1 0 1 0 1 0 
1 0 1 0 1 0 5265 3801 100 MP stroke
1 0 1 0 1 0 1 0 1 0 1 0 1 0 1 0 
1 0 1 0 1 0 1 0 1 0 1 0 1 490 1 0 
1 0 1 0 1 0 1 0 1 0 1 0 1 0 1 0 
1 0 1 0 1 0 1 0 1 0 1 0 1 0 1 0 
1 0 1 0 1 0 1 0 1 0 1 0 1 0 1 0 
1 0 1 0 1 0 1 0 1 0 1 0 1 0 1 0 
1 0 1 0 1 0 1 0 1 0 1 0 1 0 1 0 
1 0 1 0 1 0 1 0 1 0 1 0 1 0 1 0 
1 0 1 0 1 0 1 0 1 0 1 0 1 0 1 0 
1 0 1 0 1 0 1 0 1 0 1 0 1 0 1 0 
1 0 1 0 1 0 1 0 1 0 1 0 1 0 1 0 
1 0 1 0 1 0 1 0 1 0 1 0 1 0 1 0 
1 0 1 0 1 0 5166 3311 100 MP stroke
1 0 1 0 1 0 1 0 1 0 1 0 1 0 1 0 
1 0 1 0 1 0 1 0 1 0 1 0 1 0 1 0 
1 0 1 0 1 0 1 0 1 0 1 0 1 0 1 0 
1 0 1 0 1 0 1 0 1 0 1 0 1 0 1 0 
1 0 1 0 1 0 1 0 1 0 1 0 1 0 1 0 
1 0 1 0 1 0 1 0 1 0 1 0 1 0 1 0 
1 0 1 0 1 0 1 0 1 0 1 0 1 0 1 0 
1 0 1 0 1 0 1 0 1 0 1 0 1 0 1 0 
1 0 1 0 1 0 1 0 1 0 1 0 1 0 1 0 
1 0 1 0 1 0 1 0 1 0 1 0 1 0 1 0 
1 0 1 0 1 0 1 0 1 0 1 0 1 0 1 0 
1 0 1 0 1 0 1 0 1 0 1 0 1 0 1 0 
1 0 1 0 1 0 5067 3311 100 MP stroke
1 0 1 0 1 0 1 0 1 0 1 0 1 0 1 0 
1 0 1 0 1 0 1 0 1 0 1 0 1 0 1 0 
1 0 1 0 1 0 1 0 1 0 1 0 1 0 1 0 
1 0 1 0 1 0 1 0 1 0 1 0 1 0 1 0 
1 0 1 0 1 0 1 0 1 0 1 0 1 0 1 0 
1 0 1 0 1 0 1 0 1 0 1 0 1 0 1 0 
1 0 1 0 1 0 1 0 1 0 1 0 1 0 1 0 
1 0 1 0 1 0 1 0 1 0 1 0 1 0 1 0 
1 0 1 0 1 0 1 0 1 0 1 0 1 0 1 0 
1 0 1 0 1 0 1 0 1 0 1 0 1 0 1 0 
1 0 1 0 1 0 1 0 1 0 1 0 1 0 1 0 
1 0 1 0 1 0 1 0 1 0 1 0 1 0 1 0 
1 0 1 0 1 0 4968 3311 100 MP stroke
1 0 1 0 1 0 1 0 1 0 1 0 1 0 1 0 
1 0 1 0 1 0 1 0 1 0 1 0 1 0 1 0 
1 0 1 0 1 0 1 0 1 0 1 0 1 0 1 0 
1 0 1 0 1 0 1 0 1 0 1 0 1 0 1 0 
1 0 1 0 1 0 1 0 1 0 1 0 1 0 1 0 
1 0 1 0 1 0 1 0 1 0 1 0 1 0 1 0 
1 0 1 0 1 0 1 0 1 615 1 0 1 0 1 0 
1 0 1 0 1 0 1 0 1 0 1 0 1 0 1 0 
1 0 1 0 1 0 1 0 1 0 1 0 1 0 1 0 
1 0 1 0 1 0 1 0 1 0 1 0 1 0 1 0 
1 0 1 0 1 0 1 0 1 0 1 0 1 0 1 0 
1 0 1 0 1 0 1 0 1 0 1 0 1 0 1 0 
1 0 1 0 1 0 4869 2696 100 MP stroke
1 0 1 0 1 0 1 0 1 0 1 0 1 0 1 0 
1 0 1 0 1 0 1 0 1 0 1 0 1 0 1 0 
1 0 1 0 1 0 1 0 1 0 1 0 1 0 1 0 
1 0 1 0 1 0 1 0 1 0 1 0 1 0 1 0 
1 0 1 0 1 0 1 0 1 0 1 0 1 0 1 0 
1 0 1 0 1 0 1 0 1 0 1 0 1 0 1 0 
1 0 1 0 1 0 1 0 1 0 1 0 1 0 1 0 
1 0 1 0 1 0 1 0 1 0 1 0 1 0 1 0 
1 0 1 0 1 0 1 0 1 0 1 0 1 0 1 0 
1 0 1 0 1 0 1 0 1 0 1 0 1 0 1 0 
1 0 1 0 1 0 1 0 1 0 1 0 1 0 1 0 
1 0 1 0 1 0 1 0 1 0 1 0 1 0 1 0 
1 0 1 0 1 0 4770 2696 100 MP stroke
1 0 1 0 1 0 1 0 1 0 1 0 1 0 1 0 
1 0 1 0 1 0 1 0 1 0 1 0 1 0 1 0 
1 0 1 0 1 0 1 0 1 0 1 0 1 0 1 0 
1 0 1 0 1 0 1 0 1 0 1 0 1 0 1 0 
1 0 1 0 1 0 1 0 1 0 1 0 1 0 1 0 
1 0 1 0 1 0 1 0 1 0 1 0 1 0 1 0 
1 0 1 0 1 0 1 0 1 0 1 0 1 0 1 0 
1 0 1 0 1 0 1 0 1 0 1 0 1 0 1 0 
1 0 1 0 1 0 1 0 1 0 1 0 1 0 1 0 
1 0 1 0 1 0 1 0 1 0 1 0 1 0 1 0 
1 0 1 0 1 0 1 0 1 0 1 0 1 0 1 0 
1 0 1 0 1 0 1 0 1 0 1 0 1 0 1 0 
1 0 1 0 1 0 4671 2696 100 MP stroke
1 0 1 0 1 0 1 0 1 0 1 0 1 0 1 0 
1 0 1 0 1 0 1 0 1 0 1 0 1 0 1 0 
1 0 1 0 1 0 1 0 1 0 1 0 1 0 1 0 
1 0 1 0 1 0 1 0 1 0 1 0 1 0 1 0 
1 0 1 0 1 0 1 0 1 0 1 0 1 0 1 0 
1 0 1 0 1 0 1 0 1 0 1 0 1 0 1 0 
1 0 1 0 1 0 1 0 1 0 1 0 1 0 1 0 
1 0 1 0 1 0 1 0 1 0 1 0 1 0 1 0 
1 0 1 0 1 0 1 0 1 0 1 0 1 0 1 0 
1 0 1 0 1 0 1 0 1 0 1 0 1 0 1 0 
1 0 1 0 1 0 1 0 1 0 1 0 1 0 1 0 
1 0 1 0 0 649 1 0 1 0 1 0 1 0 1 0 
1 0 1 0 1 0 4573 2047 100 MP stroke
1 0 1 0 1 0 1 0 1 0 1 0 1 0 1 0 
1 0 1 0 1 0 1 0 1 0 1 0 1 0 1 0 
1 0 1 0 1 0 1 0 1 0 1 0 1 0 1 0 
1 0 1 0 1 0 1 0 1 0 1 0 1 0 1 0 
1 0 1 0 1 0 1 0 1 0 1 0 1 0 1 0 
1 0 1 0 1 0 1 0 1 0 1 0 1 0 1 0 
1 0 1 0 1 0 1 0 1 0 1 0 1 0 1 0 
1 0 1 0 1 0 1 0 1 0 1 0 1 0 1 0 
1 0 1 0 1 0 1 0 1 0 1 0 1 0 1 0 
1 0 1 0 1 0 1 0 1 0 1 0 1 0 1 0 
1 0 1 0 1 0 1 0 1 0 1 0 1 0 1 0 
1 0 1 0 1 0 1 0 1 0 1 0 1 0 1 0 
1 0 1 0 1 0 4474 2047 100 MP stroke
1 0 1 0 1 0 1 0 1 0 1 0 1 0 1 0 
1 0 1 0 1 0 1 0 1 0 1 0 1 0 1 0 
1 0 1 0 1 0 1 0 1 0 1 0 1 0 1 0 
1 0 1 0 1 0 1 0 1 0 1 0 1 0 1 0 
1 0 1 0 1 0 1 0 1 0 1 0 1 0 1 0 
1 0 1 0 1 0 1 0 1 0 1 0 1 0 1 0 
1 0 1 0 1 0 1 0 1 0 1 0 1 0 1 0 
1 0 1 0 1 0 1 0 1 0 1 0 1 0 1 0 
1 0 1 0 1 0 1 0 1 0 1 0 1 0 1 0 
1 0 1 0 1 0 1 0 1 0 1 0 1 0 1 0 
1 0 1 0 1 0 1 0 1 0 1 0 1 0 1 0 
1 0 1 0 1 0 1 0 1 0 1 0 1 0 1 0 
1 0 1 0 1 0 4375 2047 100 MP stroke
1 0 1 0 1 0 1 0 1 0 1 0 1 0 1 0 
1 0 1 0 1 0 1 0 1 0 1 0 1 0 1 0 
1 0 1 0 1 0 1 0 1 0 1 0 1 0 1 0 
1 0 1 0 1 0 1 0 1 0 1 0 1 0 1 0 
1 0 1 0 1 0 1 0 1 0 1 0 1 0 1 0 
1 0 1 0 1 0 1 0 1 0 1 0 1 0 1 0 
1 0 1 0 1 0 1 0 1 0 1 0 1 0 1 0 
1 0 1 0 1 0 1 0 1 0 1 0 1 0 1 0 
1 0 1 0 1 0 1 0 1 0 1 0 1 0 1 0 
1 0 1 0 1 0 1 0 1 0 1 0 1 0 1 0 
1 0 1 0 1 0 1 0 1 0 1 0 1 0 1 0 
1 0 1 0 1 0 1 0 1 0 1 0 1 0 1 0 
1 0 1 0 1 0 4276 2047 100 MP stroke
1 0 1 0 1 0 1 0 1 0 1 0 1 0 1 0 
1 0 1 0 1 0 1 0 1 0 1 0 1 0 1 0 
1 0 1 0 1 0 1 0 1 0 1 0 1 0 1 0 
1 0 1 0 1 0 1 0 1 0 1 0 0 552 1 0 
1 0 1 0 1 0 1 0 1 0 1 0 1 0 1 0 
1 0 1 0 1 0 1 0 1 0 1 0 1 0 1 0 
1 0 1 0 1 0 1 0 1 0 1 0 1 0 1 0 
1 0 1 0 1 0 1 0 1 0 1 0 1 0 1 0 
1 0 1 0 1 0 1 0 1 0 1 0 1 0 1 0 
1 0 1 0 1 0 1 0 1 0 1 0 1 0 1 0 
1 0 1 0 1 0 1 0 1 0 1 0 1 0 1 0 
1 0 1 0 1 0 1 0 1 0 1 0 1 0 1 0 
1 0 1 0 1 0 4178 1495 100 MP stroke
1 0 1 0 1 0 1 0 1 0 1 0 1 0 1 0 
1 0 1 0 1 0 1 0 1 0 1 0 1 0 1 0 
1 0 1 0 1 0 1 0 1 0 1 0 1 0 1 0 
1 0 1 0 1 0 1 0 1 0 1 0 1 0 1 0 
1 0 1 0 1 0 1 0 1 0 1 0 1 0 1 0 
1 0 1 0 1 0 1 0 1 0 1 0 1 0 1 0 
1 0 1 0 1 0 1 0 1 0 1 0 1 0 1 0 
1 0 1 0 1 0 1 0 1 0 1 0 1 0 1 0 
1 0 1 0 1 0 1 0 1 0 1 0 1 0 1 0 
1 0 1 0 1 0 1 0 1 0 1 0 1 0 1 0 
1 0 1 0 1 0 1 0 1 0 1 0 1 0 1 0 
1 0 1 0 1 0 1 0 1 0 1 0 1 0 1 0 
1 0 1 0 1 0 4079 1495 100 MP stroke
1 0 1 0 1 0 1 0 1 0 1 0 1 0 1 0 
1 0 1 0 1 0 1 0 1 0 1 0 1 0 1 0 
1 0 1 0 1 0 1 0 1 0 1 0 1 0 1 0 
1 0 1 0 1 0 1 0 1 0 1 0 1 0 1 0 
1 0 1 0 1 0 1 0 1 0 1 0 1 0 1 0 
1 0 1 0 1 0 1 0 1 0 1 0 1 0 1 0 
1 0 1 0 1 0 1 0 1 0 1 0 1 0 1 0 
1 0 1 0 1 0 1 0 1 0 1 0 1 0 1 0 
1 0 1 0 1 0 1 0 1 0 1 0 1 0 1 0 
1 0 1 0 1 0 1 0 1 0 1 0 1 0 1 0 
1 0 1 0 1 0 1 0 1 0 1 0 1 0 1 0 
1 0 1 0 1 0 1 0 1 0 1 0 1 0 1 0 
1 0 1 0 1 0 3980 1495 100 MP stroke
1 0 1 0 1 0 1 0 1 0 1 0 1 0 1 0 
1 0 1 0 1 0 1 0 1 0 1 0 1 0 1 0 
1 0 1 0 1 0 1 0 1 0 1 0 1 0 1 0 
1 0 1 0 1 0 1 0 1 0 1 0 1 0 1 0 
1 0 1 0 1 0 1 0 1 0 1 0 1 0 1 0 
1 0 1 0 1 0 1 0 1 0 1 0 1 0 1 0 
1 0 1 0 1 0 1 0 1 0 1 0 1 0 1 0 
1 0 1 0 1 0 1 0 1 0 1 0 1 0 1 0 
1 0 1 0 1 0 1 0 1 319 1 0 1 0 1 0 
1 0 1 0 1 0 1 0 1 0 1 0 1 0 1 0 
1 0 1 0 1 0 1 0 1 0 1 0 1 0 1 0 
1 0 1 0 1 0 1 0 1 0 1 0 1 0 1 0 
1 0 1 0 1 0 3881 1176 100 MP stroke
1 0 1 0 1 0 1 0 1 0 1 0 1 0 1 0 
1 0 1 0 1 0 1 0 1 0 1 0 1 0 1 0 
1 0 1 0 1 0 1 0 1 0 1 0 1 0 1 0 
1 0 1 0 1 0 1 0 1 0 1 0 1 0 1 0 
1 0 1 0 1 0 1 0 1 0 1 0 1 0 1 0 
1 0 1 0 1 0 1 0 1 0 1 0 1 0 1 0 
1 0 1 0 1 0 1 0 1 0 1 0 1 0 1 0 
1 0 1 0 1 0 1 0 1 0 1 0 1 0 1 0 
1 0 1 0 1 0 1 0 1 0 1 0 1 0 1 0 
1 0 1 0 1 0 1 0 1 0 1 0 1 0 1 0 
1 0 1 0 1 0 1 0 1 0 1 0 1 0 1 0 
1 0 1 0 1 0 1 0 1 0 1 0 1 0 1 0 
1 0 1 0 1 0 3782 1176 100 MP stroke
1 0 1 0 1 0 1 0 1 0 1 0 1 0 1 0 
1 0 1 0 1 0 1 0 1 0 1 0 1 0 1 0 
1 0 1 0 1 0 1 0 1 0 1 0 1 0 1 0 
1 0 1 0 1 0 1 0 1 0 1 0 1 0 1 0 
1 0 1 0 1 0 1 0 1 0 1 0 1 0 1 0 
1 0 1 0 1 0 1 0 1 0 1 0 1 0 1 0 
1 0 1 0 1 0 1 0 1 0 1 0 1 0 1 0 
1 0 1 0 1 0 1 0 1 0 1 0 1 0 1 0 
1 0 1 0 1 0 1 0 1 0 1 0 1 0 1 0 
1 0 1 0 1 0 1 0 1 0 1 0 1 0 1 0 
1 0 1 0 1 0 1 0 1 0 1 0 1 0 1 0 
1 0 1 0 1 0 1 0 1 0 1 0 1 0 1 0 
1 0 1 0 1 0 3683 1176 100 MP stroke
1 0 1 0 1 0 1 0 1 0 1 0 1 0 1 0 
1 0 1 0 1 0 1 0 1 0 1 0 1 0 1 0 
1 0 1 0 1 0 1 0 1 0 1 0 1 0 1 0 
1 0 1 0 1 0 1 0 1 0 1 0 1 0 1 0 
1 0 1 0 1 0 1 0 1 0 1 0 1 0 1 0 
1 0 1 0 1 0 1 0 1 0 1 0 1 0 1 0 
1 0 1 0 1 0 1 0 1 0 1 0 1 0 1 0 
1 0 1 0 1 0 1 0 1 0 1 0 1 0 1 0 
1 0 1 0 1 0 1 0 1 0 1 0 1 0 1 0 
1 0 1 0 1 0 1 0 1 0 1 0 1 0 1 0 
1 0 1 0 1 0 1 0 1 0 1 0 1 0 1 0 
1 0 1 0 1 0 1 0 1 0 1 0 1 0 1 0 
1 0 1 0 1 0 3584 1176 100 MP stroke
1 0 1 0 1 0 1 0 1 0 1 0 1 0 1 0 
1 0 1 0 1 0 1 0 1 0 1 0 1 0 1 0 
1 0 1 0 1 0 1 0 1 0 1 0 1 0 1 0 
1 0 1 0 1 0 1 0 1 0 1 0 1 0 1 0 
1 0 1 0 1 0 1 0 1 0 1 0 1 0 1 0 
1 0 1 0 1 0 1 0 1 0 1 0 1 0 1 0 
1 0 1 0 1 0 1 0 1 0 1 0 1 0 1 0 
1 0 1 0 1 0 1 0 1 0 1 0 1 0 1 0 
1 0 1 0 1 0 1 0 1 0 1 0 1 0 1 0 
1 0 1 0 1 0 1 0 1 0 1 0 1 0 1 0 
1 0 1 0 1 0 1 0 1 0 1 0 1 0 1 0 
1 0 1 0 1 0 1 0 1 0 1 0 1 0 1 0 
1 0 1 0 1 0 3485 1176 100 MP stroke
1 0 1 0 1 0 1 0 1 0 1 0 1 0 1 0 
1 0 1 0 1 0 1 0 1 0 1 0 1 0 1 0 
1 0 1 0 1 0 1 0 1 0 1 0 1 0 1 0 
1 0 1 0 1 0 1 0 1 0 1 0 1 0 1 0 
1 0 1 0 1 0 1 0 1 0 1 0 1 0 1 0 
1 0 1 0 1 0 1 0 1 0 1 0 1 0 1 0 
1 0 1 0 1 0 1 0 1 0 1 0 1 0 1 0 
1 0 1 0 1 0 1 0 1 0 1 0 1 0 1 0 
1 0 1 0 1 0 1 0 1 0 1 0 1 0 1 0 
1 0 1 0 1 0 1 0 1 0 1 0 1 0 1 0 
1 0 1 0 1 0 1 0 1 0 1 0 1 0 1 0 
1 0 1 0 1 0 1 0 1 0 1 0 1 0 1 0 
1 0 1 0 1 0 3386 1176 100 MP stroke
1 0 1 0 1 0 1 0 1 0 1 0 1 0 1 0 
1 0 1 0 1 0 1 0 1 0 1 0 1 0 1 0 
1 0 1 0 1 0 1 0 1 0 1 0 1 0 1 0 
1 0 1 0 1 0 1 0 1 0 1 0 1 0 1 0 
1 0 1 0 1 0 1 0 1 0 1 0 1 0 1 0 
1 0 1 0 1 0 1 0 1 0 1 0 1 0 1 0 
1 0 1 0 1 0 1 0 1 0 1 0 1 0 1 0 
1 0 1 0 1 0 1 0 1 0 1 0 1 0 1 0 
1 0 1 0 1 0 1 0 1 0 1 0 1 0 1 0 
1 0 1 0 1 0 1 0 1 0 1 0 1 0 1 0 
1 0 1 0 1 0 1 0 1 0 1 0 1 0 1 0 
1 0 1 0 1 0 1 0 1 0 1 0 1 0 1 0 
1 0 1 0 1 0 3287 1176 100 MP stroke
1 0 1 0 1 0 1 0 1 0 1 0 1 0 1 0 
1 0 1 0 1 0 1 0 1 0 1 0 1 0 1 0 
1 0 1 0 1 0 1 0 1 0 1 0 1 0 1 0 
1 0 1 0 1 0 1 0 1 0 1 0 1 0 1 0 
1 0 1 0 1 0 1 0 1 0 1 0 1 0 1 0 
1 0 1 0 1 0 1 0 1 0 1 -319 1 0 1 0 
1 0 1 0 1 0 1 0 1 0 1 0 1 0 1 0 
1 0 1 0 1 0 1 0 1 0 1 0 1 0 1 0 
1 0 1 0 1 0 1 0 1 0 1 0 1 0 1 0 
1 0 1 0 1 0 1 0 1 0 1 0 1 0 1 0 
1 0 1 0 1 0 1 0 1 0 1 0 1 0 1 0 
1 0 1 0 1 0 1 0 1 0 1 0 1 0 1 0 
1 0 1 0 1 0 3188 1495 100 MP stroke
1 0 1 0 1 0 1 0 1 0 1 0 1 0 1 0 
1 0 1 0 1 0 1 0 1 0 1 0 1 0 1 0 
1 0 1 0 1 0 1 0 1 0 1 0 1 0 1 0 
1 0 1 0 1 0 1 0 1 0 1 0 1 0 1 0 
1 0 1 0 1 0 1 0 1 0 1 0 1 0 1 0 
1 0 1 0 1 0 1 0 1 0 1 0 1 0 1 0 
1 0 1 0 1 0 1 0 1 0 1 0 1 0 1 0 
1 0 1 0 1 0 1 0 1 0 1 0 1 0 1 0 
1 0 1 0 1 0 1 0 1 0 1 0 1 0 1 0 
1 0 1 0 1 0 1 0 1 0 1 0 1 0 1 0 
1 0 1 0 1 0 1 0 1 0 1 0 1 0 1 0 
1 0 1 0 1 0 1 0 1 0 1 0 1 0 1 0 
1 0 1 0 1 0 3089 1495 100 MP stroke
1 0 1 0 1 0 1 0 1 0 1 0 1 0 1 0 
1 0 1 0 1 0 1 0 1 0 1 0 1 0 1 0 
1 0 1 0 1 0 1 0 1 0 1 0 1 0 1 0 
1 0 1 0 1 0 1 0 1 0 1 0 1 0 1 0 
1 0 1 0 1 0 1 0 1 0 1 0 1 0 1 0 
1 0 1 0 1 0 1 0 1 0 1 0 1 0 1 0 
1 0 1 0 1 0 1 0 1 0 1 0 1 0 1 0 
1 0 1 0 1 0 1 0 1 0 1 0 1 0 1 0 
1 0 1 0 1 0 1 0 1 0 1 0 1 0 1 0 
1 0 1 0 1 0 1 0 1 0 1 0 1 0 1 0 
1 0 1 0 1 0 1 0 1 0 1 0 1 0 1 0 
1 0 1 0 1 0 1 0 1 0 1 0 1 0 1 0 
1 0 1 0 1 0 2990 1495 100 MP stroke
1 0 1 0 1 0 1 0 1 0 1 0 1 0 1 0 
1 0 1 0 1 0 1 0 1 0 1 0 1 0 1 0 
1 0 1 0 1 0 1 0 1 0 1 0 1 0 1 0 
1 0 1 0 1 0 1 0 1 0 1 0 1 0 1 0 
1 0 1 0 1 0 1 0 1 0 1 0 1 0 1 0 
1 0 1 0 1 0 1 0 1 0 1 0 1 0 1 0 
1 0 1 0 1 0 1 0 1 0 1 0 1 0 1 0 
1 0 1 0 1 0 1 0 1 0 1 0 1 0 1 0 
1 0 1 0 1 0 1 0 1 0 1 0 1 0 1 0 
1 0 1 0 1 0 1 0 1 0 1 0 1 0 1 0 
1 0 1 0 1 0 0 -552 1 0 1 0 1 0 1 0 
1 0 1 0 1 0 1 0 1 0 1 0 1 0 1 0 
1 0 1 0 1 0 2892 2047 100 MP stroke
1 0 1 0 1 0 1 0 1 0 1 0 1 0 1 0 
1 0 1 0 1 0 1 0 1 0 1 0 1 0 1 0 
1 0 1 0 1 0 1 0 1 0 1 0 1 0 1 0 
1 0 1 0 1 0 1 0 1 0 1 0 1 0 1 0 
1 0 1 0 1 0 1 0 1 0 1 0 1 0 1 0 
1 0 1 0 1 0 1 0 1 0 1 0 1 0 1 0 
1 0 1 0 1 0 1 0 1 0 1 0 1 0 1 0 
1 0 1 0 1 0 1 0 1 0 1 0 1 0 1 0 
1 0 1 0 1 0 1 0 1 0 1 0 1 0 1 0 
1 0 1 0 1 0 1 0 1 0 1 0 1 0 1 0 
1 0 1 0 1 0 1 0 1 0 1 0 1 0 1 0 
1 0 1 0 1 0 1 0 1 0 1 0 1 0 1 0 
1 0 1 0 1 0 2793 2047 100 MP stroke
1 0 1 0 1 0 1 0 1 0 1 0 1 0 1 0 
1 0 1 0 1 0 1 0 1 0 1 0 1 0 1 0 
1 0 1 0 1 0 1 0 1 0 1 0 1 0 1 0 
1 0 1 0 1 0 1 0 1 0 1 0 1 0 1 0 
1 0 1 0 1 0 1 0 1 0 1 0 1 0 1 0 
1 0 1 0 1 0 1 0 1 0 1 0 1 0 1 0 
1 0 1 0 1 0 1 0 1 0 1 0 1 0 1 0 
1 0 1 0 1 0 1 0 1 0 1 0 1 0 1 0 
1 0 1 0 1 0 1 0 1 0 1 0 1 0 1 0 
1 0 1 0 1 0 1 0 1 0 1 0 1 0 1 0 
1 0 1 0 1 0 1 0 1 0 1 0 1 0 1 0 
1 0 1 0 1 0 1 0 1 0 1 0 1 0 1 0 
1 0 1 0 1 0 2694 2047 100 MP stroke
1 0 1 0 1 0 1 0 1 0 1 0 1 0 1 0 
1 0 1 0 1 0 1 0 1 0 1 0 1 0 1 0 
1 0 1 0 1 0 1 0 1 0 1 0 1 0 1 0 
1 0 1 0 1 0 1 0 1 0 1 0 1 0 1 0 
1 0 1 0 1 0 1 0 1 0 1 0 1 0 1 0 
1 0 1 0 1 0 1 0 1 0 1 0 1 0 1 0 
1 0 1 0 1 0 1 0 1 0 1 0 1 0 1 0 
1 0 1 0 1 0 1 0 1 0 1 0 1 0 1 0 
1 0 1 0 1 0 1 0 1 0 1 0 1 0 1 0 
1 0 1 0 1 0 1 0 1 0 1 0 1 0 1 0 
1 0 1 0 1 0 1 0 1 0 1 0 1 0 1 0 
1 0 1 0 1 0 1 0 1 0 1 0 1 0 1 0 
1 0 1 0 1 0 2595 2047 100 MP stroke
1 0 1 0 1 0 1 0 1 0 1 0 1 0 1 0 
1 0 1 0 1 0 1 0 1 0 1 0 1 0 1 0 
1 0 1 0 1 0 1 0 1 0 1 0 1 0 0 -649 
1 0 1 0 1 0 1 0 1 0 1 0 1 0 1 0 
1 0 1 0 1 0 1 0 1 0 1 0 1 0 1 0 
1 0 1 0 1 0 1 0 1 0 1 0 1 0 1 0 
1 0 1 0 1 0 1 0 1 0 1 0 1 0 1 0 
1 0 1 0 1 0 1 0 1 0 1 0 1 0 1 0 
1 0 1 0 1 0 1 0 1 0 1 0 1 0 1 0 
1 0 1 0 1 0 1 0 1 0 1 0 1 0 1 0 
1 0 1 0 1 0 1 0 1 0 1 0 1 0 1 0 
1 0 1 0 1 0 1 0 1 0 1 0 1 0 1 0 
1 0 1 0 1 0 2497 2696 100 MP stroke
1 0 1 0 1 0 1 0 1 0 1 0 1 0 1 0 
1 0 1 0 1 0 1 0 1 0 1 0 1 0 1 0 
1 0 1 0 1 0 1 0 1 0 1 0 1 0 1 0 
1 0 1 0 1 0 1 0 1 0 1 0 1 0 1 0 
1 0 1 0 1 0 1 0 1 0 1 0 1 0 1 0 
1 0 1 0 1 0 1 0 1 0 1 0 1 0 1 0 
1 0 1 0 1 0 1 0 1 0 1 0 1 0 1 0 
1 0 1 0 1 0 1 0 1 0 1 0 1 0 1 0 
1 0 1 0 1 0 1 0 1 0 1 0 1 0 1 0 
1 0 1 0 1 0 1 0 1 0 1 0 1 0 1 0 
1 0 1 0 1 0 1 0 1 0 1 0 1 0 1 0 
1 0 1 0 1 0 1 0 1 0 1 0 1 0 1 0 
1 0 1 0 1 0 2398 2696 100 MP stroke
1 0 1 0 1 0 1 0 1 0 1 0 1 0 1 0 
1 0 1 0 1 0 1 0 1 0 1 0 1 0 1 0 
1 0 1 0 1 0 1 0 1 0 1 0 1 0 1 0 
1 0 1 0 1 0 1 0 1 0 1 0 1 0 1 0 
1 0 1 0 1 0 1 0 1 0 1 0 1 0 1 0 
1 0 1 0 1 0 1 0 1 0 1 0 1 0 1 0 
1 0 1 0 1 0 1 0 1 0 1 0 1 0 1 0 
1 0 1 0 1 0 1 0 1 0 1 0 1 0 1 0 
1 0 1 0 1 0 1 0 1 0 1 0 1 0 1 0 
1 0 1 0 1 0 1 0 1 0 1 0 1 0 1 0 
1 0 1 0 1 0 1 0 1 0 1 0 1 0 1 0 
1 0 1 0 1 0 1 0 1 0 1 0 1 0 1 0 
1 0 1 0 1 0 2299 2696 100 MP stroke
1 0 1 0 1 0 1 0 1 0 1 0 1 0 1 0 
1 0 1 0 1 0 1 0 1 0 1 0 1 0 1 0 
1 0 1 0 1 0 1 0 1 0 1 0 1 0 1 0 
1 0 1 0 1 0 1 0 1 0 1 0 1 0 1 0 
1 0 1 0 1 0 1 0 1 0 1 0 1 0 1 0 
1 0 1 0 1 0 1 0 1 0 1 0 1 0 1 0 
1 0 1 0 1 0 1 0 1 0 1 0 1 0 1 0 
1 0 1 0 1 0 1 0 1 0 1 -615 1 0 1 0 
1 0 1 0 1 0 1 0 1 0 1 0 1 0 1 0 
1 0 1 0 1 0 1 0 1 0 1 0 1 0 1 0 
1 0 1 0 1 0 1 0 1 0 1 0 1 0 1 0 
1 0 1 0 1 0 1 0 1 0 1 0 1 0 1 0 
1 0 1 0 1 0 2200 3311 100 MP stroke
1 0 1 0 1 0 1 0 1 0 1 0 1 0 1 0 
1 0 1 0 1 0 1 0 1 0 1 0 1 0 1 0 
1 0 1 0 1 0 1 0 1 0 1 0 1 0 1 0 
1 0 1 0 1 0 1 0 1 0 1 0 1 0 1 0 
1 0 1 0 1 0 1 0 1 0 1 0 1 0 1 0 
1 0 1 0 1 0 1 0 1 0 1 0 1 0 1 0 
1 0 1 0 1 0 1 0 1 0 1 0 1 0 1 0 
1 0 1 0 1 0 1 0 1 0 1 0 1 0 1 0 
1 0 1 0 1 0 1 0 1 0 1 0 1 0 1 0 
1 0 1 0 1 0 1 0 1 0 1 0 1 0 1 0 
1 0 1 0 1 0 1 0 1 0 1 0 1 0 1 0 
1 0 1 0 1 0 1 0 1 0 1 0 1 0 1 0 
1 0 1 0 1 0 2101 3311 100 MP stroke
1 0 1 0 1 0 1 0 1 0 1 0 1 0 1 0 
1 0 1 0 1 0 1 0 1 0 1 0 1 0 1 0 
1 0 1 0 1 0 1 0 1 0 1 0 1 0 1 0 
1 0 1 0 1 0 1 0 1 0 1 0 1 0 1 0 
1 0 1 0 1 0 1 0 1 0 1 0 1 0 1 0 
1 0 1 0 1 0 1 0 1 0 1 0 1 0 1 0 
1 0 1 0 1 0 1 0 1 0 1 0 1 0 1 0 
1 0 1 0 1 0 1 0 1 0 1 0 1 0 1 0 
1 0 1 0 1 0 1 0 1 0 1 0 1 0 1 0 
1 0 1 0 1 0 1 0 1 0 1 0 1 0 1 0 
1 0 1 0 1 0 1 0 1 0 1 0 1 0 1 0 
1 0 1 0 1 0 1 0 1 0 1 0 1 0 1 0 
1 0 1 0 1 0 2002 3311 100 MP stroke
1 0 1 0 1 0 1 0 1 0 1 0 1 0 1 0 
1 0 1 0 1 0 1 0 1 0 1 0 1 0 1 0 
1 0 1 0 1 0 1 0 1 0 1 0 1 0 1 0 
1 0 1 0 1 0 1 0 1 0 1 0 1 0 1 0 
1 0 1 0 1 0 1 0 1 0 1 0 1 0 1 0 
1 0 1 0 1 0 1 0 1 0 1 0 1 0 1 0 
1 0 1 0 1 0 1 0 1 0 1 0 1 0 1 0 
1 0 1 0 1 0 1 0 1 0 1 0 1 0 1 0 
1 0 1 0 1 0 1 0 1 0 1 0 1 0 1 0 
1 0 1 0 1 0 1 0 1 0 1 0 1 0 1 0 
1 0 1 0 1 0 1 0 1 0 1 0 1 0 1 0 
1 0 1 0 1 0 1 0 1 0 1 0 1 0 1 0 
1 0 1 0 1 0 1903 3311 100 MP stroke
1 -490 1 0 1 0 1 0 1 0 1 0 1 0 1 0 
1 0 1 0 1 0 1 0 1 0 1 0 1 0 1 0 
1 0 1 0 1 0 1 0 1 0 1 0 1 0 1 0 
1 0 1 0 1 0 1 0 1 0 1 0 1 0 1 0 
1 0 1 0 1 0 1 0 1 0 1 0 1 0 1 0 
1 0 1 0 1 0 1 0 1 0 1 0 1 0 1 0 
1 0 1 0 1 0 1 0 1 0 1 0 1 0 1 0 
1 0 1 0 1 0 1 0 1 0 1 0 1 0 1 0 
1 0 1 0 1 0 1 0 1 0 1 0 1 0 1 0 
1 0 1 0 1 0 1 0 1 0 1 0 1 0 1 0 
1 0 1 0 1 0 1 0 1 0 1 0 1 0 1 0 
1 0 1 0 1 0 1 0 1 0 1 0 1 0 1 0 
1 0 1 0 1 0 1804 3801 100 MP stroke
1 0 1 0 1 0 1 0 1 0 1 0 1 0 1 0 
1 0 1 0 1 0 1 0 1 0 1 0 1 0 1 0 
1 0 1 0 1 0 1 0 1 0 1 0 1 0 1 0 
1 0 1 0 1 0 1 0 1 0 1 0 1 0 1 0 
1 0 1 0 1 0 1 0 1 0 1 0 1 0 1 0 
1 0 1 0 1 0 1 0 1 0 1 0 1 0 1 0 
1 0 1 0 1 0 1 0 1 0 1 0 1 0 1 0 
1 0 1 0 1 0 1 0 1 0 1 0 1 0 1 0 
1 0 1 0 1 0 1 0 1 0 1 0 1 0 1 0 
1 0 1 0 1 0 1 0 1 0 1 0 1 0 1 0 
1 0 1 0 1 0 1 0 1 0 1 0 1 0 1 0 
1 0 1 0 1 0 1 0 1 0 1 0 1 0 1 0 
1 0 1 0 1 0 1705 3801 100 MP stroke
1 0 1 0 1 0 1 0 1 0 1 0 1 0 1 0 
1 0 1 0 1 0 1 0 1 0 1 0 1 0 1 0 
1 0 1 0 1 0 1 0 1 0 1 0 1 0 1 0 
1 0 1 0 1 0 1 0 1 0 1 0 1 0 1 0 
1 0 1 0 1 0 1 0 1 0 1 0 1 0 1 0 
1 0 1 0 1 0 1 0 1 0 1 0 1 0 1 0 
1 0 1 0 1 0 1 0 1 0 1 0 1 0 1 0 
1 0 1 0 1 0 1 0 1 0 1 0 1 0 1 0 
1 0 1 0 1 0 1 0 1 0 1 0 1 0 1 0 
1 0 1 0 1 0 1 0 1 0 1 0 1 0 1 0 
1 0 1 0 1 0 1 0 1 0 1 0 1 0 1 0 
1 0 1 0 1 0 1 0 1 0 1 0 1 0 1 0 
1 0 1 0 1 0 1606 3801 100 MP stroke
1 0 1 0 1 0 1 0 1 0 1 0 1 0 1 0 
1 0 1 0 1 0 1 0 1 0 1 0 1 0 1 0 
1 0 1 0 1 0 1 0 1 0 1 0 1 0 1 0 
1 0 1 0 1 0 1 0 1 0 1 0 1 0 1 0 
1 0 1 0 1 0 1 0 1 0 1 0 1 -326 1 0 
1 0 1 0 1 0 1 0 1 0 1 0 1 0 1 0 
1 0 1 0 1 0 1 0 1 0 1 0 1 0 1 0 
1 0 1 0 1 0 1 0 1 0 1 0 1 0 1 0 
1 0 1 0 1 0 1 0 1 0 1 0 1 0 1 0 
1 0 1 0 1 0 1 0 1 0 1 0 1 0 1 0 
1 0 1 0 1 0 1 0 1 0 1 0 1 0 1 0 
1 0 1 0 1 0 1 0 1 0 1 0 1 0 1 0 
1 0 1 0 1 0 1507 4127 100 MP stroke
1 0 1 0 1 0 1 0 1 0 1 0 1 0 1 0 
1 0 1 0 1 0 1 0 1 0 1 0 1 0 1 0 
1 0 1 0 1 0 1 0 1 0 1 0 1 0 1 0 
1 0 1 0 1 0 1 0 1 0 1 0 1 0 1 0 
1 0 1 0 1 0 1 0 1 0 1 0 1 0 1 0 
1 0 1 0 1 0 1 0 1 0 1 0 1 0 1 0 
1 0 1 0 1 0 1 0 1 0 1 0 1 0 1 0 
1 0 1 0 1 0 1 0 1 0 1 0 1 0 1 0 
1 0 1 0 1 0 1 0 1 0 1 0 1 0 1 0 
1 0 1 0 1 0 1 0 1 0 1 0 1 0 1 0 
1 0 1 0 1 0 1 0 1 0 1 0 1 0 1 0 
1 0 1 0 1 0 1 0 1 0 1 0 1 0 1 0 
1 0 1 0 1 0 1408 4127 100 MP stroke
1 0 1 0 1 0 1 0 1 0 1 0 1 0 1 0 
1 0 1 0 1 0 1 0 1 0 1 0 1 0 1 0 
1 0 1 0 1 0 1 0 1 0 1 0 1 0 1 0 
1 0 1 0 1 0 1 0 1 0 1 0 1 0 1 0 
1 0 1 0 1 0 1 0 1 0 1 0 1 0 1 0 
1 0 1 0 1 0 1 0 1 0 1 0 1 0 1 0 
1 0 1 0 1 0 1 0 1 0 1 0 1 0 1 0 
1 0 1 0 1 0 1 0 1 0 1 0 1 0 1 0 
1 0 1 0 1 0 1 0 1 0 1 0 1 0 1 0 
1 0 1 0 1 0 1 0 1 0 1 0 1 0 1 0 
1 0 1 0 1 0 1 0 1 0 1 0 1 0 1 0 
1 0 1 0 1 0 1 0 1 0 1 0 1 0 1 0 
1 0 1 0 1 0 1309 4127 100 MP stroke
1 0 1 0 1 0 1 0 1 0 1 0 1 0 1 0 
1 0 1 0 1 0 1 0 1 0 1 0 1 0 1 0 
1 0 1 0 1 0 1 0 1 0 1 0 1 0 1 0 
1 0 1 0 1 0 1 0 1 0 1 0 1 0 1 0 
1 0 1 0 1 0 1 0 1 0 1 0 1 0 1 0 
1 0 1 0 1 0 1 0 1 0 1 0 1 0 1 0 
1 0 1 0 1 0 1 0 1 0 1 0 1 0 1 0 
1 0 1 0 1 0 1 0 1 0 1 0 1 0 1 0 
1 0 1 0 1 0 1 0 1 0 1 0 1 0 1 0 
1 0 1 0 1 0 1 0 0 -159 1 0 1 0 1 0 
1 0 1 0 1 0 1 0 1 0 1 0 1 0 1 0 
1 0 1 0 1 0 1 0 1 0 1 0 1 0 1 0 
1 0 1 0 1 0 1211 4286 100 MP stroke
1 0 1 0 1 0 1 0 1 0 1 0 1 0 1 0 
1 0 1 0 1 0 1 0 1 0 1 0 1 0 1 0 
1 0 1 0 1 0 1 0 1 0 1 0 1 0 1 0 
1 0 1 0 1 0 1 0 1 0 1 0 1 0 1 0 
1 0 1 0 1 0 1 0 1 0 1 0 1 0 1 0 
1 0 1 0 1 0 1 0 1 0 1 0 1 0 1 0 
1 0 1 0 1 0 1 0 1 0 1 0 1 0 1 0 
1 0 1 0 1 0 1 0 1 0 1 0 1 0 1 0 
1 0 1 0 1 0 1 0 1 0 1 0 1 0 1 0 
1 0 1 0 1 0 1 0 1 0 1 0 1 0 1 0 
1 0 1 0 1 0 1 0 1 0 1 0 1 0 1 0 
1 0 1 0 1 0 1 0 1 0 1 0 1 0 1 0 
1 0 1 0 1 0 1112 4286 100 MP stroke
1 0 1 0 1 0 1 0 1 0 1 0 1 0 1 0 
1 0 1 0 1 0 1 0 1 0 1 0 1 0 1 0 
1 0 1 0 1 0 1 0 1 0 1 0 1 0 1 0 
1 0 1 0 1 0 1 0 1 0 1 0 1 0 1 0 
1 0 1 0 1 0 1 0 1 0 1 0 1 0 1 0 
1 0 1 0 1 0 1 0 1 0 1 0 1 0 1 0 
1 0 1 0 1 0 1 0 1 0 1 0 1 0 1 0 
1 0 1 0 1 0 1 0 1 0 1 0 1 0 1 0 
1 0 1 0 1 0 1 0 1 0 1 0 1 0 1 0 
1 0 1 0 1 0 1 0 1 0 1 0 1 0 1 0 
1 0 1 0 1 0 1 0 1 0 1 0 1 0 1 0 
1 0 1 0 1 0 1 0 1 0 1 0 1 0 1 0 
1 0 1 0 1 0 1013 4286 100 MP stroke
1 0 1 0 1 0 1 0 1 0 1 0 1 0 1 0 
1 0 1 0 1 0 1 0 1 0 1 0 1 0 1 0 
1 0 1 0 1 0 1 0 1 0 1 0 1 0 1 0 
1 0 1 0 1 0 1 0 1 0 1 0 1 0 1 0 
1 0 1 0 1 0 1 0 1 0 1 0 1 0 1 0 
1 0 1 0 1 0 1 0 1 0 1 0 1 0 1 0 
1 0 1 0 1 0 1 0 1 0 1 0 1 0 1 0 
1 0 1 0 1 0 1 0 1 0 1 0 1 0 1 0 
1 0 1 0 1 0 1 0 1 0 1 0 1 0 1 0 
1 0 1 0 1 0 1 0 1 0 1 0 1 0 1 0 
1 0 1 0 1 0 1 0 1 0 1 0 1 0 1 0 
1 0 1 0 1 0 1 0 1 0 1 0 1 0 1 0 
1 0 1 0 1 0 914 4286 100 MP stroke
1 0 1 0 1 0 1 0 1 0 1 0 1 0 1 0 
1 0 1 0 1 0 1 0 1 0 1 0 1 0 899 4286 16 MP stroke
gr

c9
0 sg
3360 4903 mt 
(w \(rads\)) s
 549 2586 mt  -90 rotate
(pdf) s
90 rotate
2985  240 mt 
(f) s
%%IncludeResource: font Helvetica
/Helvetica /ISOLatin1Encoding 96 FMSR

3018  300 mt 
(HWHM) s
%%IncludeResource: font Helvetica
/Helvetica /ISOLatin1Encoding 120 FMSR

3327  240 mt 
( T) s
%%IncludeResource: font Helvetica
/Helvetica /ISOLatin1Encoding 96 FMSR

3427  300 mt 
(symbol) s
%%IncludeResource: font Helvetica
/Helvetica /ISOLatin1Encoding 120 FMSR

3731  240 mt 
( = 0.125) s
 882 4658 mt 
( ) s
6239  431 mt 
( ) s
1 sg
0 395 1305 0 0 -395 4890 844 4 MP
PP
-1305 0 0 395 1305 0 0 -395 4890 844 5 MP stroke
4 w
DO
SO
6 w
0 sg
4890  844 mt 6195  844 L
4890  449 mt 6195  449 L
4890  844 mt 4890  449 L
6195  844 mt 6195  449 L
4890  844 mt 6195  844 L
4890  844 mt 4890  449 L
4890  844 mt 6195  844 L
4890  449 mt 6195  449 L
4890  844 mt 4890  449 L
6195  844 mt 6195  449 L
5346  563 mt 
(p) s
%%IncludeResource: font Helvetica
/Helvetica /ISOLatin1Encoding 96 FMSR

5412  623 mt 
(W mod 2) s
%%IncludeResource: font Symbol
/Symbol /ISOLatin1Encoding 96 FMSR

5796  623 mt 
(p) s
%%IncludeResource: font Helvetica
/Helvetica /ISOLatin1Encoding 120 FMSR

5848  563 mt 
(\(w\)) s
gs 4890 449 1306 396 MR c np
c8
350 0 4960 566 2 MP stroke
gr

c8
0 sg
5346  789 mt 
(q\(w\) \(Auxiliary\)) s
gs 4890 449 1306 396 MR c np
c9
350 0 4960 746 2 MP stroke
gr

c9

end %%Color Dict

eplot
%%EndObject

epage
end

showpage

%%Trailer
%%EOF
