%!PS-Adobe-2.0 EPSF-1.2
%%Creator: MATLAB, The MathWorks, Inc. Version 8.0.0.783 (R2012b). Operating System: Linux 2.6.37.6-0.20-desktop #1 SMP PREEMPT 2011-12-19 23:39:38 +0100 x86_64.
%%Title: ./wrapped_gaussian.eps
%%CreationDate: 11/21/2012  21:14:20
%%DocumentNeededFonts: Helvetica
%%DocumentProcessColors: Cyan Magenta Yellow Black
%%Extensions: CMYK
%%Pages: 1
%%BoundingBox:    52   199   546   607
%%EndComments

%%BeginProlog
% MathWorks dictionary
/MathWorks 160 dict begin
% definition operators
/bdef {bind def} bind def
/ldef {load def} bind def
/xdef {exch def} bdef
/xstore {exch store} bdef
% operator abbreviations
/c  /clip ldef
/cc /concat ldef
/cp /closepath ldef
/gr /grestore ldef
/gs /gsave ldef
/mt /moveto ldef
/np /newpath ldef
/cm /currentmatrix ldef
/sm /setmatrix ldef
/rm /rmoveto ldef
/rl /rlineto ldef
/s {show newpath} bdef
/sc {setcmykcolor} bdef
/sr /setrgbcolor ldef
/sg /setgray ldef
/w /setlinewidth ldef
/j /setlinejoin ldef
/cap /setlinecap ldef
/rc {rectclip} bdef
/rf {rectfill} bdef
% page state control
/pgsv () def
/bpage {/pgsv save def} bdef
/epage {pgsv restore} bdef
/bplot /gsave ldef
/eplot {stroke grestore} bdef
% orientation switch
/portraitMode 0 def /landscapeMode 1 def /rotateMode 2 def
% coordinate system mappings
/dpi2point 0 def
% font control
/FontSize 0 def
/FMS {/FontSize xstore findfont [FontSize 0 0 FontSize neg 0 0]
  makefont setfont} bdef
/reencode {exch dup where {pop load} {pop StandardEncoding} ifelse
  exch dup 3 1 roll findfont dup length dict begin
  { 1 index /FID ne {def}{pop pop} ifelse } forall
  /Encoding exch def currentdict end definefont pop} bdef
/isroman {findfont /CharStrings get /Agrave known} bdef
/FMSR {3 1 roll 1 index dup isroman {reencode} {pop pop} ifelse
  exch FMS} bdef
/csm {1 dpi2point div -1 dpi2point div scale neg translate
 dup landscapeMode eq {pop -90 rotate}
  {rotateMode eq {90 rotate} if} ifelse} bdef
% line types: solid, dotted, dashed, dotdash
/SO { [] 0 setdash } bdef
/DO { [.5 dpi2point mul 4 dpi2point mul] 0 setdash } bdef
/DA { [6 dpi2point mul] 0 setdash } bdef
/DD { [.5 dpi2point mul 4 dpi2point mul 6 dpi2point mul 4
  dpi2point mul] 0 setdash } bdef
% macros for lines and objects
/L {lineto stroke} bdef
/MP {3 1 roll moveto 1 sub {rlineto} repeat} bdef
/AP {{rlineto} repeat} bdef
/PDlw -1 def
/W {/PDlw currentlinewidth def setlinewidth} def
/PP {closepath eofill} bdef
/DP {closepath stroke} bdef
/MR {4 -2 roll moveto dup  0 exch rlineto exch 0 rlineto
  neg 0 exch rlineto closepath} bdef
/FR {MR stroke} bdef
/PR {MR fill} bdef
/L1i {{currentfile picstr readhexstring pop} image} bdef
/tMatrix matrix def
/MakeOval {newpath tMatrix currentmatrix pop translate scale
0 0 1 0 360 arc tMatrix setmatrix} bdef
/FO {MakeOval stroke} bdef
/PO {MakeOval fill} bdef
/PD {currentlinewidth 2 div 0 360 arc fill
   PDlw -1 eq not {PDlw w /PDlw -1 def} if} def
/FA {newpath tMatrix currentmatrix pop translate scale
  0 0 1 5 -2 roll arc tMatrix setmatrix stroke} bdef
/PA {newpath tMatrix currentmatrix pop	translate 0 0 moveto scale
  0 0 1 5 -2 roll arc closepath tMatrix setmatrix fill} bdef
/FAn {newpath tMatrix currentmatrix pop translate scale
  0 0 1 5 -2 roll arcn tMatrix setmatrix stroke} bdef
/PAn {newpath tMatrix currentmatrix pop translate 0 0 moveto scale
  0 0 1 5 -2 roll arcn closepath tMatrix setmatrix fill} bdef
/vradius 0 def /hradius 0 def /lry 0 def
/lrx 0 def /uly 0 def /ulx 0 def /rad 0 def
/MRR {/vradius xdef /hradius xdef /lry xdef /lrx xdef /uly xdef
  /ulx xdef newpath tMatrix currentmatrix pop ulx hradius add uly
  vradius add translate hradius vradius scale 0 0 1 180 270 arc 
  tMatrix setmatrix lrx hradius sub uly vradius add translate
  hradius vradius scale 0 0 1 270 360 arc tMatrix setmatrix
  lrx hradius sub lry vradius sub translate hradius vradius scale
  0 0 1 0 90 arc tMatrix setmatrix ulx hradius add lry vradius sub
  translate hradius vradius scale 0 0 1 90 180 arc tMatrix setmatrix
  closepath} bdef
/FRR {MRR stroke } bdef
/PRR {MRR fill } bdef
/MlrRR {/lry xdef /lrx xdef /uly xdef /ulx xdef /rad lry uly sub 2 div def
  newpath tMatrix currentmatrix pop ulx rad add uly rad add translate
  rad rad scale 0 0 1 90 270 arc tMatrix setmatrix lrx rad sub lry rad
  sub translate rad rad scale 0 0 1 270 90 arc tMatrix setmatrix
  closepath} bdef
/FlrRR {MlrRR stroke } bdef
/PlrRR {MlrRR fill } bdef
/MtbRR {/lry xdef /lrx xdef /uly xdef /ulx xdef /rad lrx ulx sub 2 div def
  newpath tMatrix currentmatrix pop ulx rad add uly rad add translate
  rad rad scale 0 0 1 180 360 arc tMatrix setmatrix lrx rad sub lry rad
  sub translate rad rad scale 0 0 1 0 180 arc tMatrix setmatrix
  closepath} bdef
/FtbRR {MtbRR stroke } bdef
/PtbRR {MtbRR fill } bdef
/stri 6 array def /dtri 6 array def
/smat 6 array def /dmat 6 array def
/tmat1 6 array def /tmat2 6 array def /dif 3 array def
/asub {/ind2 exch def /ind1 exch def dup dup
  ind1 get exch ind2 get sub exch } bdef
/tri_to_matrix {
  2 0 asub 3 1 asub 4 0 asub 5 1 asub
  dup 0 get exch 1 get 7 -1 roll astore } bdef
/compute_transform {
  dmat dtri tri_to_matrix tmat1 invertmatrix 
  smat stri tri_to_matrix tmat2 concatmatrix } bdef
/ds {stri astore pop} bdef
/dt {dtri astore pop} bdef
/db {2 copy /cols xdef /rows xdef mul dup 3 mul string
  currentfile exch readhexstring pop
  dup 0 3 index getinterval /rbmap xdef
  dup 2 index dup getinterval /gbmap xdef
  1 index dup 2 mul exch getinterval /bbmap xdef pop pop}bdef
/it {gs np dtri aload pop moveto lineto lineto cp c
  cols rows 8 compute_transform 
  rbmap gbmap bbmap true 3 colorimage gr}bdef
/il {newpath moveto lineto stroke}bdef
currentdict end def
%%EndProlog

%%BeginSetup
MathWorks begin

0 cap

end
%%EndSetup

%%Page: 1 1
%%BeginPageSetup
%%PageBoundingBox:    52   199   546   607
MathWorks begin
bpage
%%EndPageSetup

%%BeginObject: obj1
bplot

/dpi2point 12 def
portraitMode 0216 7344 csm

  413    56  5932  4899 MR c np
85 dict begin %Colortable dictionary
/c0 { 0.000000 0.000000 0.000000 sr} bdef
/c1 { 1.000000 1.000000 1.000000 sr} bdef
/c2 { 0.900000 0.000000 0.000000 sr} bdef
/c3 { 0.000000 0.820000 0.000000 sr} bdef
/c4 { 0.000000 0.000000 0.800000 sr} bdef
/c5 { 0.910000 0.820000 0.320000 sr} bdef
/c6 { 1.000000 0.260000 0.820000 sr} bdef
/c7 { 0.000000 0.820000 0.820000 sr} bdef
c0
1 j
1 sg
   0    0 6913 5186 PR
6 w
0 4226 5356 0 0 -4226 899 4615 4 MP
PP
-5356 0 0 4226 5356 0 0 -4226 899 4615 5 MP stroke
4 w
DO
SO
6 w
0 sg
 899 4615 mt 6255 4615 L
 899  389 mt 6255  389 L
 899 4615 mt  899  389 L
6255 4615 mt 6255  389 L
 899 4615 mt 6255 4615 L
 899 4615 mt  899  389 L
1019 4615 mt 1019 4561 L
1019  389 mt 1019  442 L
%%IncludeResource: font Helvetica
/Helvetica /ISOLatin1Encoding 120 FMSR

 916 4760 mt 
(-3) s
1872 4615 mt 1872 4561 L
1872  389 mt 1872  442 L
1769 4760 mt 
(-2) s
2724 4615 mt 2724 4561 L
2724  389 mt 2724  442 L
2621 4760 mt 
(-1) s
3577 4615 mt 3577 4561 L
3577  389 mt 3577  442 L
3544 4760 mt 
(0) s
4429 4615 mt 4429 4561 L
4429  389 mt 4429  442 L
4396 4760 mt 
(1) s
5281 4615 mt 5281 4561 L
5281  389 mt 5281  442 L
5248 4760 mt 
(2) s
6134 4615 mt 6134 4561 L
6134  389 mt 6134  442 L
6101 4760 mt 
(3) s
 899 4615 mt  952 4615 L
6255 4615 mt 6201 4615 L
 798 4659 mt 
(0) s
 899 4061 mt  952 4061 L
6255 4061 mt 6201 4061 L
 631 4105 mt 
(0.05) s
 899 3508 mt  952 3508 L
6255 3508 mt 6201 3508 L
 698 3552 mt 
(0.1) s
 899 2955 mt  952 2955 L
6255 2955 mt 6201 2955 L
 631 2999 mt 
(0.15) s
 899 2402 mt  952 2402 L
6255 2402 mt 6201 2402 L
 698 2446 mt 
(0.2) s
 899 1849 mt  952 1849 L
6255 1849 mt 6201 1849 L
 631 1893 mt 
(0.25) s
 899 1295 mt  952 1295 L
6255 1295 mt 6201 1295 L
 698 1339 mt 
(0.3) s
 899  742 mt  952  742 L
6255  742 mt 6201  742 L
 631  786 mt 
(0.35) s
 899 4615 mt 6255 4615 L
 899  389 mt 6255  389 L
 899 4615 mt  899  389 L
6255 4615 mt 6255  389 L
gs 899 389 5357 4227 MR c np
DA
1 0 1 0 1 0 1 1 1 0 1 1 1 0 1 0 
1 1 1 0 1 0 1 1 1 0 1 1 1 0 1 0 
1 1 1 0 1 0 1 1 1 0 1 0 1 1 1 0 
1 0 1 1 1 0 1 1 1 0 1 1 1 0 1 0 
1 1 1 0 1 0 1 1 1 0 1 1 1 0 1 0 
1 1 1 0 1 0 1 1 1 0 1 1 1 0 1 0 
1 1 1 0 1 1 1 0 1 0 1 1 1 0 1 1 
1 0 1 0 1 1 1 0 1 1 1 0 1 0 1 1 
1 0 1 1 1 0 1 0 1 1 1 0 1 1 1 0 
1 0 1 1 1 0 1 1 1 0 1 0 1 1 1 0 
1 1 1 0 1 1 1 0 1 0 1 1 1 0 1 1 
1 0 1 0 1 1 1 0 1 1 1 0 1 1 1 0 
1 1 1 0 1 0 6156 4424 100 MP stroke
1 1 1 0 1 1 1 0 1 0 1 1 1 0 1 1 
1 0 1 1 1 0 1 1 1 0 1 1 1 0 1 0 
1 1 1 0 1 1 1 0 1 1 1 0 1 0 1 1 
1 0 1 1 1 0 1 1 1 0 1 1 1 0 1 1 
1 0 1 1 1 0 1 1 1 0 1 0 1 1 1 0 
1 1 1 0 1 1 1 0 1 1 1 0 1 1 1 0 
1 0 1 1 1 0 1 1 1 0 1 1 1 0 1 1 
1 0 1 1 1 0 1 1 1 0 1 1 1 0 1 1 
1 0 1 1 1 0 1 0 1 1 1 0 1 1 1 0 
1 1 1 0 1 1 1 0 1 1 1 0 1 1 1 0 
1 1 1 0 1 1 1 0 1 1 1 0 1 1 1 0 
1 1 1 0 1 1 1 1 1 0 1 1 1 0 1 1 
1 0 1 1 1 0 6057 4377 100 MP stroke
1 1 1 0 1 1 1 0 1 1 1 0 1 1 1 0 
1 1 1 1 1 0 1 1 1 0 1 1 1 0 1 1 
1 0 1 1 1 0 1 1 1 0 1 1 1 0 1 1 
1 0 1 1 1 0 1 1 1 1 1 0 1 1 1 0 
1 1 1 0 1 1 1 0 1 1 1 0 1 1 1 0 
1 1 1 1 1 0 1 1 1 0 1 1 1 1 1 0 
1 1 1 0 1 1 1 0 1 1 1 0 1 1 1 0 
1 1 1 1 1 0 1 1 1 1 1 0 1 1 1 0 
1 1 1 0 1 1 1 0 1 1 1 1 1 0 1 1 
1 1 1 0 1 1 1 0 1 1 1 0 1 1 1 0 
1 1 1 1 1 0 1 1 1 1 1 0 1 1 1 0 
1 1 1 0 1 1 1 1 1 1 1 0 1 1 1 0 
1 1 1 0 1 1 5958 4321 100 MP stroke
1 1 1 0 1 1 1 1 1 0 1 1 1 0 1 1 
1 1 1 0 1 1 1 0 1 1 1 0 1 1 1 1 
1 1 1 0 1 1 1 0 1 1 1 1 1 0 1 1 
1 1 1 0 1 1 1 0 1 1 1 1 1 1 1 0 
1 1 1 0 1 1 1 1 1 0 1 1 1 1 1 0 
1 1 1 1 1 0 1 1 1 1 1 0 1 1 1 0 
1 1 1 1 1 1 1 0 1 1 1 0 1 1 1 1 
1 1 1 0 1 1 1 1 1 0 1 1 1 1 1 0 
1 1 1 1 1 1 1 0 1 1 1 0 1 1 1 1 
1 1 1 0 1 1 1 1 1 0 1 1 1 1 1 0 
1 1 1 1 1 1 1 0 1 1 1 1 1 0 1 1 
1 0 1 1 1 1 1 1 1 0 1 1 1 1 1 1 
1 0 1 1 1 1 5859 4255 100 MP stroke
1 1 1 0 1 1 1 0 1 1 1 1 1 1 1 0 
1 1 1 1 1 1 1 0 1 1 1 1 1 1 1 0 
1 1 1 1 1 1 1 0 1 1 1 1 1 1 1 0 
1 1 1 1 1 1 1 0 1 1 1 1 1 1 1 0 
1 1 1 1 1 1 1 0 1 1 1 1 1 1 1 0 
1 1 1 1 1 1 1 0 1 1 1 1 1 1 1 1 
1 1 1 0 1 1 1 1 1 1 1 0 1 1 1 1 
1 1 1 0 1 1 1 1 1 1 1 1 1 1 1 0 
1 1 1 1 1 0 1 1 1 1 1 1 1 0 -1 0 
2 2 1 0 1 1 1 1 1 1 1 0 1 1 1 1 
1 1 1 1 1 1 1 0 1 1 1 1 1 1 1 0 
-1 0 2 2 1 0 1 1 1 1 1 1 1 0 -1 0 
2 2 1 0 1 1 5763 4181 100 MP stroke
1 1 1 1 1 0 -1 0 2 2 1 0 1 1 1 1 
1 1 1 0 -1 0 2 2 1 0 1 1 1 1 1 1 
1 1 1 1 1 0 1 1 1 1 1 1 1 1 1 1 
1 0 -1 0 2 2 1 0 1 1 1 1 1 1 1 1 
1 1 1 0 -1 0 2 2 1 0 1 1 1 1 1 1 
1 1 1 1 1 0 -1 0 2 2 1 0 1 1 1 1 
1 1 1 1 1 0 -1 0 2 2 1 0 1 1 1 1 
1 1 1 1 1 1 1 0 -1 0 2 2 1 0 1 1 
1 1 1 1 1 1 1 1 1 1 1 1 1 1 1 1 
1 0 -1 0 2 2 1 0 1 1 1 1 1 1 1 1 
1 1 1 1 1 1 1 1 1 1 1 0 -1 0 2 2 
1 0 -1 0 2 2 1 0 1 1 1 1 1 1 1 1 
1 1 1 1 1 1 5674 4102 100 MP stroke
1 1 1 1 1 1 1 1 1 1 1 1 1 0 -1 0 
2 2 1 0 -1 0 2 2 1 0 -1 0 2 2 1 0 
1 1 1 1 1 1 1 1 1 1 1 1 1 1 1 1 
1 1 1 1 1 1 1 1 1 1 1 1 1 1 1 1 
1 1 1 1 1 1 1 1 1 0 -1 0 2 2 1 0 
-1 0 2 2 1 0 -1 0 2 2 1 0 -1 0 2 2 
1 0 -1 0 2 2 1 0 -1 0 2 2 1 0 -1 0 
2 2 1 0 -1 0 2 2 1 0 -1 0 2 2 1 0 
-1 0 2 2 1 0 -1 0 2 2 1 0 -1 0 2 2 
1 0 -1 0 2 2 1 1 1 1 1 1 1 1 1 1 
1 1 1 1 1 1 1 1 1 1 1 1 1 1 1 1 
1 1 1 1 1 1 1 1 1 1 1 1 0 1 1 1 
1 0 -1 0 2 2 5593 4021 100 MP stroke
1 0 -1 0 2 2 1 1 1 1 1 1 1 1 1 1 
1 1 1 1 1 1 1 1 1 1 1 1 0 1 1 1 
1 0 -1 0 2 2 1 0 -1 0 2 2 1 1 1 1 
1 1 1 1 1 1 1 1 1 1 0 1 1 1 1 0 
1 1 1 1 1 1 0 1 1 1 1 0 -1 0 2 2 
1 1 1 1 1 1 1 1 1 1 1 1 1 1 0 1 
1 1 1 0 -1 0 2 2 1 1 1 1 1 1 1 1 
1 1 0 1 1 1 1 0 -1 0 2 2 1 1 1 1 
1 1 1 1 1 1 0 1 1 1 1 0 -1 0 2 2 
1 1 1 1 1 1 1 1 1 1 0 1 1 1 1 0 
-1 0 2 2 1 1 1 1 1 1 1 1 1 1 0 1 
1 1 1 1 1 1 1 1 1 1 1 1 0 1 1 1 
1 0 -1 0 2 2 5512 3932 100 MP stroke
1 1 1 1 1 1 0 1 1 1 1 0 -1 0 2 2 
1 1 1 1 1 1 0 1 1 1 1 0 -1 0 2 2 
1 1 1 1 1 1 0 1 1 1 1 1 1 1 1 1 
0 1 1 1 1 0 -1 0 2 2 1 1 1 1 1 1 
1 1 1 1 1 1 0 1 1 1 1 1 1 1 1 1 
0 1 1 1 1 1 1 1 1 1 0 1 1 1 1 0 
-1 0 2 2 1 1 1 1 1 1 0 1 1 1 1 1 
1 1 1 1 0 1 1 1 1 1 1 1 1 1 0 1 
1 1 1 0 -1 0 2 2 1 1 0 1 1 1 1 0 
-1 0 2 2 1 1 0 1 1 1 1 0 -1 0 2 2 
1 1 0 1 1 1 1 0 -1 0 2 2 1 1 0 1 
1 1 1 0 -1 0 2 2 1 1 0 1 1 1 1 0 
-1 0 2 2 1 1 5438 3843 100 MP stroke
0 1 1 1 1 0 -1 0 2 2 1 1 0 1 1 1 
1 1 1 1 1 1 0 1 1 1 1 1 1 1 1 1 
0 1 1 1 1 1 0 1 1 1 1 0 -1 0 2 2 
1 1 0 1 1 1 1 1 1 1 1 1 0 1 1 1 
1 1 1 1 1 1 1 1 0 1 1 1 1 1 0 1 
1 1 1 0 -1 0 2 2 1 1 0 1 1 1 1 1 
1 1 1 1 0 1 1 1 1 1 0 1 1 1 1 1 
1 1 1 1 0 1 1 1 1 1 0 1 1 1 1 0 
-1 0 2 2 1 1 0 1 1 1 1 1 0 1 1 1 
1 0 -1 0 2 2 1 1 0 1 1 1 1 1 0 1 
1 1 1 0 -1 0 2 2 1 1 0 1 1 1 1 1 
0 1 1 1 1 1 1 1 1 1 0 1 1 1 1 1 
0 1 1 1 1 1 5367 3750 100 MP stroke
0 1 1 1 1 0 -1 0 2 2 1 1 0 1 1 1 
1 1 0 1 1 1 1 1 0 1 1 1 1 0 -1 0 
2 2 1 1 0 1 1 1 1 1 0 1 1 1 1 1 
0 1 1 1 1 0 -1 0 2 2 1 1 0 1 1 1 
1 1 0 1 1 1 1 1 0 1 1 1 1 1 1 1 
1 1 0 1 1 1 1 1 0 1 1 1 1 1 1 1 
0 1 1 1 1 1 0 1 1 1 1 1 1 1 1 1 
0 1 1 1 1 1 0 1 1 1 1 1 0 1 1 1 
1 1 0 1 1 1 1 1 0 1 1 1 1 1 0 1 
1 1 1 1 1 1 1 1 0 1 1 1 1 1 0 1 
1 1 1 1 0 1 1 1 1 1 0 1 1 1 1 1 
0 1 1 1 1 1 0 1 1 1 1 1 0 1 1 1 
1 1 0 1 1 1 5299 3654 100 MP stroke
1 1 1 1 1 1 0 1 1 1 1 1 0 1 1 1 
1 1 0 1 1 1 1 1 0 1 1 1 1 1 0 1 
1 1 1 1 0 1 1 1 1 1 0 1 1 1 1 1 
0 1 1 1 1 1 0 1 1 1 1 1 0 1 1 1 
1 1 0 1 1 1 1 1 0 1 1 1 1 1 0 1 
1 1 1 1 0 1 1 1 1 1 0 1 1 1 1 1 
0 1 1 1 1 1 0 1 1 1 1 1 0 1 1 1 
1 1 1 1 0 1 1 1 1 1 0 1 1 1 1 1 
0 1 1 1 1 1 0 1 1 1 1 1 0 1 1 1 
1 1 0 1 1 1 1 1 0 1 1 1 1 1 0 1 
1 1 1 1 0 1 1 1 1 1 0 1 1 1 1 1 
0 1 1 1 1 1 0 1 1 1 1 1 0 1 1 1 
1 1 0 1 1 2 5232 3554 100 MP stroke
1 1 0 1 1 1 1 1 0 1 1 1 1 1 0 1 
1 1 1 1 0 1 1 1 1 1 0 1 1 1 1 1 
0 1 1 1 1 1 0 1 1 1 1 1 0 1 1 1 
1 1 0 1 1 2 1 1 0 1 1 1 1 1 0 1 
1 1 1 1 0 1 1 1 1 1 0 1 1 1 1 1 
0 1 1 1 1 1 0 1 1 1 1 1 0 2 1 1 
1 1 0 1 1 1 1 1 0 1 1 1 1 1 0 1 
1 1 1 1 0 1 1 1 1 1 0 1 1 2 1 1 
0 1 1 1 1 1 0 1 1 1 1 1 0 1 1 1 
1 1 1 1 0 1 1 1 1 2 0 1 1 1 1 1 
0 1 1 1 1 1 0 1 1 1 1 1 0 1 1 1 
1 1 0 2 1 1 1 1 0 1 1 1 1 1 0 1 
1 1 1 1 0 1 5166 3450 100 MP stroke
1 1 1 1 0 2 1 1 1 1 0 1 1 1 1 1 
0 1 1 1 1 1 0 1 1 1 1 2 0 1 1 1 
1 1 0 1 1 1 1 1 0 1 1 1 1 1 0 1 
1 2 1 1 0 1 1 1 1 1 0 1 1 1 1 1 
0 1 1 1 1 2 0 1 1 1 1 1 0 1 1 1 
1 1 0 1 1 1 1 2 0 1 1 1 1 1 0 1 
1 1 1 1 0 1 1 1 1 2 0 1 1 1 1 1 
0 1 1 1 1 1 0 1 1 2 1 1 0 1 1 1 
1 1 0 1 1 1 1 1 0 1 1 2 1 1 0 1 
1 1 1 1 0 1 1 1 1 1 0 2 1 1 1 1 
0 1 1 1 1 1 0 1 1 2 1 1 0 1 1 1 
1 1 1 1 0 1 1 1 1 2 0 1 1 1 1 1 
0 1 1 1 1 1 5099 3340 100 MP stroke
0 2 1 1 1 1 0 1 1 1 1 1 0 1 1 2 
1 1 0 1 1 1 1 1 0 1 1 1 1 2 0 1 
1 1 1 1 0 1 1 1 1 1 0 2 1 1 1 1 
0 1 1 1 1 1 0 2 1 1 1 1 0 1 1 1 
1 1 0 1 1 2 1 1 0 1 1 1 1 1 0 1 
1 2 1 1 0 1 1 1 1 1 0 1 1 2 1 1 
0 1 1 1 1 1 0 1 1 2 1 1 0 1 1 1 
1 1 0 1 1 2 1 1 0 1 1 1 1 1 0 1 
1 2 1 1 0 1 1 1 1 1 0 1 1 2 1 1 
0 1 1 1 1 1 0 1 1 2 1 1 0 1 1 1 
1 1 0 2 1 1 1 1 0 1 1 1 1 1 0 2 
1 1 1 1 0 1 1 1 1 2 0 1 1 1 1 1 
0 1 1 1 1 2 5033 3224 100 MP stroke
0 1 1 1 1 1 0 1 1 2 1 1 1 1 0 1 
1 1 1 2 0 1 1 1 1 1 0 1 1 2 1 1 
0 1 1 1 1 1 0 2 1 1 1 1 0 1 1 1 
1 1 0 2 1 1 1 1 0 1 1 1 1 2 0 1 
1 1 1 1 0 2 1 1 1 1 0 1 1 1 1 2 
0 1 1 1 1 1 0 1 1 2 1 1 0 1 1 1 
1 1 0 2 1 1 1 1 0 1 1 1 1 2 0 1 
1 1 1 1 0 2 1 1 1 1 0 1 1 1 1 2 
0 1 1 1 1 1 0 1 1 2 1 1 0 1 1 1 
1 2 0 1 1 1 1 1 0 1 1 2 1 1 0 1 
1 1 1 2 0 1 1 1 1 1 0 1 1 2 1 1 
0 1 1 1 1 2 0 1 1 1 1 1 0 2 1 1 
1 1 0 1 1 1 4967 3105 100 MP stroke
1 2 0 1 1 1 1 1 0 2 1 1 1 1 0 1 
1 2 1 1 0 1 1 1 1 2 0 1 1 1 1 1 
0 1 1 2 1 1 1 1 0 1 1 2 1 1 0 1 
1 1 1 2 0 1 1 1 1 1 0 2 1 1 1 1 
0 1 1 2 1 1 0 1 1 1 1 2 0 1 1 1 
1 1 0 2 1 1 1 1 0 1 1 2 1 1 0 1 
1 1 1 2 0 1 1 1 1 1 0 2 1 1 1 1 
0 1 1 2 1 1 0 1 1 1 1 2 0 1 1 1 
1 1 0 2 1 1 1 1 0 1 1 2 1 1 0 1 
1 1 1 2 0 1 1 1 1 1 0 2 1 1 1 1 
0 2 1 1 1 1 0 1 1 2 1 1 0 1 1 1 
1 2 0 1 1 1 1 1 0 2 1 1 1 1 0 1 
1 2 1 1 0 1 4901 2981 100 MP stroke
1 2 1 1 0 1 1 1 1 2 0 1 1 1 1 1 
0 2 1 1 1 1 0 2 1 1 1 1 0 1 1 2 
1 1 0 1 1 1 1 2 0 1 1 1 1 2 0 1 
1 1 1 1 0 2 1 1 1 1 0 2 1 1 1 1 
0 1 1 2 1 1 1 1 0 1 1 2 1 1 0 1 
1 2 1 1 0 1 1 1 1 2 0 1 1 1 1 2 
0 1 1 1 1 1 0 2 1 1 1 1 0 2 1 1 
1 1 0 1 1 2 1 1 0 1 1 2 1 1 0 1 
1 1 1 2 0 1 1 1 1 2 0 1 1 1 1 2 
0 1 1 1 1 1 0 2 1 1 1 1 0 2 1 1 
1 1 0 1 1 2 1 1 0 1 1 2 1 1 0 1 
1 2 1 1 0 1 1 1 1 2 0 1 1 1 1 2 
0 1 1 1 1 2 4834 2853 100 MP stroke
0 1 1 1 1 1 0 2 1 1 1 1 0 2 1 1 
1 1 0 2 1 1 1 1 0 1 1 2 1 1 0 1 
1 2 1 1 0 1 1 2 1 1 0 1 1 1 1 2 
0 1 1 1 1 2 0 1 1 1 1 2 0 1 1 1 
1 2 0 1 1 1 1 1 0 2 1 1 1 1 0 2 
1 1 1 1 0 2 1 1 1 1 0 2 1 1 1 1 
0 1 1 2 1 1 1 1 0 2 1 1 1 1 0 2 
1 1 1 1 0 2 1 1 1 1 0 2 1 1 1 1 
0 1 1 2 1 1 0 1 1 2 1 1 0 1 1 2 
1 1 0 1 1 2 1 1 0 1 1 2 1 1 0 1 
1 2 1 1 0 1 1 2 1 1 0 1 1 1 1 2 
0 1 1 1 1 2 0 1 1 1 1 2 0 1 1 1 
1 2 0 1 1 1 4768 2724 100 MP stroke
1 2 0 1 1 1 1 2 0 1 1 1 1 2 0 1 
1 1 1 2 0 1 1 1 1 2 0 1 1 1 1 1 
0 2 1 1 1 1 0 2 1 1 1 1 0 2 1 1 
1 1 0 2 1 1 1 1 0 2 1 1 1 1 0 2 
1 1 1 1 0 2 1 1 1 1 0 2 1 1 1 1 
0 2 1 1 1 1 0 2 1 1 1 1 0 2 1 1 
1 1 0 2 1 1 1 1 0 2 1 1 1 1 0 2 
1 1 1 1 0 2 1 1 1 1 0 2 1 1 1 1 
0 2 1 1 1 1 1 2 0 1 1 1 1 2 0 1 
1 1 1 2 0 1 1 1 1 2 0 1 1 1 1 2 
0 1 1 1 1 2 0 1 1 1 1 2 0 1 1 1 
1 2 0 1 1 1 1 2 0 1 1 1 1 2 0 1 
1 1 1 2 0 1 4702 2592 100 MP stroke
1 1 1 2 0 1 1 1 1 2 0 1 1 1 1 2 
0 1 1 1 1 2 0 1 1 1 1 2 0 1 1 1 
1 2 0 1 1 1 1 2 0 1 1 1 1 2 0 1 
1 1 1 2 0 1 1 1 1 2 0 1 1 1 1 2 
0 1 1 1 1 2 0 1 1 1 1 2 0 1 1 1 
1 2 0 1 1 1 1 2 0 1 1 1 1 2 0 1 
1 1 1 2 0 1 1 1 1 2 0 1 1 1 1 2 
0 1 1 1 1 2 0 1 1 1 1 2 0 1 1 1 
1 2 0 1 1 1 1 2 0 1 1 1 1 2 0 1 
1 2 1 1 0 1 1 2 1 1 0 1 1 2 1 1 
1 1 0 2 1 1 1 1 0 2 1 1 1 1 0 2 
1 1 1 1 0 2 1 1 1 1 0 2 1 1 1 1 
0 2 1 1 1 1 4635 2460 100 MP stroke
0 2 1 1 1 1 0 2 1 1 1 1 0 2 1 1 
1 1 0 2 1 1 1 1 0 2 1 1 1 1 0 2 
1 1 1 1 0 2 1 1 1 1 0 2 1 1 1 1 
0 2 1 1 1 1 0 2 1 1 1 1 0 2 1 1 
1 1 0 2 1 1 1 1 0 2 1 1 1 2 0 1 
1 1 1 2 0 1 1 1 1 2 0 1 1 1 1 2 
0 1 1 1 1 2 0 1 1 1 1 2 0 1 1 1 
1 2 0 1 1 1 1 2 0 1 1 1 1 2 0 1 
1 1 1 2 0 1 1 1 1 2 0 1 1 1 1 2 
0 1 1 1 1 2 0 1 1 1 1 2 0 1 1 1 
1 2 0 1 1 1 1 2 0 1 1 1 1 2 0 1 
1 1 1 2 0 1 1 1 1 2 0 1 1 1 1 2 
1 1 0 1 1 2 4569 2327 100 MP stroke
1 1 0 1 1 2 1 1 0 1 1 2 1 1 0 1 
1 2 1 1 0 1 1 2 1 1 0 1 1 2 1 1 
0 1 1 2 1 1 0 1 1 2 1 1 0 1 1 2 
1 1 0 1 1 2 1 1 0 1 1 1 1 2 0 1 
1 1 1 2 0 1 1 1 1 2 0 1 1 1 1 2 
0 1 1 1 1 2 0 1 1 1 1 2 0 1 1 1 
1 2 0 1 1 1 1 2 0 1 1 1 1 2 0 1 
1 1 1 2 0 1 1 1 1 2 0 1 1 1 1 2 
0 1 1 1 1 1 0 2 1 1 1 1 0 2 1 1 
1 1 0 2 1 1 1 1 0 2 1 1 1 1 0 2 
1 1 1 1 0 2 1 1 1 1 0 2 1 1 1 1 
0 2 1 1 1 1 0 1 1 2 1 1 0 1 1 2 
1 1 0 1 1 2 4503 2196 100 MP stroke
1 1 0 1 1 2 1 1 0 1 1 2 1 1 0 1 
1 1 1 2 0 1 1 1 1 2 1 1 0 1 1 2 
1 1 0 1 1 2 1 1 0 1 1 2 1 1 0 1 
1 1 1 2 0 1 1 1 1 2 0 1 1 1 1 2 
0 1 1 1 1 1 0 2 1 1 1 1 0 2 1 1 
1 1 0 2 1 1 1 1 0 2 1 1 1 1 0 1 
1 2 1 1 0 1 1 2 1 1 0 1 1 2 1 1 
0 1 1 1 1 2 0 1 1 1 1 2 0 1 1 1 
1 2 0 1 1 1 1 1 0 2 1 1 1 1 0 2 
1 1 1 1 0 1 1 2 1 1 0 1 1 2 1 1 
0 1 1 2 1 1 0 1 1 1 1 2 0 1 1 1 
1 2 0 1 1 1 1 1 0 2 1 1 1 1 0 2 
1 1 1 1 0 1 4437 2068 100 MP stroke
1 2 1 1 0 1 1 2 1 1 0 1 1 1 1 2 
0 1 1 1 1 2 0 1 1 1 1 1 0 2 1 1 
1 1 0 1 1 2 1 1 0 1 1 2 1 1 0 1 
1 1 1 2 0 1 1 1 1 2 1 1 0 1 1 1 
1 2 0 1 1 1 1 1 0 2 1 1 1 1 0 2 
1 1 1 1 0 1 1 2 1 1 0 1 1 1 1 2 
0 1 1 1 1 1 0 2 1 1 1 1 0 2 1 1 
1 1 0 1 1 2 1 1 0 1 1 1 1 2 0 1 
1 1 1 1 0 2 1 1 1 1 0 1 1 2 1 1 
0 1 1 1 1 2 0 1 1 1 1 1 0 2 1 1 
1 1 0 1 1 2 1 1 0 1 1 1 1 2 0 1 
1 1 1 1 0 2 1 1 1 1 0 1 1 2 1 1 
0 1 1 1 1 2 4370 1942 100 MP stroke
0 1 1 1 1 1 0 2 1 1 1 1 0 1 1 2 
1 1 0 1 1 1 1 2 0 1 1 1 1 1 0 2 
1 1 1 1 0 1 1 2 1 1 0 1 1 1 1 1 
0 2 1 1 1 1 0 1 1 2 1 1 0 1 1 1 
1 2 0 1 1 1 1 1 0 1 1 2 1 1 0 1 
1 1 1 2 1 1 0 1 1 1 1 1 0 2 1 1 
1 1 0 1 1 2 1 1 0 1 1 1 1 1 0 2 
1 1 1 1 0 1 1 1 1 2 0 1 1 1 1 1 
0 2 1 1 1 1 0 1 1 1 1 2 0 1 1 1 
1 1 0 1 1 2 1 1 0 1 1 1 1 1 0 2 
1 1 1 1 0 1 1 1 1 2 0 1 1 1 1 1 
0 1 1 2 1 1 0 1 1 1 1 1 0 2 1 1 
1 1 0 1 1 1 4304 1822 100 MP stroke
1 2 0 1 1 1 1 1 0 1 1 2 1 1 0 1 
1 1 1 1 0 1 1 2 1 1 0 1 1 1 1 1 
0 2 1 1 1 1 0 1 1 1 1 1 0 2 1 1 
1 1 0 1 1 1 1 2 0 1 1 1 1 1 0 1 
1 1 1 2 0 1 1 1 1 1 0 1 1 1 1 2 
0 1 1 1 1 1 0 1 1 1 1 2 0 1 1 1 
1 1 0 1 1 1 1 2 0 1 1 1 1 1 0 1 
1 1 1 2 1 1 0 1 1 1 1 1 0 1 1 1 
1 2 0 1 1 1 1 1 0 1 1 1 1 1 0 2 
1 1 1 1 0 1 1 1 1 1 0 1 1 2 1 1 
0 1 1 1 1 1 0 1 1 1 1 2 0 1 1 1 
1 1 0 1 1 1 1 1 0 2 1 1 1 1 0 1 
1 1 1 1 0 1 4238 1707 100 MP stroke
1 1 1 2 0 1 1 1 1 1 0 1 1 1 1 1 
0 1 1 2 1 1 0 1 1 1 1 1 0 1 1 1 
1 1 0 2 1 1 1 1 0 1 1 1 1 1 0 1 
1 1 1 1 0 2 1 1 1 1 0 1 1 1 1 1 
0 1 1 1 1 1 0 1 1 2 1 1 0 1 1 1 
1 1 0 1 1 1 1 1 0 1 1 1 1 2 0 1 
1 1 1 1 0 1 1 1 1 1 0 1 1 1 1 1 
0 1 1 2 1 1 0 1 1 1 1 1 0 1 1 1 
1 1 0 1 1 1 1 1 0 1 1 1 1 2 0 1 
1 1 1 1 1 1 0 1 1 1 1 1 0 1 1 1 
1 1 0 1 1 1 1 1 0 2 1 1 1 1 0 1 
1 1 1 1 0 1 1 1 1 1 0 1 1 1 1 1 
0 1 1 1 1 1 4171 1599 100 MP stroke
0 1 1 1 1 2 0 1 1 1 1 1 0 1 1 1 
1 1 0 1 1 1 1 1 0 1 1 1 1 1 0 1 
1 1 1 1 0 1 1 1 1 1 0 1 1 1 1 1 
0 1 1 1 1 1 0 2 1 1 1 1 0 1 1 1 
1 1 0 1 1 1 1 1 0 1 1 1 1 1 0 1 
1 1 1 1 0 1 1 1 1 1 0 1 1 1 1 1 
0 1 1 1 1 1 0 1 1 1 1 1 0 1 1 1 
1 1 0 1 1 1 1 1 0 1 1 1 1 1 0 1 
1 1 1 1 0 1 1 1 1 1 0 1 1 1 1 1 
0 1 1 1 1 1 0 1 1 1 1 1 0 1 1 1 
1 1 0 1 1 1 1 1 0 1 1 1 1 1 0 1 
1 1 1 1 1 1 0 1 1 1 1 1 1 1 1 1 
0 1 1 1 1 1 4104 1498 100 MP stroke
0 1 1 1 1 1 0 1 1 1 1 1 0 1 1 1 
1 1 0 1 1 1 1 1 0 1 1 1 1 1 0 1 
1 1 1 1 1 1 1 1 0 1 1 1 1 1 0 1 
1 1 1 1 0 1 1 1 1 1 0 1 1 1 1 1 
0 1 1 1 1 0 -1 0 2 2 1 1 0 1 1 1 
1 1 0 1 1 1 1 1 0 1 1 1 1 1 1 1 
1 1 0 1 1 1 1 1 0 1 1 1 1 1 0 1 
1 1 1 1 1 1 1 1 0 1 1 1 1 1 0 1 
1 1 1 1 1 1 1 1 0 1 1 1 1 1 0 1 
1 1 1 1 0 1 1 1 1 0 -1 0 2 2 1 1 
0 1 1 1 1 1 1 1 1 1 0 1 1 1 1 1 
0 1 1 1 1 1 1 1 1 1 0 1 1 1 1 1 
1 1 1 1 1 1 4033 1401 100 MP stroke
0 1 1 1 1 1 0 1 1 1 1 0 -1 0 2 2 
1 1 0 1 1 1 1 1 1 1 1 1 0 1 1 1 
1 1 1 1 1 1 0 1 1 1 1 1 1 1 1 1 
0 1 1 1 1 1 1 1 1 1 0 1 1 1 1 1 
1 1 1 1 0 1 1 1 1 1 1 1 1 1 0 1 
1 1 1 0 -1 0 2 2 1 1 1 1 1 1 0 1 
1 1 1 1 1 1 1 1 0 1 1 1 1 0 -1 0 
2 2 1 1 1 1 1 1 0 1 1 1 1 1 1 1 
1 1 1 1 1 1 0 1 1 1 1 1 1 1 1 1 
1 1 1 1 0 1 1 1 1 1 1 1 1 1 1 1 
1 1 0 1 1 1 1 0 -1 0 2 2 1 1 1 1 
1 1 1 1 1 1 0 1 1 1 1 0 1 1 0 1 
1 1 1 0 -1 0 3957 1309 100 MP stroke
2 2 1 0 -1 0 2 2 1 1 1 1 1 1 1 1 
1 1 1 1 1 1 0 1 1 1 1 0 -1 0 2 2 
1 1 1 1 1 1 1 1 1 1 1 1 1 1 1 1 
1 1 1 1 1 1 1 1 1 1 0 1 1 1 1 0 
-1 0 2 2 1 0 -1 0 2 2 1 0 -1 0 2 2 
1 0 -1 0 2 2 1 0 -1 0 2 2 1 0 -1 0 
2 2 1 0 -1 0 2 2 1 0 -1 0 2 2 1 0 
-1 0 2 2 1 0 -1 0 2 2 1 0 -1 0 2 2 
1 0 -1 0 2 2 1 0 -1 0 2 2 1 0 1 1 
1 1 1 1 1 1 1 1 1 1 1 1 1 1 1 1 
1 1 1 1 1 1 1 1 1 0 -1 0 2 2 1 0 
1 1 1 1 1 1 1 1 1 1 1 1 1 0 -1 0 
2 2 1 0 1 1 3876 1229 100 MP stroke
1 1 1 1 1 1 1 1 1 0 -1 0 2 2 1 0 
1 1 1 1 1 1 1 1 1 1 1 0 -1 0 2 2 
1 0 1 1 1 1 1 1 1 1 1 1 1 0 1 1 
1 1 1 1 1 1 1 1 1 0 1 1 1 1 1 1 
1 0 1 1 1 1 1 1 1 1 1 1 1 0 1 1 
1 1 1 1 1 0 1 1 1 1 1 1 1 0 1 1 
1 1 1 1 1 0 1 1 1 1 1 1 1 0 1 1 
1 1 1 1 1 0 1 1 1 1 1 1 1 0 1 1 
1 1 1 1 1 0 1 1 1 1 1 1 1 0 1 1 
1 0 1 1 1 1 1 0 1 1 1 1 1 1 1 0 
1 1 1 0 1 1 1 1 1 0 1 1 1 1 1 0 
1 1 1 1 1 0 1 1 1 1 1 0 1 1 1 0 
1 1 1 1 1 0 3779 1156 100 MP stroke
1 1 1 1 1 0 1 1 1 0 1 1 1 0 1 1 
1 1 1 0 1 1 1 1 1 0 1 1 1 0 1 1 
1 0 1 1 1 0 1 1 1 1 1 0 1 1 1 0 
1 1 1 0 1 1 1 1 1 0 1 1 1 0 1 1 
1 0 1 1 1 0 1 1 1 0 1 1 1 0 1 1 
1 0 1 1 1 0 1 1 1 0 1 1 1 0 1 1 
1 0 1 0 1 1 1 0 1 1 1 0 1 1 1 0 
1 1 1 0 1 0 1 1 1 0 1 1 1 0 1 0 
1 1 1 0 1 1 1 0 1 1 1 0 1 1 1 0 
1 0 1 1 1 0 1 0 1 1 1 0 1 1 1 0 
1 0 1 1 1 0 1 0 1 1 1 0 1 1 1 0 
1 0 1 1 1 0 1 0 1 1 1 0 1 0 1 1 
1 0 1 0 1 1 3680 1109 100 MP stroke
1 0 1 0 1 1 1 0 1 0 1 1 1 0 1 0 
1 0 1 1 1 0 1 0 1 0 1 1 1 0 1 0 
1 1 1 0 1 0 1 0 1 1 1 0 1 0 1 0 
1 1 1 0 1 0 1 0 1 1 1 0 1 0 1 0 
1 0 1 1 1 0 1 0 1 0 1 0 1 1 1 0 
1 0 1 0 1 0 1 1 1 0 1 0 1 0 1 0 
1 1 1 0 1 0 1 0 1 0 1 0 1 1 1 0 
1 0 1 0 1 0 1 0 1 0 1 0 1 1 1 0 
1 0 1 0 1 0 1 0 1 0 1 0 1 1 1 0 
1 0 1 0 1 0 1 0 1 0 1 0 1 0 1 0 
1 0 1 0 1 0 1 1 1 0 1 0 1 0 1 0 
1 0 1 0 1 0 1 0 1 0 1 0 1 0 1 0 
1 0 1 0 1 0 3581 1093 100 MP stroke
1 0 1 0 1 0 1 0 1 0 1 0 1 0 1 0 
1 0 1 0 1 0 1 0 1 0 1 0 1 0 1 0 
1 0 1 0 1 0 1 0 1 0 1 0 1 0 1 0 
1 -1 1 0 1 0 1 0 1 0 1 0 1 0 1 0 
1 0 1 0 1 0 1 0 1 0 1 -1 1 0 1 0 
1 0 1 0 1 0 1 0 1 0 1 0 1 -1 1 0 
1 0 1 0 1 0 1 0 1 0 1 -1 1 0 1 0 
1 0 1 0 1 0 1 -1 1 0 1 0 1 0 1 0 
1 -1 1 0 1 0 1 0 1 0 1 0 1 -1 1 0 
1 0 1 0 1 -1 1 0 1 0 1 0 1 0 1 -1 
1 0 1 0 1 0 1 -1 1 0 1 0 1 0 1 -1 
1 0 1 0 1 0 1 -1 1 0 1 0 1 0 1 -1 
1 0 1 0 1 0 3482 1106 100 MP stroke
1 -1 1 0 1 0 1 -1 1 0 1 0 1 -1 1 0 
1 0 1 -1 1 0 1 0 1 -1 1 0 1 0 1 -1 
1 0 1 0 1 -1 1 0 1 0 1 -1 1 0 1 0 
1 -1 1 0 1 -1 1 0 1 0 1 -1 1 0 1 0 
1 -1 1 0 1 -1 1 0 1 0 1 -1 1 0 1 -1 
1 0 1 0 1 -1 1 0 1 -1 1 0 1 -1 1 0 
1 -1 1 0 1 0 1 -1 1 0 1 -1 1 0 1 -1 
1 0 1 0 1 -1 1 0 1 -1 1 0 1 -1 1 0 
1 -1 1 0 1 -1 1 0 1 -1 1 0 1 -1 1 0 
1 -1 1 0 1 -1 1 0 1 -1 1 0 1 -1 1 0 
1 -1 1 -1 1 0 1 -1 1 0 1 -1 1 0 1 -1 
1 0 1 -1 1 0 1 -1 1 0 1 -1 1 -1 1 0 
1 -1 1 -1 1 0 3383 1150 100 MP stroke
1 -1 1 0 1 -1 1 0 1 -1 1 -1 1 0 1 -1 
1 -1 1 0 1 -1 1 0 1 -1 1 0 1 -1 1 -1 
1 -1 1 0 1 -1 1 0 1 -1 1 -1 1 -1 1 0 
1 -1 1 0 1 -1 1 -1 1 0 1 -1 1 -1 1 0 
1 -1 1 -1 1 -1 1 0 1 -1 1 0 1 -1 1 -1 
1 0 1 -1 1 -1 1 -1 1 0 1 -1 1 -1 1 -1 
1 0 1 -1 1 -1 1 -1 1 0 1 -1 1 -1 1 -1 
1 0 1 -1 1 -1 1 -1 1 0 1 -1 1 -1 1 -1 
1 0 1 -1 1 -1 1 -1 1 0 1 -1 1 -1 1 -1 
1 0 -1 0 2 -2 1 0 1 -1 1 -1 1 -1 1 0 
1 -1 1 -1 1 -1 1 -1 1 -1 1 0 1 -1 1 -1 
1 -1 1 -1 1 -1 1 0 1 -1 1 -1 1 -1 1 -1 
1 -1 1 0 -1 0 3287 1220 100 MP stroke
2 -2 1 0 1 -1 1 -1 1 -1 1 -1 1 -1 1 0 
-1 0 2 -2 1 0 1 -1 1 -1 1 -1 1 -1 1 -1 
1 -1 1 0 -1 0 2 -2 1 0 1 -1 1 -1 1 -1 
1 -1 1 -1 1 -1 1 -1 1 -1 1 -1 1 0 -1 0 
2 -2 1 0 -1 0 2 -2 1 0 -1 0 2 -2 1 0 
1 -1 1 -1 1 -1 1 -1 1 -1 1 -1 1 -1 1 -1 
1 -1 1 -1 1 -1 1 -1 1 -1 1 -1 1 -1 1 -1 
1 -1 1 -1 1 -1 1 -1 1 -1 1 -1 1 -1 1 -1 
1 -1 1 -1 1 -1 1 -1 0 -1 1 -1 1 0 -1 0 
2 -2 1 0 -1 0 2 -2 1 0 -1 0 2 -2 1 -1 
1 -1 1 -1 1 -1 1 -1 1 -1 1 -1 1 -1 1 -1 
0 -1 1 -1 1 0 -1 0 2 -2 1 0 -1 0 2 -2 
1 -1 1 -1 1 -1 3199 1306 100 MP stroke
1 -1 1 -1 1 -1 1 -1 0 -1 1 -1 1 0 1 -1 
0 -1 1 -1 1 0 -1 0 2 -2 1 -1 1 -1 1 -1 
1 -1 1 -1 0 -1 1 -1 1 0 -1 0 2 -2 1 -1 
1 -1 1 -1 0 -1 1 -1 1 0 -1 0 2 -2 1 -1 
1 -1 1 -1 0 -1 1 -1 1 0 -1 0 2 -2 1 -1 
1 -1 1 -1 0 -1 1 -1 1 0 -1 0 2 -2 1 -1 
1 -1 1 -1 0 -1 1 -1 1 -1 1 -1 1 -1 0 -1 
1 -1 1 0 -1 0 2 -2 1 -1 1 -1 1 -1 0 -1 
1 -1 1 -1 1 -1 1 -1 0 -1 1 -1 1 -1 1 -1 
1 -1 0 -1 1 -1 1 -1 1 -1 1 -1 0 -1 1 -1 
1 -1 1 -1 1 -1 0 -1 1 -1 1 -1 1 -1 1 -1 
0 -1 1 -1 1 -1 1 -1 1 -1 0 -1 1 -1 1 -1 
1 -1 1 -1 0 -1 3122 1398 100 MP stroke
1 -1 1 -1 0 -1 1 -1 1 0 -1 0 2 -2 1 -1 
1 -1 0 -1 1 -1 1 -1 1 -1 1 -1 0 -1 1 -1 
1 -1 0 -1 1 -1 1 0 -1 0 2 -2 1 -1 0 -1 
1 -1 1 -1 1 -1 1 -1 0 -1 1 -1 1 -1 0 -1 
1 -1 1 -1 0 -1 1 -1 1 0 -1 0 2 -2 1 -1 
0 -1 1 -1 1 -1 0 -1 1 -1 1 -1 1 -1 1 -1 
0 -1 1 -1 1 -1 0 -1 1 -1 1 -1 0 -1 1 -1 
1 0 -1 0 2 -2 1 -1 0 -1 1 -1 1 -1 0 -1 
1 -1 1 -1 0 -1 1 -1 1 -1 1 -1 1 -1 0 -1 
1 -1 1 -1 0 -1 1 -1 1 -1 0 -1 1 -1 1 -1 
0 -1 1 -1 1 -1 0 -1 1 -1 1 0 -1 0 2 -2 
1 -1 0 -1 1 -1 1 -1 0 -1 1 -1 1 -1 0 -1 
1 -1 1 -1 0 -1 3053 1492 100 MP stroke
1 -1 1 -1 0 -1 1 -1 1 -1 0 -1 1 -1 1 -1 
0 -1 1 -1 1 0 -1 0 2 -2 1 -1 0 -1 1 -1 
1 -1 1 -1 0 -1 1 -1 1 -1 0 -1 1 -1 1 -1 
0 -1 1 -1 1 -1 0 -1 1 -1 1 -1 0 -1 1 -1 
1 -1 0 -1 1 -1 1 -1 0 -1 1 -1 1 -1 0 -1 
1 -1 1 -1 0 -1 1 -1 1 -1 0 -1 1 -1 1 -1 
0 -1 1 -1 1 -1 0 -1 1 -1 1 -1 0 -1 1 -1 
1 -1 0 -1 1 -1 1 -1 0 -1 1 -1 1 -1 0 -1 
1 -1 1 -1 0 -1 1 -1 1 -1 0 -1 1 -1 1 -1 
0 -1 1 -1 1 -1 0 -1 1 -1 1 -1 0 -2 1 -1 
1 -1 0 -1 1 -1 1 -1 0 -1 1 -1 1 -1 0 -1 
1 -1 1 -1 0 -1 1 -1 1 -1 0 -1 1 -1 1 -1 
0 -1 1 -1 1 -1 2986 1591 100 MP stroke
0 -1 1 -1 1 -1 0 -1 1 -2 1 -1 0 -1 1 -1 
1 -1 0 -1 1 -1 1 -1 0 -1 1 -1 1 -1 0 -1 
1 -1 1 -1 0 -1 1 -1 1 -1 0 -2 1 -1 1 -1 
0 -1 1 -1 1 -1 0 -1 1 -1 1 -1 0 -1 1 -1 
1 -1 1 -1 0 -1 1 -2 1 -1 0 -1 1 -1 1 -1 
0 -1 1 -1 1 -1 0 -1 1 -1 1 -1 0 -1 1 -1 
1 -2 0 -1 1 -1 1 -1 0 -1 1 -1 1 -1 0 -1 
1 -1 1 -1 0 -1 1 -2 1 -1 0 -1 1 -1 1 -1 
0 -1 1 -1 1 -1 0 -1 1 -1 1 -2 0 -1 1 -1 
1 -1 0 -1 1 -1 1 -1 0 -1 1 -1 1 -1 0 -2 
1 -1 1 -1 0 -1 1 -1 1 -1 0 -1 1 -1 1 -1 
0 -2 1 -1 1 -1 0 -1 1 -1 1 -1 0 -1 1 -1 
1 -2 0 -1 1 -1 2920 1699 100 MP stroke
1 -1 0 -1 1 -1 1 -1 0 -1 1 -2 1 -1 0 -1 
1 -1 1 -1 0 -1 1 -1 1 -1 0 -2 1 -1 1 -1 
0 -1 1 -1 1 -1 0 -1 1 -2 1 -1 0 -1 1 -1 
1 -1 0 -1 1 -1 1 -2 0 -1 1 -1 1 -1 0 -1 
1 -1 1 -1 0 -2 1 -1 1 -1 0 -1 1 -1 1 -1 
0 -1 1 -2 1 -1 0 -1 1 -1 1 -1 0 -1 1 -1 
1 -2 1 -1 0 -1 1 -1 1 -1 0 -1 1 -2 1 -1 
0 -1 1 -1 1 -1 0 -1 1 -2 1 -1 0 -1 1 -1 
1 -1 0 -1 1 -2 1 -1 0 -1 1 -1 1 -1 0 -1 
1 -2 1 -1 0 -1 1 -1 1 -1 0 -1 1 -2 1 -1 
0 -1 1 -1 1 -1 0 -2 1 -1 1 -1 0 -1 1 -1 
1 -1 0 -2 1 -1 1 -1 0 -1 1 -1 1 -2 0 -1 
1 -1 1 -1 0 -1 2854 1813 100 MP stroke
1 -1 1 -2 0 -1 1 -1 1 -1 0 -1 1 -2 1 -1 
0 -1 1 -1 1 -1 0 -2 1 -1 1 -1 0 -1 1 -1 
1 -2 0 -1 1 -1 1 -1 0 -1 1 -2 1 -1 0 -1 
1 -1 1 -1 0 -2 1 -1 1 -1 0 -1 1 -1 1 -2 
0 -1 1 -1 1 -1 0 -1 1 -2 1 -1 0 -1 1 -1 
1 -1 0 -2 1 -1 1 -1 0 -1 1 -2 1 -1 0 -1 
1 -1 1 -1 0 -2 1 -1 1 -1 0 -1 1 -1 1 -2 
0 -1 1 -1 1 -1 0 -2 1 -1 1 -1 0 -1 1 -1 
1 -2 1 -1 0 -1 1 -1 1 -2 0 -1 1 -1 1 -1 
0 -1 1 -2 1 -1 0 -1 1 -1 1 -2 0 -1 1 -1 
1 -1 0 -2 1 -1 1 -1 0 -1 1 -1 1 -2 0 -1 
1 -1 1 -1 0 -2 1 -1 1 -1 0 -1 1 -2 1 -1 
0 -1 1 -1 1 -2 2787 1934 100 MP stroke
0 -1 1 -1 1 -1 0 -2 1 -1 1 -1 0 -1 1 -2 
1 -1 0 -1 1 -1 1 -2 0 -1 1 -1 1 -1 0 -2 
1 -1 1 -1 0 -1 1 -2 1 -1 0 -1 1 -1 1 -2 
0 -1 1 -1 1 -1 0 -2 1 -1 1 -1 0 -1 1 -2 
1 -1 0 -1 1 -1 1 -2 0 -1 1 -1 1 -1 0 -2 
1 -1 1 -1 0 -1 1 -2 1 -1 0 -1 1 -1 1 -2 
0 -1 1 -1 1 -1 0 -2 1 -1 1 -1 0 -2 1 -1 
1 -1 0 -1 1 -2 1 -1 0 -1 1 -1 1 -2 0 -1 
1 -1 1 -1 0 -2 1 -1 1 -1 0 -2 1 -1 1 -1 
0 -1 1 -2 1 -1 0 -1 1 -1 1 -2 1 -1 0 -1 
1 -2 1 -1 0 -1 1 -1 1 -2 0 -1 1 -1 1 -2 
0 -1 1 -1 1 -1 0 -2 1 -1 1 -1 0 -1 1 -2 
1 -1 0 -1 1 -2 2721 2059 100 MP stroke
1 -1 0 -1 1 -1 1 -2 0 -1 1 -1 1 -2 0 -1 
1 -1 1 -1 0 -2 1 -1 1 -1 0 -2 1 -1 1 -1 
0 -1 1 -2 1 -1 0 -1 1 -2 1 -1 0 -1 1 -1 
1 -2 0 -1 1 -1 1 -2 0 -1 1 -1 1 -2 0 -1 
1 -1 1 -1 0 -2 1 -1 1 -1 0 -2 1 -1 1 -1 
0 -1 1 -2 1 -1 0 -1 1 -2 1 -1 0 -1 1 -2 
1 -1 0 -1 1 -1 1 -2 0 -1 1 -1 1 -2 0 -1 
1 -1 1 -2 0 -1 1 -1 1 -1 0 -2 1 -1 1 -1 
0 -2 1 -1 1 -1 0 -2 1 -1 1 -1 0 -2 1 -1 
1 -1 0 -1 1 -2 1 -1 0 -1 1 -2 1 -1 0 -1 
1 -2 1 -1 0 -1 1 -1 1 -2 0 -1 1 -1 1 -2 
0 -1 1 -1 1 -2 0 -1 1 -1 1 -2 1 -1 0 -1 
1 -2 1 -1 0 -1 2655 2187 100 MP stroke
1 -1 1 -2 0 -1 1 -1 1 -2 0 -1 1 -1 1 -2 
0 -1 1 -1 1 -2 0 -1 1 -1 1 -2 0 -1 1 -1 
1 -1 0 -2 1 -1 1 -1 0 -2 1 -1 1 -1 0 -2 
1 -1 1 -1 0 -2 1 -1 1 -1 0 -2 1 -1 1 -1 
0 -2 1 -1 1 -1 0 -2 1 -1 1 -1 0 -2 1 -1 
1 -1 0 -1 1 -2 1 -1 0 -1 1 -2 1 -1 0 -1 
1 -2 1 -1 0 -1 1 -2 1 -1 0 -1 1 -2 1 -1 
0 -1 1 -2 1 -1 0 -1 1 -2 1 -1 0 -1 1 -2 
1 -1 0 -1 1 -2 1 -1 0 -1 1 -2 1 -1 0 -1 
1 -2 1 -1 0 -1 1 -2 1 -1 0 -1 1 -1 1 -2 
0 -1 1 -1 1 -2 0 -1 1 -1 1 -2 0 -1 1 -1 
1 -2 0 -1 1 -1 1 -2 0 -1 1 -1 1 -2 0 -1 
1 -1 1 -2 0 -1 2589 2318 100 MP stroke
1 -1 1 -2 0 -1 1 -1 1 -2 0 -1 1 -1 1 -2 
0 -1 1 -1 1 -2 1 -1 0 -1 1 -2 1 -1 0 -1 
1 -2 1 -1 0 -1 1 -2 1 -1 0 -1 1 -2 1 -1 
0 -1 1 -2 1 -1 0 -1 1 -2 1 -1 0 -1 1 -2 
1 -1 0 -1 1 -2 1 -1 0 -1 1 -2 1 -1 0 -1 
1 -2 1 -1 0 -1 1 -2 1 -1 0 -1 1 -2 1 -1 
0 -1 1 -2 1 -1 0 -1 1 -2 1 -1 0 -1 1 -2 
1 -1 0 -1 1 -2 1 -1 0 -1 1 -2 1 -1 0 -1 
1 -2 1 -1 0 -1 1 -2 1 -1 0 -2 1 -1 1 -1 
0 -2 1 -1 1 -1 0 -2 1 -1 1 -1 0 -2 1 -1 
1 -1 0 -2 1 -1 1 -1 0 -2 1 -1 1 -1 0 -2 
1 -1 1 -1 0 -2 1 -1 1 -1 0 -2 1 -1 1 -1 
0 -2 1 -1 1 -1 2522 2450 100 MP stroke
0 -2 1 -1 1 -1 0 -2 1 -1 1 -1 0 -2 1 -1 
1 -1 0 -2 1 -1 1 -1 0 -2 1 -1 1 -1 0 -2 
1 -1 1 -1 0 -2 1 -1 1 -1 0 -2 1 -1 1 -1 
0 -2 1 -1 1 -1 1 -2 0 -1 1 -1 1 -2 0 -1 
1 -1 1 -2 0 -1 1 -2 1 -1 0 -1 1 -2 1 -1 
0 -1 1 -2 1 -1 0 -1 1 -2 1 -1 0 -1 1 -2 
1 -1 0 -1 1 -2 1 -1 0 -1 1 -2 1 -1 0 -1 
1 -2 1 -1 0 -1 1 -2 1 -1 0 -1 1 -2 1 -1 
0 -1 1 -2 1 -1 0 -1 1 -2 1 -1 0 -1 1 -2 
1 -1 0 -1 1 -2 1 -1 0 -1 1 -2 1 -1 0 -1 
1 -2 1 -1 0 -1 1 -2 1 -1 0 -1 1 -2 1 -1 
0 -1 1 -2 1 -1 0 -1 1 -2 1 -1 0 -1 1 -2 
1 -1 0 -1 1 -2 2456 2583 100 MP stroke
1 -1 0 -1 1 -2 1 -1 0 -1 1 -2 1 -1 0 -1 
1 -2 1 -1 0 -1 1 -2 1 -1 0 -1 1 -2 1 -1 
0 -1 1 -2 1 -1 0 -1 1 -2 1 -1 0 -1 1 -2 
1 -1 0 -1 1 -2 1 -1 0 -1 1 -2 1 -1 0 -1 
1 -2 1 -1 0 -1 1 -2 1 -1 0 -1 1 -2 1 -1 
1 -1 0 -2 1 -1 1 -1 0 -2 1 -1 1 -1 0 -2 
1 -1 1 -1 0 -2 1 -1 1 -1 0 -2 1 -1 1 -1 
0 -2 1 -1 1 -1 0 -2 1 -1 1 -1 0 -2 1 -1 
1 -1 0 -2 1 -1 1 -1 0 -2 1 -1 1 -1 0 -2 
1 -1 1 -1 0 -2 1 -1 1 -1 0 -2 1 -1 1 -1 
0 -2 1 -1 1 -1 0 -2 1 -1 1 -1 0 -2 1 -1 
1 -1 0 -2 1 -1 1 -1 0 -1 1 -2 1 -1 0 -1 
1 -2 1 -1 0 -1 2390 2714 100 MP stroke
1 -2 1 -1 0 -1 1 -2 1 -1 0 -1 1 -2 1 -1 
0 -1 1 -2 1 -1 0 -1 1 -2 1 -1 0 -1 1 -2 
1 -1 0 -1 1 -2 1 -1 0 -1 1 -1 1 -2 0 -1 
1 -1 1 -2 0 -1 1 -1 1 -2 0 -1 1 -1 1 -2 
0 -1 1 -1 1 -2 0 -1 1 -1 1 -2 0 -1 1 -1 
1 -2 0 -1 1 -1 1 -1 0 -2 1 -1 1 -1 0 -2 
1 -1 1 -1 0 -2 1 -1 1 -1 0 -2 1 -1 1 -1 
1 -2 0 -1 1 -1 1 -1 0 -2 1 -1 1 -1 0 -2 
1 -1 1 -1 0 -2 1 -1 1 -1 0 -2 1 -1 1 -1 
0 -1 1 -2 1 -1 0 -1 1 -2 1 -1 0 -1 1 -2 
1 -1 0 -1 1 -2 1 -1 0 -1 1 -1 1 -2 0 -1 
1 -1 1 -2 0 -1 1 -1 1 -2 0 -1 1 -1 1 -1 
0 -2 1 -1 1 -1 2323 2844 100 MP stroke
0 -2 1 -1 1 -1 0 -2 1 -1 1 -1 0 -1 1 -2 
1 -1 0 -1 1 -2 1 -1 0 -1 1 -2 1 -1 0 -1 
1 -1 1 -2 0 -1 1 -1 1 -2 0 -1 1 -1 1 -2 
0 -1 1 -1 1 -1 0 -2 1 -1 1 -1 0 -2 1 -1 
1 -1 0 -1 1 -2 1 -1 0 -1 1 -2 1 -1 0 -1 
1 -2 1 -1 0 -1 1 -1 1 -2 0 -1 1 -1 1 -2 
0 -1 1 -1 1 -1 0 -2 1 -1 1 -1 0 -2 1 -1 
1 -1 0 -1 1 -2 1 -1 0 -1 1 -2 1 -1 0 -1 
1 -1 1 -2 0 -1 1 -1 1 -2 0 -1 1 -1 1 -1 
1 -2 0 -1 1 -1 1 -1 0 -2 1 -1 1 -1 0 -2 
1 -1 1 -1 0 -1 1 -2 1 -1 0 -1 1 -2 1 -1 
0 -1 1 -1 1 -2 0 -1 1 -1 1 -1 0 -2 1 -1 
1 -1 0 -2 1 -1 2257 2972 100 MP stroke
1 -1 0 -1 1 -2 1 -1 0 -1 1 -1 1 -2 0 -1 
1 -1 1 -2 0 -1 1 -1 1 -1 0 -2 1 -1 1 -1 
0 -1 1 -2 1 -1 0 -1 1 -1 1 -2 0 -1 1 -1 
1 -1 0 -2 1 -1 1 -1 0 -2 1 -1 1 -1 0 -1 
1 -2 1 -1 0 -1 1 -1 1 -2 0 -1 1 -1 1 -1 
0 -2 1 -1 1 -1 0 -1 1 -2 1 -1 0 -1 1 -1 
1 -2 0 -1 1 -1 1 -1 0 -2 1 -1 1 -1 0 -1 
1 -2 1 -1 0 -1 1 -1 1 -2 0 -1 1 -1 1 -1 
0 -2 1 -1 1 -1 0 -1 1 -2 1 -1 0 -1 1 -1 
1 -2 0 -1 1 -1 1 -1 0 -2 1 -1 1 -1 0 -1 
1 -2 1 -1 0 -1 1 -1 1 -2 0 -1 1 -1 1 -1 
1 -2 0 -1 1 -1 1 -1 0 -1 1 -2 1 -1 0 -1 
1 -1 1 -2 0 -1 2191 3096 100 MP stroke
1 -1 1 -1 0 -2 1 -1 1 -1 0 -1 1 -2 1 -1 
0 -1 1 -1 1 -1 0 -2 1 -1 1 -1 0 -1 1 -2 
1 -1 0 -1 1 -1 1 -2 0 -1 1 -1 1 -1 0 -1 
1 -2 1 -1 0 -1 1 -1 1 -2 0 -1 1 -1 1 -1 
0 -1 1 -2 1 -1 0 -1 1 -1 1 -2 0 -1 1 -1 
1 -1 0 -1 1 -2 1 -1 0 -1 1 -1 1 -1 0 -2 
1 -1 1 -1 0 -1 1 -2 1 -1 0 -1 1 -1 1 -1 
0 -2 1 -1 1 -1 0 -1 1 -1 1 -2 0 -1 1 -1 
1 -1 0 -1 1 -2 1 -1 0 -1 1 -1 1 -1 0 -2 
1 -1 1 -1 0 -1 1 -2 1 -1 0 -1 1 -1 1 -1 
0 -2 1 -1 1 -1 0 -1 1 -1 1 -1 0 -2 1 -1 
1 -1 0 -1 1 -1 1 -2 0 -1 1 -1 1 -1 0 -1 
1 -2 1 -1 0 -1 2125 3216 100 MP stroke
1 -1 1 -1 1 -2 0 -1 1 -1 1 -1 0 -1 1 -2 
1 -1 0 -1 1 -1 1 -1 0 -1 1 -2 1 -1 0 -1 
1 -1 1 -1 0 -2 1 -1 1 -1 0 -1 1 -1 1 -1 
0 -2 1 -1 1 -1 0 -1 1 -1 1 -2 0 -1 1 -1 
1 -1 0 -1 1 -1 1 -2 0 -1 1 -1 1 -1 0 -1 
1 -1 1 -2 0 -1 1 -1 1 -1 0 -1 1 -1 1 -2 
0 -1 1 -1 1 -1 0 -1 1 -1 1 -2 0 -1 1 -1 
1 -1 0 -1 1 -1 1 -2 0 -1 1 -1 1 -1 0 -1 
1 -1 1 -2 0 -1 1 -1 1 -1 0 -1 1 -1 1 -2 
0 -1 1 -1 1 -1 0 -1 1 -1 1 -1 0 -2 1 -1 
1 -1 0 -1 1 -1 1 -1 0 -2 1 -1 1 -1 0 -1 
1 -1 1 -1 0 -1 1 -2 1 -1 0 -1 1 -1 1 -1 
0 -1 1 -1 1 -2 2058 3332 100 MP stroke
0 -1 1 -1 1 -1 0 -1 1 -1 1 -1 0 -2 1 -1 
1 -1 0 -1 1 -1 1 -1 0 -1 1 -2 1 -1 0 -1 
1 -1 1 -1 1 -1 0 -1 1 -1 1 -2 0 -1 1 -1 
1 -1 0 -1 1 -1 1 -1 0 -2 1 -1 1 -1 0 -1 
1 -1 1 -1 0 -1 1 -1 1 -2 0 -1 1 -1 1 -1 
0 -1 1 -1 1 -1 0 -1 1 -1 1 -2 0 -1 1 -1 
1 -1 0 -1 1 -1 1 -1 0 -1 1 -2 1 -1 0 -1 
1 -1 1 -1 0 -1 1 -1 1 -1 0 -1 1 -2 1 -1 
0 -1 1 -1 1 -1 0 -1 1 -1 1 -1 0 -1 1 -2 
1 -1 0 -1 1 -1 1 -1 0 -1 1 -1 1 -1 0 -1 
1 -1 1 -2 0 -1 1 -1 1 -1 0 -1 1 -1 1 -1 
0 -1 1 -1 1 -1 0 -1 1 -2 1 -1 0 -1 1 -1 
1 -1 0 -1 1 -1 1992 3442 100 MP stroke
1 -1 0 -1 1 -1 1 -1 0 -2 1 -1 1 -1 0 -1 
1 -1 1 -1 0 -1 1 -1 1 -1 0 -1 1 -1 1 -1 
0 -2 1 -1 1 -1 0 -1 1 -1 1 -1 0 -1 1 -1 
1 -1 0 -1 1 -1 1 -1 0 -1 1 -2 1 -1 0 -1 
1 -1 1 -1 1 -1 0 -1 1 -1 1 -1 0 -1 1 -1 
1 -1 0 -1 1 -1 1 -2 0 -1 1 -1 1 -1 0 -1 
1 -1 1 -1 0 -1 1 -1 1 -1 0 -1 1 -1 1 -1 
0 -1 1 -1 1 -1 0 -2 1 -1 1 -1 0 -1 1 -1 
1 -1 0 -1 1 -1 1 -1 0 -1 1 -1 1 -1 0 -1 
1 -1 1 -1 0 -1 1 -1 1 -1 0 -1 1 -1 1 -2 
0 -1 1 -1 1 -1 0 -1 1 -1 1 -1 0 -1 1 -1 
1 -1 0 -1 1 -1 1 -1 0 -1 1 -1 1 -1 0 -1 
1 -1 1 -1 0 -1 1926 3547 100 MP stroke
1 -1 1 -1 0 -1 1 -1 1 -1 0 -1 1 -1 1 -2 
0 -1 1 -1 1 -1 0 -1 1 -1 1 -1 0 -1 1 -1 
1 -1 0 -1 1 -1 1 -1 0 -1 1 -1 1 -1 0 -1 
1 -1 1 -1 0 -1 1 -1 1 -1 0 -1 1 -1 1 -1 
0 -1 1 -1 1 -1 0 -1 1 -1 1 -1 0 -1 1 -1 
1 -1 0 -1 1 -1 1 -1 0 -1 1 -1 1 -1 0 -1 
1 -1 1 -1 1 -1 0 -1 1 -1 1 -1 0 -1 1 -1 
1 -1 0 -1 1 -1 1 -1 0 -1 1 -1 1 -1 0 -1 
1 -1 1 -1 0 -1 1 -1 1 -1 0 -1 1 -1 1 -1 
0 -1 1 -1 1 -1 0 -1 1 -1 1 -1 0 -1 1 -1 
1 -1 0 -1 1 -1 1 -1 0 -1 1 -1 1 -1 0 -1 
1 -1 1 -1 0 -1 1 -1 1 -1 0 -1 1 -1 1 -1 
0 -1 1 -1 1 -1 1859 3647 100 MP stroke
0 -1 1 -1 1 -1 0 -1 1 -1 1 -1 1 -1 1 -1 
0 -1 1 -1 1 -1 0 -1 1 -1 1 -1 0 -1 1 -1 
1 -1 0 -1 1 -1 1 -1 0 -1 1 -1 1 -1 0 -1 
1 -1 1 -1 0 -1 1 -1 1 -1 0 -1 1 -1 1 -1 
1 -1 1 -1 0 -1 1 -1 1 -1 0 -1 1 -1 1 -1 
0 -1 1 -1 1 -1 0 -1 1 -1 1 -1 0 -1 1 -1 
1 -1 0 -1 1 -1 1 0 -1 0 2 -2 1 -1 0 -1 
1 -1 1 -1 0 -1 1 -1 1 -1 1 -1 0 -1 1 -1 
1 -1 0 -1 1 -1 1 0 -1 0 2 -2 1 -1 0 -1 
1 -1 1 -1 0 -1 1 -1 1 -1 0 -1 1 -1 1 -1 
1 -1 1 -1 0 -1 1 -1 1 -1 0 -1 1 -1 1 -1 
0 -1 1 -1 1 -1 1 -1 1 -1 0 -1 1 -1 1 -1 
0 -1 1 -1 1 -1 1790 3744 100 MP stroke
0 -1 1 -1 1 -1 1 -1 1 -1 0 -1 1 -1 1 -1 
0 -1 1 -1 1 -1 0 -1 1 -1 1 -1 1 -1 1 -1 
0 -1 1 -1 1 -1 0 -1 1 -1 1 -1 1 -1 1 -1 
0 -1 1 -1 1 -1 0 -1 1 -1 1 -1 1 -1 1 -1 
0 -1 1 -1 1 -1 0 -1 1 -1 1 -1 1 -1 1 -1 
0 -1 1 -1 1 -1 0 -1 1 -1 1 -1 1 -1 1 -1 
0 -1 1 -1 1 -1 0 -1 1 -1 1 -1 1 -1 1 -1 
0 -1 1 -1 1 -1 1 -1 1 -1 0 -1 1 -1 1 -1 
0 -1 1 -1 1 -1 1 0 -1 0 2 -2 1 -1 0 -1 
1 -1 1 -1 1 -1 1 -1 0 -1 1 -1 1 -1 1 -1 
1 -1 0 -1 1 -1 1 -1 0 -1 1 -1 1 0 -1 0 
2 -2 1 -1 0 -1 1 -1 1 -1 1 -1 1 -1 0 -1 
1 -1 1 -1 1 -1 1716 3841 100 MP stroke
1 -1 0 -1 1 -1 1 -1 1 -1 1 -1 0 -1 1 -1 
1 -1 1 -1 1 -1 0 -1 1 -1 1 -1 1 -1 1 -1 
0 -1 1 -1 1 -1 1 -1 1 -1 0 -1 1 -1 1 -1 
1 -1 1 -1 0 -1 1 -1 1 -1 1 -1 1 -1 0 -1 
1 -1 1 -1 1 -1 1 -1 0 -1 1 -1 1 -1 1 -1 
1 -1 0 -1 1 -1 1 0 -1 0 2 -2 1 -1 1 -1 
1 -1 0 -1 1 -1 1 -1 1 -1 1 -1 0 -1 1 -1 
1 -1 1 -1 1 -1 0 -1 1 -1 1 0 -1 0 2 -2 
1 -1 1 -1 1 -1 1 -1 1 -1 1 -1 0 -1 1 -1 
1 -1 1 -1 1 -1 0 -1 1 -1 1 0 -1 0 2 -2 
1 -1 1 -1 1 -1 0 -1 1 -1 1 0 -1 0 2 -2 
1 -1 1 -1 1 -1 0 -1 1 -1 1 0 -1 0 2 -2 
1 -1 1 -1 1 -1 1638 3935 100 MP stroke
0 -1 1 -1 1 0 -1 0 2 -2 1 -1 1 -1 1 -1 
0 -1 1 -1 1 0 -1 0 2 -2 1 -1 1 -1 1 -1 
1 -1 1 -1 0 -1 1 -1 1 0 -1 0 2 -2 1 -1 
1 -1 1 -1 1 -1 1 -1 0 -1 1 -1 1 -1 1 -1 
1 -1 1 -1 1 -1 1 -1 1 -1 0 -1 1 -1 1 0 
-1 0 2 -2 1 -1 1 -1 1 -1 1 -1 1 -1 0 -1 
1 -1 1 0 -1 0 2 -2 1 -1 1 -1 1 -1 1 -1 
1 -1 1 -1 1 -1 0 -1 1 -1 1 0 -1 0 2 -2 
1 0 1 -1 0 -1 1 -1 1 0 -1 0 2 -2 1 -1 
1 -1 1 -1 1 -1 1 -1 1 -1 1 -1 1 -1 1 -1 
0 -1 1 -1 1 0 -1 0 2 -2 1 0 -1 0 2 -2 
1 -1 1 -1 1 -1 1 -1 1 -1 1 -1 1 -1 1 -1 
1 -1 1 -1 1 -1 1557 4024 100 MP stroke
0 -1 1 -1 1 0 -1 0 2 -2 1 0 -1 0 2 -2 
1 0 -1 0 2 -2 1 0 -1 0 2 -2 1 -1 1 -1 
1 -1 1 -1 1 -1 1 -1 1 -1 1 -1 1 -1 1 -1 
1 -1 1 -1 1 -1 1 -1 1 -1 1 -1 1 -1 1 -1 
1 -1 1 -1 1 -1 1 -1 1 -1 1 -1 1 -1 1 -1 
1 -1 1 -1 1 -1 1 -1 1 -1 1 -1 1 -1 1 -1 
1 -1 1 -1 1 -1 1 -1 1 -1 1 -1 1 -1 1 -1 
1 -1 1 -1 1 -1 1 0 -1 0 2 -2 1 0 -1 0 
2 -2 1 0 -1 0 2 -2 1 0 -1 0 2 -2 1 0 
-1 0 2 -2 1 0 1 -1 1 -1 1 -1 1 -1 1 -1 
1 -1 1 -1 1 -1 1 -1 1 -1 1 -1 1 -1 1 -1 
1 -1 1 -1 1 0 -1 0 2 -2 1 0 -1 0 2 -2 
1 0 1 -1 1 -1 1470 4110 100 MP stroke
1 -1 1 -1 1 -1 1 -1 1 -1 1 -1 1 -1 1 0 
-1 0 2 -2 1 0 -1 0 2 -2 1 0 1 -1 1 -1 
1 -1 1 -1 1 -1 1 -1 1 -1 1 0 -1 0 2 -2 
1 0 -1 0 2 -2 1 0 1 -1 1 -1 1 -1 1 -1 
1 -1 1 -1 1 -1 1 0 1 -1 1 -1 1 -1 1 -1 
1 0 -1 0 2 -2 1 0 1 -1 1 -1 1 -1 1 -1 
1 -1 1 -1 1 -1 1 0 1 -1 1 -1 1 -1 1 -1 
1 -1 1 -1 1 -1 1 0 1 -1 1 -1 1 -1 1 -1 
1 -1 1 0 -1 0 2 -2 1 0 1 -1 1 -1 1 -1 
1 -1 1 -1 1 0 1 -1 1 -1 1 -1 1 -1 1 -1 
1 0 1 -1 1 -1 1 -1 1 -1 1 -1 1 0 1 -1 
1 -1 1 -1 1 -1 1 -1 1 0 1 -1 1 -1 1 -1 
1 -1 1 -1 1 0 1377 4191 100 MP stroke
1 -1 1 -1 1 -1 1 -1 1 -1 1 0 1 -1 1 -1 
1 -1 1 0 1 -1 1 -1 1 -1 1 -1 1 -1 1 0 
1 -1 1 -1 1 -1 1 0 1 -1 1 -1 1 -1 1 -1 
1 0 1 -1 1 -1 1 -1 1 0 1 -1 1 -1 1 -1 
1 0 1 -1 1 -1 1 -1 1 0 -1 0 2 -2 1 0 
1 -1 1 -1 1 -1 1 0 1 -1 1 -1 1 -1 1 0 
1 -1 1 -1 1 -1 1 0 1 -1 1 -1 1 -1 1 0 
1 -1 1 -1 1 -1 1 0 1 -1 1 -1 1 -1 1 0 
1 -1 1 -1 1 -1 1 0 1 -1 1 -1 1 -1 1 0 
1 -1 1 -1 1 -1 1 0 1 -1 1 -1 1 -1 1 0 
1 -1 1 0 1 -1 1 -1 1 -1 1 0 1 -1 1 -1 
1 -1 1 0 1 -1 1 -1 1 -1 1 0 1 -1 1 -1 
1 0 1 -1 1 0 1279 4265 100 MP stroke
1 -1 1 -1 1 -1 1 0 1 -1 1 -1 1 -1 1 0 
1 -1 1 0 1 -1 1 -1 1 -1 1 0 1 -1 1 -1 
1 0 1 -1 1 -1 1 0 1 -1 1 -1 1 -1 1 0 
1 -1 1 0 1 -1 1 -1 1 -1 1 0 1 -1 1 0 
1 -1 1 -1 1 -1 1 0 1 -1 1 0 1 -1 1 -1 
1 -1 1 0 1 -1 1 0 1 -1 1 -1 1 -1 1 0 
1 -1 1 0 1 -1 1 -1 1 0 1 -1 1 -1 1 0 
1 -1 1 0 1 -1 1 -1 1 -1 1 0 1 -1 1 0 
1 -1 1 -1 1 0 1 -1 1 -1 1 0 1 -1 1 0 
1 -1 1 -1 1 0 1 -1 1 0 1 -1 1 -1 1 0 
1 -1 1 -1 1 0 1 -1 1 0 1 -1 1 0 1 -1 
1 -1 1 0 1 -1 1 -1 1 0 1 -1 1 0 1 -1 
1 -1 1 0 1 -1 1180 4330 100 MP stroke
1 -1 1 0 1 -1 1 0 1 -1 1 0 1 -1 1 -1 
1 0 1 -1 1 0 1 -1 1 -1 1 0 1 -1 1 0 
1 -1 1 0 1 -1 1 -1 1 0 1 -1 1 0 1 -1 
1 -1 1 0 1 -1 1 0 1 -1 1 0 1 -1 1 0 
1 -1 1 -1 1 0 1 -1 1 0 1 -1 1 -1 1 0 
1 -1 1 0 1 -1 1 0 1 -1 1 0 1 -1 1 0 
1 -1 1 -1 1 0 1 -1 1 0 1 -1 1 0 1 -1 
1 0 1 -1 1 0 1 -1 1 0 1 -1 1 0 1 -1 
1 0 1 -1 1 -1 1 0 1 -1 1 0 1 -1 1 0 
1 -1 1 0 1 -1 1 -1 1 0 1 -1 1 0 1 -1 
1 0 1 -1 1 0 1 -1 1 0 1 -1 1 0 1 -1 
1 0 1 -1 1 0 1 -1 1 0 1 -1 1 0 1 -1 
1 0 1 -1 1 0 1081 4384 100 MP stroke
1 -1 1 0 1 -1 1 0 1 -1 1 0 1 -1 1 0 
1 -1 1 0 1 -1 1 0 1 -1 1 0 1 -1 1 0 
1 -1 1 0 1 -1 1 0 1 -1 1 0 1 -1 1 0 
1 -1 1 0 1 -1 1 0 1 -1 1 0 1 0 1 -1 
1 0 1 -1 1 0 1 -1 1 0 1 -1 1 0 1 -1 
1 0 1 -1 1 0 1 -1 1 0 1 -1 1 0 1 0 
1 -1 1 0 1 -1 1 0 1 -1 1 0 1 -1 1 0 
1 0 1 -1 1 0 1 -1 1 0 1 -1 1 0 1 -1 
1 0 1 -1 1 0 1 -1 1 0 1 0 1 -1 1 0 
1 -1 1 0 1 -1 1 0 1 0 1 -1 1 0 1 -1 
1 0 1 -1 1 0 1 -1 1 0 1 0 1 -1 1 0 
1 -1 1 0 1 0 1 -1 1 0 1 -1 1 0 1 -1 
1 0 1 -1 1 0 982 4430 100 MP stroke
1 0 1 -1 1 0 1 -1 1 0 1 0 1 -1 1 0 
1 0 1 -1 1 0 1 -1 1 0 1 -1 1 0 1 -1 
1 0 1 0 1 -1 1 0 1 0 1 -1 1 0 1 -1 
1 0 1 -1 1 0 1 0 1 -1 1 0 1 0 1 -1 
1 0 1 -1 1 0 1 -1 1 0 1 0 1 -1 1 0 
1 0 1 -1 1 0 1 -1 1 0 1 0 1 -1 1 0 
1 0 1 -1 1 0 1 -1 1 0 1 0 1 -1 1 0 
1 0 1 -1 1 0 1 -1 1 0 1 -1 1 0 1 0 
1 0 1 -1 1 0 1 -1 1 0 1 0 1 -1 1 0 
1 0 1 -1 1 0 1 -1 1 0 1 0 1 -1 1 0 
1 0 1 -1 1 0 899 4462 84 MP stroke
SO
/c8 { 0.000000 0.000000 1.000000 sr} bdef
c8
1 0 1 0 1 0 1 0 1 0 1 0 1 0 1 0 
1 0 1 0 1 0 1 0 1 0 1 0 1 0 1 0 
1 0 1 0 1 0 1 0 1 0 1 0 1 0 1 0 
1 0 1 0 1 0 1 0 1 0 1 0 1 1 1 0 
1 0 1 0 1 0 1 0 1 0 1 0 1 0 1 0 
1 0 1 0 1 0 1 0 1 0 1 0 1 0 1 0 
1 1 1 0 1 0 1 0 1 0 1 0 1 0 1 0 
1 0 1 0 1 0 1 0 1 0 1 1 1 0 1 0 
1 0 1 0 1 0 1 0 1 0 1 0 1 0 1 0 
1 1 1 0 1 0 1 0 1 0 1 0 1 0 1 0 
1 0 1 0 1 1 1 0 1 0 1 0 1 0 1 0 
1 0 1 0 1 1 1 0 1 0 1 0 1 0 1 0 
1 0 1 1 1 0 6156 4303 100 MP stroke
1 0 1 0 1 0 1 0 1 0 1 1 1 0 1 0 
1 0 1 0 1 0 1 0 1 1 1 0 1 0 1 0 
1 0 1 0 1 1 1 0 1 0 1 0 1 0 1 0 
1 1 1 0 1 0 1 0 1 0 1 1 1 0 1 0 
1 0 1 0 1 0 1 1 1 0 1 0 1 0 1 0 
1 1 1 0 1 0 1 0 1 0 1 1 1 0 1 0 
1 0 1 0 1 1 1 0 1 0 1 0 1 0 1 1 
1 0 1 0 1 0 1 0 1 1 1 0 1 0 1 0 
1 1 1 0 1 0 1 0 1 1 1 0 1 0 1 0 
1 1 1 0 1 0 1 0 1 1 1 0 1 0 1 0 
1 1 1 0 1 0 1 0 1 1 1 0 1 0 1 0 
1 1 1 0 1 0 1 0 1 1 1 0 1 0 1 0 
1 1 1 0 1 0 6057 4283 100 MP stroke
1 1 1 0 1 0 1 1 1 0 1 0 1 0 1 1 
1 0 1 0 1 0 1 1 1 0 1 0 1 1 1 0 
1 0 1 1 1 0 1 0 1 1 1 0 1 0 1 1 
1 0 1 0 1 0 1 1 1 0 1 0 1 1 1 0 
1 0 1 1 1 0 1 0 1 1 1 0 1 0 1 1 
1 0 1 0 1 1 1 0 1 0 1 1 1 0 1 0 
1 1 1 0 1 1 1 0 1 0 1 0 1 1 1 0 
1 1 1 0 1 0 1 1 1 0 1 0 1 1 1 0 
1 1 1 0 1 0 1 1 1 0 1 0 1 1 1 0 
1 1 1 0 1 0 1 1 1 0 1 0 1 1 1 0 
1 1 1 0 1 1 1 0 1 0 1 1 1 0 1 0 
1 1 1 0 1 1 1 0 1 1 1 0 1 1 1 0 
1 0 1 1 1 0 5958 4248 100 MP stroke
1 0 1 1 1 0 1 1 1 0 1 1 1 0 1 1 
1 0 1 1 1 0 1 0 1 1 1 0 1 1 1 0 
1 0 1 1 1 0 1 1 1 0 1 1 1 0 1 0 
1 1 1 0 1 1 1 0 1 1 1 0 1 1 1 0 
1 1 1 0 1 1 1 0 1 1 1 0 1 1 1 0 
1 1 1 0 1 1 1 0 1 1 1 0 1 1 1 0 
1 1 1 0 1 1 1 0 1 1 1 0 1 1 1 0 
1 1 1 0 1 1 1 0 1 1 1 0 1 1 1 0 
1 1 1 0 1 1 1 0 1 1 1 0 1 1 1 0 
1 1 1 0 1 1 1 0 1 1 1 0 1 1 1 0 
1 1 1 1 1 0 1 1 1 0 1 1 1 0 1 1 
1 0 1 1 1 0 1 1 1 0 1 1 1 1 1 0 
1 1 1 0 1 1 5859 4199 100 MP stroke
1 1 1 0 1 1 1 0 1 1 1 0 1 1 1 0 
1 1 1 1 1 0 1 1 1 1 1 0 1 1 1 0 
1 1 1 0 1 1 1 1 1 0 1 1 1 1 1 0 
1 1 1 0 1 1 1 0 1 1 1 1 1 0 1 1 
1 1 1 0 1 1 1 0 1 1 1 1 1 0 1 1 
1 1 1 0 1 1 1 0 1 1 1 1 1 0 1 1 
1 1 1 0 1 1 1 0 1 1 1 1 1 1 1 0 
1 1 1 0 1 1 1 1 1 1 1 0 1 1 1 0 
1 1 1 1 1 0 1 1 1 0 1 1 1 1 1 1 
1 0 1 1 1 1 1 0 1 1 1 1 1 0 1 1 
1 1 1 1 1 0 1 1 1 0 1 1 1 1 1 1 
1 0 1 1 1 1 1 1 1 0 1 1 1 0 1 1 
1 1 1 1 1 0 5760 4136 100 MP stroke
1 1 1 1 1 1 1 0 1 1 1 1 1 1 1 0 
1 1 1 1 1 1 1 0 1 1 1 1 1 1 1 0 
1 1 1 1 1 1 1 0 1 1 1 1 1 1 1 0 
1 1 1 1 1 1 1 0 1 1 1 1 1 1 1 0 
1 1 1 1 1 1 1 0 1 1 1 1 1 1 1 0 
1 1 1 1 1 0 1 1 1 1 1 1 1 1 1 1 
1 0 1 1 1 1 1 1 1 0 1 1 1 1 1 1 
1 0 -1 0 2 2 1 0 1 1 1 1 1 1 1 0 
1 1 1 1 1 1 1 1 1 1 1 0 1 1 1 1 
1 1 1 1 1 1 1 0 1 1 1 1 1 1 1 1 
1 1 1 0 1 1 1 1 1 1 1 1 1 1 1 0 
1 1 1 1 1 1 1 1 1 1 1 0 -1 0 2 2 
1 0 1 1 1 1 5663 4059 100 MP stroke
1 1 1 1 1 1 1 0 -1 0 2 2 1 0 1 1 
1 1 1 1 1 1 1 1 1 0 -1 0 2 2 1 0 
1 1 1 1 1 1 1 1 1 1 1 1 1 1 1 0 
1 1 1 1 1 1 1 1 1 1 1 1 1 0 -1 0 
2 2 1 0 1 1 1 1 1 1 1 1 1 1 1 1 
1 1 1 1 1 1 1 0 -1 0 2 2 1 0 1 1 
1 1 1 1 1 1 1 1 1 1 1 1 1 1 1 1 
1 1 1 1 1 1 1 1 1 0 -1 0 2 2 1 0 
-1 0 2 2 1 0 -1 0 2 2 1 0 1 1 1 1 
1 1 1 1 1 1 1 1 1 1 1 1 1 1 1 1 
1 1 1 1 1 1 1 1 1 1 1 1 1 1 1 1 
1 1 1 1 1 1 1 1 1 1 1 1 1 1 1 1 
1 1 1 1 1 1 5571 3973 100 MP stroke
1 1 1 1 1 1 1 1 1 1 1 1 1 1 1 1 
1 1 1 1 1 1 1 1 1 1 1 1 1 1 1 1 
1 1 1 1 1 1 1 1 1 1 1 1 1 1 1 1 
1 1 1 1 0 1 1 1 1 0 -1 0 2 2 1 0 
-1 0 2 2 1 0 -1 0 2 2 1 1 1 1 1 1 
1 1 1 1 1 1 1 1 1 1 1 1 0 1 1 1 
1 0 -1 0 2 2 1 0 -1 0 2 2 1 1 1 1 
1 1 1 1 1 1 1 1 1 1 0 1 1 1 1 0 
-1 0 2 2 1 0 -1 0 2 2 1 1 1 1 1 1 
1 1 1 1 0 1 1 1 1 0 -1 0 2 2 1 1 
1 1 1 1 1 1 1 1 1 1 1 1 0 1 1 1 
1 0 -1 0 2 2 1 1 1 1 1 1 0 1 1 1 
1 0 1 1 0 1 5488 3884 100 MP stroke
1 1 1 0 -1 0 2 2 1 1 1 1 1 1 1 1 
1 1 0 1 1 1 1 0 -1 0 2 2 1 1 1 1 
1 1 0 1 1 1 1 0 -1 0 2 2 1 1 1 1 
1 1 0 1 1 1 1 0 -1 0 2 2 1 1 1 1 
1 1 0 1 1 1 1 0 -1 0 2 2 1 1 1 1 
1 1 0 1 1 1 1 1 1 1 1 1 1 1 1 1 
0 1 1 1 1 1 1 1 1 1 0 1 1 1 1 0 
-1 0 2 2 1 1 1 1 1 1 0 1 1 1 1 1 
1 1 1 1 0 1 1 1 1 1 1 1 1 1 0 1 
1 1 1 0 -1 0 2 2 1 1 0 1 1 1 1 0 
-1 0 2 2 1 1 1 1 1 1 0 1 1 1 1 1 
1 1 1 1 0 1 1 1 1 1 1 1 1 1 0 1 
1 1 1 1 1 1 5411 3793 100 MP stroke
1 1 1 1 0 1 1 1 1 1 1 1 1 1 0 1 
1 1 1 1 1 1 1 1 0 1 1 1 1 1 1 1 
1 1 0 1 1 1 1 1 0 1 1 1 1 0 -1 0 
2 2 1 1 0 1 1 1 1 1 1 1 1 1 0 1 
1 1 1 1 1 1 1 1 0 1 1 1 1 1 0 1 
1 1 1 0 -1 0 2 2 1 1 0 1 1 1 1 1 
1 1 1 1 0 1 1 1 1 1 0 1 1 1 1 1 
1 1 1 1 0 1 1 1 1 1 0 1 1 1 1 0 
-1 0 2 2 1 1 0 1 1 1 1 1 0 1 1 1 
1 0 -1 0 2 2 1 1 0 1 1 1 1 1 0 1 
1 1 1 0 -1 0 2 2 1 1 0 1 1 1 1 1 
0 1 1 1 1 1 1 1 1 1 0 1 1 1 1 1 
0 1 1 1 1 1 5339 3699 100 MP stroke
0 1 1 1 1 0 -1 0 2 2 1 1 1 1 0 1 
1 1 1 1 0 1 1 1 1 1 1 1 1 1 0 1 
1 1 1 1 0 1 1 1 1 1 0 1 1 1 1 1 
1 1 1 1 0 1 1 1 1 1 0 1 1 1 1 1 
0 1 1 1 1 1 0 1 1 1 1 1 1 1 1 1 
0 1 1 1 1 1 0 1 1 1 1 1 0 1 1 1 
1 1 0 1 1 1 1 1 0 1 1 1 1 0 -1 0 
2 2 1 1 0 1 1 1 1 1 0 1 1 1 1 1 
0 1 1 1 1 1 0 1 1 1 1 1 0 1 1 1 
1 1 0 1 1 1 1 0 -1 0 2 2 1 1 0 1 
1 1 1 1 0 1 1 1 1 1 0 1 1 1 1 1 
0 1 1 1 1 1 0 1 1 1 1 1 0 1 1 1 
1 1 0 1 1 1 5271 3603 100 MP stroke
1 1 0 1 1 1 1 1 0 1 1 1 1 1 0 1 
1 1 1 0 -1 0 2 2 1 1 0 1 1 1 1 1 
1 1 0 1 1 1 1 1 0 1 1 1 1 1 0 1 
1 1 1 1 0 1 1 1 1 1 0 1 1 1 1 1 
0 1 1 1 1 1 0 1 1 1 1 1 0 1 1 1 
1 1 0 1 1 1 1 1 0 1 1 1 1 1 0 1 
1 1 1 1 0 1 1 1 1 1 0 1 1 1 1 1 
0 1 1 1 1 1 0 1 1 1 1 1 0 1 1 1 
1 1 0 1 1 1 1 1 0 1 1 1 1 1 0 1 
1 1 1 2 0 1 1 1 1 1 0 1 1 1 1 1 
0 1 1 1 1 1 0 1 1 1 1 1 0 1 1 1 
1 1 0 1 1 1 1 1 0 1 1 1 1 1 0 1 
1 1 1 1 0 1 5205 3504 100 MP stroke
1 1 1 1 0 1 1 1 1 1 0 1 1 1 1 2 
0 1 1 1 1 1 0 1 1 1 1 1 0 1 1 1 
1 1 0 1 1 1 1 1 0 1 1 1 1 1 0 1 
1 1 1 1 0 1 1 1 1 2 0 1 1 1 1 1 
1 1 0 1 1 1 1 1 0 1 1 1 1 1 0 1 
1 1 1 1 0 1 1 1 1 1 0 1 1 2 1 1 
0 1 1 1 1 1 0 1 1 1 1 1 0 1 1 1 
1 1 0 1 1 1 1 1 0 2 1 1 1 1 0 1 
1 1 1 1 0 1 1 1 1 1 0 1 1 1 1 1 
0 1 1 1 1 2 0 1 1 1 1 1 0 1 1 1 
1 1 0 1 1 1 1 1 0 1 1 1 1 2 0 1 
1 1 1 1 0 1 1 1 1 1 0 1 1 1 1 1 
0 1 1 2 1 1 5138 3398 100 MP stroke
0 1 1 1 1 1 0 1 1 1 1 1 0 1 1 1 
1 2 0 1 1 1 1 1 0 1 1 1 1 1 0 1 
1 1 1 1 0 2 1 1 1 1 0 1 1 1 1 1 
0 1 1 1 1 1 0 2 1 1 1 1 0 1 1 1 
1 1 0 1 1 1 1 1 0 2 1 1 1 1 0 1 
1 1 1 1 0 1 1 1 1 1 0 2 1 1 1 1 
1 1 0 1 1 1 1 1 0 1 1 2 1 1 0 1 
1 1 1 1 0 1 1 1 1 1 0 2 1 1 1 1 
0 1 1 1 1 1 0 1 1 1 1 2 0 1 1 1 
1 1 0 1 1 1 1 1 0 2 1 1 1 1 0 1 
1 1 1 1 0 1 1 2 1 1 0 1 1 1 1 1 
0 1 1 1 1 2 0 1 1 1 1 1 0 1 1 1 
1 1 0 2 1 1 5072 3287 100 MP stroke
1 1 0 1 1 1 1 1 0 1 1 2 1 1 0 1 
1 1 1 1 0 1 1 2 1 1 0 1 1 1 1 1 
0 1 1 1 1 2 0 1 1 1 1 1 0 1 1 1 
1 2 0 1 1 1 1 1 0 1 1 1 1 2 0 1 
1 1 1 1 0 1 1 1 1 2 0 1 1 1 1 1 
0 1 1 1 1 2 0 1 1 1 1 1 0 1 1 1 
1 2 0 1 1 1 1 1 0 1 1 1 1 2 0 1 
1 1 1 1 0 1 1 2 1 1 0 1 1 1 1 1 
1 1 0 2 1 1 1 1 0 1 1 1 1 2 0 1 
1 1 1 1 0 1 1 1 1 2 0 1 1 1 1 1 
0 1 1 2 1 1 0 1 1 1 1 1 0 2 1 1 
1 1 0 1 1 1 1 1 0 2 1 1 1 1 0 1 
1 1 1 2 0 1 5006 3171 100 MP stroke
1 1 1 1 0 1 1 2 1 1 0 1 1 1 1 1 
0 2 1 1 1 1 0 1 1 1 1 2 0 1 1 1 
1 1 0 1 1 2 1 1 0 1 1 1 1 2 0 1 
1 1 1 1 0 1 1 2 1 1 0 1 1 1 1 1 
0 2 1 1 1 1 0 1 1 1 1 2 0 1 1 1 
1 1 0 2 1 1 1 1 0 1 1 1 1 2 0 1 
1 1 1 1 0 2 1 1 1 1 0 1 1 1 1 2 
0 1 1 1 1 1 0 1 1 2 1 1 0 1 1 1 
1 2 0 1 1 1 1 1 0 2 1 1 1 1 0 1 
1 1 1 2 0 1 1 1 1 1 1 2 0 1 1 1 
1 1 0 2 1 1 1 1 0 1 1 1 1 2 0 1 
1 1 1 1 0 2 1 1 1 1 0 1 1 2 1 1 
0 1 1 1 1 2 4939 3050 100 MP stroke
0 1 1 1 1 1 0 2 1 1 1 1 0 1 1 1 
1 2 0 1 1 1 1 1 0 2 1 1 1 1 0 1 
1 2 1 1 0 1 1 1 1 2 0 1 1 1 1 1 
0 2 1 1 1 1 0 1 1 2 1 1 0 1 1 1 
1 2 0 1 1 1 1 1 0 2 1 1 1 1 0 1 
1 2 1 1 0 1 1 2 1 1 0 1 1 1 1 2 
0 1 1 1 1 1 0 2 1 1 1 1 0 1 1 2 
1 1 0 1 1 1 1 2 0 1 1 1 1 1 0 2 
1 1 1 1 0 2 1 1 1 1 0 1 1 2 1 1 
0 1 1 1 1 2 0 1 1 1 1 1 0 2 1 1 
1 1 0 2 1 1 1 1 0 1 1 2 1 1 0 1 
1 1 1 2 0 1 1 1 1 2 1 1 0 1 1 1 
1 2 0 1 1 1 4873 2926 100 MP stroke
1 1 0 2 1 1 1 1 0 2 1 1 1 1 0 1 
1 2 1 1 0 1 1 2 1 1 0 1 1 1 1 2 
0 1 1 1 1 2 0 1 1 1 1 1 0 2 1 1 
1 1 0 1 1 2 1 1 0 1 1 2 1 1 0 1 
1 1 1 2 0 1 1 1 1 2 0 1 1 1 1 2 
0 1 1 1 1 1 0 2 1 1 1 1 0 2 1 1 
1 1 0 1 1 2 1 1 0 1 1 2 1 1 0 1 
1 1 1 2 0 1 1 1 1 2 0 1 1 1 1 2 
0 1 1 1 1 1 0 2 1 1 1 1 0 2 1 1 
1 1 0 1 1 2 1 1 0 1 1 2 1 1 0 1 
1 2 1 1 0 1 1 1 1 2 0 1 1 1 1 2 
0 1 1 1 1 2 0 1 1 1 1 2 0 1 1 1 
1 1 0 2 1 1 4807 2798 100 MP stroke
1 1 0 2 1 1 1 1 0 2 1 1 1 1 0 1 
1 2 1 1 1 1 0 2 1 1 1 1 0 2 1 1 
1 1 0 2 1 1 1 1 0 1 1 2 1 1 0 1 
1 2 1 1 0 1 1 2 1 1 0 1 1 2 1 1 
0 1 1 2 1 1 0 1 1 1 1 2 0 1 1 1 
1 2 0 1 1 1 1 2 0 1 1 1 1 2 0 1 
1 1 1 2 0 1 1 1 1 1 0 2 1 1 1 1 
0 2 1 1 1 1 0 2 1 1 1 1 0 2 1 1 
1 1 0 2 1 1 1 1 0 2 1 1 1 1 0 2 
1 1 1 1 0 2 1 1 1 1 0 1 1 2 1 1 
0 1 1 2 1 1 0 1 1 2 1 1 0 1 1 2 
1 1 0 1 1 2 1 1 0 1 1 2 1 1 0 1 
1 2 1 1 0 1 4741 2668 100 MP stroke
1 2 1 1 0 1 1 2 1 1 0 1 1 2 1 1 
0 1 1 1 1 2 0 1 1 1 1 2 0 1 1 1 
1 2 0 1 1 1 1 2 0 1 1 1 1 2 0 1 
1 1 1 2 1 1 0 1 1 2 1 1 0 1 1 2 
1 1 0 1 1 2 1 1 0 1 1 2 1 1 0 1 
1 2 1 1 0 1 1 2 1 1 0 1 1 2 1 1 
0 1 1 2 1 1 0 1 1 2 1 1 0 1 1 2 
1 1 0 1 1 2 1 1 0 1 1 2 1 1 0 1 
1 2 1 1 0 1 1 2 1 1 0 1 1 2 1 1 
0 1 1 2 1 1 0 1 1 2 1 1 0 1 1 2 
1 1 0 1 1 2 1 1 0 1 1 2 1 1 0 1 
1 2 1 1 0 1 1 2 1 1 0 1 1 2 1 1 
0 1 1 2 1 1 4674 2536 100 MP stroke
0 1 1 2 1 1 0 1 1 2 1 1 0 1 1 2 
1 1 0 1 1 2 1 1 0 1 1 2 1 1 0 1 
1 2 1 1 0 1 1 2 1 1 0 1 1 2 1 1 
0 1 1 2 1 1 0 1 1 2 1 1 0 1 1 2 
1 1 0 1 1 2 1 1 0 1 1 2 1 1 1 1 
0 2 1 1 1 1 0 2 1 1 1 1 0 2 1 1 
1 1 0 2 1 1 1 1 0 2 1 1 1 1 0 2 
1 1 1 1 0 2 1 1 1 1 0 2 1 1 1 1 
0 2 1 1 1 1 0 2 1 1 1 1 0 2 1 1 
1 1 0 2 1 1 1 1 0 2 1 1 1 1 0 2 
1 1 1 1 0 2 1 1 1 1 0 2 1 1 1 1 
0 2 1 1 1 1 0 2 1 1 1 1 0 2 1 1 
1 1 0 2 1 1 4608 2404 100 MP stroke
1 1 0 2 1 1 1 1 0 2 1 1 1 1 0 2 
1 1 1 1 0 2 1 1 1 1 0 2 1 1 1 1 
0 2 1 1 1 1 0 2 1 1 1 1 0 2 1 1 
1 1 0 2 1 1 1 1 0 2 1 1 1 1 0 2 
1 1 1 1 0 2 1 1 1 1 0 2 1 1 1 1 
0 2 1 1 1 1 0 2 1 1 1 1 0 2 1 1 
1 1 0 2 1 1 1 1 0 2 1 1 1 1 1 2 
0 1 1 1 1 2 0 1 1 1 1 2 0 1 1 1 
1 2 0 1 1 1 1 2 0 1 1 1 1 2 0 1 
1 1 1 2 0 1 1 1 1 2 0 1 1 1 1 2 
0 1 1 1 1 2 0 1 1 1 1 2 0 1 1 1 
1 2 0 1 1 1 1 2 0 1 1 1 1 2 0 1 
1 1 1 2 0 1 4542 2272 100 MP stroke
1 1 1 1 0 2 1 1 1 1 0 2 1 1 1 1 
0 2 1 1 1 1 0 2 1 1 1 1 0 2 1 1 
1 1 0 2 1 1 1 1 0 2 1 1 1 1 0 2 
1 1 1 1 0 2 1 1 1 1 0 1 1 2 1 1 
0 1 1 2 1 1 0 1 1 2 1 1 0 1 1 2 
1 1 0 1 1 2 1 1 0 1 1 2 1 1 0 1 
1 1 1 2 0 1 1 1 1 2 0 1 1 1 1 2 
0 1 1 1 1 2 0 1 1 1 1 2 0 1 1 1 
1 1 0 2 1 1 1 1 0 2 1 1 1 1 1 2 
0 1 1 1 1 2 0 1 1 1 1 2 0 1 1 1 
1 1 0 2 1 1 1 1 0 2 1 1 1 1 0 2 
1 1 1 1 0 1 1 2 1 1 0 1 1 2 1 1 
0 1 1 2 1 1 4475 2142 100 MP stroke
0 1 1 2 1 1 0 1 1 1 1 2 0 1 1 1 
1 2 0 1 1 1 1 2 0 1 1 1 1 1 0 2 
1 1 1 1 0 2 1 1 1 1 0 1 1 2 1 1 
0 1 1 2 1 1 0 1 1 2 1 1 0 1 1 1 
1 2 0 1 1 1 1 2 0 1 1 1 1 1 0 2 
1 1 1 1 0 2 1 1 1 1 0 1 1 2 1 1 
0 1 1 2 1 1 0 1 1 1 1 2 0 1 1 1 
1 2 0 1 1 1 1 1 0 2 1 1 1 1 0 2 
1 1 1 1 0 1 1 2 1 1 0 1 1 2 1 1 
0 1 1 1 1 2 0 1 1 1 1 2 0 1 1 1 
1 1 0 2 1 1 1 1 0 1 1 2 1 1 1 1 
0 2 1 1 1 1 0 1 1 2 1 1 0 1 1 1 
1 2 0 1 1 1 4409 2015 100 MP stroke
1 2 0 1 1 1 1 1 0 2 1 1 1 1 0 1 
1 2 1 1 0 1 1 1 1 2 0 1 1 1 1 1 
0 2 1 1 1 1 0 2 1 1 1 1 0 1 1 2 
1 1 0 1 1 1 1 2 0 1 1 1 1 1 0 2 
1 1 1 1 0 1 1 2 1 1 0 1 1 1 1 2 
0 1 1 1 1 1 0 2 1 1 1 1 0 1 1 2 
1 1 0 1 1 1 1 2 0 1 1 1 1 1 0 2 
1 1 1 1 0 1 1 2 1 1 0 1 1 1 1 2 
0 1 1 1 1 1 0 2 1 1 1 1 0 1 1 1 
1 2 0 1 1 1 1 1 0 2 1 1 1 1 0 1 
1 2 1 1 0 1 1 1 1 1 0 2 1 1 1 1 
0 1 1 2 1 1 0 1 1 1 1 2 0 1 1 1 
1 1 0 1 1 2 4343 1891 100 MP stroke
1 1 1 1 0 1 1 2 1 1 0 1 1 1 1 1 
0 2 1 1 1 1 0 1 1 2 1 1 0 1 1 1 
1 1 0 2 1 1 1 1 0 1 1 1 1 2 0 1 
1 1 1 1 0 2 1 1 1 1 0 1 1 1 1 2 
0 1 1 1 1 1 0 1 1 2 1 1 0 1 1 1 
1 1 0 2 1 1 1 1 0 1 1 1 1 2 0 1 
1 1 1 1 0 1 1 2 1 1 0 1 1 1 1 1 
0 2 1 1 1 1 0 1 1 1 1 1 0 2 1 1 
1 1 0 1 1 1 1 2 0 1 1 1 1 1 0 1 
1 2 1 1 0 1 1 1 1 1 0 1 1 2 1 1 
0 1 1 1 1 1 0 1 1 2 1 1 0 1 1 1 
1 1 0 2 1 1 1 1 0 1 1 1 1 1 0 2 
1 1 1 1 0 1 4277 1773 100 MP stroke
1 1 1 1 0 2 1 1 1 1 0 1 1 1 1 1 
0 2 1 1 1 1 0 1 1 1 1 1 0 1 1 2 
1 1 1 1 0 1 1 1 1 1 0 2 1 1 1 1 
0 1 1 1 1 1 0 1 1 2 1 1 0 1 1 1 
1 1 0 1 1 1 1 2 0 1 1 1 1 1 0 1 
1 1 1 1 0 2 1 1 1 1 0 1 1 1 1 1 
0 1 1 2 1 1 0 1 1 1 1 1 0 1 1 1 
1 1 0 2 1 1 1 1 0 1 1 1 1 1 0 1 
1 1 1 2 0 1 1 1 1 1 0 1 1 1 1 1 
0 1 1 2 1 1 0 1 1 1 1 1 0 1 1 1 
1 1 0 1 1 2 1 1 0 1 1 1 1 1 0 1 
1 1 1 1 0 1 1 1 1 2 0 1 1 1 1 1 
0 1 1 1 1 1 4210 1661 100 MP stroke
0 1 1 1 1 1 0 2 1 1 1 1 0 1 1 1 
1 1 0 1 1 1 1 1 0 1 1 1 1 2 0 1 
1 1 1 1 0 1 1 1 1 1 0 1 1 1 1 1 
0 1 1 1 1 2 0 1 1 1 1 1 0 1 1 1 
1 1 1 1 0 1 1 1 1 1 0 1 1 1 1 1 
0 2 1 1 1 1 0 1 1 1 1 1 0 1 1 1 
1 1 0 1 1 1 1 1 0 1 1 1 1 1 0 1 
1 1 1 2 0 1 1 1 1 1 0 1 1 1 1 1 
0 1 1 1 1 1 0 1 1 1 1 1 0 1 1 1 
1 1 0 1 1 1 1 1 0 1 1 1 1 1 0 1 
1 2 1 1 0 1 1 1 1 1 0 1 1 1 1 1 
0 1 1 1 1 1 0 1 1 1 1 1 0 1 1 1 
1 1 0 1 1 1 4144 1556 100 MP stroke
1 1 0 1 1 1 1 1 0 1 1 1 1 1 0 1 
1 1 1 1 0 1 1 1 1 1 0 1 1 1 1 1 
0 1 1 1 1 1 0 1 1 1 1 1 0 1 1 1 
1 1 0 1 1 1 1 1 0 1 1 1 1 1 0 1 
1 1 1 1 0 1 1 1 1 1 0 1 1 1 1 1 
0 1 1 1 1 1 0 1 1 1 1 1 0 1 1 1 
1 1 1 1 0 1 1 1 1 1 0 1 1 1 1 1 
0 1 1 1 1 0 -1 0 2 2 1 1 0 1 1 1 
1 1 0 1 1 1 1 1 0 1 1 1 1 1 0 1 
1 1 1 1 0 1 1 1 1 1 0 1 1 1 1 1 
1 1 1 1 0 1 1 1 1 1 0 1 1 1 1 1 
0 1 1 1 1 1 0 1 1 1 1 1 1 1 1 1 
0 1 1 1 1 1 4076 1458 100 MP stroke
0 1 1 1 1 1 0 1 1 1 1 1 0 1 1 1 
1 0 -1 0 2 2 1 1 0 1 1 1 1 1 0 1 
1 1 1 1 1 1 1 1 0 1 1 1 1 1 0 1 
1 1 1 1 0 1 1 1 1 0 -1 0 2 2 1 1 
0 1 1 1 1 1 0 1 1 1 1 1 1 1 1 1 
0 1 1 1 1 1 0 1 1 1 1 0 -1 0 2 2 
1 1 0 1 1 1 1 1 1 1 1 1 0 1 1 1 
1 1 1 1 0 1 1 1 1 0 -1 0 2 2 1 1 
0 1 1 1 1 1 1 1 1 1 0 1 1 1 1 1 
1 1 1 1 0 1 1 1 1 1 1 1 1 1 0 1 
1 1 1 1 1 1 1 1 0 1 1 1 1 1 1 1 
1 1 0 1 1 1 1 1 1 1 1 1 0 1 1 1 
1 1 1 1 1 1 4003 1363 100 MP stroke
0 1 1 1 1 1 1 1 1 1 0 1 1 1 1 0 
-1 0 2 2 1 1 1 1 1 1 0 1 1 1 1 1 
1 1 1 1 1 1 1 1 0 1 1 1 1 1 1 1 
1 1 0 1 1 1 1 0 -1 0 2 2 1 1 1 1 
1 1 0 1 1 1 1 0 -1 0 2 2 1 1 1 1 
1 1 1 1 1 1 0 1 1 1 1 0 -1 0 2 2 
1 1 1 1 1 1 1 1 1 1 0 1 1 1 1 0 
1 1 0 1 1 1 1 0 -1 0 2 2 1 1 1 1 
1 1 1 1 1 1 1 1 1 1 0 1 1 1 1 0 
-1 0 2 2 1 0 -1 0 2 2 1 1 1 1 1 1 
1 1 1 1 1 1 1 1 1 1 1 1 1 1 1 1 
0 1 1 1 1 0 -1 0 2 2 1 0 -1 0 2 2 
1 0 -1 0 2 2 3925 1275 100 MP stroke
1 0 -1 0 2 2 1 0 -1 0 2 2 1 0 -1 0 
2 2 1 0 -1 0 2 2 1 0 -1 0 2 2 1 0 
-1 0 2 2 1 0 -1 0 2 2 1 0 -1 0 2 2 
1 0 -1 0 2 2 1 0 -1 0 2 2 1 0 -1 0 
2 2 1 0 -1 0 2 2 1 0 1 1 1 1 1 1 
1 1 1 1 1 1 1 1 1 1 1 1 1 1 1 1 
1 0 -1 0 2 2 1 0 -1 0 2 2 1 0 1 1 
1 1 1 1 1 1 1 0 -1 0 2 2 1 0 1 1 
1 1 1 1 1 1 1 1 1 1 1 1 1 0 1 1 
1 1 1 1 1 1 1 1 1 0 -1 0 2 2 1 0 
1 1 1 1 1 1 1 1 1 1 1 0 1 1 1 1 
1 1 1 1 1 1 1 0 1 1 1 1 1 1 1 0 
-1 0 2 2 1 0 3843 1201 100 MP stroke
1 1 1 1 1 1 1 0 1 1 1 1 1 1 1 0 
1 1 1 1 1 1 1 0 1 1 1 1 1 1 1 1 
1 1 1 0 1 1 1 1 1 0 1 1 1 1 1 0 
1 1 1 1 1 1 1 0 1 1 1 1 1 1 1 0 
1 1 1 1 1 1 1 0 1 1 1 0 1 1 1 1 
1 0 1 1 1 1 1 1 1 0 1 1 1 0 1 1 
1 1 1 1 1 0 1 1 1 0 1 1 1 1 1 0 
1 1 1 1 1 0 1 1 1 0 1 1 1 1 1 0 
1 1 1 1 1 0 1 1 1 0 1 1 1 0 1 1 
1 1 1 0 1 1 1 1 1 0 1 1 1 0 1 1 
1 0 1 1 1 0 1 1 1 1 1 0 1 1 1 0 
1 1 1 0 1 1 1 1 1 0 1 1 1 0 1 1 
1 0 1 1 1 0 3744 1136 100 MP stroke
1 1 1 0 1 1 1 0 1 1 1 0 1 1 1 0 
1 1 1 0 1 1 1 0 1 1 1 0 1 0 1 1 
1 0 1 1 1 0 1 1 1 0 1 1 1 0 1 0 
1 1 1 0 1 1 1 0 1 1 1 0 1 0 1 1 
1 0 1 1 1 0 1 1 1 0 1 0 1 1 1 0 
1 0 1 1 1 0 1 1 1 0 1 0 1 1 1 0 
1 0 1 1 1 0 1 1 1 0 1 0 1 1 1 0 
1 0 1 1 1 0 1 0 1 1 1 0 1 0 1 1 
1 0 1 0 1 1 1 0 1 0 1 1 1 0 1 0 
1 0 1 1 1 0 1 0 1 0 1 1 1 0 1 0 
1 1 1 0 1 0 1 0 1 1 1 0 1 0 1 0 
1 1 1 0 1 0 1 0 1 1 1 0 1 0 1 0 
1 0 1 1 1 0 3645 1100 100 MP stroke
1 0 1 0 1 0 1 1 1 0 1 0 1 0 1 1 
1 0 1 0 1 0 1 0 1 0 1 1 1 0 1 0 
1 0 1 0 1 0 1 1 1 0 1 0 1 0 1 0 
1 0 1 0 1 0 1 1 1 0 1 0 1 0 1 0 
1 0 1 0 1 0 1 1 1 0 1 0 1 0 1 0 
1 0 1 0 1 0 1 0 1 0 1 0 1 0 1 1 
1 0 1 0 1 0 1 0 1 0 1 0 1 0 1 0 
1 0 1 0 1 0 1 0 1 0 1 0 1 0 1 0 
1 0 1 0 1 0 1 0 1 0 1 0 1 0 1 0 
1 0 1 0 1 0 1 0 1 0 1 0 1 0 1 0 
1 0 1 0 1 0 1 0 1 0 1 0 1 0 1 0 
1 0 1 -1 1 0 1 0 1 0 1 0 1 0 1 0 
1 0 1 0 1 0 3546 1094 100 MP stroke
1 0 1 0 1 -1 1 0 1 0 1 0 1 0 1 0 
1 0 1 0 1 0 1 -1 1 0 1 0 1 0 1 0 
1 0 1 0 1 -1 1 0 1 0 1 0 1 0 1 0 
1 -1 1 0 1 0 1 0 1 0 1 0 1 -1 1 0 
1 0 1 0 1 0 1 -1 1 0 1 0 1 0 1 -1 
1 0 1 0 1 0 1 0 1 -1 1 0 1 0 1 0 
1 -1 1 0 1 0 1 0 1 -1 1 0 1 0 1 0 
1 -1 1 0 1 0 1 0 1 -1 1 0 1 0 1 0 
1 -1 1 0 1 0 1 -1 1 0 1 0 1 -1 1 0 
1 0 1 -1 1 0 1 0 1 -1 1 0 1 0 1 0 
1 -1 1 0 1 -1 1 0 1 0 1 -1 1 0 1 0 
1 -1 1 0 1 -1 1 0 1 0 1 -1 1 0 1 0 
1 -1 1 0 1 -1 3447 1119 100 MP stroke
1 0 1 0 1 -1 1 0 1 -1 1 0 1 0 1 -1 
1 0 1 -1 1 0 1 -1 1 0 1 -1 1 0 1 0 
1 -1 1 0 1 -1 1 0 1 -1 1 0 1 0 1 -1 
1 0 1 -1 1 0 1 -1 1 0 1 -1 1 0 1 -1 
1 0 1 -1 1 0 1 -1 1 0 1 -1 1 0 1 -1 
1 0 1 -1 1 0 1 -1 1 0 1 -1 1 -1 1 0 
1 -1 1 0 1 -1 1 0 1 -1 1 0 1 -1 1 0 
1 -1 1 0 1 -1 1 -1 1 0 1 -1 1 -1 1 0 
1 -1 1 0 1 -1 1 0 1 -1 1 -1 1 0 1 -1 
1 -1 1 0 1 -1 1 0 1 -1 1 0 1 -1 1 -1 
1 -1 1 0 1 -1 1 0 1 -1 1 -1 1 0 1 -1 
1 -1 1 0 1 -1 1 -1 1 0 1 -1 1 -1 1 0 
1 -1 1 -1 1 -1 3348 1173 100 MP stroke
1 0 1 0 1 -1 1 -1 1 -1 1 0 1 -1 1 -1 
1 -1 1 0 1 -1 1 -1 1 -1 1 0 1 -1 1 -1 
1 -1 1 0 1 -1 1 0 1 -1 1 -1 1 -1 1 -1 
1 -1 1 0 1 -1 1 -1 1 -1 1 0 1 -1 1 -1 
1 -1 1 0 1 -1 1 -1 1 -1 1 0 1 -1 1 -1 
1 -1 1 -1 1 -1 1 0 1 -1 1 -1 1 -1 1 -1 
1 -1 1 0 1 -1 1 -1 1 -1 1 -1 1 -1 1 0 
1 -1 1 -1 1 -1 1 -1 1 -1 1 0 -1 0 2 -2 
1 0 1 -1 1 -1 1 -1 1 -1 1 -1 1 0 -1 0 
2 -2 1 0 1 -1 1 -1 1 -1 1 -1 1 -1 1 -1 
1 0 1 -1 1 -1 1 -1 1 -1 1 -1 1 -1 1 -1 
1 -1 1 -1 1 -1 1 -1 1 0 -1 0 2 -2 1 0 
-1 0 2 -2 1 0 3253 1250 100 MP stroke
1 -1 1 -1 1 -1 1 -1 1 -1 1 -1 1 -1 1 -1 
1 -1 1 -1 1 -1 1 -1 1 -1 1 -1 1 -1 1 -1 
1 -1 1 -1 1 -1 1 -1 1 -1 1 -1 1 -1 1 -1 
1 -1 1 -1 1 -1 1 -1 1 -1 1 -1 1 -1 1 -1 
0 -1 1 -1 1 0 -1 0 2 -2 1 0 -1 0 2 -2 
1 0 -1 0 2 -2 1 -1 1 -1 1 -1 1 -1 1 -1 
1 -1 1 -1 1 -1 1 -1 0 -1 1 -1 1 0 -1 0 
2 -2 1 -1 1 -1 1 -1 1 -1 1 -1 1 -1 1 -1 
0 -1 1 -1 1 0 1 -1 0 -1 1 -1 1 0 -1 0 
2 -2 1 -1 1 -1 1 -1 1 -1 1 -1 0 -1 1 -1 
1 0 -1 0 2 -2 1 -1 1 -1 1 -1 1 -1 1 -1 
0 -1 1 -1 1 -1 1 -1 1 -1 1 -1 1 -1 0 -1 
1 -1 1 -1 1 -1 3167 1342 100 MP stroke
1 -1 0 -1 1 -1 1 0 -1 0 2 -2 1 -1 1 -1 
1 -1 0 -1 1 -1 1 0 -1 0 2 -2 1 -1 1 -1 
1 -1 0 -1 1 -1 1 -1 1 -1 1 -1 0 -1 1 -1 
1 -1 1 -1 1 -1 0 -1 1 -1 1 0 -1 0 2 -2 
1 -1 0 -1 1 -1 1 0 -1 0 2 -2 1 -1 0 -1 
1 -1 1 0 -1 0 2 -2 1 -1 0 -1 1 -1 1 0 
-1 0 2 -2 1 -1 0 -1 1 -1 1 -1 1 -1 1 -1 
0 -1 1 -1 1 -1 1 -1 1 -1 0 -1 1 -1 1 -1 
1 -1 1 -1 0 -1 1 -1 1 -1 1 -1 0 -1 1 -1 
1 0 -1 0 2 -2 1 -1 0 -1 1 -1 1 -1 1 -1 
1 -1 0 -1 1 -1 1 -1 0 -1 1 -1 1 -1 1 -1 
1 -1 0 -1 1 -1 1 -1 0 -1 1 -1 1 -1 1 -1 
1 -1 0 -1 1 -1 3094 1434 100 MP stroke
1 -1 0 -1 1 -1 1 -1 0 -1 1 -1 1 0 -1 0 
2 -2 1 -1 0 -1 1 -1 1 -1 0 -1 1 -1 1 -1 
1 -1 1 -1 0 -1 1 -1 1 -1 0 -1 1 -1 1 -1 
0 -1 1 -1 1 -1 0 -1 1 -1 1 0 -1 0 2 -2 
1 -1 0 -1 1 -1 1 -1 0 -1 1 -1 1 -1 0 -1 
1 -1 1 -1 0 -1 1 -1 1 -1 1 -1 1 -1 0 -1 
1 -1 1 -1 0 -1 1 -1 1 -1 0 -1 1 -1 1 -1 
0 -1 1 -1 1 -1 0 -1 1 -1 1 -1 0 -1 1 -1 
1 -1 1 -1 1 -1 0 -1 1 -1 1 -1 0 -1 1 -1 
1 -1 0 -1 1 -1 1 -1 1 -1 0 -1 1 -1 1 -1 
0 -1 1 -1 1 -1 0 -1 1 -1 1 -1 0 -1 1 -1 
1 -1 0 -1 1 -1 1 -1 0 -1 1 -1 1 -1 0 -1 
1 -1 1 -1 0 -1 3026 1531 100 MP stroke
1 -1 1 -1 0 -1 1 -1 1 -1 0 -1 1 -1 1 -1 
0 -1 1 -1 1 -1 0 -1 1 -1 1 -1 0 -1 1 -1 
1 -1 0 -1 1 -1 1 -1 0 -1 1 -1 1 -1 0 -1 
1 -1 1 -1 0 -1 1 -1 1 -1 0 -1 1 -1 1 -1 
0 -1 1 -1 1 -1 0 -1 1 -1 1 -1 0 -1 1 -1 
1 -1 0 -1 1 -1 1 -2 0 -1 1 -1 1 -1 0 -1 
1 -1 1 -1 0 -1 1 -1 1 -1 0 -1 1 -1 1 -1 
0 -1 1 -1 1 -1 0 -1 1 -1 1 -1 0 -1 1 -1 
1 -1 0 -1 1 -2 1 -1 0 -1 1 -1 1 -1 0 -1 
1 -1 1 -1 0 -1 1 -1 1 -1 0 -1 1 -1 1 -1 
0 -1 1 -1 1 -1 0 -2 1 -1 1 -1 0 -1 1 -1 
1 -1 0 -1 1 -1 1 -1 1 -1 0 -1 1 -1 1 -1 
0 -1 1 -2 1 -1 2959 1634 100 MP stroke
0 -1 1 -1 1 -1 0 -1 1 -1 1 -1 0 -1 1 -1 
1 -1 0 -1 1 -2 1 -1 0 -1 1 -1 1 -1 0 -1 
1 -1 1 -1 0 -1 1 -1 1 -1 0 -2 1 -1 1 -1 
0 -1 1 -1 1 -1 0 -1 1 -1 1 -1 0 -1 1 -2 
1 -1 0 -1 1 -1 1 -1 0 -1 1 -1 1 -1 0 -1 
1 -1 1 -2 0 -1 1 -1 1 -1 0 -1 1 -1 1 -1 
0 -1 1 -1 1 -2 0 -1 1 -1 1 -1 0 -1 1 -1 
1 -1 0 -1 1 -2 1 -1 0 -1 1 -1 1 -1 0 -1 
1 -1 1 -1 0 -2 1 -1 1 -1 0 -1 1 -1 1 -1 
0 -1 1 -1 1 -2 0 -1 1 -1 1 -1 0 -1 1 -1 
1 -1 0 -2 1 -1 1 -1 0 -1 1 -1 1 -1 0 -1 
1 -2 1 -1 0 -1 1 -1 1 -1 0 -1 1 -1 1 -2 
0 -1 1 -1 1 -1 2893 1744 100 MP stroke
0 -1 1 -1 1 -1 0 -2 1 -1 1 -1 0 -1 1 -1 
1 -1 1 -2 0 -1 1 -1 1 -1 0 -1 1 -1 1 -1 
0 -2 1 -1 1 -1 0 -1 1 -1 1 -1 0 -2 1 -1 
1 -1 0 -1 1 -1 1 -1 0 -2 1 -1 1 -1 0 -1 
1 -1 1 -1 0 -2 1 -1 1 -1 0 -1 1 -1 1 -2 
0 -1 1 -1 1 -1 0 -1 1 -1 1 -2 0 -1 1 -1 
1 -1 0 -1 1 -1 1 -2 0 -1 1 -1 1 -1 0 -1 
1 -2 1 -1 0 -1 1 -1 1 -1 0 -2 1 -1 1 -1 
0 -1 1 -1 1 -1 0 -2 1 -1 1 -1 0 -1 1 -1 
1 -2 0 -1 1 -1 1 -1 0 -1 1 -2 1 -1 0 -1 
1 -1 1 -1 0 -2 1 -1 1 -1 0 -1 1 -1 1 -2 
0 -1 1 -1 1 -1 0 -1 1 -2 1 -1 0 -1 1 -1 
1 -1 0 -2 1 -1 2827 1861 100 MP stroke
1 -1 0 -1 1 -2 1 -1 0 -1 1 -1 1 -1 0 -2 
1 -1 1 -1 0 -1 1 -1 1 -2 0 -1 1 -1 1 -1 
0 -2 1 -1 1 -1 0 -1 1 -1 1 -2 0 -1 1 -1 
1 -1 1 -2 0 -1 1 -1 1 -1 0 -1 1 -2 1 -1 
0 -1 1 -1 1 -2 0 -1 1 -1 1 -1 0 -2 1 -1 
1 -1 0 -1 1 -1 1 -2 0 -1 1 -1 1 -1 0 -2 
1 -1 1 -1 0 -1 1 -2 1 -1 0 -1 1 -1 1 -1 
0 -2 1 -1 1 -1 0 -1 1 -2 1 -1 0 -1 1 -1 
1 -2 0 -1 1 -1 1 -1 0 -2 1 -1 1 -1 0 -1 
1 -2 1 -1 0 -1 1 -1 1 -2 0 -1 1 -1 1 -1 
0 -2 1 -1 1 -1 0 -1 1 -2 1 -1 0 -1 1 -1 
1 -2 0 -1 1 -1 1 -1 0 -2 1 -1 1 -1 0 -1 
1 -2 1 -1 0 -1 2761 1983 100 MP stroke
1 -1 1 -2 0 -1 1 -1 1 -1 0 -2 1 -1 1 -1 
0 -2 1 -1 1 -1 0 -1 1 -2 1 -1 0 -1 1 -1 
1 -2 0 -1 1 -1 1 -1 0 -2 1 -1 1 -1 0 -1 
1 -2 1 -1 0 -1 1 -2 1 -1 0 -1 1 -1 1 -2 
0 -1 1 -1 1 -1 0 -2 1 -1 1 -1 1 -2 0 -1 
1 -1 1 -1 0 -2 1 -1 1 -1 0 -1 1 -2 1 -1 
0 -1 1 -2 1 -1 0 -1 1 -1 1 -2 0 -1 1 -1 
1 -2 0 -1 1 -1 1 -1 0 -2 1 -1 1 -1 0 -2 
1 -1 1 -1 0 -1 1 -2 1 -1 0 -1 1 -2 1 -1 
0 -1 1 -1 1 -2 0 -1 1 -1 1 -2 0 -1 1 -1 
1 -1 0 -2 1 -1 1 -1 0 -2 1 -1 1 -1 0 -1 
1 -2 1 -1 0 -1 1 -2 1 -1 0 -1 1 -1 1 -2 
0 -1 1 -1 1 -2 2694 2110 100 MP stroke
0 -1 1 -1 1 -2 0 -1 1 -1 1 -1 0 -2 1 -1 
1 -1 0 -2 1 -1 1 -1 0 -1 1 -2 1 -1 0 -1 
1 -2 1 -1 0 -1 1 -2 1 -1 0 -1 1 -1 1 -2 
0 -1 1 -1 1 -2 0 -1 1 -1 1 -2 0 -1 1 -1 
1 -2 0 -1 1 -1 1 -1 0 -2 1 -1 1 -1 0 -2 
1 -1 1 -1 0 -2 1 -1 1 -1 0 -1 1 -2 1 -1 
0 -1 1 -2 1 -1 0 -1 1 -2 1 -1 1 -1 0 -2 
1 -1 1 -1 0 -2 1 -1 1 -1 0 -1 1 -2 1 -1 
0 -1 1 -2 1 -1 0 -1 1 -2 1 -1 0 -1 1 -2 
1 -1 0 -1 1 -2 1 -1 0 -1 1 -1 1 -2 0 -1 
1 -1 1 -2 0 -1 1 -1 1 -2 0 -1 1 -1 1 -2 
0 -1 1 -1 1 -2 0 -1 1 -1 1 -2 0 -1 1 -1 
1 -1 0 -2 1 -1 2628 2239 100 MP stroke
1 -1 0 -2 1 -1 1 -1 0 -2 1 -1 1 -1 0 -2 
1 -1 1 -1 0 -2 1 -1 1 -1 0 -2 1 -1 1 -1 
0 -2 1 -1 1 -1 0 -2 1 -1 1 -1 0 -2 1 -1 
1 -1 0 -1 1 -2 1 -1 0 -1 1 -2 1 -1 0 -1 
1 -2 1 -1 0 -1 1 -2 1 -1 0 -1 1 -2 1 -1 
0 -1 1 -2 1 -1 0 -1 1 -2 1 -1 0 -1 1 -2 
1 -1 0 -1 1 -2 1 -1 0 -1 1 -2 1 -1 0 -1 
1 -2 1 -1 0 -1 1 -2 1 -1 0 -1 1 -2 1 -1 
0 -1 1 -2 1 -1 0 -1 1 -2 1 -1 1 -1 0 -2 
1 -1 1 -1 0 -2 1 -1 1 -1 0 -2 1 -1 1 -1 
0 -2 1 -1 1 -1 0 -2 1 -1 1 -1 0 -2 1 -1 
1 -1 0 -2 1 -1 1 -1 0 -2 1 -1 1 -1 0 -2 
1 -1 1 -1 0 -2 2562 2371 100 MP stroke
1 -1 1 -1 0 -2 1 -1 1 -1 0 -2 1 -1 1 -1 
0 -2 1 -1 1 -1 0 -2 1 -1 1 -1 0 -2 1 -1 
1 -1 0 -2 1 -1 1 -1 0 -2 1 -1 1 -1 0 -2 
1 -1 1 -1 0 -2 1 -1 1 -1 0 -2 1 -1 1 -1 
0 -2 1 -1 1 -1 0 -2 1 -1 1 -1 0 -2 1 -1 
1 -1 0 -2 1 -1 1 -1 0 -2 1 -1 1 -1 0 -2 
1 -1 1 -1 0 -2 1 -1 1 -1 0 -2 1 -1 1 -1 
0 -2 1 -1 1 -1 0 -2 1 -1 1 -1 0 -2 1 -1 
1 -1 0 -2 1 -1 1 -1 0 -2 1 -1 1 -1 0 -2 
1 -1 1 -1 0 -2 1 -1 1 -1 0 -2 1 -1 1 -1 
0 -2 1 -1 1 -1 0 -2 1 -1 1 -1 1 -2 0 -1 
1 -1 1 -2 0 -1 1 -1 1 -2 0 -1 1 -1 1 -2 
0 -1 1 -1 1 -2 2495 2503 100 MP stroke
0 -1 1 -1 1 -2 0 -1 1 -1 1 -2 0 -1 1 -1 
1 -2 0 -1 1 -1 1 -2 0 -1 1 -1 1 -2 0 -1 
1 -1 1 -2 0 -1 1 -1 1 -2 0 -1 1 -1 1 -2 
0 -1 1 -1 1 -2 0 -1 1 -1 1 -2 0 -1 1 -1 
1 -2 0 -1 1 -1 1 -2 0 -1 1 -1 1 -2 0 -1 
1 -1 1 -2 0 -1 1 -1 1 -2 0 -1 1 -1 1 -2 
0 -1 1 -1 1 -2 0 -1 1 -1 1 -2 0 -1 1 -1 
1 -2 0 -1 1 -1 1 -2 0 -1 1 -1 1 -2 0 -1 
1 -1 1 -2 0 -1 1 -1 1 -2 0 -1 1 -1 1 -2 
0 -1 1 -1 1 -2 0 -1 1 -1 1 -2 0 -1 1 -1 
1 -2 0 -1 1 -1 1 -2 0 -1 1 -1 1 -2 0 -1 
1 -1 1 -2 0 -1 1 -1 1 -2 0 -1 1 -1 1 -2 
0 -1 1 -1 1 -2 2429 2635 100 MP stroke
1 -1 0 -1 1 -2 1 -1 0 -1 1 -2 1 -1 0 -1 
1 -2 1 -1 0 -1 1 -2 1 -1 0 -1 1 -2 1 -1 
0 -1 1 -1 1 -2 0 -1 1 -1 1 -2 0 -1 1 -1 
1 -2 0 -1 1 -1 1 -2 0 -1 1 -1 1 -2 0 -1 
1 -1 1 -2 0 -1 1 -1 1 -2 0 -1 1 -1 1 -2 
0 -1 1 -1 1 -2 0 -1 1 -1 1 -2 0 -1 1 -1 
1 -1 0 -2 1 -1 1 -1 0 -2 1 -1 1 -1 0 -2 
1 -1 1 -1 0 -2 1 -1 1 -1 0 -2 1 -1 1 -1 
0 -2 1 -1 1 -1 0 -2 1 -1 1 -1 0 -2 1 -1 
1 -1 0 -1 1 -2 1 -1 0 -1 1 -2 1 -1 0 -1 
1 -2 1 -1 0 -1 1 -2 1 -1 0 -1 1 -2 1 -1 
0 -1 1 -1 1 -2 0 -1 1 -1 1 -2 0 -1 1 -1 
1 -2 0 -1 1 -1 2363 2765 100 MP stroke
1 -2 0 -1 1 -1 1 -2 0 -1 1 -1 1 -1 0 -2 
1 -1 1 -1 0 -2 1 -1 1 -1 0 -2 1 -1 1 -1 
1 -2 0 -1 1 -1 1 -1 0 -2 1 -1 1 -1 0 -2 
1 -1 1 -1 0 -2 1 -1 1 -1 0 -1 1 -2 1 -1 
0 -1 1 -2 1 -1 0 -1 1 -2 1 -1 0 -1 1 -2 
1 -1 0 -1 1 -1 1 -2 0 -1 1 -1 1 -2 0 -1 
1 -1 1 -2 0 -1 1 -1 1 -1 0 -2 1 -1 1 -1 
0 -2 1 -1 1 -1 0 -1 1 -2 1 -1 0 -1 1 -2 
1 -1 0 -1 1 -2 1 -1 0 -1 1 -1 1 -2 0 -1 
1 -1 1 -2 0 -1 1 -1 1 -1 0 -2 1 -1 1 -1 
0 -2 1 -1 1 -1 0 -1 1 -2 1 -1 0 -1 1 -2 
1 -1 0 -1 1 -2 1 -1 0 -1 1 -1 1 -2 0 -1 
1 -1 1 -2 0 -1 2297 2894 100 MP stroke
1 -1 1 -1 0 -2 1 -1 1 -1 0 -1 1 -2 1 -1 
0 -1 1 -2 1 -1 0 -1 1 -1 1 -2 0 -1 1 -1 
1 -2 0 -1 1 -1 1 -1 0 -2 1 -1 1 -1 0 -2 
1 -1 1 -1 0 -1 1 -2 1 -1 0 -1 1 -1 1 -2 
1 -1 0 -1 1 -2 1 -1 0 -1 1 -1 1 -2 0 -1 
1 -1 1 -1 0 -2 1 -1 1 -1 0 -2 1 -1 1 -1 
0 -1 1 -2 1 -1 0 -1 1 -1 1 -2 0 -1 1 -1 
1 -1 0 -2 1 -1 1 -1 0 -2 1 -1 1 -1 0 -1 
1 -2 1 -1 0 -1 1 -1 1 -2 0 -1 1 -1 1 -1 
0 -2 1 -1 1 -1 0 -1 1 -2 1 -1 0 -1 1 -1 
1 -2 0 -1 1 -1 1 -2 0 -1 1 -1 1 -1 0 -2 
1 -1 1 -1 0 -1 1 -2 1 -1 0 -1 1 -1 1 -2 
0 -1 1 -1 1 -1 2230 3019 100 MP stroke
0 -2 1 -1 1 -1 0 -1 1 -2 1 -1 0 -1 1 -1 
1 -2 0 -1 1 -1 1 -1 0 -2 1 -1 1 -1 0 -1 
1 -2 1 -1 0 -1 1 -1 1 -1 0 -2 1 -1 1 -1 
0 -1 1 -2 1 -1 0 -1 1 -1 1 -2 0 -1 1 -1 
1 -1 0 -2 1 -1 1 -1 0 -1 1 -2 1 -1 0 -1 
1 -1 1 -1 0 -2 1 -1 1 -1 0 -1 1 -2 1 -1 
1 -1 0 -1 1 -2 1 -1 0 -1 1 -1 1 -1 0 -2 
1 -1 1 -1 0 -1 1 -2 1 -1 0 -1 1 -1 1 -2 
0 -1 1 -1 1 -1 0 -1 1 -2 1 -1 0 -1 1 -1 
1 -1 0 -2 1 -1 1 -1 0 -1 1 -2 1 -1 0 -1 
1 -1 1 -1 0 -2 1 -1 1 -1 0 -1 1 -2 1 -1 
0 -1 1 -1 1 -1 0 -2 1 -1 1 -1 0 -1 1 -1 
1 -2 0 -1 1 -1 2164 3141 100 MP stroke
1 -1 0 -1 1 -2 1 -1 0 -1 1 -1 1 -2 0 -1 
1 -1 1 -1 0 -1 1 -2 1 -1 0 -1 1 -1 1 -1 
0 -2 1 -1 1 -1 0 -1 1 -1 1 -2 0 -1 1 -1 
1 -1 0 -1 1 -2 1 -1 0 -1 1 -1 1 -1 0 -2 
1 -1 1 -1 0 -1 1 -1 1 -1 0 -2 1 -1 1 -1 
0 -1 1 -1 1 -2 0 -1 1 -1 1 -1 0 -1 1 -2 
1 -1 0 -1 1 -1 1 -1 0 -1 1 -2 1 -1 0 -1 
1 -1 1 -1 0 -2 1 -1 1 -1 1 -1 0 -1 1 -1 
1 -2 0 -1 1 -1 1 -1 0 -1 1 -2 1 -1 0 -1 
1 -1 1 -1 0 -1 1 -2 1 -1 0 -1 1 -1 1 -1 
0 -1 1 -2 1 -1 0 -1 1 -1 1 -1 0 -1 1 -2 
1 -1 0 -1 1 -1 1 -1 0 -1 1 -2 1 -1 0 -1 
1 -1 1 -1 0 -1 2098 3258 100 MP stroke
1 -2 1 -1 0 -1 1 -1 1 -1 0 -1 1 -2 1 -1 
0 -1 1 -1 1 -1 0 -1 1 -1 1 -2 0 -1 1 -1 
1 -1 0 -1 1 -1 1 -2 0 -1 1 -1 1 -1 0 -1 
1 -1 1 -1 0 -2 1 -1 1 -1 0 -1 1 -1 1 -1 
0 -1 1 -2 1 -1 0 -1 1 -1 1 -1 0 -1 1 -1 
1 -2 0 -1 1 -1 1 -1 0 -1 1 -1 1 -1 0 -2 
1 -1 1 -1 0 -1 1 -1 1 -1 0 -1 1 -2 1 -1 
0 -1 1 -1 1 -1 0 -1 1 -1 1 -1 0 -2 1 -1 
1 -1 0 -1 1 -1 1 -1 0 -1 1 -1 1 -2 0 -1 
1 -1 1 -1 0 -1 1 -1 1 -1 1 -1 0 -2 1 -1 
1 -1 0 -1 1 -1 1 -1 0 -1 1 -1 1 -1 0 -2 
1 -1 1 -1 0 -1 1 -1 1 -1 0 -1 1 -1 1 -1 
0 -2 1 -1 1 -1 2031 3371 100 MP stroke
0 -1 1 -1 1 -1 0 -1 1 -1 1 -1 0 -2 1 -1 
1 -1 0 -1 1 -1 1 -1 0 -1 1 -1 1 -1 0 -1 
1 -2 1 -1 0 -1 1 -1 1 -1 0 -1 1 -1 1 -1 
0 -1 1 -1 1 -2 0 -1 1 -1 1 -1 0 -1 1 -1 
1 -1 0 -1 1 -1 1 -1 0 -1 1 -2 1 -1 0 -1 
1 -1 1 -1 0 -1 1 -1 1 -1 0 -1 1 -1 1 -1 
0 -1 1 -2 1 -1 0 -1 1 -1 1 -1 0 -1 1 -1 
1 -1 0 -1 1 -1 1 -1 0 -1 1 -1 1 -1 0 -2 
1 -1 1 -1 0 -1 1 -1 1 -1 0 -1 1 -1 1 -1 
0 -1 1 -1 1 -1 0 -1 1 -1 1 -2 0 -1 1 -1 
1 -1 0 -1 1 -1 1 -1 0 -1 1 -1 1 -1 0 -1 
1 -1 1 -1 0 -1 1 -1 1 -1 1 -1 0 -1 1 -2 
1 -1 0 -1 1 -1 1965 3478 100 MP stroke
1 -1 0 -1 1 -1 1 -1 0 -1 1 -1 1 -1 0 -1 
1 -1 1 -1 0 -1 1 -1 1 -1 0 -1 1 -1 1 -1 
0 -1 1 -2 1 -1 0 -1 1 -1 1 -1 0 -1 1 -1 
1 -1 0 -1 1 -1 1 -1 0 -1 1 -1 1 -1 0 -1 
1 -1 1 -1 0 -1 1 -1 1 -1 0 -1 1 -1 1 -1 
0 -1 1 -1 1 -1 0 -1 1 -1 1 -1 0 -1 1 -1 
1 -1 0 -1 1 -2 1 -1 0 -1 1 -1 1 -1 0 -1 
1 -1 1 -1 0 -1 1 -1 1 -1 0 -1 1 -1 1 -1 
0 -1 1 -1 1 -1 0 -1 1 -1 1 -1 0 -1 1 -1 
1 -1 0 -1 1 -1 1 -1 0 -1 1 -1 1 -1 0 -1 
1 -1 1 -1 0 -1 1 -1 1 -1 0 -1 1 -1 1 -1 
0 -1 1 -1 1 -1 0 -1 1 -1 1 -1 0 -1 1 -1 
1 -1 0 -1 1 -1 1899 3579 100 MP stroke
1 -1 0 -1 1 -1 1 -1 0 -1 1 -1 1 -1 0 -1 
1 -1 1 -1 1 -1 0 -1 1 -1 1 -1 1 -1 1 -1 
0 -1 1 -1 1 -1 0 -1 1 -1 1 -1 0 -1 1 -1 
1 -1 0 -1 1 -1 1 -1 0 -1 1 -1 1 -1 0 -1 
1 -1 1 -1 0 -1 1 -1 1 -1 0 -1 1 -1 1 -1 
0 -1 1 -1 1 -1 0 -1 1 -1 1 -1 1 -1 1 -1 
0 -1 1 -1 1 -1 0 -1 1 -1 1 -1 0 -1 1 -1 
1 -1 0 -1 1 -1 1 -1 0 -1 1 -1 1 -1 0 -1 
1 -1 1 -1 1 -1 1 -1 0 -1 1 -1 1 -1 0 -1 
1 -1 1 -1 0 -1 1 -1 1 -1 0 -1 1 -1 1 -1 
0 -1 1 -1 1 -1 1 -1 1 -1 0 -1 1 -1 1 -1 
0 -1 1 -1 1 -1 0 -1 1 -1 1 -1 0 -1 1 -1 
1 0 -1 0 2 -2 1830 3677 100 MP stroke
1 -1 0 -1 1 -1 1 -1 0 -1 1 -1 1 -1 0 -1 
1 -1 1 -1 1 -1 1 -1 0 -1 1 -1 1 -1 0 -1 
1 -1 1 -1 1 -1 1 -1 1 -1 0 -1 1 -1 1 -1 
0 -1 1 -1 1 -1 0 -1 1 -1 1 -1 1 -1 1 -1 
0 -1 1 -1 1 -1 0 -1 1 -1 1 -1 1 -1 1 -1 
0 -1 1 -1 1 -1 0 -1 1 -1 1 -1 1 -1 1 -1 
0 -1 1 -1 1 -1 0 -1 1 -1 1 -1 1 -1 1 -1 
0 -1 1 -1 1 -1 0 -1 1 -1 1 -1 1 -1 1 -1 
0 -1 1 -1 1 -1 0 -1 1 -1 1 0 -1 0 2 -2 
1 -1 0 -1 1 -1 1 -1 1 -1 1 -1 0 -1 1 -1 
1 -1 0 -1 1 -1 1 0 -1 0 2 -2 1 -1 0 -1 
1 -1 1 -1 1 -1 1 -1 0 -1 1 -1 1 -1 1 -1 
1 -1 0 -1 1 -1 1757 3774 100 MP stroke
1 -1 0 -1 1 -1 1 0 -1 0 2 -2 1 -1 0 -1 
1 -1 1 0 -1 0 2 -2 1 -1 0 -1 1 -1 1 -1 
1 -1 1 -1 0 -1 1 -1 1 -1 1 -1 1 -1 1 -1 
0 -1 1 -1 1 0 -1 0 2 -2 1 -1 0 -1 1 -1 
1 0 -1 0 2 -2 1 -1 0 -1 1 -1 1 0 -1 0 
2 -2 1 -1 1 -1 1 -1 0 -1 1 -1 1 -1 1 -1 
1 -1 0 -1 1 -1 1 -1 1 -1 1 -1 0 -1 1 -1 
1 0 -1 0 2 -2 1 -1 0 -1 1 -1 1 0 -1 0 
2 -2 1 -1 1 -1 1 -1 0 -1 1 -1 1 -1 1 -1 
1 -1 0 -1 1 -1 1 0 -1 0 2 -2 1 -1 1 -1 
1 -1 0 -1 1 -1 1 0 -1 0 2 -2 1 -1 1 -1 
1 -1 0 -1 1 -1 1 -1 1 -1 1 -1 1 -1 1 -1 
0 -1 1 -1 1 -1 1683 3864 100 MP stroke
1 -1 1 -1 1 -1 1 -1 0 -1 1 -1 1 0 -1 0 
2 -2 1 -1 1 -1 1 -1 0 -1 1 -1 1 0 -1 0 
2 -2 1 -1 1 -1 1 -1 1 -1 1 -1 0 -1 1 -1 
1 0 1 -1 0 -1 1 -1 1 -1 1 -1 1 -1 1 -1 
1 -1 0 -1 1 -1 1 0 -1 0 2 -2 1 -1 1 -1 
1 -1 1 -1 1 -1 1 -1 1 -1 0 -1 1 -1 1 0 
-1 0 2 -2 1 -1 1 -1 1 -1 1 -1 1 -1 1 -1 
1 -1 0 -1 1 -1 1 0 -1 0 2 -2 1 -1 1 -1 
1 -1 1 -1 1 -1 1 -1 1 -1 1 -1 1 -1 0 -1 
1 -1 1 0 -1 0 2 -2 1 0 -1 0 2 -2 1 -1 
1 -1 1 -1 1 -1 1 -1 1 -1 1 -1 1 -1 1 -1 
1 -1 1 -1 0 -1 1 -1 1 0 -1 0 2 -2 1 0 
-1 0 2 -2 1 0 1602 3952 100 MP stroke
-1 0 2 -2 1 0 -1 0 2 -2 1 -1 1 -1 1 -1 
1 -1 1 -1 1 -1 1 -1 1 -1 1 -1 1 -1 1 -1 
1 -1 1 -1 1 -1 1 -1 1 -1 1 -1 1 -1 1 -1 
1 -1 1 -1 1 -1 1 -1 1 -1 1 -1 1 -1 1 -1 
1 -1 1 -1 1 -1 1 -1 1 -1 1 -1 1 0 -1 0 
2 -2 1 0 -1 0 2 -2 1 0 -1 0 2 -2 1 0 
-1 0 2 -2 1 0 -1 0 2 -2 1 0 -1 0 2 -2 
1 0 1 -1 1 -1 1 -1 1 -1 1 -1 1 -1 1 -1 
1 -1 1 -1 1 -1 1 -1 1 -1 1 -1 1 -1 1 -1 
1 0 -1 0 2 -2 1 0 -1 0 2 -2 1 0 1 -1 
1 -1 1 -1 1 -1 1 -1 1 -1 1 -1 1 -1 1 -1 
1 0 -1 0 2 -2 1 0 1 -1 1 -1 1 -1 1 -1 
1 -1 1 -1 1 -1 1514 4038 100 MP stroke
1 0 -1 0 2 -2 1 0 1 -1 1 -1 1 -1 1 -1 
1 0 -1 0 2 -2 1 0 1 -1 1 -1 1 -1 1 -1 
1 -1 1 -1 1 -1 1 0 1 -1 1 -1 1 -1 1 -1 
1 -1 1 -1 1 -1 1 0 1 -1 1 -1 1 -1 1 -1 
1 -1 1 0 -1 0 2 -2 1 0 1 -1 1 -1 1 -1 
1 -1 1 -1 1 0 1 -1 1 -1 1 -1 1 -1 1 -1 
1 0 1 -1 1 -1 1 -1 1 -1 1 -1 1 0 1 -1 
1 -1 1 -1 1 0 -1 0 2 -2 1 0 1 -1 1 -1 
1 -1 1 0 1 -1 1 -1 1 -1 1 -1 1 -1 1 0 
1 -1 1 -1 1 -1 1 0 1 -1 1 -1 1 -1 1 -1 
1 -1 1 0 1 -1 1 -1 1 0 1 -1 1 -1 1 -1 
1 0 1 -1 1 -1 1 -1 1 0 1 -1 1 -1 1 -1 
1 0 1 -1 1 -1 1419 4116 100 MP stroke
1 -1 1 0 1 -1 1 -1 1 -1 1 0 1 -1 1 -1 
1 -1 1 0 1 -1 1 -1 1 -1 1 0 1 -1 1 -1 
1 -1 1 0 1 -1 1 -1 1 -1 1 0 1 -1 1 -1 
1 -1 1 0 1 -1 1 -1 1 -1 1 0 1 -1 1 0 
1 -1 1 -1 1 -1 1 0 1 -1 1 -1 1 -1 1 0 
1 -1 1 0 1 -1 1 -1 1 -1 1 0 1 -1 1 -1 
1 -1 1 0 1 -1 1 0 1 -1 1 -1 1 -1 1 0 
1 -1 1 0 1 -1 1 -1 1 -1 1 0 1 -1 1 0 
1 -1 1 -1 1 0 1 -1 1 0 1 -1 1 -1 1 -1 
1 0 1 -1 1 0 1 -1 1 -1 1 -1 1 0 1 -1 
1 0 1 -1 1 0 1 -1 1 -1 1 -1 1 0 1 -1 
1 0 1 -1 1 -1 1 0 1 -1 1 -1 1 0 1 -1 
1 0 1 -1 1 0 1320 4183 100 MP stroke
1 -1 1 -1 1 0 1 -1 1 -1 1 0 1 -1 1 0 
1 -1 1 0 1 -1 1 -1 1 0 1 -1 1 -1 1 0 
1 -1 1 0 1 -1 1 0 1 -1 1 0 1 -1 1 -1 
1 0 1 -1 1 -1 1 0 1 -1 1 0 1 -1 1 0 
1 -1 1 0 1 -1 1 0 1 -1 1 -1 1 0 1 -1 
1 0 1 -1 1 0 1 -1 1 0 1 -1 1 0 1 -1 
1 0 1 -1 1 0 1 -1 1 0 1 -1 1 -1 1 0 
1 -1 1 0 1 -1 1 0 1 -1 1 0 1 -1 1 0 
1 -1 1 0 1 -1 1 0 1 -1 1 0 1 -1 1 0 
1 -1 1 0 1 -1 1 0 1 -1 1 0 1 -1 1 0 
1 -1 1 0 1 -1 1 0 1 -1 1 0 1 -1 1 0 
1 -1 1 0 1 -1 1 0 1 0 1 -1 1 0 1 -1 
1 0 1 -1 1 0 1221 4236 100 MP stroke
1 -1 1 0 1 -1 1 0 1 -1 1 0 1 -1 1 0 
1 -1 1 0 1 0 1 -1 1 0 1 -1 1 0 1 0 
1 -1 1 0 1 -1 1 0 1 -1 1 0 1 0 1 -1 
1 0 1 -1 1 0 1 -1 1 0 1 0 1 -1 1 0 
1 -1 1 0 1 0 1 -1 1 0 1 -1 1 0 1 -1 
1 0 1 0 1 -1 1 0 1 0 1 -1 1 0 1 -1 
1 0 1 -1 1 0 1 0 1 -1 1 0 1 0 1 -1 
1 0 1 -1 1 0 1 0 1 -1 1 0 1 0 1 -1 
1 0 1 -1 1 0 1 0 1 -1 1 0 1 0 1 -1 
1 0 1 0 1 -1 1 0 1 0 1 -1 1 0 1 -1 
1 0 1 0 1 -1 1 0 1 0 1 -1 1 0 1 0 
1 -1 1 0 1 0 1 -1 1 0 1 0 1 -1 1 0 
1 0 1 0 1 -1 1122 4275 100 MP stroke
1 0 1 0 1 -1 1 0 1 0 1 -1 1 0 1 0 
1 0 1 -1 1 0 1 -1 1 0 1 0 1 0 1 -1 
1 0 1 0 1 0 1 -1 1 0 1 0 1 -1 1 0 
1 0 1 -1 1 0 1 0 1 0 1 -1 1 0 1 0 
1 0 1 -1 1 0 1 0 1 0 1 -1 1 0 1 0 
1 -1 1 0 1 0 1 0 1 -1 1 0 1 0 1 0 
1 -1 1 0 1 0 1 0 1 -1 1 0 1 0 1 0 
1 -1 1 0 1 0 1 0 1 0 1 -1 1 0 1 0 
1 0 1 -1 1 0 1 0 1 0 1 -1 1 0 1 0 
1 0 1 0 1 -1 1 0 1 0 1 0 1 0 1 -1 
1 0 1 0 1 0 1 0 1 -1 1 0 1 0 1 0 
1 0 1 0 1 -1 1 0 1 0 1 0 1 0 1 -1 
1 0 1 0 1 0 1023 4299 100 MP stroke
1 0 1 -1 1 0 1 0 1 0 1 0 1 0 1 -1 
1 0 1 0 1 0 1 0 1 0 1 -1 1 0 1 0 
1 0 1 0 1 0 1 0 1 -1 1 0 1 0 1 0 
1 0 1 0 1 0 1 -1 1 0 1 0 1 0 1 0 
1 0 1 0 1 0 1 -1 1 0 1 0 1 0 1 0 
1 0 1 0 1 0 1 -1 1 0 1 0 1 0 1 0 
1 0 1 0 1 0 1 0 1 -1 1 0 1 0 1 0 
1 0 1 0 1 0 1 0 1 0 1 0 1 0 1 -1 
1 0 1 0 1 0 1 0 1 0 1 0 1 0 1 0 
1 0 1 0 1 0 1 0 1 -1 1 0 1 0 1 0 
1 0 1 0 1 0 1 0 1 0 1 0 1 0 1 0 
1 0 1 0 1 0 1 0 1 0 1 0 1 -1 1 0 
1 0 1 0 1 0 924 4310 100 MP stroke
1 0 1 0 1 0 1 0 1 0 1 0 1 0 1 0 
1 0 1 0 1 0 1 0 1 0 1 0 1 0 1 0 
1 0 1 0 1 0 1 0 1 0 1 0 1 0 1 0 
1 0 899 4310 26 MP stroke
gr

c8
0 sg
3360 4903 mt 
(w \(rads\)) s
 549 2586 mt  -90 rotate
(pdf) s
90 rotate
2985  240 mt 
(f) s
%%IncludeResource: font Helvetica
/Helvetica /ISOLatin1Encoding 96 FMSR

3018  300 mt 
(HWHM) s
%%IncludeResource: font Helvetica
/Helvetica /ISOLatin1Encoding 120 FMSR

3327  240 mt 
( T) s
%%IncludeResource: font Helvetica
/Helvetica /ISOLatin1Encoding 96 FMSR

3427  300 mt 
(symbol) s
%%IncludeResource: font Helvetica
/Helvetica /ISOLatin1Encoding 120 FMSR

3731  240 mt 
( = 0.125) s
 882 4658 mt 
( ) s
6239  431 mt 
( ) s
1 sg
0 352 2176 0 0 -352 4019 801 4 MP
PP
-2176 0 0 352 2176 0 0 -352 4019 801 5 MP stroke
4 w
DO
SO
6 w
0 sg
4019  801 mt 6195  801 L
4019  449 mt 6195  449 L
4019  801 mt 4019  449 L
6195  801 mt 6195  449 L
4019  801 mt 6195  801 L
4019  801 mt 4019  449 L
4019  801 mt 6195  801 L
4019  449 mt 6195  449 L
4019  801 mt 4019  449 L
6195  801 mt 6195  449 L
4483  588 mt 
(W \(Gaussian\)) s
gs 4019 449 2177 353 MR c np
DA
357 0 4090 545 2 MP stroke
SO
gr

4483  748 mt 
(W mod 2) s
%%IncludeResource: font Symbol
/Symbol /ISOLatin1Encoding 120 FMSR

4963  748 mt 
(p) s
%%IncludeResource: font Helvetica
/Helvetica /ISOLatin1Encoding 120 FMSR

5028  748 mt 
( \(Wrapped Gaussian\)) s
gs 4019 449 2177 353 MR c np
c8
357 0 4090 704 2 MP stroke
gr

c8

end %%Color Dict

eplot
%%EndObject

epage
end

showpage

%%Trailer
%%EOF
