\relax 
\citation{MSML-TSP2006}
\citation{MSML-TSP2013}
\citation{MSML-TSP2013}
\citation{MSML-TSP2013}
\@writefile{toc}{\contentsline {section}{\numberline {I}Introduction}{1}}
\newlabel{sec:intro}{{I}{1}}
\@writefile{toc}{\contentsline {section}{\numberline {II}Wideband LTV Channel}{1}}
\newlabel{sec:wltv_ch}{{II}{1}}
\newlabel{eq:rt}{{1}{1}}
\newlabel{eq:st_wideband}{{2}{1}}
\newlabel{eq:st_kernel}{{3}{1}}
\newlabel{eq:k0_hwb}{{4}{1}}
\newlabel{eq:st_vec}{{6}{2}}
\@writefile{toc}{\contentsline {section}{\numberline {III}Multi-layer Transmitter}{2}}
\newlabel{sec:multilayer}{{III}{2}}
\newlabel{eq:xt}{{10}{2}}
\newlabel{eq:xt_kprime}{{11}{2}}
\newlabel{eq:xt_kprime_baseband}{{12}{2}}
\newlabel{eq:pt_kprime}{{13}{2}}
\newlabel{eq:xt_vec_sumkprime}{{21}{2}}
\newlabel{eq:x_vec}{{22}{2}}
\newlabel{eq:HTX}{{23}{2}}
\newlabel{eq:xt_vec}{{24}{2}}
\newlabel{eq:rt_vec_chtxx}{{27}{2}}
\newlabel{eq:sigma2}{{31}{2}}
\@writefile{toc}{\contentsline {section}{\numberline {IV}Receiver Structure for Multi-layer Transmission}{3}}
\newlabel{sec:rx_structure}{{IV}{3}}
\newlabel{eq:y_vec_rx}{{49}{3}}
\newlabel{eq:y_vec}{{50}{3}}
\newlabel{eq:H}{{51}{3}}
\newlabel{eq:z_vec}{{52}{3}}
\@writefile{toc}{\contentsline {section}{\numberline {V}Design Choices}{3}}
\newlabel{sec:design}{{V}{3}}
\@writefile{toc}{\contentsline {section}{\numberline {VI}Information Rate}{3}}
\newlabel{sec:info_rate}{{VI}{3}}
\@writefile{toc}{\contentsline {subsection}{\numberline {\unhbox \voidb@x \hbox {VI-A}}Optimal Receiver}{4}}
\newlabel{sec:RX_opt}{{\unhbox \voidb@x \hbox {VI-A}}{4}}
\@writefile{toc}{\contentsline {subsection}{\numberline {\unhbox \voidb@x \hbox {VI-B}}Extended Band Receiver with Joint Layer Decoding}{4}}
\newlabel{sec:RX_EBJLD}{{\unhbox \voidb@x \hbox {VI-B}}{4}}
\@writefile{toc}{\contentsline {subsection}{\numberline {\unhbox \voidb@x \hbox {VI-C}}Same Band Receiver with Joint Layer Decoding}{4}}
\newlabel{sec:RX_SBJLD}{{\unhbox \voidb@x \hbox {VI-C}}{4}}
\@writefile{toc}{\contentsline {subsection}{\numberline {\unhbox \voidb@x \hbox {VI-D}}Same Band Receiver with Individual Layer Decoding}{4}}
\newlabel{sec:RX_SBILD}{{\unhbox \voidb@x \hbox {VI-D}}{4}}
\@writefile{toc}{\contentsline {subsection}{\numberline {\unhbox \voidb@x \hbox {VI-E}}Rank-deficient Receiver Matrix}{4}}
\newlabel{sec:RX_rank-deficient}{{\unhbox \voidb@x \hbox {VI-E}}{4}}
\newlabel{eq:HRX_SVD}{{74}{4}}
\newlabel{eq:zero-singular-values}{{78}{5}}
\newlabel{eq:y_tilde_vec}{{79}{5}}
\newlabel{eq:y_tilde_zeros}{{80}{5}}
\newlabel{eq:HRX_tilde}{{83}{5}}
\newlabel{eq:HRX_prime}{{86}{5}}
\@writefile{toc}{\contentsline {subsection}{\numberline {\unhbox \voidb@x \hbox {VI-F}}Relative Performance}{5}}
\newlabel{sec:relative_performance}{{\unhbox \voidb@x \hbox {VI-F}}{5}}
\@writefile{toc}{\contentsline {section}{\numberline {VII}Numerical Results}{5}}
\newlabel{sec:sim}{{VII}{5}}
\@writefile{toc}{\contentsline {subsection}{\numberline {\unhbox \voidb@x \hbox {VII-A}}Transmission Schemes}{5}}
\citation{MSML-TSP2013}
\citation{MSML-TSP2013}
\@writefile{lot}{\contentsline {table}{\numberline {I}{\ignorespaces Channel parameters.}}{6}}
\newlabel{tab:channel_params}{{I}{6}}
\@writefile{toc}{\contentsline {subsection}{\numberline {\unhbox \voidb@x \hbox {VII-B}}Channel}{6}}
\@writefile{lof}{\contentsline {figure}{\numberline {1}{\ignorespaces Input and output spectra of Scheme 1 on Channel A.}}{6}}
\newlabel{fig:cha_sch1_spectrum}{{1}{6}}
\@writefile{lof}{\contentsline {figure}{\numberline {2}{\ignorespaces Input and output spectra of Scheme 2 on Channel A.}}{6}}
\newlabel{fig:cha_sch2_spectrum}{{2}{6}}
\@writefile{toc}{\contentsline {subsection}{\numberline {\unhbox \voidb@x \hbox {VII-C}}Parameter Matching}{6}}
\newlabel{sec:params}{{\unhbox \voidb@x \hbox {VII-C}}{6}}
\@writefile{lof}{\contentsline {figure}{\numberline {3}{\ignorespaces Comparing rates of different receivers for Scheme 1.}}{7}}
\newlabel{fig:rate_cha_sch1}{{3}{7}}
\@writefile{lof}{\contentsline {figure}{\numberline {4}{\ignorespaces Comparing rates of different receivers for Scheme 2.}}{7}}
\newlabel{fig:rate_cha_sch2}{{4}{7}}
\@writefile{lof}{\contentsline {figure}{\numberline {5}{\ignorespaces Comparing rates of different schemes using SB JLD and SB ILD.}}{7}}
\newlabel{fig:rate_cha_sch1_sch2}{{5}{7}}
\@writefile{lof}{\contentsline {figure}{\numberline {6}{\ignorespaces Input and output spectra of Scheme 1 on Channel E.}}{7}}
\newlabel{fig:che_sch1_spectrum}{{6}{7}}
\@writefile{lof}{\contentsline {figure}{\numberline {7}{\ignorespaces Input and output spectra of Scheme 2 on Channel E.}}{7}}
\newlabel{fig:che_sch2_spectrum}{{7}{7}}
\bibstyle{unsrt}
\bibdata{uac2}
\bibcite{MSML-TSP2006}{1}
\bibcite{MSML-TSP2013}{2}
\@writefile{lof}{\contentsline {figure}{\numberline {8}{\ignorespaces Comparing rates of different receivers for Scheme 1.}}{8}}
\newlabel{fig:rate_che_sch1}{{8}{8}}
\@writefile{lof}{\contentsline {figure}{\numberline {9}{\ignorespaces Comparing rates of different receivers for Scheme 2.}}{8}}
\newlabel{fig:rate_che_sch2}{{9}{8}}
\@writefile{toc}{\contentsline {section}{\numberline {VIII}Conclusion}{8}}
\newlabel{sec:conc}{{VIII}{8}}
\@writefile{toc}{\contentsline {section}{References}{8}}
\@writefile{lof}{\contentsline {figure}{\numberline {10}{\ignorespaces Comparing rates of different schemes using SB JLD and SB ILD.}}{8}}
\newlabel{fig:rate_che_sch1_sch2}{{10}{8}}
