\relax 
\@writefile{toc}{\contentsline {section}{\numberline {I}Wideband LTV Channel}{1}}
\@writefile{toc}{\contentsline {section}{\numberline {II}Multi-layer Transmitter}{1}}
\@writefile{toc}{\contentsline {section}{\numberline {III}Receiver Structure for Multi-layer Transmission}{2}}
\@writefile{toc}{\contentsline {section}{\numberline {IV}Design Choices}{2}}
\@writefile{toc}{\contentsline {section}{\numberline {V}Information Rate}{2}}
\citation{MSML-TSP2013}
\@writefile{toc}{\contentsline {subsection}{\numberline {\unhbox \voidb@x \hbox {V-A}}Same Band Receiver with Joint Layer Decoding}{3}}
\@writefile{toc}{\contentsline {subsection}{\numberline {\unhbox \voidb@x \hbox {V-B}}Same Band Receiver with Individual Layer Decoding}{3}}
\@writefile{toc}{\contentsline {subsection}{\numberline {\unhbox \voidb@x \hbox {V-C}}Optimal Receiver}{3}}
\@writefile{toc}{\contentsline {section}{\numberline {VI}Numerical Results}{3}}
\@writefile{toc}{\contentsline {subsection}{\numberline {\unhbox \voidb@x \hbox {VI-A}}Transmission Schemes}{3}}
\@writefile{toc}{\contentsline {subsection}{\numberline {\unhbox \voidb@x \hbox {VI-B}}Channel}{3}}
\bibstyle{unsrt}
\bibdata{uac2}
\bibcite{MSML-TSP2006}{1}
\bibcite{MSML-TSP2013}{2}
\@writefile{lof}{\contentsline {figure}{\numberline {1}{\ignorespaces Comparing rates of different schemes using same-band receiver with individual layer decoding)}}{4}}
\newlabel{fig:cha_ild}{{1}{4}}
\@writefile{toc}{\contentsline {section}{Appendix\nobreakspace  {}A: Power Constraint}{4}}
\@writefile{toc}{\contentsline {section}{Appendix\nobreakspace  {}B: Differential Entropy}{4}}
\@writefile{toc}{\contentsline {section}{References}{4}}
