%!PS-Adobe-2.0 EPSF-1.2
%%Creator: MATLAB, The MathWorks, Inc. Version 7.14.0.739 (R2012a). Operating System: Microsoft Windows 7.
%%Title: .\CHA_SCH1_SPECTRUM.eps
%%CreationDate: 05/14/2015  18:35:20
%%DocumentNeededFonts: Helvetica
%%DocumentProcessColors: Cyan Magenta Yellow Black
%%Extensions: CMYK
%%Pages: 1
%%BoundingBox:    57   208   542   595
%%EndComments

%%BeginProlog
% MathWorks dictionary
/MathWorks 160 dict begin
% definition operators
/bdef {bind def} bind def
/ldef {load def} bind def
/xdef {exch def} bdef
/xstore {exch store} bdef
% operator abbreviations
/c  /clip ldef
/cc /concat ldef
/cp /closepath ldef
/gr /grestore ldef
/gs /gsave ldef
/mt /moveto ldef
/np /newpath ldef
/cm /currentmatrix ldef
/sm /setmatrix ldef
/rm /rmoveto ldef
/rl /rlineto ldef
/s {show newpath} bdef
/sc {setcmykcolor} bdef
/sr /setrgbcolor ldef
/sg /setgray ldef
/w /setlinewidth ldef
/j /setlinejoin ldef
/cap /setlinecap ldef
/rc {rectclip} bdef
/rf {rectfill} bdef
% page state control
/pgsv () def
/bpage {/pgsv save def} bdef
/epage {pgsv restore} bdef
/bplot /gsave ldef
/eplot {stroke grestore} bdef
% orientation switch
/portraitMode 0 def /landscapeMode 1 def /rotateMode 2 def
% coordinate system mappings
/dpi2point 0 def
% font control
/FontSize 0 def
/FMS {/FontSize xstore findfont [FontSize 0 0 FontSize neg 0 0]
  makefont setfont} bdef
/ISOLatin1Encoding where {pop /WindowsLatin1Encoding 256 array bdef
ISOLatin1Encoding WindowsLatin1Encoding copy pop
/.notdef/.notdef/quotesinglbase/florin/quotedblbase/ellipsis/dagger
/daggerdbl/circumflex/perthousand/Scaron/guilsinglleft/OE/.notdef/.notdef
/.notdef/.notdef/quoteleft/quoteright/quotedblleft/quotedblright/bullet
/endash/emdash/tilde/trademark/scaron/guilsinglright/oe/.notdef/.notdef
/Ydieresis WindowsLatin1Encoding 128 32 getinterval astore pop}
{/WindowsLatin1Encoding StandardEncoding bdef} ifelse
/reencode {exch dup where {pop load} {pop StandardEncoding} ifelse
  exch dup 3 1 roll findfont dup length dict begin
  { 1 index /FID ne {def}{pop pop} ifelse } forall
  /Encoding exch def currentdict end definefont pop} bdef
/isroman {findfont /CharStrings get /Agrave known} bdef
/FMSR {3 1 roll 1 index dup isroman {reencode} {pop pop} ifelse
  exch FMS} bdef
/csm {1 dpi2point div -1 dpi2point div scale neg translate
 dup landscapeMode eq {pop -90 rotate}
  {rotateMode eq {90 rotate} if} ifelse} bdef
% line types: solid, dotted, dashed, dotdash
/SO { [] 0 setdash } bdef
/DO { [.5 dpi2point mul 4 dpi2point mul] 0 setdash } bdef
/DA { [6 dpi2point mul] 0 setdash } bdef
/DD { [.5 dpi2point mul 4 dpi2point mul 6 dpi2point mul 4
  dpi2point mul] 0 setdash } bdef
% macros for lines and objects
/L {lineto stroke} bdef
/MP {3 1 roll moveto 1 sub {rlineto} repeat} bdef
/AP {{rlineto} repeat} bdef
/PDlw -1 def
/W {/PDlw currentlinewidth def setlinewidth} def
/PP {closepath eofill} bdef
/DP {closepath stroke} bdef
/MR {4 -2 roll moveto dup  0 exch rlineto exch 0 rlineto
  neg 0 exch rlineto closepath} bdef
/FR {MR stroke} bdef
/PR {MR fill} bdef
/L1i {{currentfile picstr readhexstring pop} image} bdef
/tMatrix matrix def
/MakeOval {newpath tMatrix currentmatrix pop translate scale
0 0 1 0 360 arc tMatrix setmatrix} bdef
/FO {MakeOval stroke} bdef
/PO {MakeOval fill} bdef
/PD {currentlinewidth 2 div 0 360 arc fill
   PDlw -1 eq not {PDlw w /PDlw -1 def} if} def
/FA {newpath tMatrix currentmatrix pop translate scale
  0 0 1 5 -2 roll arc tMatrix setmatrix stroke} bdef
/PA {newpath tMatrix currentmatrix pop	translate 0 0 moveto scale
  0 0 1 5 -2 roll arc closepath tMatrix setmatrix fill} bdef
/FAn {newpath tMatrix currentmatrix pop translate scale
  0 0 1 5 -2 roll arcn tMatrix setmatrix stroke} bdef
/PAn {newpath tMatrix currentmatrix pop translate 0 0 moveto scale
  0 0 1 5 -2 roll arcn closepath tMatrix setmatrix fill} bdef
/vradius 0 def /hradius 0 def /lry 0 def
/lrx 0 def /uly 0 def /ulx 0 def /rad 0 def
/MRR {/vradius xdef /hradius xdef /lry xdef /lrx xdef /uly xdef
  /ulx xdef newpath tMatrix currentmatrix pop ulx hradius add uly
  vradius add translate hradius vradius scale 0 0 1 180 270 arc 
  tMatrix setmatrix lrx hradius sub uly vradius add translate
  hradius vradius scale 0 0 1 270 360 arc tMatrix setmatrix
  lrx hradius sub lry vradius sub translate hradius vradius scale
  0 0 1 0 90 arc tMatrix setmatrix ulx hradius add lry vradius sub
  translate hradius vradius scale 0 0 1 90 180 arc tMatrix setmatrix
  closepath} bdef
/FRR {MRR stroke } bdef
/PRR {MRR fill } bdef
/MlrRR {/lry xdef /lrx xdef /uly xdef /ulx xdef /rad lry uly sub 2 div def
  newpath tMatrix currentmatrix pop ulx rad add uly rad add translate
  rad rad scale 0 0 1 90 270 arc tMatrix setmatrix lrx rad sub lry rad
  sub translate rad rad scale 0 0 1 270 90 arc tMatrix setmatrix
  closepath} bdef
/FlrRR {MlrRR stroke } bdef
/PlrRR {MlrRR fill } bdef
/MtbRR {/lry xdef /lrx xdef /uly xdef /ulx xdef /rad lrx ulx sub 2 div def
  newpath tMatrix currentmatrix pop ulx rad add uly rad add translate
  rad rad scale 0 0 1 180 360 arc tMatrix setmatrix lrx rad sub lry rad
  sub translate rad rad scale 0 0 1 0 180 arc tMatrix setmatrix
  closepath} bdef
/FtbRR {MtbRR stroke } bdef
/PtbRR {MtbRR fill } bdef
/stri 6 array def /dtri 6 array def
/smat 6 array def /dmat 6 array def
/tmat1 6 array def /tmat2 6 array def /dif 3 array def
/asub {/ind2 exch def /ind1 exch def dup dup
  ind1 get exch ind2 get sub exch } bdef
/tri_to_matrix {
  2 0 asub 3 1 asub 4 0 asub 5 1 asub
  dup 0 get exch 1 get 7 -1 roll astore } bdef
/compute_transform {
  dmat dtri tri_to_matrix tmat1 invertmatrix 
  smat stri tri_to_matrix tmat2 concatmatrix } bdef
/ds {stri astore pop} bdef
/dt {dtri astore pop} bdef
/db {2 copy /cols xdef /rows xdef mul dup 3 mul string
  currentfile exch readhexstring pop
  dup 0 3 index getinterval /rbmap xdef
  dup 2 index dup getinterval /gbmap xdef
  1 index dup 2 mul exch getinterval /bbmap xdef pop pop}bdef
/it {gs np dtri aload pop moveto lineto lineto cp c
  cols rows 8 compute_transform 
  rbmap gbmap bbmap true 3 colorimage gr}bdef
/il {newpath moveto lineto stroke}bdef
currentdict end def
%%EndProlog

%%BeginSetup
MathWorks begin

0 cap

end
%%EndSetup

%%Page: 1 1
%%BeginPageSetup
%%PageBoundingBox:    57   208   542   595
MathWorks begin
bpage
%%EndPageSetup

%%BeginObject: obj1
bplot

/dpi2point 12 def
portraitMode 0204 7344 csm

  480   202  5825  4639 MR c np
85 dict begin %Colortable dictionary
/c0 { 0.000000 0.000000 0.000000 sr} bdef
/c1 { 1.000000 1.000000 1.000000 sr} bdef
/c2 { 0.900000 0.000000 0.000000 sr} bdef
/c3 { 0.000000 0.820000 0.000000 sr} bdef
/c4 { 0.000000 0.000000 0.800000 sr} bdef
/c5 { 0.910000 0.820000 0.320000 sr} bdef
/c6 { 1.000000 0.260000 0.820000 sr} bdef
/c7 { 0.000000 0.820000 0.820000 sr} bdef
c0
1 j
1 sg
   0    0 6913 5185 PR
6 w
0 613 5356 0 0 -613 899 1094 4 MP
PP
-5356 0 0 613 5356 0 0 -613 899 1094 5 MP stroke
4 w
DO
SO
6 w
0 sg
 899  481 mt 6255  481 L
 899 1094 mt 6255 1094 L
6255 1094 mt 6255  481 L
 899 1094 mt  899  481 L
 899 1094 mt 6255 1094 L
 899 1094 mt  899  481 L
1066 1094 mt 1066 1040 L
1066  481 mt 1066  534 L
%%IncludeResource: font Helvetica
/Helvetica /WindowsLatin1Encoding 120 FMSR

 930 1239 mt 
(-15) s
1903 1094 mt 1903 1040 L
1903  481 mt 1903  534 L
1767 1239 mt 
(-10) s
2740 1094 mt 2740 1040 L
2740  481 mt 2740  534 L
2637 1239 mt 
(-5) s
3577 1094 mt 3577 1040 L
3577  481 mt 3577  534 L
3544 1239 mt 
(0) s
4413 1094 mt 4413 1040 L
4413  481 mt 4413  534 L
4380 1239 mt 
(5) s
5250 1094 mt 5250 1040 L
5250  481 mt 5250  534 L
5184 1239 mt 
(10) s
6087 1094 mt 6087 1040 L
6087  481 mt 6087  534 L
6021 1239 mt 
(15) s
 899 1094 mt  952 1094 L
6255 1094 mt 6201 1094 L
 798 1138 mt 
(0) s
 899  787 mt  952  787 L
6255  787 mt 6201  787 L
 698  831 mt 
(0.5) s
 899  481 mt  952  481 L
6255  481 mt 6201  481 L
 798  525 mt 
(1) s
 899  481 mt 6255  481 L
 899 1094 mt 6255 1094 L
6255 1094 mt 6255  481 L
 899 1094 mt  899  481 L
gs 899 481 5357 614 MR c np
24 w
/c8 { 0.000000 0.000000 1.000000 sr} bdef
c8
2 0 2 0 1 0 2 0 2 0 2 0 1 0 2 0 
2 0 2 0 1 0 2 0 2 0 2 0 1 0 2 0 
2 0 2 0 1 0 2 0 2 0 2 0 1 0 2 0 
2 0 2 0 1 0 2 0 2 0 2 0 1 0 2 0 
2 0 1 0 2 0 2 0 2 0 1 0 2 0 2 0 
2 0 1 0 2 0 2 0 2 0 1 0 2 0 2 0 
2 0 1 0 2 0 2 0 2 0 1 0 2 0 2 0 
2 0 1 0 2 0 2 0 2 0 1 0 2 0 2 0 
2 0 1 0 2 0 2 0 2 0 1 0 2 0 2 0 
1 0 2 0 2 0 2 0 1 0 2 0 2 0 2 0 
1 0 2 0 2 0 2 0 1 0 2 0 2 0 2 0 
1 0 2 0 2 0 2 0 1 0 2 0 2 0 2 0 
1 0 2 0 2 0 6083 1094 100 MP stroke
2 0 1 0 2 0 2 0 2 0 1 0 2 0 2 0 
2 0 1 0 2 0 2 0 1 0 2 0 2 0 2 0 
1 0 2 0 2 0 2 0 1 0 2 0 2 0 2 0 
1 0 2 0 2 0 2 0 1 0 2 0 2 0 2 0 
1 0 2 0 2 0 2 0 1 0 2 0 2 0 2 0 
1 0 2 0 2 0 2 0 1 0 2 0 2 0 2 0 
1 0 2 0 2 0 2 0 1 0 2 0 2 0 1 0 
2 0 2 0 2 0 1 0 2 0 2 0 2 0 1 0 
2 0 2 0 2 0 1 0 2 0 2 0 2 0 1 0 
2 0 2 0 2 0 1 0 2 0 2 0 2 0 1 0 
2 0 2 0 2 0 1 0 2 0 2 0 2 0 1 0 
2 0 2 0 2 0 1 0 2 0 2 0 1 0 2 0 
2 0 2 0 1 0 5911 1094 100 MP stroke
2 0 2 0 2 0 1 0 2 0 2 0 2 0 1 0 
2 0 2 0 2 0 1 0 2 0 2 0 2 0 1 0 
2 0 2 0 2 0 1 0 2 0 2 0 2 0 1 0 
2 0 2 0 2 0 1 0 2 0 2 0 2 0 1 0 
2 0 2 0 1 0 2 0 2 0 2 0 1 0 2 0 
2 0 2 0 1 0 2 0 2 0 2 0 1 0 2 0 
2 0 2 0 1 0 2 0 2 0 2 0 1 0 2 0 
2 0 2 0 1 0 2 0 2 0 2 0 1 0 2 0 
2 0 2 0 1 0 2 0 2 0 2 0 1 0 2 0 
2 0 1 0 2 0 2 0 2 0 1 0 2 0 2 0 
2 0 1 0 2 0 2 0 2 0 1 0 2 0 2 0 
2 0 1 0 2 0 2 0 2 0 1 0 2 0 2 0 
2 0 1 0 2 0 5738 1094 100 MP stroke
2 0 2 0 1 0 2 0 2 0 2 0 1 0 2 0 
2 0 2 0 1 0 2 0 2 0 2 0 1 0 2 0 
2 0 1 0 2 0 2 0 2 0 1 0 2 0 2 0 
2 0 1 0 2 0 2 0 2 0 1 0 2 0 2 0 
2 0 1 0 2 0 2 0 2 0 1 0 2 0 2 0 
2 0 1 0 2 0 2 0 2 0 1 0 2 0 2 0 
2 0 1 0 2 0 2 0 2 0 1 0 2 0 2 0 
1 0 2 0 2 0 2 0 1 0 2 0 2 0 2 0 
1 0 2 0 2 0 2 0 1 0 2 0 2 0 2 0 
1 0 2 0 2 0 2 0 1 0 2 0 2 0 2 0 
1 0 2 0 2 0 2 0 1 0 2 0 2 0 2 0 
1 0 2 0 2 0 2 0 1 0 2 0 2 0 1 0 
2 0 2 0 2 0 5565 1094 100 MP stroke
1 0 2 0 2 0 2 0 1 0 2 0 2 0 2 0 
1 0 2 0 2 0 2 0 1 0 2 0 2 0 2 0 
1 0 2 0 2 0 2 0 1 0 2 0 2 0 2 0 
1 0 2 0 2 0 2 0 1 0 2 0 2 0 2 0 
1 0 2 0 2 0 2 0 1 0 2 0 2 0 1 0 
2 0 2 0 2 0 1 0 2 0 2 0 2 0 1 0 
2 0 2 0 2 0 1 0 2 0 2 0 2 0 1 0 
2 0 2 0 2 0 1 0 2 0 2 0 2 0 1 0 
2 0 2 0 2 0 1 0 2 0 2 0 2 0 1 0 
2 0 2 0 2 0 1 0 2 0 2 0 1 0 2 0 
2 0 2 0 1 0 2 0 2 0 2 0 1 0 2 0 
2 0 2 0 1 0 2 0 2 0 2 0 1 0 2 0 
2 0 2 0 1 0 5393 1094 100 MP stroke
2 0 2 0 2 0 1 0 2 0 2 0 2 0 1 0 
2 0 2 0 2 0 1 0 2 0 2 0 2 0 1 0 
2 0 2 0 1 0 2 0 2 0 2 0 1 0 2 0 
2 0 2 0 1 0 2 0 2 0 2 0 1 0 2 0 
2 0 2 0 1 0 2 0 2 0 2 0 1 0 2 0 
2 0 2 0 1 0 2 0 2 0 2 0 1 0 2 0 
2 0 2 0 1 0 2 0 2 0 2 0 1 0 2 0 
2 0 1 0 2 0 2 0 2 0 1 0 2 0 2 0 
2 0 1 0 2 0 2 0 2 0 1 0 2 0 2 0 
2 0 1 0 2 0 2 0 2 0 1 0 2 0 2 0 
2 0 1 0 2 0 2 0 2 0 1 0 2 0 2 0 
2 0 1 0 2 0 2 0 2 0 1 0 2 0 2 0 
2 0 1 0 2 0 5220 1094 100 MP stroke
2 0 1 0 2 0 2 0 2 0 1 0 2 0 2 0 
2 0 1 0 2 0 2 0 2 0 1 0 2 0 2 0 
2 0 1 0 2 0 2 0 2 0 1 0 2 0 2 0 
2 0 1 0 2 0 2 0 2 0 1 0 2 0 2 0 
2 0 1 0 2 0 2 0 2 0 1 0 2 0 2 0 
1 0 2 0 2 0 2 0 1 0 2 0 2 0 2 0 
1 0 2 0 2 0 2 0 1 0 2 0 2 0 2 0 
1 0 2 0 2 0 2 0 1 0 2 0 2 0 2 0 
1 0 2 0 2 0 2 0 1 0 2 0 2 0 2 0 
1 0 2 0 2 0 2 0 1 0 2 0 2 0 1 0 
2 0 2 0 2 0 1 0 2 0 2 0 2 0 1 0 
2 0 2 0 2 0 1 0 2 0 2 0 2 0 1 0 
2 0 2 0 2 0 5047 1094 100 MP stroke
1 0 2 0 2 0 2 0 1 0 2 0 2 0 2 0 
1 0 2 0 2 0 2 0 1 0 2 0 2 0 2 0 
1 0 2 0 2 0 2 0 1 0 2 0 2 0 1 0 
2 0 2 0 2 0 1 0 2 0 2 0 2 0 1 0 
2 0 2 0 2 0 1 0 2 0 2 0 2 0 1 0 
2 0 2 0 2 0 1 0 2 0 2 0 2 0 1 0 
2 0 2 0 2 0 1 0 2 0 2 0 2 0 1 0 
2 0 2 0 2 0 1 0 2 0 2 0 1 0 2 0 
2 0 2 0 1 0 2 0 2 0 2 0 1 0 2 0 
2 0 2 0 1 0 2 0 2 0 2 0 1 0 2 0 
2 0 2 0 1 0 2 0 2 0 2 0 1 0 2 0 
2 0 2 0 1 0 2 0 2 0 2 0 1 0 2 0 
2 0 2 0 1 0 4875 1094 100 MP stroke
2 0 2 0 1 0 2 0 2 0 2 0 1 0 2 0 
2 0 2 0 1 0 2 0 2 0 2 0 1 0 2 0 
2 0 2 0 1 0 2 0 2 0 2 0 1 0 2 0 
2 0 2 0 1 0 2 0 2 0 2 0 1 0 2 0 
2 0 2 0 1 0 2 0 2 0 2 0 1 0 2 0 
2 0 1 0 2 0 2 0 2 0 1 0 2 0 2 0 
2 0 1 0 2 0 2 0 2 0 1 0 2 0 2 0 
2 0 1 0 2 0 2 0 2 0 1 0 2 0 2 0 
2 0 1 0 2 0 2 0 2 0 1 0 2 0 2 0 
2 0 1 0 2 0 2 0 2 0 1 0 2 0 2 0 
2 0 1 0 2 0 2 0 1 0 2 0 2 0 2 0 
1 0 2 0 2 0 2 0 1 0 2 0 2 0 2 0 
1 0 2 0 2 0 4702 1094 100 MP stroke
2 0 1 0 2 0 2 0 2 0 1 0 2 0 2 0 
2 0 1 0 2 0 2 0 2 0 1 0 2 0 2 0 
2 0 1 0 2 0 2 0 2 0 1 0 2 0 2 0 
1 0 2 0 2 0 2 0 1 0 2 0 2 0 2 0 
1 0 2 0 2 0 2 0 1 0 2 0 2 0 2 0 
1 0 2 0 2 0 2 0 1 0 2 0 2 0 2 0 
1 0 2 0 2 0 2 0 1 0 2 0 2 0 2 0 
1 0 2 0 2 0 2 0 1 0 2 0 2 0 1 0 
2 0 2 0 2 0 1 0 2 0 2 0 2 0 1 0 
2 0 2 0 2 0 1 0 2 0 2 0 2 0 1 0 
2 0 2 0 2 0 1 0 2 0 2 0 2 0 1 0 
2 0 2 0 2 0 1 0 2 0 2 0 2 0 1 0 
2 0 2 0 2 0 4529 1094 100 MP stroke
1 0 2 0 2 0 2 0 1 0 2 0 2 0 1 0 
2 0 2 0 2 0 1 0 2 0 2 0 2 0 1 0 
2 0 2 0 2 0 1 0 2 0 2 0 2 0 1 0 
2 0 2 0 2 0 1 0 2 0 2 0 2 0 1 0 
2 0 2 0 2 0 1 0 2 0 2 0 2 0 1 0 
2 0 2 0 2 0 1 0 2 0 2 0 1 0 2 0 
2 0 2 0 1 0 2 0 2 0 2 0 1 0 2 0 
2 0 2 0 1 0 2 0 2 0 2 0 1 0 2 0 
2 0 2 0 1 0 2 0 2 0 2 0 1 0 2 0 
2 0 2 0 1 0 2 0 2 0 2 0 1 0 2 0 
2 0 2 0 1 0 2 0 2 0 1 0 2 0 2 0 
2 0 1 0 2 0 2 0 2 0 1 0 2 0 2 0 
2 0 1 0 2 0 4357 1094 100 MP stroke
2 0 2 0 1 0 2 0 2 0 2 0 1 0 2 0 
2 0 2 0 1 0 2 0 2 0 2 0 1 0 2 0 
2 0 2 0 1 0 2 0 2 0 2 0 1 0 2 0 
2 0 1 0 2 0 2 0 2 0 1 0 2 0 2 0 
2 0 1 0 2 0 2 0 2 0 1 0 2 0 2 0 
2 0 1 0 2 0 2 0 2 0 1 0 2 0 2 0 
2 0 1 0 2 0 2 0 2 0 1 0 2 0 2 0 
2 0 1 0 2 0 2 0 2 0 1 0 2 0 2 0 
2 0 1 0 2 0 2 0 1 0 2 0 2 0 2 0 
1 0 2 0 2 0 2 0 1 0 2 0 2 0 2 0 
1 0 2 0 2 0 2 0 1 0 2 0 2 0 2 0 
1 0 2 0 2 0 2 0 1 0 2 0 2 0 2 0 
1 0 2 0 2 0 4184 1094 100 MP stroke
2 0 1 0 2 0 2 0 2 0 1 0 2 0 2 0 
1 0 2 0 2 0 2 0 1 0 2 0 2 0 2 0 
1 0 2 0 2 0 2 0 1 0 2 0 2 0 2 0 
1 0 2 0 2 0 2 0 1 0 2 0 2 0 2 0 
1 0 2 0 2 0 2 0 1 0 2 0 2 0 2 0 
1 0 2 0 2 0 2 0 1 0 2 0 2 0 1 0 
2 0 2 0 2 0 1 0 2 0 2 0 2 0 1 0 
2 0 2 0 2 0 1 0 2 0 2 0 2 0 1 0 
2 0 2 0 2 0 1 0 2 0 2 0 2 0 1 0 
2 0 2 0 2 0 1 0 2 0 2 0 2 0 1 0 
2 0 2 0 2 0 1 0 2 0 2 0 2 0 1 0 
2 0 2 0 1 0 2 0 2 0 2 0 1 0 2 0 
2 0 2 0 1 0 4012 1094 100 MP stroke
2 0 2 0 2 0 1 0 2 0 2 0 2 0 1 0 
2 0 2 0 2 0 1 0 2 0 2 0 2 0 1 0 
2 0 2 0 2 0 1 0 2 0 2 0 2 0 1 0 
2 0 2 0 2 0 1 0 2 0 2 0 1 0 2 0 
2 0 2 0 1 0 2 0 2 0 2 0 1 0 2 0 
2 0 2 0 1 0 2 0 2 0 2 0 1 0 2 0 
2 0 2 0 1 0 2 0 2 0 2 0 1 0 2 0 
2 0 2 307 1 0 2 0 2 0 2 0 1 0 2 0 
2 0 2 0 1 0 2 0 2 0 1 0 2 0 2 0 
2 0 1 0 2 0 2 0 2 0 1 0 2 0 2 0 
2 0 1 0 2 0 2 0 2 0 1 0 2 0 2 0 
2 0 1 0 2 0 2 0 2 0 1 0 2 0 2 0 
2 0 1 0 2 0 3839 787 100 MP stroke
2 0 2 0 1 0 2 0 2 0 2 0 1 0 2 0 
2 0 1 0 2 0 2 0 2 0 1 0 2 0 2 0 
2 0 1 0 2 0 2 0 2 0 1 0 2 0 2 0 
2 0 1 0 2 0 2 0 2 0 1 0 2 0 2 0 
2 0 1 0 2 0 2 0 2 0 1 0 2 0 2 0 
2 0 1 0 2 0 2 0 2 0 1 0 2 0 2 0 
2 0 1 0 2 0 2 0 1 0 2 0 2 -307 2 0 
1 0 2 0 2 0 2 0 1 0 2 0 2 0 2 0 
1 0 2 0 2 0 2 0 1 0 2 0 2 0 2 0 
1 0 2 0 2 0 2 0 1 0 2 0 2 0 2 0 
1 0 2 0 2 0 2 0 1 0 2 0 2 0 2 0 
1 0 2 0 2 0 1 0 2 0 2 0 2 0 1 0 
2 0 2 0 2 0 3666 1094 100 MP stroke
1 0 2 0 2 0 2 0 1 0 2 0 2 0 2 0 
1 0 2 0 2 0 2 0 1 0 2 0 2 0 2 0 
1 0 2 0 2 0 2 0 1 0 2 0 2 0 2 0 
1 0 2 0 2 0 2 0 1 0 2 0 2 0 1 0 
2 0 2 0 2 0 1 0 2 0 2 0 2 0 1 0 
2 0 2 0 2 0 1 0 2 0 2 0 2 0 1 0 
2 0 2 0 2 0 1 0 2 0 2 0 2 0 1 0 
2 0 2 0 2 0 1 0 2 0 2 0 2 0 1 0 
2 0 2 0 2 0 1 0 2 0 2 0 2 0 1 0 
2 0 2 0 1 0 2 0 2 0 2 0 1 0 2 0 
2 0 2 0 1 0 2 0 2 0 2 0 1 0 2 0 
2 0 2 0 1 0 2 0 2 0 2 0 1 0 2 0 
2 0 2 0 1 0 3494 1094 100 MP stroke
2 0 2 0 2 0 1 0 2 0 2 0 2 0 1 0 
2 0 2 0 2 0 1 0 2 0 2 0 1 0 2 0 
2 0 2 0 1 0 2 0 2 0 2 0 1 0 2 0 
2 0 2 0 1 0 2 0 2 0 2 0 1 0 2 0 
2 0 2 0 1 0 2 0 2 0 2 0 1 0 2 0 
2 0 2 0 1 0 2 0 2 0 2 0 1 0 2 307 
2 0 2 0 1 0 2 0 2 0 1 0 2 0 2 0 
2 0 1 0 2 0 2 0 2 0 1 0 2 0 2 0 
2 0 1 0 2 0 2 0 2 0 1 0 2 0 2 0 
2 0 1 0 2 0 2 0 2 0 1 0 2 0 2 0 
2 0 1 0 2 0 2 0 2 0 1 0 2 0 2 0 
2 0 1 0 2 0 2 0 2 0 1 0 2 0 2 0 
1 0 2 0 2 0 3321 787 100 MP stroke
2 0 1 0 2 0 2 0 2 0 1 0 2 0 2 0 
2 0 1 0 2 0 2 0 2 0 1 0 2 0 2 0 
2 0 1 0 2 0 2 0 2 0 1 0 2 0 2 0 
2 0 1 0 2 0 2 0 2 0 1 0 2 0 2 0 
2 0 1 0 2 0 2 0 1 0 2 0 2 0 2 0 
1 0 2 0 2 0 2 0 1 -307 2 0 2 0 2 0 
1 0 2 0 2 0 2 0 1 0 2 0 2 0 2 0 
1 0 2 0 2 0 2 0 1 0 2 0 2 0 2 0 
1 0 2 0 2 0 2 0 1 0 2 0 2 0 2 0 
1 0 2 0 2 0 1 0 2 0 2 0 2 0 1 0 
2 0 2 0 2 0 1 0 2 0 2 0 2 0 1 0 
2 0 2 0 2 0 1 0 2 0 2 0 2 0 1 0 
2 0 2 0 2 0 3148 1094 100 MP stroke
1 0 2 0 2 0 2 0 1 0 2 0 2 0 2 0 
1 0 2 0 2 0 2 0 1 0 2 0 2 0 1 0 
2 0 2 0 2 0 1 0 2 0 2 0 2 0 1 0 
2 0 2 0 2 0 1 0 2 0 2 0 2 0 1 0 
2 0 2 0 2 0 1 0 2 0 2 0 2 0 1 0 
2 0 2 0 2 0 1 0 2 0 2 0 2 0 1 0 
2 0 2 0 2 0 1 0 2 0 2 0 2 0 1 0 
2 0 2 0 1 0 2 0 2 0 2 0 1 0 2 0 
2 0 2 0 1 0 2 0 2 0 2 0 1 0 2 0 
2 0 2 0 1 0 2 0 2 0 2 0 1 0 2 0 
2 0 2 0 1 0 2 0 2 0 2 0 1 0 2 0 
2 0 2 0 1 0 2 0 2 0 2 0 1 0 2 0 
2 0 1 0 2 0 2976 1094 100 MP stroke
2 0 2 0 1 0 2 0 2 0 2 0 1 0 2 0 
2 0 2 0 1 0 2 0 2 0 2 0 1 0 2 0 
2 0 2 0 1 0 2 0 2 0 2 0 1 0 2 0 
2 0 2 0 1 0 2 0 2 0 2 0 1 0 2 0 
2 0 2 0 1 0 2 0 2 0 1 0 2 0 2 0 
2 0 1 0 2 0 2 0 2 0 1 0 2 0 2 0 
2 0 1 0 2 0 2 0 2 0 1 0 2 0 2 0 
2 0 1 0 2 0 2 0 2 0 1 0 2 0 2 0 
2 0 1 0 2 0 2 0 2 0 1 0 2 0 2 0 
2 0 1 0 2 0 2 0 2 0 1 0 2 0 2 0 
1 0 2 0 2 0 2 0 1 0 2 0 2 0 2 0 
1 0 2 0 2 0 2 0 1 0 2 0 2 0 2 0 
1 0 2 0 2 0 2803 1094 100 MP stroke
2 0 1 0 2 0 2 0 2 0 1 0 2 0 2 0 
2 0 1 0 2 0 2 0 2 0 1 0 2 0 2 0 
2 0 1 0 2 0 2 0 1 0 2 0 2 0 2 0 
1 0 2 0 2 0 2 0 1 0 2 0 2 0 2 0 
1 0 2 0 2 0 2 0 1 0 2 0 2 0 2 0 
1 0 2 0 2 0 2 0 1 0 2 0 2 0 2 0 
1 0 2 0 2 0 2 0 1 0 2 0 2 0 2 0 
1 0 2 0 2 0 1 0 2 0 2 0 2 0 1 0 
2 0 2 0 2 0 1 0 2 0 2 0 2 0 1 0 
2 0 2 0 2 0 1 0 2 0 2 0 2 0 1 0 
2 0 2 0 2 0 1 0 2 0 2 0 2 0 1 0 
2 0 2 0 2 0 1 0 2 0 2 0 2 0 1 0 
2 0 2 0 1 0 2631 1094 100 MP stroke
2 0 2 0 2 0 1 0 2 0 2 0 2 0 1 0 
2 0 2 0 2 0 1 0 2 0 2 0 2 0 1 0 
2 0 2 0 2 0 1 0 2 0 2 0 2 0 1 0 
2 0 2 0 2 0 1 0 2 0 2 0 2 0 1 0 
2 0 2 0 2 0 1 0 2 0 2 0 2 0 1 0 
2 0 2 0 1 0 2 0 2 0 2 0 1 0 2 0 
2 0 2 0 1 0 2 0 2 0 2 0 1 0 2 0 
2 0 2 0 1 0 2 0 2 0 2 0 1 0 2 0 
2 0 2 0 1 0 2 0 2 0 2 0 1 0 2 0 
2 0 2 0 1 0 2 0 2 0 2 0 1 0 2 0 
2 0 1 0 2 0 2 0 2 0 1 0 2 0 2 0 
2 0 1 0 2 0 2 0 2 0 1 0 2 0 2 0 
2 0 1 0 2 0 2458 1094 100 MP stroke
2 0 2 0 1 0 2 0 2 0 2 0 1 0 2 0 
2 0 2 0 1 0 2 0 2 0 2 0 1 0 2 0 
2 0 2 0 1 0 2 0 2 0 1 0 2 0 2 0 
2 0 1 0 2 0 2 0 2 0 1 0 2 0 2 0 
2 0 1 0 2 0 2 0 2 0 1 0 2 0 2 0 
2 0 1 0 2 0 2 0 2 0 1 0 2 0 2 0 
2 0 1 0 2 0 2 0 2 0 1 0 2 0 2 0 
2 0 1 0 2 0 2 0 2 0 1 0 2 0 2 0 
1 0 2 0 2 0 2 0 1 0 2 0 2 0 2 0 
1 0 2 0 2 0 2 0 1 0 2 0 2 0 2 0 
1 0 2 0 2 0 2 0 1 0 2 0 2 0 2 0 
1 0 2 0 2 0 2 0 1 0 2 0 2 0 2 0 
1 0 2 0 2 0 2285 1094 100 MP stroke
2 0 1 0 2 0 2 0 1 0 2 0 2 0 2 0 
1 0 2 0 2 0 2 0 1 0 2 0 2 0 2 0 
1 0 2 0 2 0 2 0 1 0 2 0 2 0 2 0 
1 0 2 0 2 0 2 0 1 0 2 0 2 0 2 0 
1 0 2 0 2 0 2 0 1 0 2 0 2 0 2 0 
1 0 2 0 2 0 1 0 2 0 2 0 2 0 1 0 
2 0 2 0 2 0 1 0 2 0 2 0 2 0 1 0 
2 0 2 0 2 0 1 0 2 0 2 0 2 0 1 0 
2 0 2 0 2 0 1 0 2 0 2 0 2 0 1 0 
2 0 2 0 2 0 1 0 2 0 2 0 2 0 1 0 
2 0 2 0 1 0 2 0 2 0 2 0 1 0 2 0 
2 0 2 0 1 0 2 0 2 0 2 0 1 0 2 0 
2 0 2 0 1 0 2113 1094 100 MP stroke
2 0 2 0 2 0 1 0 2 0 2 0 2 0 1 0 
2 0 2 0 2 0 1 0 2 0 2 0 2 0 1 0 
2 0 2 0 2 0 1 0 2 0 2 0 2 0 1 0 
2 0 2 0 1 0 2 0 2 0 2 0 1 0 2 0 
2 0 2 0 1 0 2 0 2 0 2 0 1 0 2 0 
2 0 2 0 1 0 2 0 2 0 2 0 1 0 2 0 
2 0 2 0 1 0 2 0 2 0 2 0 1 0 2 0 
2 0 2 0 1 0 2 0 2 0 2 0 1 0 2 0 
2 0 1 0 2 0 2 0 2 0 1 0 2 0 2 0 
2 0 1 0 2 0 2 0 2 0 1 0 2 0 2 0 
2 0 1 0 2 0 2 0 2 0 1 0 2 0 2 0 
2 0 1 0 2 0 2 0 2 0 1 0 2 0 2 0 
2 0 1 0 2 0 1940 1094 100 MP stroke
2 0 2 0 1 0 2 0 2 0 1 0 2 0 2 0 
2 0 1 0 2 0 2 0 2 0 1 0 2 0 2 0 
2 0 1 0 2 0 2 0 2 0 1 0 2 0 2 0 
2 0 1 0 2 0 2 0 2 0 1 0 2 0 2 0 
2 0 1 0 2 0 2 0 2 0 1 0 2 0 2 0 
2 0 1 0 2 0 2 0 2 0 1 0 2 0 2 0 
1 0 2 0 2 0 2 0 1 0 2 0 2 0 2 0 
1 0 2 0 2 0 2 0 1 0 2 0 2 0 2 0 
1 0 2 0 2 0 2 0 1 0 2 0 2 0 2 0 
1 0 2 0 2 0 2 0 1 0 2 0 2 0 2 0 
1 0 2 0 2 0 2 0 1 0 2 0 2 0 1 0 
2 0 2 0 2 0 1 0 2 0 2 0 2 0 1 0 
2 0 2 0 2 0 1767 1094 100 MP stroke
1 0 2 0 2 0 2 0 1 0 2 0 2 0 2 0 
1 0 2 0 2 0 2 0 1 0 2 0 2 0 2 0 
1 0 2 0 2 0 2 0 1 0 2 0 2 0 2 0 
1 0 2 0 2 0 1 0 2 0 2 0 2 0 1 0 
2 0 2 0 2 0 1 0 2 0 2 0 2 0 1 0 
2 0 2 0 2 0 1 0 2 0 2 0 2 0 1 0 
2 0 2 0 2 0 1 0 2 0 2 0 2 0 1 0 
2 0 2 0 2 0 1 0 2 0 2 0 2 0 1 0 
2 0 2 0 1 0 2 0 2 0 2 0 1 0 2 0 
2 0 2 0 1 0 2 0 2 0 2 0 1 0 2 0 
2 0 2 0 1 0 2 0 2 0 2 0 1 0 2 0 
2 0 2 0 1 0 2 0 2 0 2 0 1 0 2 0 
2 0 2 0 1 0 1595 1094 100 MP stroke
2 0 2 0 2 0 1 0 2 0 2 0 2 0 1 0 
2 0 2 0 1 0 2 0 2 0 2 0 1 0 2 0 
2 0 2 0 1 0 2 0 2 0 2 0 1 0 2 0 
2 0 2 0 1 0 2 0 2 0 2 0 1 0 2 0 
2 0 2 0 1 0 2 0 2 0 2 0 1 0 2 0 
2 0 2 0 1 0 2 0 2 0 2 0 1 0 2 0 
2 0 1 0 2 0 2 0 2 0 1 0 2 0 2 0 
2 0 1 0 2 0 2 0 2 0 1 0 2 0 2 0 
2 0 1 0 2 0 2 0 2 0 1 0 2 0 2 0 
2 0 1 0 2 0 2 0 2 0 1 0 2 0 2 0 
2 0 1 0 2 0 2 0 2 0 1 0 2 0 2 0 
1 0 2 0 2 0 2 0 1 0 2 0 2 0 2 0 
1 0 2 0 2 0 1422 1094 100 MP stroke
2 0 1 0 2 0 2 0 2 0 1 0 2 0 2 0 
2 0 1 0 2 0 2 0 2 0 1 0 2 0 2 0 
2 0 1 0 2 0 2 0 2 0 1 0 2 0 2 0 
2 0 1 0 2 0 2 0 2 0 1 0 2 0 2 0 
1 0 2 0 2 0 2 0 1 0 2 0 2 0 2 0 
1 0 2 0 2 0 2 0 1 0 2 0 2 0 2 0 
1 0 2 0 2 0 2 0 1 0 2 0 2 0 2 0 
1 0 2 0 2 0 2 0 1 0 2 0 2 0 2 0 
1 0 2 0 2 0 2 0 1 0 2 0 2 0 1 0 
2 0 2 0 2 0 1 0 2 0 2 0 2 0 1 0 
2 0 2 0 2 0 1 0 2 0 2 0 2 0 1 0 
2 0 2 0 2 0 1 0 2 0 2 0 2 0 1 0 
2 0 2 0 2 0 1249 1094 100 MP stroke
1 0 2 0 2 0 2 0 1 0 2 0 2 0 2 0 
1 0 2 0 2 0 1 0 2 0 2 0 2 0 1 0 
2 0 2 0 2 0 1 0 2 0 2 0 2 0 1 0 
2 0 2 0 2 0 1 0 2 0 2 0 2 0 1 0 
2 0 2 0 2 0 1 0 2 0 2 0 2 0 1 0 
2 0 2 0 2 0 1 0 2 0 2 0 2 0 1 0 
2 0 2 0 1 0 2 0 2 0 2 0 1 0 2 0 
2 0 2 0 1 0 2 0 2 0 2 0 1 0 2 0 
2 0 2 0 1 0 2 0 2 0 2 0 1 0 2 0 
2 0 2 0 1 0 2 0 2 0 2 0 1 0 2 0 
2 0 2 0 1 0 2 0 2 0 2 0 1 0 2 0 
2 0 2 0 1 0 2 0 2 0 1 0 2 0 2 0 
2 0 1 0 2 0 1077 1094 100 MP stroke
2 0 2 0 1 0 2 0 2 0 2 0 1 0 2 0 
2 0 2 0 1 0 2 0 2 0 2 0 1 0 2 0 
2 0 2 0 1 0 2 0 2 0 2 0 1 0 2 0 
2 0 2 0 1 0 2 0 2 0 2 0 1 0 2 0 
2 0 1 0 2 0 2 0 2 0 1 0 2 0 2 0 
2 0 1 0 2 0 2 0 2 0 1 0 2 0 2 0 
2 0 1 0 2 0 2 0 2 0 1 0 2 0 2 0 
2 0 1 0 2 0 2 0 2 0 1 0 2 0 2 0 
2 0 1 0 2 0 2 0 2 0 1 0 2 0 2 0 
1 0 2 0 2 0 2 0 1 0 2 0 2 0 2 0 
1 0 2 0 2 0 2 0 1 0 2 0 2 0 2 0 
1 0 2 0 2 0 2 0 1 0 2 0 2 0 2 0 
1 0 2 0 2 0 904 1094 100 MP stroke
2 0 1 0 2 0 899 1094 4 MP stroke
/c9 { 0.000000 0.500000 0.000000 sr} bdef
c9
2 0 2 0 1 0 2 0 2 0 2 0 1 0 2 0 
2 0 2 0 1 0 2 0 2 0 2 0 1 0 2 0 
2 0 2 0 1 0 2 0 2 0 2 0 1 0 2 0 
2 0 2 0 1 0 2 0 2 0 2 0 1 0 2 0 
2 0 1 0 2 0 2 0 2 0 1 0 2 0 2 0 
2 0 1 0 2 0 2 0 2 0 1 0 2 0 2 0 
2 0 1 0 2 0 2 0 2 0 1 0 2 0 2 0 
2 0 1 0 2 0 2 0 2 0 1 0 2 0 2 0 
2 0 1 0 2 0 2 0 2 0 1 0 2 0 2 0 
1 0 2 0 2 0 2 0 1 0 2 0 2 0 2 0 
1 0 2 0 2 0 2 0 1 0 2 0 2 0 2 0 
1 0 2 0 2 0 2 0 1 0 2 0 2 0 2 0 
1 0 2 0 2 0 6083 1094 100 MP stroke
2 0 1 0 2 0 2 0 2 0 1 0 2 0 2 0 
2 0 1 0 2 0 2 0 1 0 2 0 2 0 2 0 
1 0 2 0 2 0 2 0 1 0 2 0 2 0 2 0 
1 0 2 0 2 0 2 0 1 0 2 0 2 0 2 0 
1 0 2 0 2 0 2 0 1 0 2 0 2 0 2 0 
1 0 2 0 2 0 2 0 1 0 2 0 2 0 2 0 
1 0 2 0 2 0 2 0 1 0 2 0 2 0 1 0 
2 0 2 0 2 0 1 0 2 0 2 0 2 0 1 0 
2 0 2 0 2 0 1 0 2 0 2 0 2 0 1 0 
2 0 2 0 2 0 1 0 2 0 2 0 2 0 1 0 
2 0 2 0 2 0 1 0 2 0 2 0 2 0 1 0 
2 0 2 0 2 0 1 0 2 0 2 0 1 0 2 0 
2 0 2 0 1 0 5911 1094 100 MP stroke
2 0 2 0 2 0 1 0 2 0 2 0 2 0 1 0 
2 0 2 0 2 0 1 0 2 0 2 0 2 0 1 0 
2 0 2 0 2 0 1 0 2 0 2 0 2 0 1 0 
2 0 2 0 2 0 1 0 2 0 2 0 2 0 1 0 
2 0 2 0 1 0 2 0 2 0 2 0 1 0 2 0 
2 0 2 0 1 0 2 0 2 0 2 0 1 0 2 0 
2 0 2 0 1 0 2 0 2 0 2 0 1 0 2 0 
2 0 2 0 1 0 2 0 2 0 2 0 1 0 2 0 
2 0 2 0 1 0 2 0 2 0 2 0 1 0 2 0 
2 0 1 0 2 0 2 0 2 0 1 0 2 0 2 0 
2 0 1 0 2 0 2 0 2 0 1 0 2 0 2 0 
2 0 1 0 2 0 2 0 2 0 1 0 2 0 2 0 
2 0 1 0 2 0 5738 1094 100 MP stroke
2 0 2 0 1 0 2 0 2 0 2 0 1 0 2 0 
2 0 2 0 1 0 2 0 2 0 2 0 1 0 2 0 
2 0 1 0 2 0 2 0 2 0 1 0 2 0 2 0 
2 0 1 0 2 0 2 0 2 0 1 0 2 0 2 0 
2 0 1 0 2 0 2 0 2 0 1 0 2 0 2 0 
2 0 1 0 2 0 2 0 2 0 1 0 2 0 2 0 
2 0 1 0 2 0 2 0 2 0 1 0 2 0 2 0 
1 0 2 0 2 0 2 0 1 0 2 0 2 0 2 0 
1 0 2 0 2 0 2 0 1 0 2 0 2 0 2 0 
1 0 2 0 2 0 2 0 1 0 2 0 2 0 2 0 
1 0 2 0 2 0 2 0 1 0 2 0 2 0 2 0 
1 0 2 0 2 0 2 0 1 0 2 0 2 0 1 0 
2 0 2 0 2 0 5565 1094 100 MP stroke
1 0 2 0 2 0 2 0 1 0 2 0 2 0 2 0 
1 0 2 0 2 0 2 0 1 0 2 0 2 0 2 0 
1 0 2 0 2 0 2 0 1 0 2 0 2 0 2 0 
1 0 2 0 2 0 2 0 1 0 2 0 2 0 2 0 
1 0 2 0 2 0 2 0 1 0 2 0 2 0 1 0 
2 0 2 0 2 0 1 0 2 0 2 0 2 0 1 0 
2 0 2 0 2 0 1 0 2 0 2 0 2 0 1 0 
2 0 2 0 2 0 1 0 2 0 2 0 2 0 1 0 
2 0 2 0 2 0 1 0 2 0 2 0 2 0 1 0 
2 0 2 0 2 0 1 0 2 0 2 0 1 0 2 0 
2 0 2 0 1 0 2 0 2 0 2 0 1 0 2 0 
2 0 2 0 1 0 2 0 2 0 2 0 1 0 2 0 
2 0 2 0 1 0 5393 1094 100 MP stroke
2 0 2 0 2 0 1 0 2 0 2 0 2 0 1 0 
2 0 2 0 2 0 1 0 2 0 2 0 2 0 1 0 
2 0 2 0 1 0 2 0 2 0 2 0 1 0 2 0 
2 0 2 0 1 0 2 0 2 0 2 0 1 0 2 0 
2 0 2 0 1 0 2 0 2 0 2 0 1 0 2 0 
2 0 2 0 1 0 2 0 2 0 2 0 1 0 2 0 
2 0 2 0 1 0 2 0 2 0 2 0 1 0 2 0 
2 0 1 0 2 0 2 0 2 0 1 0 2 0 2 0 
2 0 1 0 2 0 2 0 2 0 1 0 2 0 2 0 
2 0 1 0 2 0 2 0 2 0 1 0 2 0 2 0 
2 0 1 0 2 0 2 0 2 0 1 0 2 0 2 0 
2 0 1 0 2 0 2 0 2 0 1 0 2 0 2 0 
2 0 1 0 2 0 5220 1094 100 MP stroke
2 0 1 0 2 0 2 0 2 0 1 0 2 0 2 0 
2 0 1 0 2 0 2 0 2 0 1 0 2 0 2 0 
2 0 1 0 2 0 2 0 2 0 1 0 2 0 2 0 
2 0 1 0 2 0 2 0 2 0 1 0 2 0 2 0 
2 0 1 0 2 0 2 0 2 0 1 0 2 0 2 0 
1 0 2 0 2 0 2 0 1 0 2 0 2 0 2 0 
1 0 2 0 2 0 2 0 1 0 2 0 2 0 2 0 
1 0 2 0 2 0 2 0 1 0 2 0 2 0 2 0 
1 0 2 0 2 0 2 0 1 0 2 0 2 0 2 0 
1 0 2 0 2 0 2 0 1 0 2 0 2 0 1 0 
2 0 2 0 2 0 1 0 2 0 2 0 2 0 1 0 
2 0 2 0 2 0 1 0 2 0 2 0 2 0 1 0 
2 0 2 0 2 0 5047 1094 100 MP stroke
1 0 2 0 2 0 2 0 1 0 2 0 2 0 2 0 
1 0 2 0 2 0 2 0 1 0 2 0 2 0 2 0 
1 0 2 0 2 0 2 0 1 0 2 0 2 0 1 0 
2 0 2 0 2 0 1 0 2 0 2 0 2 0 1 0 
2 0 2 0 2 0 1 0 2 0 2 0 2 0 1 0 
2 0 2 0 2 0 1 0 2 0 2 0 2 0 1 0 
2 0 2 0 2 0 1 0 2 0 2 0 2 0 1 0 
2 0 2 0 2 0 1 0 2 0 2 0 1 0 2 0 
2 0 2 0 1 0 2 0 2 0 2 0 1 0 2 0 
2 0 2 0 1 0 2 0 2 0 2 0 1 0 2 0 
2 0 2 0 1 0 2 0 2 0 2 0 1 0 2 0 
2 0 2 0 1 0 2 0 2 0 2 0 1 0 2 0 
2 0 2 0 1 0 4875 1094 100 MP stroke
2 0 2 0 1 0 2 0 2 0 2 0 1 0 2 0 
2 0 2 0 1 0 2 0 2 0 2 0 1 0 2 0 
2 0 2 0 1 0 2 0 2 0 2 0 1 0 2 0 
2 0 2 0 1 0 2 0 2 0 2 0 1 0 2 0 
2 0 2 0 1 0 2 0 2 0 2 0 1 0 2 0 
2 0 1 0 2 0 2 0 2 0 1 0 2 0 2 0 
2 0 1 0 2 0 2 0 2 0 1 0 2 0 2 0 
2 0 1 0 2 0 2 0 2 0 1 0 2 0 2 0 
2 0 1 0 2 0 2 0 2 0 1 0 2 0 2 0 
2 0 1 0 2 0 2 0 2 0 1 0 2 0 2 0 
2 0 1 0 2 0 2 0 1 0 2 0 2 0 2 0 
1 0 2 0 2 0 2 0 1 0 2 0 2 0 2 0 
1 0 2 0 2 0 4702 1094 100 MP stroke
2 0 1 0 2 0 2 0 2 0 1 0 2 0 2 0 
2 0 1 0 2 0 2 0 2 0 1 0 2 0 2 0 
2 0 1 0 2 0 2 0 2 0 1 0 2 0 2 0 
1 0 2 0 2 0 2 0 1 0 2 0 2 0 2 0 
1 0 2 0 2 0 2 0 1 0 2 0 2 0 2 0 
1 0 2 0 2 0 2 0 1 0 2 0 2 0 2 0 
1 0 2 0 2 0 2 0 1 0 2 0 2 0 2 0 
1 0 2 0 2 0 2 0 1 0 2 0 2 0 1 0 
2 0 2 0 2 0 1 0 2 0 2 0 2 0 1 0 
2 0 2 0 2 0 1 0 2 0 2 0 2 0 1 0 
2 0 2 0 2 0 1 0 2 0 2 0 2 0 1 0 
2 0 2 0 2 0 1 0 2 0 2 0 2 0 1 0 
2 0 2 0 2 0 4529 1094 100 MP stroke
1 0 2 0 2 0 2 0 1 0 2 0 2 0 1 0 
2 0 2 0 2 0 1 0 2 0 2 0 2 0 1 0 
2 0 2 0 2 0 1 0 2 0 2 0 2 0 1 0 
2 0 2 0 2 0 1 0 2 0 2 0 2 0 1 0 
2 0 2 0 2 0 1 0 2 0 2 0 2 0 1 0 
2 0 2 0 2 0 1 0 2 0 2 0 1 0 2 0 
2 0 2 0 1 0 2 0 2 0 2 0 1 0 2 0 
2 0 2 0 1 0 2 0 2 0 2 0 1 0 2 0 
2 0 2 0 1 0 2 0 2 0 2 0 1 0 2 0 
2 0 2 0 1 0 2 0 2 0 2 0 1 0 2 0 
2 0 2 0 1 0 2 0 2 0 1 0 2 0 2 0 
2 0 1 0 2 0 2 0 2 0 1 0 2 0 2 0 
2 0 1 0 2 0 4357 1094 100 MP stroke
2 0 2 0 1 0 2 0 2 0 2 0 1 0 2 0 
2 0 2 0 1 0 2 0 2 0 2 0 1 0 2 0 
2 0 2 0 1 0 2 0 2 0 2 0 1 0 2 0 
2 0 1 0 2 0 2 0 2 0 1 0 2 0 2 0 
2 0 1 0 2 0 2 0 2 0 1 0 2 0 2 0 
2 0 1 0 2 0 2 0 2 0 1 0 2 0 2 0 
2 0 1 0 2 0 2 0 2 0 1 0 2 0 2 0 
2 0 1 0 2 0 2 0 2 0 1 0 2 0 2 217 
2 0 1 0 2 0 2 0 1 0 2 0 2 0 2 0 
1 0 2 0 2 0 2 0 1 0 2 0 2 0 2 0 
1 0 2 0 2 0 2 0 1 0 2 0 2 0 2 0 
1 0 2 0 2 0 2 0 1 0 2 0 2 0 2 0 
1 0 2 0 2 0 4184 877 100 MP stroke
2 0 1 0 2 0 2 0 2 0 1 0 2 0 2 0 
1 0 2 0 2 0 2 0 1 0 2 0 2 0 2 0 
1 0 2 0 2 0 2 0 1 0 2 0 2 0 2 0 
1 0 2 0 2 0 2 0 1 0 2 0 2 0 2 0 
1 0 2 0 2 0 2 0 1 0 2 0 2 0 2 0 
1 0 2 0 2 0 2 0 1 0 2 0 2 0 1 0 
2 0 2 0 2 0 1 0 2 0 2 0 2 0 1 0 
2 0 2 0 2 0 1 0 2 0 2 0 2 0 1 0 
2 0 2 0 2 0 1 0 2 0 2 0 2 0 1 0 
2 0 2 0 2 0 1 0 2 0 2 0 2 0 1 0 
2 0 2 0 2 0 1 0 2 0 2 0 2 0 1 0 
2 0 2 0 1 0 2 0 2 0 2 0 1 0 2 0 
2 0 2 0 1 0 4012 877 100 MP stroke
2 0 2 0 2 0 1 0 2 0 2 0 2 0 1 0 
2 0 2 0 2 0 1 0 2 0 2 0 2 0 1 0 
2 0 2 0 2 0 1 0 2 0 2 0 2 0 1 0 
2 0 2 0 2 0 1 0 2 0 2 0 1 0 2 0 
2 0 2 0 1 0 2 0 2 0 2 0 1 0 2 0 
2 0 2 0 1 0 2 0 2 0 2 0 1 0 2 0 
2 0 2 0 1 0 2 0 2 0 2 0 1 0 2 0 
2 0 2 -217 1 0 2 0 2 0 2 0 1 0 2 0 
2 0 2 0 1 0 2 0 2 0 1 0 2 0 2 0 
2 0 1 0 2 0 2 0 2 0 1 0 2 0 2 0 
2 0 1 0 2 0 2 0 2 0 1 0 2 0 2 0 
2 0 1 0 2 0 2 0 2 0 1 0 2 0 2 0 
2 0 1 0 2 0 3839 1094 100 MP stroke
2 0 2 0 1 0 2 0 2 0 2 0 1 0 2 0 
2 0 1 0 2 0 2 0 2 0 1 0 2 0 2 0 
2 0 1 0 2 0 2 0 2 0 1 0 2 0 2 0 
2 0 1 0 2 0 2 0 2 0 1 0 2 0 2 0 
2 0 1 0 2 0 2 0 2 0 1 0 2 0 2 0 
2 0 1 0 2 0 2 0 2 0 1 0 2 0 2 0 
2 0 1 0 2 0 2 0 1 0 2 0 2 0 2 0 
1 0 2 0 2 0 2 0 1 0 2 0 2 0 2 0 
1 0 2 0 2 0 2 0 1 0 2 0 2 0 2 0 
1 0 2 0 2 0 2 0 1 0 2 0 2 0 2 0 
1 0 2 0 2 0 2 0 1 0 2 0 2 0 2 0 
1 0 2 0 2 0 1 0 2 0 2 0 2 0 1 0 
2 0 2 0 2 0 3666 1094 100 MP stroke
1 0 2 0 2 0 2 0 1 0 2 0 2 0 2 0 
1 0 2 0 2 0 2 0 1 0 2 0 2 0 2 0 
1 0 2 0 2 0 2 0 1 0 2 0 2 0 2 0 
1 0 2 0 2 0 2 0 1 0 2 0 2 0 1 0 
2 0 2 0 2 0 1 0 2 0 2 0 2 0 1 0 
2 0 2 0 2 0 1 0 2 0 2 0 2 0 1 0 
2 0 2 0 2 0 1 0 2 0 2 0 2 0 1 0 
2 0 2 0 2 0 1 0 2 0 2 0 2 0 1 0 
2 0 2 0 2 0 1 0 2 0 2 0 2 0 1 0 
2 0 2 0 1 0 2 0 2 0 2 0 1 0 2 0 
2 0 2 0 1 0 2 0 2 0 2 0 1 0 2 0 
2 0 2 0 1 0 2 0 2 0 2 0 1 0 2 0 
2 0 2 0 1 0 3494 1094 100 MP stroke
2 0 2 0 2 0 1 0 2 0 2 0 2 0 1 0 
2 0 2 0 2 0 1 0 2 0 2 0 1 0 2 0 
2 0 2 0 1 0 2 0 2 0 2 0 1 0 2 0 
2 0 2 0 1 0 2 0 2 0 2 0 1 0 2 0 
2 0 2 0 1 0 2 0 2 0 2 0 1 0 2 0 
2 0 2 0 1 0 2 0 2 0 2 0 1 0 2 0 
2 0 2 0 1 0 2 0 2 0 1 0 2 0 2 0 
2 0 1 0 2 0 2 0 2 0 1 0 2 0 2 0 
2 0 1 0 2 0 2 0 2 0 1 0 2 0 2 0 
2 0 1 0 2 0 2 0 2 0 1 0 2 0 2 0 
2 0 1 0 2 0 2 0 2 0 1 0 2 0 2 0 
2 0 1 0 2 0 2 0 2 0 1 0 2 0 2 0 
1 0 2 0 2 0 3321 1094 100 MP stroke
2 0 1 0 2 0 2 0 2 0 1 0 2 0 2 0 
2 0 1 0 2 0 2 0 2 0 1 0 2 0 2 0 
2 0 1 0 2 0 2 0 2 0 1 0 2 0 2 0 
2 0 1 0 2 0 2 0 2 0 1 0 2 0 2 0 
2 0 1 0 2 0 2 0 1 0 2 0 2 0 2 0 
1 0 2 0 2 0 2 0 1 217 2 0 2 0 2 0 
1 0 2 0 2 0 2 0 1 0 2 0 2 0 2 0 
1 0 2 0 2 0 2 0 1 0 2 0 2 0 2 0 
1 0 2 0 2 0 2 0 1 0 2 0 2 0 2 0 
1 0 2 0 2 0 1 0 2 0 2 0 2 0 1 0 
2 0 2 0 2 0 1 0 2 0 2 0 2 0 1 0 
2 0 2 0 2 0 1 0 2 0 2 0 2 0 1 0 
2 0 2 0 2 0 3148 877 100 MP stroke
1 0 2 0 2 0 2 0 1 0 2 0 2 0 2 0 
1 0 2 0 2 0 2 0 1 0 2 0 2 0 1 0 
2 0 2 0 2 0 1 0 2 0 2 0 2 0 1 0 
2 0 2 0 2 0 1 0 2 0 2 0 2 0 1 0 
2 0 2 0 2 0 1 0 2 0 2 0 2 0 1 0 
2 0 2 0 2 0 1 0 2 0 2 0 2 0 1 0 
2 0 2 0 2 0 1 0 2 0 2 0 2 0 1 0 
2 0 2 0 1 0 2 0 2 0 2 0 1 0 2 0 
2 0 2 0 1 0 2 0 2 0 2 0 1 0 2 0 
2 0 2 0 1 0 2 0 2 0 2 0 1 0 2 0 
2 0 2 0 1 0 2 0 2 0 2 0 1 0 2 0 
2 0 2 0 1 0 2 0 2 0 2 0 1 0 2 0 
2 0 1 0 2 0 2976 877 100 MP stroke
2 0 2 0 1 0 2 0 2 0 2 0 1 0 2 0 
2 0 2 0 1 0 2 0 2 0 2 0 1 0 2 0 
2 0 2 0 1 0 2 0 2 0 2 0 1 0 2 0 
2 0 2 0 1 0 2 0 2 0 2 0 1 0 2 0 
2 0 2 0 1 0 2 0 2 0 1 0 2 -217 2 0 
2 0 1 0 2 0 2 0 2 0 1 0 2 0 2 0 
2 0 1 0 2 0 2 0 2 0 1 0 2 0 2 0 
2 0 1 0 2 0 2 0 2 0 1 0 2 0 2 0 
2 0 1 0 2 0 2 0 2 0 1 0 2 0 2 0 
2 0 1 0 2 0 2 0 2 0 1 0 2 0 2 0 
1 0 2 0 2 0 2 0 1 0 2 0 2 0 2 0 
1 0 2 0 2 0 2 0 1 0 2 0 2 0 2 0 
1 0 2 0 2 0 2803 1094 100 MP stroke
2 0 1 0 2 0 2 0 2 0 1 0 2 0 2 0 
2 0 1 0 2 0 2 0 2 0 1 0 2 0 2 0 
2 0 1 0 2 0 2 0 1 0 2 0 2 0 2 0 
1 0 2 0 2 0 2 0 1 0 2 0 2 0 2 0 
1 0 2 0 2 0 2 0 1 0 2 0 2 0 2 0 
1 0 2 0 2 0 2 0 1 0 2 0 2 0 2 0 
1 0 2 0 2 0 2 0 1 0 2 0 2 0 2 0 
1 0 2 0 2 0 1 0 2 0 2 0 2 0 1 0 
2 0 2 0 2 0 1 0 2 0 2 0 2 0 1 0 
2 0 2 0 2 0 1 0 2 0 2 0 2 0 1 0 
2 0 2 0 2 0 1 0 2 0 2 0 2 0 1 0 
2 0 2 0 2 0 1 0 2 0 2 0 2 0 1 0 
2 0 2 0 1 0 2631 1094 100 MP stroke
2 0 2 0 2 0 1 0 2 0 2 0 2 0 1 0 
2 0 2 0 2 0 1 0 2 0 2 0 2 0 1 0 
2 0 2 0 2 0 1 0 2 0 2 0 2 0 1 0 
2 0 2 0 2 0 1 0 2 0 2 0 2 0 1 0 
2 0 2 0 2 0 1 0 2 0 2 0 2 0 1 0 
2 0 2 0 1 0 2 0 2 0 2 0 1 0 2 0 
2 0 2 0 1 0 2 0 2 0 2 0 1 0 2 0 
2 0 2 0 1 0 2 0 2 0 2 0 1 0 2 0 
2 0 2 0 1 0 2 0 2 0 2 0 1 0 2 0 
2 0 2 0 1 0 2 0 2 0 2 0 1 0 2 0 
2 0 1 0 2 0 2 0 2 0 1 0 2 0 2 0 
2 0 1 0 2 0 2 0 2 0 1 0 2 0 2 0 
2 0 1 0 2 0 2458 1094 100 MP stroke
2 0 2 0 1 0 2 0 2 0 2 0 1 0 2 0 
2 0 2 0 1 0 2 0 2 0 2 0 1 0 2 0 
2 0 2 0 1 0 2 0 2 0 1 0 2 0 2 0 
2 0 1 0 2 0 2 0 2 0 1 0 2 0 2 0 
2 0 1 0 2 0 2 0 2 0 1 0 2 0 2 0 
2 0 1 0 2 0 2 0 2 0 1 0 2 0 2 0 
2 0 1 0 2 0 2 0 2 0 1 0 2 0 2 0 
2 0 1 0 2 0 2 0 2 0 1 0 2 0 2 0 
1 0 2 0 2 0 2 0 1 0 2 0 2 0 2 0 
1 0 2 0 2 0 2 0 1 0 2 0 2 0 2 0 
1 0 2 0 2 0 2 0 1 0 2 0 2 0 2 0 
1 0 2 0 2 0 2 0 1 0 2 0 2 0 2 0 
1 0 2 0 2 0 2285 1094 100 MP stroke
2 0 1 0 2 0 2 0 1 0 2 0 2 0 2 0 
1 0 2 0 2 0 2 0 1 0 2 0 2 0 2 0 
1 0 2 0 2 0 2 0 1 0 2 0 2 0 2 0 
1 0 2 0 2 0 2 0 1 0 2 0 2 0 2 0 
1 0 2 0 2 0 2 0 1 0 2 0 2 0 2 0 
1 0 2 0 2 0 1 0 2 0 2 0 2 0 1 0 
2 0 2 0 2 0 1 0 2 0 2 0 2 0 1 0 
2 0 2 0 2 0 1 0 2 0 2 0 2 0 1 0 
2 0 2 0 2 0 1 0 2 0 2 0 2 0 1 0 
2 0 2 0 2 0 1 0 2 0 2 0 2 0 1 0 
2 0 2 0 1 0 2 0 2 0 2 0 1 0 2 0 
2 0 2 0 1 0 2 0 2 0 2 0 1 0 2 0 
2 0 2 0 1 0 2113 1094 100 MP stroke
2 0 2 0 2 0 1 0 2 0 2 0 2 0 1 0 
2 0 2 0 2 0 1 0 2 0 2 0 2 0 1 0 
2 0 2 0 2 0 1 0 2 0 2 0 2 0 1 0 
2 0 2 0 1 0 2 0 2 0 2 0 1 0 2 0 
2 0 2 0 1 0 2 0 2 0 2 0 1 0 2 0 
2 0 2 0 1 0 2 0 2 0 2 0 1 0 2 0 
2 0 2 0 1 0 2 0 2 0 2 0 1 0 2 0 
2 0 2 0 1 0 2 0 2 0 2 0 1 0 2 0 
2 0 1 0 2 0 2 0 2 0 1 0 2 0 2 0 
2 0 1 0 2 0 2 0 2 0 1 0 2 0 2 0 
2 0 1 0 2 0 2 0 2 0 1 0 2 0 2 0 
2 0 1 0 2 0 2 0 2 0 1 0 2 0 2 0 
2 0 1 0 2 0 1940 1094 100 MP stroke
2 0 2 0 1 0 2 0 2 0 1 0 2 0 2 0 
2 0 1 0 2 0 2 0 2 0 1 0 2 0 2 0 
2 0 1 0 2 0 2 0 2 0 1 0 2 0 2 0 
2 0 1 0 2 0 2 0 2 0 1 0 2 0 2 0 
2 0 1 0 2 0 2 0 2 0 1 0 2 0 2 0 
2 0 1 0 2 0 2 0 2 0 1 0 2 0 2 0 
1 0 2 0 2 0 2 0 1 0 2 0 2 0 2 0 
1 0 2 0 2 0 2 0 1 0 2 0 2 0 2 0 
1 0 2 0 2 0 2 0 1 0 2 0 2 0 2 0 
1 0 2 0 2 0 2 0 1 0 2 0 2 0 2 0 
1 0 2 0 2 0 2 0 1 0 2 0 2 0 1 0 
2 0 2 0 2 0 1 0 2 0 2 0 2 0 1 0 
2 0 2 0 2 0 1767 1094 100 MP stroke
1 0 2 0 2 0 2 0 1 0 2 0 2 0 2 0 
1 0 2 0 2 0 2 0 1 0 2 0 2 0 2 0 
1 0 2 0 2 0 2 0 1 0 2 0 2 0 2 0 
1 0 2 0 2 0 1 0 2 0 2 0 2 0 1 0 
2 0 2 0 2 0 1 0 2 0 2 0 2 0 1 0 
2 0 2 0 2 0 1 0 2 0 2 0 2 0 1 0 
2 0 2 0 2 0 1 0 2 0 2 0 2 0 1 0 
2 0 2 0 2 0 1 0 2 0 2 0 2 0 1 0 
2 0 2 0 1 0 2 0 2 0 2 0 1 0 2 0 
2 0 2 0 1 0 2 0 2 0 2 0 1 0 2 0 
2 0 2 0 1 0 2 0 2 0 2 0 1 0 2 0 
2 0 2 0 1 0 2 0 2 0 2 0 1 0 2 0 
2 0 2 0 1 0 1595 1094 100 MP stroke
2 0 2 0 2 0 1 0 2 0 2 0 2 0 1 0 
2 0 2 0 1 0 2 0 2 0 2 0 1 0 2 0 
2 0 2 0 1 0 2 0 2 0 2 0 1 0 2 0 
2 0 2 0 1 0 2 0 2 0 2 0 1 0 2 0 
2 0 2 0 1 0 2 0 2 0 2 0 1 0 2 0 
2 0 2 0 1 0 2 0 2 0 2 0 1 0 2 0 
2 0 1 0 2 0 2 0 2 0 1 0 2 0 2 0 
2 0 1 0 2 0 2 0 2 0 1 0 2 0 2 0 
2 0 1 0 2 0 2 0 2 0 1 0 2 0 2 0 
2 0 1 0 2 0 2 0 2 0 1 0 2 0 2 0 
2 0 1 0 2 0 2 0 2 0 1 0 2 0 2 0 
1 0 2 0 2 0 2 0 1 0 2 0 2 0 2 0 
1 0 2 0 2 0 1422 1094 100 MP stroke
2 0 1 0 2 0 2 0 2 0 1 0 2 0 2 0 
2 0 1 0 2 0 2 0 2 0 1 0 2 0 2 0 
2 0 1 0 2 0 2 0 2 0 1 0 2 0 2 0 
2 0 1 0 2 0 2 0 2 0 1 0 2 0 2 0 
1 0 2 0 2 0 2 0 1 0 2 0 2 0 2 0 
1 0 2 0 2 0 2 0 1 0 2 0 2 0 2 0 
1 0 2 0 2 0 2 0 1 0 2 0 2 0 2 0 
1 0 2 0 2 0 2 0 1 0 2 0 2 0 2 0 
1 0 2 0 2 0 2 0 1 0 2 0 2 0 1 0 
2 0 2 0 2 0 1 0 2 0 2 0 2 0 1 0 
2 0 2 0 2 0 1 0 2 0 2 0 2 0 1 0 
2 0 2 0 2 0 1 0 2 0 2 0 2 0 1 0 
2 0 2 0 2 0 1249 1094 100 MP stroke
1 0 2 0 2 0 2 0 1 0 2 0 2 0 2 0 
1 0 2 0 2 0 1 0 2 0 2 0 2 0 1 0 
2 0 2 0 2 0 1 0 2 0 2 0 2 0 1 0 
2 0 2 0 2 0 1 0 2 0 2 0 2 0 1 0 
2 0 2 0 2 0 1 0 2 0 2 0 2 0 1 0 
2 0 2 0 2 0 1 0 2 0 2 0 2 0 1 0 
2 0 2 0 1 0 2 0 2 0 2 0 1 0 2 0 
2 0 2 0 1 0 2 0 2 0 2 0 1 0 2 0 
2 0 2 0 1 0 2 0 2 0 2 0 1 0 2 0 
2 0 2 0 1 0 2 0 2 0 2 0 1 0 2 0 
2 0 2 0 1 0 2 0 2 0 2 0 1 0 2 0 
2 0 2 0 1 0 2 0 2 0 1 0 2 0 2 0 
2 0 1 0 2 0 1077 1094 100 MP stroke
2 0 2 0 1 0 2 0 2 0 2 0 1 0 2 0 
2 0 2 0 1 0 2 0 2 0 2 0 1 0 2 0 
2 0 2 0 1 0 2 0 2 0 2 0 1 0 2 0 
2 0 2 0 1 0 2 0 2 0 2 0 1 0 2 0 
2 0 1 0 2 0 2 0 2 0 1 0 2 0 2 0 
2 0 1 0 2 0 2 0 2 0 1 0 2 0 2 0 
2 0 1 0 2 0 2 0 2 0 1 0 2 0 2 0 
2 0 1 0 2 0 2 0 2 0 1 0 2 0 2 0 
2 0 1 0 2 0 2 0 2 0 1 0 2 0 2 0 
1 0 2 0 2 0 2 0 1 0 2 0 2 0 2 0 
1 0 2 0 2 0 2 0 1 0 2 0 2 0 2 0 
1 0 2 0 2 0 2 0 1 0 2 0 2 0 2 0 
1 0 2 0 2 0 904 1094 100 MP stroke
2 0 1 0 2 0 899 1094 4 MP stroke
/c10 { 1.000000 0.000000 0.000000 sr} bdef
c10
2 0 2 0 1 0 2 0 2 0 2 0 1 0 2 0 
2 0 2 0 1 0 2 0 2 0 2 0 1 0 2 0 
2 0 2 0 1 0 2 0 2 0 2 0 1 0 2 0 
2 0 2 0 1 0 2 0 2 0 2 0 1 0 2 0 
2 0 1 0 2 0 2 0 2 0 1 0 2 0 2 0 
2 0 1 0 2 0 2 0 2 0 1 0 2 0 2 0 
2 0 1 0 2 0 2 0 2 0 1 0 2 0 2 0 
2 0 1 0 2 0 2 0 2 0 1 0 2 0 2 0 
2 0 1 0 2 0 2 0 2 0 1 0 2 0 2 0 
1 0 2 0 2 0 2 0 1 0 2 0 2 0 2 0 
1 0 2 0 2 0 2 0 1 0 2 0 2 0 2 0 
1 0 2 0 2 0 2 0 1 0 2 0 2 0 2 0 
1 0 2 0 2 0 6083 1094 100 MP stroke
2 0 1 0 2 0 2 0 2 0 1 0 2 0 2 0 
2 0 1 0 2 0 2 0 1 0 2 0 2 0 2 0 
1 0 2 0 2 0 2 0 1 0 2 0 2 0 2 0 
1 0 2 0 2 0 2 0 1 0 2 0 2 0 2 0 
1 0 2 0 2 0 2 0 1 0 2 0 2 0 2 0 
1 0 2 0 2 0 2 0 1 0 2 0 2 0 2 0 
1 0 2 0 2 0 2 0 1 0 2 0 2 0 1 0 
2 0 2 0 2 0 1 0 2 0 2 0 2 0 1 0 
2 0 2 0 2 0 1 0 2 0 2 0 2 0 1 0 
2 0 2 0 2 0 1 0 2 0 2 0 2 0 1 0 
2 0 2 0 2 0 1 0 2 0 2 0 2 0 1 0 
2 0 2 0 2 0 1 0 2 0 2 0 1 0 2 0 
2 0 2 0 1 0 5911 1094 100 MP stroke
2 0 2 0 2 0 1 0 2 0 2 0 2 0 1 0 
2 0 2 0 2 0 1 0 2 0 2 0 2 0 1 0 
2 0 2 0 2 0 1 0 2 0 2 0 2 0 1 0 
2 0 2 0 2 0 1 0 2 0 2 0 2 0 1 0 
2 0 2 0 1 0 2 0 2 0 2 0 1 0 2 0 
2 0 2 0 1 0 2 0 2 0 2 0 1 0 2 0 
2 0 2 0 1 0 2 0 2 0 2 0 1 0 2 0 
2 0 2 0 1 0 2 0 2 0 2 0 1 0 2 0 
2 0 2 0 1 0 2 0 2 0 2 0 1 0 2 0 
2 0 1 0 2 0 2 0 2 0 1 0 2 0 2 0 
2 0 1 0 2 0 2 0 2 0 1 0 2 0 2 0 
2 0 1 0 2 0 2 0 2 0 1 0 2 0 2 0 
2 0 1 0 2 0 5738 1094 100 MP stroke
2 0 2 0 1 0 2 0 2 0 2 0 1 0 2 0 
2 0 2 0 1 0 2 0 2 0 2 0 1 0 2 0 
2 0 1 0 2 0 2 0 2 0 1 0 2 0 2 0 
2 0 1 0 2 0 2 0 2 0 1 0 2 0 2 0 
2 0 1 0 2 0 2 0 2 0 1 0 2 0 2 0 
2 0 1 0 2 0 2 0 2 0 1 0 2 0 2 0 
2 0 1 0 2 0 2 0 2 0 1 0 2 0 2 0 
1 0 2 0 2 0 2 0 1 0 2 0 2 0 2 0 
1 0 2 0 2 0 2 0 1 0 2 0 2 0 2 0 
1 0 2 0 2 0 2 0 1 0 2 0 2 0 2 0 
1 0 2 0 2 0 2 0 1 0 2 0 2 0 2 0 
1 0 2 0 2 0 2 0 1 0 2 0 2 0 1 0 
2 0 2 0 2 0 5565 1094 100 MP stroke
1 0 2 0 2 0 2 0 1 0 2 0 2 0 2 0 
1 0 2 0 2 0 2 0 1 0 2 0 2 0 2 0 
1 0 2 0 2 0 2 0 1 0 2 0 2 0 2 0 
1 0 2 0 2 0 2 0 1 0 2 0 2 0 2 0 
1 0 2 0 2 0 2 0 1 0 2 0 2 0 1 0 
2 0 2 0 2 0 1 0 2 0 2 0 2 0 1 0 
2 0 2 0 2 0 1 0 2 0 2 0 2 0 1 0 
2 0 2 0 2 0 1 0 2 0 2 0 2 0 1 0 
2 0 2 0 2 0 1 0 2 0 2 0 2 0 1 0 
2 0 2 0 2 0 1 0 2 0 2 0 1 0 2 0 
2 0 2 0 1 0 2 0 2 0 2 0 1 0 2 0 
2 0 2 0 1 0 2 0 2 0 2 0 1 0 2 0 
2 0 2 0 1 0 5393 1094 100 MP stroke
2 0 2 0 2 0 1 0 2 0 2 0 2 0 1 0 
2 0 2 0 2 0 1 0 2 0 2 0 2 0 1 0 
2 0 2 0 1 0 2 0 2 0 2 0 1 0 2 0 
2 0 2 0 1 0 2 0 2 0 2 0 1 0 2 0 
2 0 2 0 1 0 2 0 2 0 2 0 1 0 2 0 
2 0 2 0 1 0 2 0 2 0 2 0 1 0 2 0 
2 0 2 0 1 0 2 0 2 0 2 0 1 0 2 0 
2 0 1 0 2 0 2 0 2 0 1 0 2 0 2 0 
2 0 1 0 2 0 2 0 2 0 1 0 2 0 2 0 
2 0 1 0 2 0 2 0 2 0 1 0 2 0 2 0 
2 0 1 0 2 0 2 0 2 0 1 0 2 0 2 0 
2 0 1 0 2 0 2 0 2 0 1 0 2 0 2 0 
2 0 1 0 2 0 5220 1094 100 MP stroke
2 0 1 0 2 0 2 0 2 0 1 0 2 0 2 0 
2 0 1 0 2 0 2 0 2 0 1 0 2 0 2 0 
2 0 1 0 2 0 2 0 2 0 1 0 2 0 2 0 
2 0 1 0 2 0 2 0 2 0 1 0 2 0 2 0 
2 0 1 0 2 0 2 0 2 0 1 0 2 0 2 0 
1 0 2 0 2 0 2 0 1 0 2 0 2 0 2 0 
1 0 2 0 2 0 2 0 1 0 2 0 2 0 2 0 
1 0 2 0 2 0 2 0 1 0 2 0 2 0 2 0 
1 0 2 0 2 0 2 0 1 0 2 0 2 0 2 0 
1 0 2 0 2 0 2 0 1 0 2 0 2 0 1 0 
2 0 2 0 2 0 1 0 2 0 2 0 2 0 1 0 
2 0 2 0 2 0 1 0 2 0 2 0 2 0 1 0 
2 0 2 0 2 0 5047 1094 100 MP stroke
1 0 2 0 2 0 2 0 1 0 2 0 2 0 2 0 
1 0 2 0 2 0 2 0 1 0 2 0 2 0 2 0 
1 0 2 0 2 0 2 0 1 0 2 0 2 0 1 0 
2 0 2 0 2 0 1 0 2 0 2 0 2 0 1 0 
2 0 2 0 2 0 1 0 2 0 2 0 2 0 1 0 
2 0 2 0 2 0 1 0 2 0 2 0 2 0 1 0 
2 0 2 0 2 0 1 0 2 0 2 0 2 0 1 0 
2 0 2 0 2 0 1 0 2 0 2 0 1 0 2 0 
2 0 2 0 1 0 2 0 2 0 2 0 1 0 2 0 
2 0 2 0 1 0 2 154 2 0 2 0 1 0 2 0 
2 0 2 0 1 0 2 0 2 0 2 0 1 0 2 0 
2 0 2 0 1 0 2 0 2 0 2 0 1 0 2 0 
2 0 2 0 1 0 4875 940 100 MP stroke
2 0 2 0 1 0 2 0 2 0 2 0 1 0 2 0 
2 0 2 0 1 0 2 0 2 0 2 0 1 0 2 0 
2 0 2 0 1 0 2 0 2 0 2 0 1 0 2 0 
2 0 2 0 1 0 2 0 2 0 2 0 1 0 2 0 
2 0 2 0 1 0 2 0 2 0 2 0 1 0 2 0 
2 0 1 0 2 0 2 0 2 0 1 0 2 0 2 0 
2 0 1 0 2 0 2 0 2 0 1 0 2 0 2 0 
2 0 1 0 2 0 2 0 2 0 1 0 2 0 2 0 
2 0 1 0 2 0 2 0 2 0 1 0 2 0 2 0 
2 0 1 0 2 0 2 0 2 0 1 0 2 0 2 0 
2 0 1 0 2 0 2 0 1 0 2 0 2 0 2 0 
1 0 2 0 2 0 2 0 1 0 2 0 2 0 2 0 
1 0 2 0 2 0 4702 940 100 MP stroke
2 0 1 0 2 0 2 0 2 0 1 0 2 0 2 0 
2 0 1 0 2 0 2 0 2 0 1 0 2 0 2 0 
2 0 1 0 2 0 2 0 2 0 1 0 2 0 2 0 
1 0 2 0 2 0 2 0 1 0 2 0 2 0 2 0 
1 0 2 0 2 0 2 0 1 0 2 0 2 0 2 0 
1 0 2 0 2 0 2 0 1 0 2 0 2 0 2 0 
1 0 2 0 2 0 2 0 1 0 2 0 2 0 2 0 
1 0 2 0 2 0 2 0 1 0 2 0 2 0 1 0 
2 0 2 0 2 0 1 0 2 0 2 0 2 0 1 0 
2 0 2 0 2 0 1 0 2 0 2 0 2 0 1 0 
2 0 2 0 2 0 1 0 2 0 2 0 2 0 1 0 
2 0 2 0 2 0 1 0 2 0 2 0 2 0 1 0 
2 0 2 0 2 0 4529 940 100 MP stroke
1 0 2 0 2 0 2 0 1 0 2 0 2 0 1 0 
2 0 2 0 2 0 1 0 2 0 2 0 2 0 1 0 
2 0 2 0 2 0 1 0 2 0 2 0 2 0 1 0 
2 0 2 0 2 0 1 0 2 0 2 0 2 0 1 0 
2 0 2 0 2 0 1 0 2 0 2 0 2 0 1 0 
2 0 2 0 2 0 1 0 2 0 2 0 1 0 2 0 
2 0 2 0 1 0 2 0 2 0 2 0 1 0 2 0 
2 0 2 0 1 0 2 0 2 0 2 0 1 0 2 0 
2 0 2 0 1 0 2 0 2 0 2 0 1 0 2 0 
2 0 2 0 1 0 2 0 2 0 2 0 1 0 2 0 
2 0 2 0 1 0 2 0 2 0 1 0 2 0 2 0 
2 0 1 0 2 0 2 0 2 0 1 0 2 0 2 0 
2 0 1 0 2 0 4357 940 100 MP stroke
2 0 2 0 1 0 2 0 2 0 2 0 1 0 2 0 
2 0 2 0 1 0 2 0 2 0 2 0 1 0 2 0 
2 0 2 0 1 0 2 0 2 0 2 0 1 0 2 0 
2 0 1 0 2 0 2 0 2 0 1 0 2 0 2 0 
2 0 1 0 2 0 2 0 2 0 1 0 2 0 2 0 
2 0 1 0 2 0 2 0 2 0 1 0 2 0 2 0 
2 0 1 0 2 0 2 0 2 0 1 0 2 0 2 0 
2 0 1 0 2 0 2 0 2 0 1 0 2 0 2 -154 
2 0 1 0 2 0 2 0 1 0 2 0 2 0 2 0 
1 0 2 0 2 0 2 0 1 0 2 0 2 0 2 0 
1 0 2 0 2 0 2 0 1 0 2 0 2 0 2 0 
1 0 2 0 2 0 2 0 1 0 2 0 2 0 2 0 
1 0 2 0 2 0 4184 1094 100 MP stroke
2 0 1 0 2 0 2 0 2 0 1 0 2 0 2 0 
1 0 2 0 2 0 2 0 1 0 2 0 2 0 2 0 
1 0 2 0 2 0 2 0 1 0 2 0 2 0 2 0 
1 0 2 0 2 0 2 0 1 0 2 0 2 0 2 0 
1 0 2 0 2 0 2 0 1 0 2 0 2 0 2 0 
1 0 2 0 2 0 2 0 1 0 2 0 2 0 1 0 
2 0 2 0 2 0 1 0 2 0 2 0 2 0 1 0 
2 0 2 0 2 0 1 0 2 0 2 0 2 0 1 0 
2 0 2 0 2 0 1 0 2 0 2 0 2 0 1 0 
2 0 2 0 2 0 1 0 2 0 2 0 2 0 1 0 
2 0 2 0 2 0 1 0 2 0 2 0 2 0 1 0 
2 0 2 0 1 0 2 0 2 0 2 0 1 0 2 0 
2 0 2 0 1 0 4012 1094 100 MP stroke
2 0 2 0 2 0 1 0 2 0 2 0 2 0 1 0 
2 0 2 0 2 0 1 0 2 0 2 0 2 0 1 0 
2 0 2 0 2 0 1 0 2 0 2 0 2 0 1 0 
2 0 2 0 2 0 1 0 2 0 2 0 1 0 2 0 
2 0 2 0 1 0 2 0 2 0 2 0 1 0 2 0 
2 0 2 0 1 0 2 0 2 0 2 0 1 0 2 0 
2 0 2 0 1 0 2 0 2 0 2 0 1 0 2 0 
2 0 2 0 1 0 2 0 2 0 2 0 1 0 2 0 
2 0 2 0 1 0 2 0 2 0 1 0 2 0 2 0 
2 0 1 0 2 0 2 0 2 0 1 0 2 0 2 0 
2 0 1 0 2 0 2 0 2 0 1 0 2 0 2 0 
2 0 1 0 2 0 2 0 2 0 1 0 2 0 2 0 
2 0 1 0 2 0 3839 1094 100 MP stroke
2 0 2 0 1 0 2 0 2 0 2 0 1 0 2 0 
2 0 1 0 2 0 2 0 2 0 1 0 2 0 2 0 
2 0 1 0 2 0 2 0 2 0 1 0 2 0 2 0 
2 0 1 0 2 0 2 0 2 0 1 0 2 0 2 0 
2 0 1 0 2 0 2 0 2 0 1 0 2 0 2 0 
2 0 1 0 2 0 2 0 2 0 1 0 2 0 2 0 
2 0 1 0 2 0 2 0 1 0 2 0 2 0 2 0 
1 0 2 0 2 0 2 0 1 0 2 0 2 0 2 0 
1 0 2 0 2 0 2 0 1 0 2 0 2 0 2 0 
1 0 2 0 2 0 2 0 1 0 2 0 2 0 2 0 
1 0 2 0 2 0 2 0 1 0 2 0 2 0 2 0 
1 0 2 0 2 0 1 0 2 0 2 0 2 0 1 0 
2 0 2 0 2 0 3666 1094 100 MP stroke
1 0 2 0 2 0 2 0 1 0 2 0 2 0 2 0 
1 0 2 0 2 0 2 0 1 0 2 0 2 0 2 0 
1 0 2 0 2 0 2 0 1 0 2 0 2 0 2 0 
1 0 2 0 2 0 2 0 1 0 2 0 2 0 1 0 
2 0 2 0 2 0 1 0 2 0 2 0 2 0 1 0 
2 0 2 0 2 0 1 0 2 0 2 0 2 0 1 0 
2 0 2 0 2 0 1 0 2 0 2 0 2 0 1 0 
2 0 2 0 2 0 1 0 2 0 2 0 2 0 1 0 
2 0 2 0 2 0 1 0 2 0 2 0 2 0 1 0 
2 0 2 0 1 0 2 0 2 0 2 0 1 0 2 0 
2 0 2 0 1 0 2 0 2 0 2 0 1 0 2 0 
2 0 2 0 1 0 2 0 2 0 2 0 1 0 2 0 
2 0 2 0 1 0 3494 1094 100 MP stroke
2 0 2 0 2 0 1 0 2 0 2 0 2 0 1 0 
2 0 2 0 2 0 1 0 2 0 2 0 1 0 2 0 
2 0 2 0 1 0 2 0 2 0 2 0 1 0 2 0 
2 0 2 0 1 0 2 0 2 0 2 0 1 0 2 0 
2 0 2 0 1 0 2 0 2 0 2 0 1 0 2 0 
2 0 2 0 1 0 2 0 2 0 2 0 1 0 2 0 
2 0 2 0 1 0 2 0 2 0 1 0 2 0 2 0 
2 0 1 0 2 0 2 0 2 0 1 0 2 0 2 0 
2 0 1 0 2 0 2 0 2 0 1 0 2 0 2 0 
2 0 1 0 2 0 2 0 2 0 1 0 2 0 2 0 
2 0 1 0 2 0 2 0 2 0 1 0 2 0 2 0 
2 0 1 0 2 0 2 0 2 0 1 0 2 0 2 0 
1 0 2 0 2 0 3321 1094 100 MP stroke
2 0 1 0 2 0 2 0 2 0 1 0 2 0 2 0 
2 0 1 0 2 0 2 0 2 0 1 0 2 0 2 0 
2 0 1 0 2 0 2 0 2 0 1 0 2 0 2 0 
2 0 1 0 2 0 2 0 2 0 1 0 2 0 2 0 
2 0 1 0 2 0 2 0 1 0 2 0 2 0 2 0 
1 0 2 0 2 0 2 0 1 0 2 0 2 0 2 0 
1 0 2 0 2 0 2 0 1 0 2 0 2 0 2 0 
1 0 2 0 2 0 2 0 1 0 2 0 2 0 2 0 
1 0 2 0 2 0 2 0 1 0 2 0 2 0 2 0 
1 0 2 0 2 0 1 0 2 0 2 0 2 0 1 0 
2 0 2 0 2 0 1 0 2 0 2 0 2 0 1 0 
2 0 2 0 2 0 1 0 2 0 2 0 2 0 1 0 
2 0 2 0 2 0 3148 1094 100 MP stroke
1 0 2 0 2 0 2 0 1 0 2 0 2 0 2 0 
1 0 2 0 2 0 2 0 1 0 2 0 2 0 1 0 
2 0 2 0 2 0 1 0 2 0 2 0 2 0 1 0 
2 0 2 0 2 0 1 0 2 0 2 0 2 0 1 0 
2 0 2 0 2 0 1 0 2 0 2 0 2 0 1 0 
2 0 2 0 2 0 1 0 2 0 2 0 2 0 1 0 
2 0 2 0 2 0 1 0 2 0 2 0 2 0 1 0 
2 0 2 0 1 0 2 0 2 0 2 0 1 0 2 0 
2 0 2 0 1 0 2 0 2 0 2 0 1 0 2 0 
2 0 2 0 1 0 2 0 2 0 2 0 1 0 2 0 
2 0 2 0 1 0 2 0 2 0 2 0 1 0 2 0 
2 0 2 0 1 0 2 0 2 0 2 0 1 0 2 0 
2 0 1 0 2 0 2976 1094 100 MP stroke
2 0 2 0 1 0 2 0 2 0 2 0 1 0 2 0 
2 0 2 0 1 0 2 0 2 0 2 0 1 0 2 0 
2 0 2 0 1 0 2 0 2 0 2 0 1 0 2 0 
2 0 2 0 1 0 2 0 2 0 2 0 1 0 2 0 
2 0 2 0 1 0 2 0 2 0 1 0 2 154 2 0 
2 0 1 0 2 0 2 0 2 0 1 0 2 0 2 0 
2 0 1 0 2 0 2 0 2 0 1 0 2 0 2 0 
2 0 1 0 2 0 2 0 2 0 1 0 2 0 2 0 
2 0 1 0 2 0 2 0 2 0 1 0 2 0 2 0 
2 0 1 0 2 0 2 0 2 0 1 0 2 0 2 0 
1 0 2 0 2 0 2 0 1 0 2 0 2 0 2 0 
1 0 2 0 2 0 2 0 1 0 2 0 2 0 2 0 
1 0 2 0 2 0 2803 940 100 MP stroke
2 0 1 0 2 0 2 0 2 0 1 0 2 0 2 0 
2 0 1 0 2 0 2 0 2 0 1 0 2 0 2 0 
2 0 1 0 2 0 2 0 1 0 2 0 2 0 2 0 
1 0 2 0 2 0 2 0 1 0 2 0 2 0 2 0 
1 0 2 0 2 0 2 0 1 0 2 0 2 0 2 0 
1 0 2 0 2 0 2 0 1 0 2 0 2 0 2 0 
1 0 2 0 2 0 2 0 1 0 2 0 2 0 2 0 
1 0 2 0 2 0 1 0 2 0 2 0 2 0 1 0 
2 0 2 0 2 0 1 0 2 0 2 0 2 0 1 0 
2 0 2 0 2 0 1 0 2 0 2 0 2 0 1 0 
2 0 2 0 2 0 1 0 2 0 2 0 2 0 1 0 
2 0 2 0 2 0 1 0 2 0 2 0 2 0 1 0 
2 0 2 0 1 0 2631 940 100 MP stroke
2 0 2 0 2 0 1 0 2 0 2 0 2 0 1 0 
2 0 2 0 2 0 1 0 2 0 2 0 2 0 1 0 
2 0 2 0 2 0 1 0 2 0 2 0 2 0 1 0 
2 0 2 0 2 0 1 0 2 0 2 0 2 0 1 0 
2 0 2 0 2 0 1 0 2 0 2 0 2 0 1 0 
2 0 2 0 1 0 2 0 2 0 2 0 1 0 2 0 
2 0 2 0 1 0 2 0 2 0 2 0 1 0 2 0 
2 0 2 0 1 0 2 0 2 0 2 0 1 0 2 0 
2 0 2 0 1 0 2 0 2 0 2 0 1 0 2 0 
2 0 2 0 1 0 2 0 2 0 2 0 1 0 2 0 
2 0 1 0 2 0 2 0 2 0 1 0 2 0 2 0 
2 0 1 0 2 0 2 0 2 0 1 0 2 0 2 0 
2 0 1 0 2 0 2458 940 100 MP stroke
2 0 2 0 1 0 2 0 2 0 2 0 1 0 2 0 
2 0 2 0 1 0 2 0 2 0 2 0 1 0 2 0 
2 0 2 0 1 0 2 0 2 0 1 0 2 0 2 0 
2 0 1 0 2 0 2 0 2 0 1 0 2 0 2 0 
2 0 1 0 2 0 2 0 2 0 1 0 2 0 2 0 
2 0 1 0 2 0 2 0 2 0 1 0 2 0 2 0 
2 0 1 0 2 0 2 0 2 0 1 0 2 0 2 0 
2 0 1 0 2 0 2 0 2 0 1 0 2 0 2 0 
1 0 2 0 2 0 2 0 1 0 2 0 2 0 2 0 
1 0 2 0 2 0 2 0 1 0 2 0 2 0 2 0 
1 0 2 0 2 0 2 0 1 0 2 0 2 0 2 0 
1 0 2 0 2 0 2 0 1 0 2 0 2 0 2 0 
1 0 2 0 2 0 2285 940 100 MP stroke
2 0 1 0 2 0 2 0 1 0 2 0 2 0 2 0 
1 0 2 0 2 0 2 0 1 0 2 0 2 0 2 0 
1 0 2 0 2 0 2 0 1 0 2 0 2 0 2 0 
1 0 2 0 2 -154 2 0 1 0 2 0 2 0 2 0 
1 0 2 0 2 0 2 0 1 0 2 0 2 0 2 0 
1 0 2 0 2 0 1 0 2 0 2 0 2 0 1 0 
2 0 2 0 2 0 1 0 2 0 2 0 2 0 1 0 
2 0 2 0 2 0 1 0 2 0 2 0 2 0 1 0 
2 0 2 0 2 0 1 0 2 0 2 0 2 0 1 0 
2 0 2 0 2 0 1 0 2 0 2 0 2 0 1 0 
2 0 2 0 1 0 2 0 2 0 2 0 1 0 2 0 
2 0 2 0 1 0 2 0 2 0 2 0 1 0 2 0 
2 0 2 0 1 0 2113 1094 100 MP stroke
2 0 2 0 2 0 1 0 2 0 2 0 2 0 1 0 
2 0 2 0 2 0 1 0 2 0 2 0 2 0 1 0 
2 0 2 0 2 0 1 0 2 0 2 0 2 0 1 0 
2 0 2 0 1 0 2 0 2 0 2 0 1 0 2 0 
2 0 2 0 1 0 2 0 2 0 2 0 1 0 2 0 
2 0 2 0 1 0 2 0 2 0 2 0 1 0 2 0 
2 0 2 0 1 0 2 0 2 0 2 0 1 0 2 0 
2 0 2 0 1 0 2 0 2 0 2 0 1 0 2 0 
2 0 1 0 2 0 2 0 2 0 1 0 2 0 2 0 
2 0 1 0 2 0 2 0 2 0 1 0 2 0 2 0 
2 0 1 0 2 0 2 0 2 0 1 0 2 0 2 0 
2 0 1 0 2 0 2 0 2 0 1 0 2 0 2 0 
2 0 1 0 2 0 1940 1094 100 MP stroke
2 0 2 0 1 0 2 0 2 0 1 0 2 0 2 0 
2 0 1 0 2 0 2 0 2 0 1 0 2 0 2 0 
2 0 1 0 2 0 2 0 2 0 1 0 2 0 2 0 
2 0 1 0 2 0 2 0 2 0 1 0 2 0 2 0 
2 0 1 0 2 0 2 0 2 0 1 0 2 0 2 0 
2 0 1 0 2 0 2 0 2 0 1 0 2 0 2 0 
1 0 2 0 2 0 2 0 1 0 2 0 2 0 2 0 
1 0 2 0 2 0 2 0 1 0 2 0 2 0 2 0 
1 0 2 0 2 0 2 0 1 0 2 0 2 0 2 0 
1 0 2 0 2 0 2 0 1 0 2 0 2 0 2 0 
1 0 2 0 2 0 2 0 1 0 2 0 2 0 1 0 
2 0 2 0 2 0 1 0 2 0 2 0 2 0 1 0 
2 0 2 0 2 0 1767 1094 100 MP stroke
1 0 2 0 2 0 2 0 1 0 2 0 2 0 2 0 
1 0 2 0 2 0 2 0 1 0 2 0 2 0 2 0 
1 0 2 0 2 0 2 0 1 0 2 0 2 0 2 0 
1 0 2 0 2 0 1 0 2 0 2 0 2 0 1 0 
2 0 2 0 2 0 1 0 2 0 2 0 2 0 1 0 
2 0 2 0 2 0 1 0 2 0 2 0 2 0 1 0 
2 0 2 0 2 0 1 0 2 0 2 0 2 0 1 0 
2 0 2 0 2 0 1 0 2 0 2 0 2 0 1 0 
2 0 2 0 1 0 2 0 2 0 2 0 1 0 2 0 
2 0 2 0 1 0 2 0 2 0 2 0 1 0 2 0 
2 0 2 0 1 0 2 0 2 0 2 0 1 0 2 0 
2 0 2 0 1 0 2 0 2 0 2 0 1 0 2 0 
2 0 2 0 1 0 1595 1094 100 MP stroke
2 0 2 0 2 0 1 0 2 0 2 0 2 0 1 0 
2 0 2 0 1 0 2 0 2 0 2 0 1 0 2 0 
2 0 2 0 1 0 2 0 2 0 2 0 1 0 2 0 
2 0 2 0 1 0 2 0 2 0 2 0 1 0 2 0 
2 0 2 0 1 0 2 0 2 0 2 0 1 0 2 0 
2 0 2 0 1 0 2 0 2 0 2 0 1 0 2 0 
2 0 1 0 2 0 2 0 2 0 1 0 2 0 2 0 
2 0 1 0 2 0 2 0 2 0 1 0 2 0 2 0 
2 0 1 0 2 0 2 0 2 0 1 0 2 0 2 0 
2 0 1 0 2 0 2 0 2 0 1 0 2 0 2 0 
2 0 1 0 2 0 2 0 2 0 1 0 2 0 2 0 
1 0 2 0 2 0 2 0 1 0 2 0 2 0 2 0 
1 0 2 0 2 0 1422 1094 100 MP stroke
2 0 1 0 2 0 2 0 2 0 1 0 2 0 2 0 
2 0 1 0 2 0 2 0 2 0 1 0 2 0 2 0 
2 0 1 0 2 0 2 0 2 0 1 0 2 0 2 0 
2 0 1 0 2 0 2 0 2 0 1 0 2 0 2 0 
1 0 2 0 2 0 2 0 1 0 2 0 2 0 2 0 
1 0 2 0 2 0 2 0 1 0 2 0 2 0 2 0 
1 0 2 0 2 0 2 0 1 0 2 0 2 0 2 0 
1 0 2 0 2 0 2 0 1 0 2 0 2 0 2 0 
1 0 2 0 2 0 2 0 1 0 2 0 2 0 1 0 
2 0 2 0 2 0 1 0 2 0 2 0 2 0 1 0 
2 0 2 0 2 0 1 0 2 0 2 0 2 0 1 0 
2 0 2 0 2 0 1 0 2 0 2 0 2 0 1 0 
2 0 2 0 2 0 1249 1094 100 MP stroke
1 0 2 0 2 0 2 0 1 0 2 0 2 0 2 0 
1 0 2 0 2 0 1 0 2 0 2 0 2 0 1 0 
2 0 2 0 2 0 1 0 2 0 2 0 2 0 1 0 
2 0 2 0 2 0 1 0 2 0 2 0 2 0 1 0 
2 0 2 0 2 0 1 0 2 0 2 0 2 0 1 0 
2 0 2 0 2 0 1 0 2 0 2 0 2 0 1 0 
2 0 2 0 1 0 2 0 2 0 2 0 1 0 2 0 
2 0 2 0 1 0 2 0 2 0 2 0 1 0 2 0 
2 0 2 0 1 0 2 0 2 0 2 0 1 0 2 0 
2 0 2 0 1 0 2 0 2 0 2 0 1 0 2 0 
2 0 2 0 1 0 2 0 2 0 2 0 1 0 2 0 
2 0 2 0 1 0 2 0 2 0 1 0 2 0 2 0 
2 0 1 0 2 0 1077 1094 100 MP stroke
2 0 2 0 1 0 2 0 2 0 2 0 1 0 2 0 
2 0 2 0 1 0 2 0 2 0 2 0 1 0 2 0 
2 0 2 0 1 0 2 0 2 0 2 0 1 0 2 0 
2 0 2 0 1 0 2 0 2 0 2 0 1 0 2 0 
2 0 1 0 2 0 2 0 2 0 1 0 2 0 2 0 
2 0 1 0 2 0 2 0 2 0 1 0 2 0 2 0 
2 0 1 0 2 0 2 0 2 0 1 0 2 0 2 0 
2 0 1 0 2 0 2 0 2 0 1 0 2 0 2 0 
2 0 1 0 2 0 2 0 2 0 1 0 2 0 2 0 
1 0 2 0 2 0 2 0 1 0 2 0 2 0 2 0 
1 0 2 0 2 0 2 0 1 0 2 0 2 0 2 0 
1 0 2 0 2 0 2 0 1 0 2 0 2 0 2 0 
1 0 2 0 2 0 904 1094 100 MP stroke
2 0 1 0 2 0 899 1094 4 MP stroke
gr

24 w
c10
0 sg
3559 1382 mt 
(f) s
 616  893 mt  -90 rotate
(|FT|) s
90 rotate
3168  386 mt 
(Input Spectrum) s
6 w
1 sg
0 613 5356 0 0 -613 899 2230 4 MP
PP
-5356 0 0 613 5356 0 0 -613 899 2230 5 MP stroke
4 w
DO
SO
6 w
0 sg
 899 1617 mt 6255 1617 L
 899 2230 mt 6255 2230 L
6255 2230 mt 6255 1617 L
 899 2230 mt  899 1617 L
 899 2230 mt 6255 2230 L
 899 2230 mt  899 1617 L
1066 2230 mt 1066 2176 L
1066 1617 mt 1066 1670 L
 930 2375 mt 
(-15) s
1903 2230 mt 1903 2176 L
1903 1617 mt 1903 1670 L
1767 2375 mt 
(-10) s
2740 2230 mt 2740 2176 L
2740 1617 mt 2740 1670 L
2637 2375 mt 
(-5) s
3577 2230 mt 3577 2176 L
3577 1617 mt 3577 1670 L
3544 2375 mt 
(0) s
4413 2230 mt 4413 2176 L
4413 1617 mt 4413 1670 L
4380 2375 mt 
(5) s
5250 2230 mt 5250 2176 L
5250 1617 mt 5250 1670 L
5184 2375 mt 
(10) s
6087 2230 mt 6087 2176 L
6087 1617 mt 6087 1670 L
6021 2375 mt 
(15) s
 899 2230 mt  952 2230 L
6255 2230 mt 6201 2230 L
 798 2274 mt 
(0) s
 899 1923 mt  952 1923 L
6255 1923 mt 6201 1923 L
 698 1967 mt 
(0.5) s
 899 1617 mt  952 1617 L
6255 1617 mt 6201 1617 L
 798 1661 mt 
(1) s
 899 1617 mt 6255 1617 L
 899 2230 mt 6255 2230 L
6255 2230 mt 6255 1617 L
 899 2230 mt  899 1617 L
gs 899 1617 5357 614 MR c np
24 w
c8
2 0 2 -1 1 1 2 -1 2 1 2 -1 1 1 2 -1 
2 1 2 -1 1 1 2 -1 2 1 2 -1 1 1 2 -1 
2 1 2 -1 1 1 2 -1 2 1 2 -1 1 1 2 -1 
2 1 2 -1 1 1 2 -1 2 1 2 -1 1 1 2 -1 
2 1 1 -1 2 1 2 -1 2 1 1 -1 2 1 2 -1 
2 1 1 -1 2 1 2 -1 2 1 1 -1 2 1 2 -1 
2 1 1 -1 2 1 2 -1 2 1 1 -1 2 1 2 -1 
2 1 1 -1 2 1 2 -1 2 1 1 -1 2 1 2 -1 
2 1 1 -1 2 1 2 -1 2 1 1 -1 2 1 2 -1 
1 1 2 -1 2 1 2 -1 1 1 2 -1 2 1 2 -1 
1 1 2 -1 2 1 2 -1 1 1 2 -1 2 1 2 -1 
1 1 2 -1 2 1 2 -1 1 1 2 -1 2 1 2 -1 
1 1 2 -1 2 1 6083 2229 100 MP stroke
2 -1 1 1 2 -1 2 1 2 -1 1 1 2 -1 2 1 
2 -1 1 1 2 -1 2 1 1 -1 2 1 2 -1 2 1 
1 -1 2 1 2 -1 2 1 1 -1 2 1 2 -1 2 1 
1 -1 2 1 2 -1 2 1 1 -1 2 1 2 -1 2 1 
1 -1 2 1 2 -1 2 1 1 -1 2 1 2 -1 2 1 
1 -1 2 1 2 -1 2 1 1 -1 2 1 2 -1 2 1 
1 -1 2 1 2 -1 2 1 1 -1 2 1 2 -1 1 1 
2 -1 2 1 2 -1 1 1 2 -1 2 1 2 -1 1 1 
2 -1 2 1 2 -1 1 1 2 -1 2 1 2 -1 1 1 
2 -1 2 1 2 -1 1 1 2 -1 2 1 2 -1 1 1 
2 -1 2 1 2 -1 1 1 2 -1 2 1 2 -1 1 1 
2 -1 2 1 2 -1 1 1 2 -1 2 1 1 -1 2 1 
2 -1 2 1 1 -1 5911 2230 100 MP stroke
2 1 2 -1 2 1 1 -1 2 1 2 -1 2 1 1 -1 
2 1 2 -1 2 1 1 -1 2 1 2 -1 2 1 1 -1 
2 1 2 -1 2 1 1 -1 2 1 2 -1 2 1 1 -1 
2 1 2 -1 2 1 1 -1 2 1 2 -1 2 1 1 -1 
2 1 2 -1 1 1 2 -1 2 1 2 -1 1 1 2 -1 
2 1 2 -1 1 1 2 -1 2 1 2 -1 1 1 2 -1 
2 1 2 -1 1 1 2 -1 2 1 2 -1 1 1 2 -1 
2 1 2 -1 1 1 2 -1 2 1 2 -1 1 1 2 -1 
2 1 2 -1 1 1 2 -1 2 1 2 -1 1 1 2 -1 
2 1 1 -1 2 1 2 -1 2 1 1 -1 2 1 2 -1 
2 1 1 -1 2 1 2 -1 2 1 1 -1 2 1 2 -1 
2 1 1 -1 2 1 2 -1 2 1 1 -1 2 1 2 -1 
2 1 1 -1 2 1 5738 2229 100 MP stroke
2 -1 2 1 1 -1 2 1 2 -1 2 1 1 -1 2 1 
2 -1 2 1 1 -1 2 1 2 -1 2 1 1 -1 2 1 
2 -1 1 1 2 -1 2 1 2 -1 1 1 2 -1 2 1 
2 -1 1 1 2 -1 2 1 2 -1 1 1 2 -1 2 1 
2 -1 1 1 2 -1 2 1 2 -1 1 1 2 -1 2 1 
2 -1 1 1 2 -1 2 1 2 -1 1 1 2 -1 2 1 
2 -1 1 1 2 -1 2 1 2 -1 1 1 2 -1 2 1 
1 -1 2 1 2 -1 2 1 1 -1 2 1 2 -1 2 1 
1 -1 2 1 2 -1 2 1 1 -1 2 1 2 -1 2 1 
1 -1 2 1 2 -1 2 1 1 -1 2 1 2 -1 2 1 
1 -1 2 1 2 -1 2 1 1 -1 2 1 2 -1 2 1 
1 -1 2 1 2 -1 2 1 1 -1 2 1 2 -1 1 1 
2 -1 2 1 2 -1 5565 2230 100 MP stroke
1 1 2 -1 2 1 2 -1 1 1 2 -1 2 1 2 -1 
1 1 2 -1 2 1 2 -1 1 1 2 -1 2 1 2 -1 
1 1 2 -1 2 1 2 -1 1 1 2 -1 2 1 2 -1 
1 1 2 -1 2 1 2 -1 1 1 2 -1 2 1 2 -1 
1 1 2 -1 2 1 2 -1 1 1 2 -1 2 1 1 -1 
2 1 2 -1 2 1 1 -1 2 1 2 -1 2 1 1 -1 
2 1 2 -1 2 1 1 -1 2 1 2 -1 2 1 1 -1 
2 1 2 -1 2 1 1 -1 2 1 2 -1 2 1 1 -1 
2 1 2 -1 2 1 1 -1 2 1 2 -1 2 1 1 -1 
2 1 2 -1 2 1 1 -1 2 1 2 -1 1 1 2 -1 
2 1 2 -1 1 1 2 -1 2 1 2 -1 1 1 2 -1 
2 1 2 -1 1 1 2 -1 2 1 2 -1 1 1 2 -1 
2 1 2 -1 1 1 5393 2229 100 MP stroke
2 -1 2 1 2 -1 1 1 2 -1 2 1 2 -1 1 1 
2 -1 2 1 2 -1 1 1 2 -1 2 1 2 -1 1 1 
2 -1 2 1 1 -1 2 1 2 -1 2 1 1 -1 2 1 
2 -1 2 1 1 -1 2 1 2 -1 2 1 1 -1 2 1 
2 -1 2 1 1 -1 2 1 2 -1 2 1 1 -1 2 1 
2 -1 2 1 1 -1 2 1 2 -1 2 1 1 -1 2 1 
2 -1 2 1 1 -1 2 1 2 -1 2 1 1 -1 2 1 
2 -1 1 1 2 -1 2 1 2 -1 1 1 2 -1 2 1 
2 -1 1 1 2 -1 2 1 2 -1 1 1 2 -1 2 1 
2 -1 1 1 2 -1 2 1 2 -1 1 1 2 -1 2 1 
2 -1 1 1 2 -1 2 1 2 -1 1 1 2 -1 2 1 
2 -1 1 1 2 -1 2 1 2 -1 1 1 2 -1 2 1 
2 -1 1 1 2 -1 5220 2230 100 MP stroke
2 1 1 -1 2 1 2 -1 2 1 1 -1 2 1 2 -1 
2 1 1 -1 2 1 2 -1 2 1 1 -1 2 1 2 -1 
2 1 1 -1 2 1 2 -1 2 1 1 -1 2 1 2 -1 
2 1 1 -1 2 1 2 -1 2 1 1 -1 2 1 2 -1 
2 1 1 -1 2 1 2 -1 2 1 1 -1 2 1 2 -1 
1 1 2 -1 2 1 2 -1 1 1 2 -1 2 1 2 -1 
1 1 2 -1 2 1 2 -1 1 1 2 -1 2 1 2 -1 
1 1 2 -1 2 1 2 -1 1 1 2 -1 2 1 2 -1 
1 1 2 -1 2 1 2 -1 1 1 2 -1 2 1 2 -1 
1 1 2 -1 2 1 2 -1 1 1 2 -1 2 1 1 -1 
2 1 2 -1 2 1 1 -1 2 1 2 -1 2 1 1 -1 
2 1 2 -1 2 1 1 -1 2 1 2 -1 2 1 1 -1 
2 1 2 -1 2 1 5047 2229 100 MP stroke
1 -1 2 1 2 -1 2 1 1 -1 2 1 2 -1 2 1 
1 -1 2 1 2 -1 2 1 1 -1 2 1 2 -1 2 1 
1 -1 2 1 2 -1 2 1 1 -1 2 1 2 -1 1 1 
2 -1 2 1 2 -1 1 1 2 -1 2 1 2 -1 1 1 
2 -1 2 1 2 -1 1 1 2 -1 2 1 2 -1 1 1 
2 -1 2 1 2 -1 1 1 2 -1 2 1 2 -1 1 1 
2 -1 2 1 2 -1 1 1 2 -1 2 1 2 -1 1 1 
2 -1 2 1 2 -1 1 1 2 -1 2 1 1 -1 2 1 
2 -1 2 1 1 -1 2 1 2 -1 2 1 1 -1 2 1 
2 -1 2 1 1 -1 2 1 2 -1 2 1 1 -1 2 1 
2 -1 2 1 1 -1 2 1 2 -1 2 1 1 -1 2 1 
2 -1 2 1 1 -1 2 1 2 -1 2 1 1 -1 2 1 
2 -1 2 1 1 -1 4875 2230 100 MP stroke
2 1 2 -1 1 1 2 -1 2 1 2 -1 1 1 2 -1 
2 1 2 -1 1 1 2 -1 2 1 2 -1 1 1 2 -1 
2 1 2 -1 1 1 2 -1 2 1 2 -1 1 1 2 -1 
2 1 2 -1 1 1 2 -1 2 1 2 -1 1 1 2 -1 
2 1 2 -1 1 1 2 -1 2 1 2 -1 1 1 2 -1 
2 1 1 -1 2 1 2 -1 2 1 1 -1 2 1 2 -1 
2 1 1 -1 2 1 2 -1 2 1 1 -1 2 1 2 -1 
2 1 1 -1 2 1 2 -1 2 1 1 -1 2 1 2 -1 
2 1 1 -1 2 1 2 -1 2 1 1 -1 2 1 2 -1 
2 1 1 -1 2 1 2 -1 2 1 1 -1 2 1 2 -1 
2 1 1 -1 2 1 2 -1 1 1 2 -1 2 1 2 -1 
1 1 2 -1 2 1 2 -1 1 1 2 -1 2 1 2 -1 
1 1 2 -1 2 1 4702 2229 100 MP stroke
2 -1 1 1 2 -1 2 1 2 -1 1 1 2 -1 2 1 
2 -1 1 1 2 -1 2 1 2 -1 1 1 2 -1 2 1 
2 -1 1 1 2 -1 2 1 2 -1 1 1 2 -1 2 1 
1 -1 2 1 2 -1 2 1 1 -1 2 1 2 -1 2 1 
1 -1 2 1 2 -1 2 1 1 -1 2 1 2 -1 2 1 
1 -1 2 1 2 -1 2 1 1 -1 2 1 2 -1 2 1 
1 -1 2 1 2 -1 2 1 1 -1 2 1 2 -1 2 1 
1 -1 2 1 2 -1 2 1 1 -1 2 1 2 -1 1 1 
2 -1 2 1 2 -1 1 1 2 -1 2 1 2 -1 1 1 
2 -1 2 1 2 -1 1 1 2 -1 2 1 2 -1 1 1 
2 -1 2 1 2 -1 1 1 2 -1 2 1 2 -1 1 1 
2 -1 2 1 2 -1 1 1 2 -1 2 1 2 -1 1 1 
2 -1 2 1 2 -1 4529 2230 100 MP stroke
1 1 2 -1 2 1 2 -1 1 1 2 -1 2 1 1 -1 
2 1 2 -1 2 1 1 -1 2 1 2 -1 2 1 1 -1 
2 1 2 -1 2 1 1 -1 2 1 2 -1 2 1 1 -1 
2 1 2 -1 2 1 1 -1 2 1 2 -1 2 1 1 -1 
2 1 2 -1 2 1 1 -1 2 1 2 -1 2 1 1 -1 
2 1 2 -1 2 1 1 -1 2 1 2 -1 1 1 2 -1 
2 1 2 -1 1 1 2 -1 2 1 2 -1 1 1 2 -1 
2 1 2 -1 1 1 2 -1 2 1 2 -1 1 1 2 -1 
2 1 2 -1 1 1 2 -1 2 1 2 -1 1 1 2 -1 
2 1 2 -1 1 1 2 -1 2 1 2 -1 1 1 2 -1 
2 1 2 -1 1 1 2 -1 2 1 1 -1 2 1 2 -1 
2 1 1 -1 2 1 2 -1 2 1 1 -1 2 1 2 -1 
2 1 1 -1 2 1 4357 2229 100 MP stroke
2 -1 2 1 1 -1 2 1 2 -1 2 1 1 -1 2 1 
2 -1 2 1 1 -1 2 1 2 -1 2 1 1 -1 2 1 
2 -1 2 1 1 -1 2 1 2 -1 2 1 1 -1 2 1 
2 -1 1 1 2 -1 2 1 2 -1 1 1 2 -1 2 1 
2 -1 1 1 2 -1 2 2 2 -2 1 2 2 -2 2 2 
2 -2 1 2 2 -2 2 2 2 -2 1 2 2 -2 2 2 
2 -2 1 3 2 -3 2 3 2 -3 1 4 2 -4 2 5 
2 -5 1 6 2 -6 2 9 2 -9 1 15 2 -15 2 54 
2 55 1 15 2 -15 2 -8 1 8 2 6 2 -6 2 -4 
1 4 2 3 2 -3 2 -3 1 3 2 2 2 -2 2 -2 
1 2 2 2 2 -2 2 -2 1 2 2 1 2 -1 2 -1 
1 1 2 1 2 -1 2 -1 1 1 2 1 2 -1 2 -1 
1 1 2 0 2 0 4184 2121 100 MP stroke
2 -1 1 1 2 0 2 0 2 0 1 0 2 0 2 0 
1 0 2 0 2 0 2 0 1 0 2 0 2 0 2 0 
1 0 2 0 2 0 2 0 1 0 2 0 2 0 2 0 
1 0 2 0 2 -1 2 1 1 0 2 0 2 -1 2 1 
1 0 2 0 2 -1 2 1 1 0 2 0 2 -1 2 1 
1 0 2 0 2 -1 2 1 1 1 2 -1 2 -1 1 1 
2 1 2 -1 2 -1 1 1 2 1 2 -1 2 -1 1 1 
2 1 2 -1 2 -1 1 1 2 1 2 -1 2 -1 1 1 
2 1 2 -1 2 -1 1 1 2 1 2 -1 2 -1 1 1 
2 1 2 -1 2 -1 1 1 2 1 2 -1 2 -1 1 1 
2 0 2 0 2 -1 1 1 2 0 2 0 2 -1 1 1 
2 0 2 0 1 -1 2 1 2 0 2 0 1 -1 2 1 
2 0 2 0 1 0 4012 2121 100 MP stroke
2 0 2 0 2 0 1 0 2 0 2 0 2 0 1 0 
2 0 2 0 2 0 1 0 2 0 2 0 2 0 1 0 
2 0 2 0 2 0 1 0 2 0 2 -1 2 1 1 0 
2 0 2 -1 2 1 1 1 2 -1 2 -1 1 1 2 1 
2 -1 2 -1 1 1 2 1 2 -1 2 -2 1 2 2 2 
2 -2 2 -2 1 2 2 2 2 -2 2 -3 1 3 2 3 
2 -3 2 -4 1 4 2 6 2 -6 2 -8 1 8 2 15 
2 -15 2 207 1 -9 2 3 2 -3 2 3 1 -3 2 3 
2 -3 2 2 1 -2 2 2 2 -2 1 2 2 -2 2 2 
2 -2 1 2 2 -2 2 2 2 -2 1 2 2 -2 2 1 
2 -1 1 1 2 -1 2 1 2 -1 1 1 2 -1 2 1 
2 -1 1 1 2 -1 2 1 2 -1 1 0 2 0 2 0 
2 0 1 0 2 0 3839 1923 100 MP stroke
2 0 2 0 1 0 2 0 2 0 2 0 1 0 2 0 
2 0 1 0 2 0 2 0 2 0 1 0 2 0 2 0 
2 0 1 0 2 0 2 0 2 0 1 0 2 0 2 0 
2 0 1 0 2 0 2 0 2 0 1 0 2 0 2 0 
2 0 1 0 2 0 2 0 2 0 1 0 2 0 2 0 
2 0 1 0 2 0 2 0 2 0 1 0 2 0 2 0 
2 0 1 0 2 0 2 0 1 0 2 0 2 -306 2 -1 
1 1 2 -1 2 1 2 -1 1 1 2 -1 2 1 2 -1 
1 1 2 -1 2 1 2 -1 1 1 2 -1 2 1 2 -1 
1 1 2 -1 2 1 2 -1 1 1 2 -1 2 1 2 -1 
1 1 2 -1 2 1 2 -1 1 1 2 -1 2 1 2 -1 
1 1 2 -1 2 1 1 -1 2 1 2 -1 2 1 1 -1 
2 1 2 -1 2 1 3666 2229 100 MP stroke
1 -1 2 1 2 -1 2 1 1 -1 2 1 2 -1 2 1 
1 -1 2 1 2 -1 2 1 1 -1 2 1 2 -1 2 1 
1 -1 2 1 2 -1 2 1 1 -1 2 1 2 -1 2 1 
1 -1 2 1 2 -1 2 1 1 -1 2 1 2 -1 1 1 
2 -1 2 1 2 -1 1 1 2 -1 2 1 2 -1 1 1 
2 -1 2 1 2 -1 1 1 2 -1 2 1 2 -1 1 1 
2 -1 2 1 2 -1 1 1 2 -1 2 1 2 -1 1 1 
2 -1 2 1 2 -1 1 1 2 -1 2 1 2 -1 1 1 
2 -1 2 1 2 -1 1 1 2 -1 2 1 2 -1 1 1 
2 -1 2 1 1 -1 2 1 2 -1 2 1 1 -1 2 1 
2 -1 2 1 1 -1 2 1 2 -1 2 1 1 -1 2 1 
2 -1 2 1 1 -1 2 1 2 -1 2 1 1 -1 2 1 
2 -1 2 1 1 -1 3494 2230 100 MP stroke
2 1 2 -1 2 1 1 -1 2 1 2 -1 2 1 1 -1 
2 1 2 -1 2 1 1 -1 2 1 2 -1 1 1 2 -1 
2 1 2 -1 1 1 2 -1 2 1 2 -1 1 1 2 -1 
2 1 2 -1 1 1 2 -1 2 1 2 -1 1 1 2 -1 
2 1 2 -1 1 1 2 -1 2 1 2 -1 1 1 2 -1 
2 1 2 -1 1 1 2 -1 2 1 2 -1 1 1 2 306 
2 0 2 0 1 0 2 0 2 0 1 0 2 0 2 0 
2 0 1 0 2 0 2 0 2 0 1 0 2 0 2 0 
2 0 1 0 2 0 2 0 2 0 1 0 2 0 2 0 
2 0 1 0 2 0 2 0 2 0 1 0 2 0 2 0 
2 0 1 0 2 0 2 0 2 0 1 0 2 0 2 0 
2 0 1 0 2 0 2 0 2 0 1 0 2 0 2 0 
1 0 2 0 2 0 3321 1923 100 MP stroke
2 0 1 0 2 0 2 0 2 0 1 0 2 0 2 0 
2 0 1 1 2 -1 2 1 2 -1 1 1 2 -1 2 1 
2 -1 1 1 2 -1 2 1 2 -1 1 1 2 -1 2 2 
2 -2 1 2 2 -2 2 2 2 -2 1 2 2 -2 2 2 
2 -2 1 2 2 -2 2 2 1 -2 2 3 2 -3 2 3 
1 -3 2 3 2 -3 2 9 1 -207 2 15 2 -15 2 -8 
1 8 2 6 2 -6 2 -4 1 4 2 3 2 -3 2 -3 
1 3 2 2 2 -2 2 -2 1 2 2 2 2 -2 2 -2 
1 2 2 1 2 -1 2 -1 1 1 2 1 2 -1 2 -1 
1 1 2 1 2 -1 1 -1 2 1 2 0 2 0 1 -1 
2 1 2 0 2 0 1 0 2 0 2 0 2 0 1 0 
2 0 2 0 2 0 1 0 2 0 2 0 2 0 1 0 
2 0 2 0 2 0 3148 2121 100 MP stroke
1 0 2 0 2 0 2 0 1 0 2 0 2 -1 2 1 
1 0 2 0 2 -1 2 1 1 0 2 0 2 -1 1 1 
2 0 2 0 2 -1 1 1 2 0 2 0 2 -1 1 1 
2 1 2 -1 2 -1 1 1 2 1 2 -1 2 -1 1 1 
2 1 2 -1 2 -1 1 1 2 1 2 -1 2 -1 1 1 
2 1 2 -1 2 -1 1 1 2 1 2 -1 2 -1 1 1 
2 1 2 -1 2 -1 1 1 2 1 2 -1 2 -1 1 1 
2 1 2 -1 1 -1 2 1 2 0 2 0 1 -1 2 1 
2 0 2 0 1 -1 2 1 2 0 2 0 1 -1 2 1 
2 0 2 0 1 -1 2 1 2 0 2 0 1 0 2 0 
2 0 2 0 1 0 2 0 2 0 2 0 1 0 2 0 
2 0 2 0 1 0 2 0 2 0 2 0 1 0 2 0 
2 0 1 0 2 0 2976 2121 100 MP stroke
2 0 2 -1 1 1 2 0 2 0 2 -1 1 1 2 1 
2 -1 2 -1 1 1 2 1 2 -1 2 -1 1 1 2 1 
2 -1 2 -2 1 2 2 2 2 -2 2 -2 1 2 2 2 
2 -2 2 -3 1 3 2 3 2 -3 2 -4 1 4 2 6 
2 -6 2 -8 1 8 2 15 2 -15 1 -55 2 -54 2 15 
2 -15 1 9 2 -9 2 6 2 -6 1 5 2 -5 2 4 
2 -4 1 3 2 -3 2 3 2 -3 1 2 2 -2 2 2 
2 -2 1 2 2 -2 2 2 2 -2 1 2 2 -2 2 2 
2 -2 1 2 2 -2 2 1 2 -1 1 1 2 -1 2 1 
2 -1 1 1 2 -1 2 1 2 -1 1 1 2 -1 2 1 
1 -1 2 1 2 -1 2 1 1 -1 2 1 2 -1 2 1 
1 -1 2 1 2 -1 2 1 1 -1 2 1 2 -1 2 1 
1 -1 2 1 2 -1 2803 2230 100 MP stroke
2 1 1 -1 2 1 2 -1 2 1 1 -1 2 1 2 -1 
2 1 1 -1 2 1 2 -1 2 1 1 -1 2 1 2 -1 
2 1 1 -1 2 1 2 -1 1 1 2 -1 2 1 2 -1 
1 1 2 -1 2 1 2 -1 1 1 2 -1 2 1 2 -1 
1 1 2 -1 2 1 2 -1 1 1 2 -1 2 1 2 -1 
1 1 2 -1 2 1 2 -1 1 1 2 -1 2 1 2 -1 
1 1 2 -1 2 1 2 -1 1 1 2 -1 2 1 2 -1 
1 1 2 -1 2 1 1 -1 2 1 2 -1 2 1 1 -1 
2 1 2 -1 2 1 1 -1 2 1 2 -1 2 1 1 -1 
2 1 2 -1 2 1 1 -1 2 1 2 -1 2 1 1 -1 
2 1 2 -1 2 1 1 -1 2 1 2 -1 2 1 1 -1 
2 1 2 -1 2 1 1 -1 2 1 2 -1 2 1 1 -1 
2 1 2 -1 1 1 2631 2229 100 MP stroke
2 -1 2 1 2 -1 1 1 2 -1 2 1 2 -1 1 1 
2 -1 2 1 2 -1 1 1 2 -1 2 1 2 -1 1 1 
2 -1 2 1 2 -1 1 1 2 -1 2 1 2 -1 1 1 
2 -1 2 1 2 -1 1 1 2 -1 2 1 2 -1 1 1 
2 -1 2 1 2 -1 1 1 2 -1 2 1 2 -1 1 1 
2 -1 2 1 1 -1 2 1 2 -1 2 1 1 -1 2 1 
2 -1 2 1 1 -1 2 1 2 -1 2 1 1 -1 2 1 
2 -1 2 1 1 -1 2 1 2 -1 2 1 1 -1 2 1 
2 -1 2 1 1 -1 2 1 2 -1 2 1 1 -1 2 1 
2 -1 2 1 1 -1 2 1 2 -1 2 1 1 -1 2 1 
2 -1 1 1 2 -1 2 1 2 -1 1 1 2 -1 2 1 
2 -1 1 1 2 -1 2 1 2 -1 1 1 2 -1 2 1 
2 -1 1 1 2 -1 2458 2230 100 MP stroke
2 1 2 -1 1 1 2 -1 2 1 2 -1 1 1 2 -1 
2 1 2 -1 1 1 2 -1 2 1 2 -1 1 1 2 -1 
2 1 2 -1 1 1 2 -1 2 1 1 -1 2 1 2 -1 
2 1 1 -1 2 1 2 -1 2 1 1 -1 2 1 2 -1 
2 1 1 -1 2 1 2 -1 2 1 1 -1 2 1 2 -1 
2 1 1 -1 2 1 2 -1 2 1 1 -1 2 1 2 -1 
2 1 1 -1 2 1 2 -1 2 1 1 -1 2 1 2 -1 
2 1 1 -1 2 1 2 -1 2 1 1 -1 2 1 2 -1 
1 1 2 -1 2 1 2 -1 1 1 2 -1 2 1 2 -1 
1 1 2 -1 2 1 2 -1 1 1 2 -1 2 1 2 -1 
1 1 2 -1 2 1 2 -1 1 1 2 -1 2 1 2 -1 
1 1 2 -1 2 1 2 -1 1 1 2 -1 2 1 2 -1 
1 1 2 -1 2 1 2285 2229 100 MP stroke
2 -1 1 1 2 -1 2 1 1 -1 2 1 2 -1 2 1 
1 -1 2 1 2 -1 2 1 1 -1 2 1 2 -1 2 1 
1 -1 2 1 2 -1 2 1 1 -1 2 1 2 -1 2 1 
1 -1 2 1 2 -1 2 1 1 -1 2 1 2 -1 2 1 
1 -1 2 1 2 -1 2 1 1 -1 2 1 2 -1 2 1 
1 -1 2 1 2 -1 1 1 2 -1 2 1 2 -1 1 1 
2 -1 2 1 2 -1 1 1 2 -1 2 1 2 -1 1 1 
2 -1 2 1 2 -1 1 1 2 -1 2 1 2 -1 1 1 
2 -1 2 1 2 -1 1 1 2 -1 2 1 2 -1 1 1 
2 -1 2 1 2 -1 1 1 2 -1 2 1 2 -1 1 1 
2 -1 2 1 1 -1 2 1 2 -1 2 1 1 -1 2 1 
2 -1 2 1 1 -1 2 1 2 -1 2 1 1 -1 2 1 
2 -1 2 1 1 -1 2113 2230 100 MP stroke
2 1 2 -1 2 1 1 -1 2 1 2 -1 2 1 1 -1 
2 1 2 -1 2 1 1 -1 2 1 2 -1 2 1 1 -1 
2 1 2 -1 2 1 1 -1 2 1 2 -1 2 1 1 -1 
2 1 2 -1 1 1 2 -1 2 1 2 -1 1 1 2 -1 
2 1 2 -1 1 1 2 -1 2 1 2 -1 1 1 2 -1 
2 1 2 -1 1 1 2 -1 2 1 2 -1 1 1 2 -1 
2 1 2 -1 1 1 2 -1 2 1 2 -1 1 1 2 -1 
2 1 2 -1 1 1 2 -1 2 1 2 -1 1 1 2 -1 
2 1 1 -1 2 1 2 -1 2 1 1 -1 2 1 2 -1 
2 1 1 -1 2 1 2 -1 2 1 1 -1 2 1 2 -1 
2 1 1 -1 2 1 2 -1 2 1 1 -1 2 1 2 -1 
2 1 1 -1 2 1 2 -1 2 1 1 -1 2 1 2 -1 
2 1 1 -1 2 1 1940 2229 100 MP stroke
2 -1 2 1 1 -1 2 1 2 -1 1 1 2 -1 2 1 
2 -1 1 1 2 -1 2 1 2 -1 1 1 2 -1 2 1 
2 -1 1 1 2 -1 2 1 2 -1 1 1 2 -1 2 1 
2 -1 1 1 2 -1 2 1 2 -1 1 1 2 -1 2 1 
2 -1 1 1 2 -1 2 1 2 -1 1 1 2 -1 2 1 
2 -1 1 1 2 -1 2 1 2 -1 1 1 2 -1 2 1 
1 -1 2 1 2 -1 2 1 1 -1 2 1 2 -1 2 1 
1 -1 2 1 2 -1 2 1 1 -1 2 1 2 -1 2 1 
1 -1 2 1 2 -1 2 1 1 -1 2 1 2 -1 2 1 
1 -1 2 1 2 -1 2 1 1 -1 2 1 2 -1 2 1 
1 -1 2 1 2 -1 2 1 1 -1 2 1 2 -1 1 1 
2 -1 2 1 2 -1 1 1 2 -1 2 1 2 -1 1 1 
2 -1 2 1 2 -1 1767 2230 100 MP stroke
1 1 2 -1 2 1 2 -1 1 1 2 -1 2 1 2 -1 
1 1 2 -1 2 1 2 -1 1 1 2 -1 2 1 2 -1 
1 1 2 -1 2 1 2 -1 1 1 2 -1 2 1 2 -1 
1 1 2 -1 2 1 1 -1 2 1 2 -1 2 1 1 -1 
2 1 2 -1 2 1 1 -1 2 1 2 -1 2 1 1 -1 
2 1 2 -1 2 1 1 -1 2 1 2 -1 2 1 1 -1 
2 1 2 -1 2 1 1 -1 2 1 2 -1 2 1 1 -1 
2 1 2 -1 2 1 1 -1 2 1 2 -1 2 1 1 -1 
2 1 2 -1 1 1 2 -1 2 1 2 -1 1 1 2 -1 
2 1 2 -1 1 1 2 -1 2 1 2 -1 1 1 2 -1 
2 1 2 -1 1 1 2 -1 2 1 2 -1 1 1 2 -1 
2 1 2 -1 1 1 2 -1 2 1 2 -1 1 1 2 -1 
2 1 2 -1 1 1 1595 2229 100 MP stroke
2 -1 2 1 2 -1 1 1 2 -1 2 1 2 -1 1 1 
2 -1 2 1 1 -1 2 1 2 -1 2 1 1 -1 2 1 
2 -1 2 1 1 -1 2 1 2 -1 2 1 1 -1 2 1 
2 -1 2 1 1 -1 2 1 2 -1 2 1 1 -1 2 1 
2 -1 2 1 1 -1 2 1 2 -1 2 1 1 -1 2 1 
2 -1 2 1 1 -1 2 1 2 -1 2 1 1 -1 2 1 
2 -1 1 1 2 -1 2 1 2 -1 1 1 2 -1 2 1 
2 -1 1 1 2 -1 2 1 2 -1 1 1 2 -1 2 1 
2 -1 1 1 2 -1 2 1 2 -1 1 1 2 -1 2 1 
2 -1 1 1 2 -1 2 1 2 -1 1 1 2 -1 2 1 
2 -1 1 1 2 -1 2 1 2 -1 1 1 2 -1 2 1 
1 -1 2 1 2 -1 2 1 1 -1 2 1 2 -1 2 1 
1 -1 2 1 2 -1 1422 2230 100 MP stroke
2 1 1 -1 2 1 2 -1 2 1 1 -1 2 1 2 -1 
2 1 1 -1 2 1 2 -1 2 1 1 -1 2 1 2 -1 
2 1 1 -1 2 1 2 -1 2 1 1 -1 2 1 2 -1 
2 1 1 -1 2 1 2 -1 2 1 1 -1 2 1 2 -1 
1 1 2 -1 2 1 2 -1 1 1 2 -1 2 1 2 -1 
1 1 2 -1 2 1 2 -1 1 1 2 -1 2 1 2 -1 
1 1 2 -1 2 1 2 -1 1 1 2 -1 2 1 2 -1 
1 1 2 -1 2 1 2 -1 1 1 2 -1 2 1 2 -1 
1 1 2 -1 2 1 2 -1 1 1 2 -1 2 1 1 -1 
2 1 2 -1 2 1 1 -1 2 1 2 -1 2 1 1 -1 
2 1 2 -1 2 1 1 -1 2 1 2 -1 2 1 1 -1 
2 1 2 -1 2 1 1 -1 2 1 2 -1 2 1 1 -1 
2 1 2 -1 2 1 1249 2229 100 MP stroke
1 -1 2 1 2 -1 2 1 1 -1 2 1 2 -1 2 1 
1 -1 2 1 2 -1 1 1 2 -1 2 1 2 -1 1 1 
2 -1 2 1 2 -1 1 1 2 -1 2 1 2 -1 1 1 
2 -1 2 1 2 -1 1 1 2 -1 2 1 2 -1 1 1 
2 -1 2 1 2 -1 1 1 2 -1 2 1 2 -1 1 1 
2 -1 2 1 2 -1 1 1 2 -1 2 1 2 -1 1 1 
2 -1 2 1 1 -1 2 1 2 -1 2 1 1 -1 2 1 
2 -1 2 1 1 -1 2 1 2 -1 2 1 1 -1 2 1 
2 -1 2 1 1 -1 2 1 2 -1 2 1 1 -1 2 1 
2 -1 2 1 1 -1 2 1 2 -1 2 1 1 -1 2 1 
2 -1 2 1 1 -1 2 1 2 -1 2 1 1 -1 2 1 
2 -1 2 1 1 -1 2 1 2 -1 1 1 2 -1 2 1 
2 -1 1 1 2 -1 1077 2230 100 MP stroke
2 1 2 -1 1 1 2 -1 2 1 2 -1 1 1 2 -1 
2 1 2 -1 1 1 2 -1 2 1 2 -1 1 1 2 -1 
2 1 2 -1 1 1 2 -1 2 1 2 -1 1 1 2 -1 
2 1 2 -1 1 1 2 -1 2 1 2 -1 1 1 2 -1 
2 1 1 -1 2 1 2 -1 2 1 1 -1 2 1 2 -1 
2 1 1 -1 2 1 2 -1 2 1 1 -1 2 1 2 -1 
2 1 1 -1 2 1 2 -1 2 1 1 -1 2 1 2 -1 
2 1 1 -1 2 1 2 -1 2 1 1 -1 2 1 2 -1 
2 1 1 -1 2 1 2 -1 2 1 1 -1 2 1 2 -1 
1 1 2 -1 2 1 2 -1 1 1 2 -1 2 1 2 -1 
1 1 2 -1 2 1 2 -1 1 1 2 -1 2 1 2 -1 
1 1 2 -1 2 1 2 -1 1 1 2 -1 2 1 2 -1 
1 1 2 -1 2 1 904 2229 100 MP stroke
2 -1 1 1 2 -1 0 1 899 2229 5 MP stroke
gr

24 w
c8
0 sg
3559 2518 mt 
(f) s
 616 2029 mt  -90 rotate
(|FT|) s
90 rotate
2953 1522 mt 
(Output Spectrum \(k'=1\)) s
6 w
1 sg
0 612 5356 0 0 -612 899 3365 4 MP
PP
-5356 0 0 612 5356 0 0 -612 899 3365 5 MP stroke
4 w
DO
SO
6 w
0 sg
 899 2753 mt 6255 2753 L
 899 3365 mt 6255 3365 L
6255 3365 mt 6255 2753 L
 899 3365 mt  899 2753 L
 899 3365 mt 6255 3365 L
 899 3365 mt  899 2753 L
1066 3365 mt 1066 3311 L
1066 2753 mt 1066 2806 L
 930 3510 mt 
(-15) s
1903 3365 mt 1903 3311 L
1903 2753 mt 1903 2806 L
1767 3510 mt 
(-10) s
2740 3365 mt 2740 3311 L
2740 2753 mt 2740 2806 L
2637 3510 mt 
(-5) s
3577 3365 mt 3577 3311 L
3577 2753 mt 3577 2806 L
3544 3510 mt 
(0) s
4413 3365 mt 4413 3311 L
4413 2753 mt 4413 2806 L
4380 3510 mt 
(5) s
5250 3365 mt 5250 3311 L
5250 2753 mt 5250 2806 L
5184 3510 mt 
(10) s
6087 3365 mt 6087 3311 L
6087 2753 mt 6087 2806 L
6021 3510 mt 
(15) s
 899 3365 mt  952 3365 L
6255 3365 mt 6201 3365 L
 798 3409 mt 
(0) s
 899 3059 mt  952 3059 L
6255 3059 mt 6201 3059 L
 698 3103 mt 
(0.5) s
 899 2753 mt  952 2753 L
6255 2753 mt 6201 2753 L
 798 2797 mt 
(1) s
 899 2753 mt 6255 2753 L
 899 3365 mt 6255 3365 L
6255 3365 mt 6255 2753 L
 899 3365 mt  899 2753 L
gs 899 2753 5357 613 MR c np
24 w
c9
2 0 2 -1 1 1 2 -1 2 1 2 -1 1 1 2 -1 
2 1 2 -1 1 1 2 -1 2 1 2 -1 1 1 2 -1 
2 1 2 -1 1 1 2 -1 2 1 2 -1 1 1 2 -1 
2 1 2 -1 1 1 2 -1 2 1 2 -1 1 1 2 -1 
2 1 1 -1 2 1 2 -1 2 1 1 -1 2 1 2 -1 
2 1 1 -1 2 1 2 -1 2 1 1 -1 2 1 2 -1 
2 1 1 -1 2 1 2 -1 2 1 1 -1 2 1 2 -1 
2 1 1 -1 2 1 2 -1 2 1 1 -1 2 1 2 -1 
2 1 1 -1 2 1 2 -1 2 1 1 -1 2 1 2 -1 
1 1 2 -1 2 1 2 -1 1 1 2 -1 2 1 2 -1 
1 1 2 -1 2 1 2 -1 1 1 2 -1 2 1 2 -1 
1 1 2 -1 2 1 2 -1 1 1 2 -1 2 1 2 -1 
1 1 2 -1 2 1 6083 3364 100 MP stroke
2 -1 1 1 2 -1 2 1 2 -1 1 1 2 -1 2 1 
2 -1 1 1 2 -1 2 1 1 -1 2 1 2 -1 2 1 
1 -1 2 1 2 -1 2 1 1 -1 2 1 2 -1 2 1 
1 -1 2 1 2 -1 2 1 1 -1 2 1 2 -1 2 1 
1 -1 2 1 2 -1 2 1 1 -1 2 1 2 -1 2 1 
1 -1 2 1 2 -1 2 1 1 -1 2 1 2 -1 2 1 
1 -1 2 1 2 -1 2 1 1 -1 2 1 2 -1 1 1 
2 -1 2 1 2 -1 1 1 2 -1 2 1 2 -1 1 1 
2 -1 2 1 2 -1 1 1 2 -1 2 1 2 -1 1 1 
2 -1 2 1 2 -1 1 1 2 -1 2 1 2 -1 1 1 
2 -1 2 1 2 -1 1 1 2 -1 2 1 2 -1 1 1 
2 -1 2 1 2 -1 1 1 2 -1 2 1 1 -1 2 1 
2 -1 2 1 1 -1 5911 3365 100 MP stroke
2 1 2 -1 2 1 1 -1 2 1 2 -1 2 1 1 -1 
2 1 2 -1 2 1 1 -1 2 1 2 -1 2 1 1 -1 
2 1 2 -1 2 1 1 -1 2 1 2 -1 2 1 1 -1 
2 1 2 -1 2 1 1 -1 2 1 2 -1 2 1 1 -1 
2 1 2 -1 1 1 2 -1 2 1 2 -1 1 1 2 -1 
2 1 2 -1 1 1 2 -1 2 1 2 -1 1 1 2 -1 
2 1 2 -1 1 1 2 -1 2 1 2 -1 1 1 2 -1 
2 1 2 -1 1 1 2 -1 2 1 2 -1 1 1 2 -1 
2 1 2 -1 1 1 2 -1 2 1 2 -1 1 1 2 -1 
2 1 1 -1 2 1 2 -1 2 1 1 -1 2 1 2 -1 
2 1 1 -1 2 1 2 -1 2 1 1 -1 2 1 2 -1 
2 1 1 -1 2 1 2 -1 2 1 1 -1 2 1 2 -1 
2 1 1 -1 2 1 5738 3364 100 MP stroke
2 -1 2 1 1 -1 2 1 2 -1 2 1 1 -1 2 1 
2 -1 2 1 1 -1 2 1 2 -1 2 1 1 -1 2 1 
2 -1 1 1 2 -1 2 1 2 -1 1 1 2 -1 2 1 
2 -1 1 1 2 -1 2 1 2 -1 1 1 2 -1 2 1 
2 -1 1 1 2 -1 2 1 2 -1 1 1 2 -1 2 1 
2 -1 1 1 2 -1 2 1 2 -1 1 1 2 -1 2 1 
2 -1 1 1 2 -1 2 1 2 -1 1 1 2 -1 2 1 
1 -1 2 1 2 -1 2 1 1 -1 2 1 2 -1 2 1 
1 -1 2 1 2 -1 2 1 1 -1 2 1 2 -1 2 1 
1 -1 2 1 2 -1 2 1 1 -1 2 1 2 -1 2 1 
1 -1 2 1 2 -1 2 1 1 -1 2 1 2 -1 2 1 
1 -1 2 1 2 -1 2 1 1 -1 2 1 2 -1 1 1 
2 -1 2 1 2 -1 5565 3365 100 MP stroke
1 1 2 -1 2 1 2 -1 1 1 2 -1 2 1 2 -1 
1 1 2 -1 2 1 2 -1 1 1 2 -1 2 1 2 -1 
1 1 2 -1 2 1 2 -1 1 1 2 -1 2 1 2 -1 
1 1 2 -1 2 1 2 -1 1 1 2 -1 2 1 2 -1 
1 1 2 -1 2 1 2 -1 1 1 2 -1 2 1 1 -1 
2 1 2 -1 2 1 1 -1 2 1 2 -1 2 1 1 -1 
2 1 2 -1 2 1 1 -1 2 1 2 -1 2 1 1 -1 
2 1 2 -1 2 1 1 -1 2 1 2 -1 2 1 1 -1 
2 1 2 -1 2 1 1 -1 2 1 2 -1 2 1 1 -1 
2 1 2 -1 2 1 1 -1 2 1 2 -1 1 1 2 -1 
2 1 2 -1 1 1 2 -1 2 1 2 -1 1 1 2 -1 
2 1 2 -1 1 1 2 -1 2 1 2 -1 1 1 2 -1 
2 1 2 -1 1 1 5393 3364 100 MP stroke
2 -1 2 1 2 -1 1 1 2 -1 2 1 2 -1 1 1 
2 -1 2 1 2 -1 1 1 2 -1 2 1 2 -1 1 1 
2 -1 2 1 1 -1 2 1 2 -1 2 1 1 -1 2 1 
2 -1 2 1 1 -1 2 1 2 -1 2 1 1 -1 2 1 
2 -1 2 1 1 -1 2 1 2 -1 2 1 1 -1 2 1 
2 -1 2 1 1 -1 2 1 2 -1 2 1 1 -1 2 1 
2 -1 2 1 1 -1 2 1 2 -1 2 1 1 -1 2 1 
2 -1 1 1 2 -1 2 1 2 -1 1 1 2 -1 2 1 
2 -1 1 1 2 -1 2 1 2 -1 1 1 2 -1 2 1 
2 -1 1 1 2 -1 2 1 2 -1 1 1 2 -1 2 1 
2 -1 1 1 2 -1 2 1 2 -1 1 1 2 -1 2 1 
2 -1 1 1 2 -1 2 1 2 -1 1 1 2 -1 2 1 
2 -1 1 1 2 -1 5220 3365 100 MP stroke
2 1 1 -1 2 1 2 -1 2 1 1 -1 2 1 2 -1 
2 1 1 -1 2 1 2 -1 2 1 1 -1 2 1 2 -1 
2 1 1 -1 2 1 2 -1 2 1 1 -1 2 1 2 -1 
2 1 1 -1 2 1 2 -1 2 1 1 -1 2 1 2 -1 
2 1 1 -1 2 1 2 -1 2 1 1 -1 2 1 2 -1 
1 1 2 -1 2 1 2 -1 1 1 2 -1 2 1 2 -1 
1 1 2 -1 2 1 2 -1 1 1 2 -1 2 1 2 -1 
1 1 2 -1 2 1 2 -1 1 1 2 -1 2 1 2 -1 
1 1 2 -1 2 1 2 -1 1 1 2 -1 2 1 2 -1 
1 1 2 -1 2 1 2 -1 1 1 2 -1 2 1 1 -1 
2 1 2 -1 2 1 1 -1 2 1 2 -1 2 1 1 -1 
2 1 2 -1 2 1 1 -1 2 1 2 -1 2 1 1 -1 
2 1 2 -1 2 1 5047 3364 100 MP stroke
1 -1 2 1 2 -1 2 1 1 -1 2 1 2 -1 2 1 
1 -1 2 1 2 -1 2 1 1 -1 2 1 2 -1 2 1 
1 -1 2 1 2 -1 2 1 1 -1 2 1 2 -1 1 1 
2 -1 2 1 2 -1 1 1 2 -1 2 1 2 -1 1 1 
2 -1 2 1 2 -1 1 1 2 -1 2 1 2 -1 1 1 
2 -1 2 1 2 -1 1 1 2 -1 2 1 2 -1 1 1 
2 -1 2 1 2 -1 1 1 2 -1 2 2 2 -2 1 2 
2 -2 2 2 2 -2 1 2 2 -2 2 2 1 -2 2 2 
2 -2 2 3 1 -3 2 3 2 -3 2 4 1 -4 2 6 
2 -6 2 11 1 -11 2 39 2 38 2 11 1 -11 2 -6 
2 6 2 4 1 -4 2 -3 2 3 2 2 1 -2 2 -2 
2 2 2 2 1 -2 2 -2 2 2 2 1 1 -1 2 -1 
2 1 2 1 1 -1 4875 3288 100 MP stroke
2 -1 2 1 1 1 2 -1 2 -1 2 1 1 1 2 -1 
2 -1 2 1 1 1 2 -1 2 -1 2 1 1 1 2 -1 
2 -1 2 1 1 1 2 -1 2 0 2 0 1 0 2 0 
2 0 2 0 1 0 2 0 2 0 2 0 1 0 2 0 
2 0 2 0 1 0 2 0 2 0 2 0 1 0 2 0 
2 0 1 0 2 0 2 0 2 0 1 0 2 0 2 0 
2 0 1 0 2 0 2 0 2 0 1 0 2 0 2 0 
2 0 1 0 2 0 2 0 2 0 1 0 2 0 2 0 
2 0 1 0 2 0 2 0 2 0 1 0 2 0 2 0 
2 0 1 0 2 0 2 0 2 0 1 0 2 0 2 0 
2 0 1 0 2 0 2 0 1 0 2 0 2 0 2 0 
1 0 2 0 2 0 2 0 1 0 2 0 2 0 2 0 
1 0 2 0 2 0 4702 3288 100 MP stroke
2 0 1 0 2 0 2 0 2 0 1 0 2 0 2 0 
2 0 1 0 2 0 2 0 2 0 1 0 2 0 2 0 
2 0 1 0 2 0 2 0 2 0 1 0 2 0 2 0 
1 0 2 0 2 0 2 0 1 0 2 0 2 0 2 0 
1 0 2 0 2 0 2 0 1 0 2 0 2 0 2 0 
1 0 2 0 2 0 2 0 1 0 2 0 2 0 2 0 
1 0 2 0 2 0 2 0 1 0 2 0 2 0 2 0 
1 0 2 0 2 0 2 0 1 0 2 0 2 0 1 0 
2 0 2 0 2 0 1 0 2 0 2 0 2 0 1 0 
2 0 2 0 2 0 1 0 2 0 2 0 2 0 1 0 
2 0 2 0 2 0 1 0 2 0 2 0 2 0 1 0 
2 0 2 0 2 0 1 0 2 0 2 0 2 0 1 0 
2 0 2 0 2 0 4529 3288 100 MP stroke
1 0 2 0 2 0 2 0 1 0 2 0 2 0 1 0 
2 0 2 0 2 0 1 0 2 0 2 0 2 0 1 0 
2 0 2 0 2 0 1 0 2 0 2 0 2 0 1 0 
2 0 2 0 2 0 1 0 2 0 2 0 2 0 1 0 
2 0 2 0 2 0 1 0 2 0 2 0 2 0 1 0 
2 0 2 0 2 0 1 0 2 0 2 0 1 0 2 0 
2 0 2 0 1 0 2 0 2 0 2 0 1 0 2 0 
2 0 2 0 1 0 2 0 2 0 2 0 1 0 2 0 
2 0 2 0 1 0 2 0 2 0 2 0 1 0 2 0 
2 0 2 0 1 0 2 0 2 0 2 0 1 0 2 0 
2 0 2 0 1 0 2 0 2 0 1 0 2 0 2 0 
2 0 1 0 2 0 2 0 2 0 1 0 2 0 2 0 
2 0 1 0 2 0 4357 3288 100 MP stroke
2 0 2 0 1 0 2 0 2 0 2 0 1 0 2 0 
2 0 2 0 1 0 2 0 2 0 2 0 1 0 2 0 
2 0 2 0 1 0 2 0 2 0 2 1 1 -1 2 -1 
2 1 1 1 2 -1 2 -1 2 1 1 1 2 -1 2 -1 
2 1 1 1 2 -1 2 -1 2 1 1 1 2 -1 2 -1 
2 1 1 1 2 -1 2 -1 2 1 1 1 2 -1 2 -2 
2 2 1 2 2 -2 2 -2 2 2 1 2 2 -2 2 -3 
2 3 1 4 2 -4 2 -6 2 6 1 11 2 -11 2 147 
2 -7 1 3 2 -3 2 3 1 -3 2 2 2 -2 2 2 
1 -2 2 2 2 -2 2 2 1 -2 2 2 2 -2 2 1 
1 -1 2 1 2 -1 2 1 1 -1 2 1 2 -1 2 0 
1 0 2 0 2 0 2 0 1 0 2 0 2 0 2 0 
1 0 2 0 2 0 4184 3148 100 MP stroke
2 0 1 0 2 0 2 0 2 -1 1 1 2 -1 2 1 
1 -1 2 1 2 -1 2 1 1 -1 2 1 2 -1 2 1 
1 0 2 0 2 0 2 0 1 0 2 0 2 0 2 0 
1 0 2 0 2 0 2 0 1 0 2 0 2 0 2 0 
1 0 2 0 2 0 2 0 1 0 2 0 2 0 2 0 
1 0 2 0 2 0 2 0 1 0 2 0 2 0 1 0 
2 0 2 0 2 0 1 0 2 0 2 0 2 0 1 0 
2 0 2 0 2 0 1 0 2 0 2 0 2 0 1 0 
2 0 2 0 2 0 1 0 2 0 2 0 2 0 1 0 
2 0 2 0 2 0 1 0 2 0 2 0 2 0 1 0 
2 0 2 0 2 0 1 0 2 0 2 0 2 0 1 0 
2 0 2 0 1 0 2 0 2 0 2 0 1 0 2 0 
2 0 2 0 1 0 4012 3148 100 MP stroke
2 0 2 0 2 0 1 0 2 0 2 0 2 0 1 0 
2 0 2 0 2 0 1 0 2 0 2 0 2 0 1 0 
2 0 2 0 2 0 1 0 2 0 2 0 2 0 1 0 
2 0 2 0 2 0 1 0 2 0 2 0 1 0 2 0 
2 0 2 0 1 0 2 0 2 0 2 0 1 0 2 0 
2 0 2 0 1 0 2 0 2 0 2 0 1 0 2 0 
2 0 2 0 1 0 2 0 2 0 2 0 1 0 2 0 
2 0 2 -216 1 -1 2 1 2 -1 2 1 1 -1 2 1 
2 -1 2 1 1 -1 2 1 2 -1 1 1 2 -1 2 1 
2 -1 1 1 2 -1 2 1 2 -1 1 1 2 -1 2 1 
2 -1 1 1 2 -1 2 1 2 -1 1 1 2 -1 2 1 
2 -1 1 1 2 -1 2 1 2 -1 1 1 2 -1 2 1 
2 -1 1 1 2 -1 3839 3365 100 MP stroke
2 1 2 -1 1 1 2 -1 2 1 2 -1 1 1 2 -1 
2 1 1 -1 2 1 2 -1 2 1 1 -1 2 1 2 -1 
2 1 1 -1 2 1 2 -1 2 1 1 -1 2 1 2 -1 
2 1 1 -1 2 1 2 -1 2 1 1 -1 2 1 2 -1 
2 1 1 -1 2 1 2 -1 2 1 1 -1 2 1 2 -1 
2 1 1 -1 2 1 2 -1 2 1 1 -1 2 1 2 -1 
2 1 1 -1 2 1 2 -1 1 1 2 -1 2 1 2 -1 
1 1 2 -1 2 1 2 -1 1 1 2 -1 2 1 2 -1 
1 1 2 -1 2 1 2 -1 1 1 2 -1 2 1 2 -1 
1 1 2 -1 2 1 2 -1 1 1 2 -1 2 1 2 -1 
1 1 2 -1 2 1 2 -1 1 1 2 -1 2 1 2 -1 
1 1 2 -1 2 1 1 -1 2 1 2 -1 2 1 1 -1 
2 1 2 -1 2 1 3666 3364 100 MP stroke
1 -1 2 1 2 -1 2 1 1 -1 2 1 2 -1 2 1 
1 -1 2 1 2 -1 2 1 1 -1 2 1 2 -1 2 1 
1 -1 2 1 2 -1 2 1 1 -1 2 1 2 -1 2 1 
1 -1 2 1 2 -1 2 1 1 -1 2 1 2 -1 1 1 
2 -1 2 1 2 -1 1 1 2 -1 2 1 2 -1 1 1 
2 -1 2 1 2 -1 1 1 2 -1 2 1 2 -1 1 1 
2 -1 2 1 2 -1 1 1 2 -1 2 1 2 -1 1 1 
2 -1 2 1 2 -1 1 1 2 -1 2 1 2 -1 1 1 
2 -1 2 1 2 -1 1 1 2 -1 2 1 2 -1 1 1 
2 -1 2 1 1 -1 2 1 2 -1 2 1 1 -1 2 1 
2 -1 2 1 1 -1 2 1 2 -1 2 1 1 -1 2 1 
2 -1 2 1 1 -1 2 1 2 -1 2 1 1 -1 2 1 
2 -1 2 1 1 -1 3494 3365 100 MP stroke
2 1 2 -1 2 1 1 -1 2 1 2 -1 2 1 1 -1 
2 1 2 -1 2 1 1 -1 2 1 2 -1 1 1 2 -1 
2 1 2 -1 1 1 2 -1 2 1 2 -1 1 1 2 -1 
2 1 2 -1 1 1 2 -1 2 1 2 -1 1 1 2 -1 
2 1 2 -1 1 1 2 -1 2 1 2 -1 1 1 2 -1 
2 1 2 -1 1 1 2 -1 2 1 2 -1 1 1 2 -1 
2 1 2 -1 1 1 2 -1 2 1 1 -1 2 1 2 -1 
2 1 1 -1 2 1 2 -1 2 1 1 -1 2 1 2 -1 
2 1 1 -1 2 1 2 -1 2 1 1 -1 2 1 2 -1 
2 1 1 -1 2 1 2 -1 2 1 1 -1 2 1 2 -1 
2 1 1 -1 2 1 2 -1 2 1 1 -1 2 1 2 -1 
2 1 1 -1 2 1 2 -1 2 1 1 -1 2 1 2 -1 
1 1 2 -1 2 1 3321 3364 100 MP stroke
2 -1 1 1 2 -1 2 1 2 -1 1 1 2 -1 2 1 
2 -1 1 1 2 -1 2 1 2 -1 1 1 2 -1 2 1 
2 -1 1 1 2 -1 2 1 2 -1 1 1 2 -1 2 1 
2 -1 1 1 2 -1 2 1 2 -1 1 1 2 -1 2 1 
2 -1 1 1 2 -1 2 1 1 -1 2 1 2 -1 2 1 
1 -1 2 1 2 -1 2 1 1 216 2 0 2 0 2 0 
1 0 2 0 2 0 2 0 1 0 2 0 2 0 2 0 
1 0 2 0 2 0 2 0 1 0 2 0 2 0 2 0 
1 0 2 0 2 0 2 0 1 0 2 0 2 0 2 0 
1 0 2 0 2 0 1 0 2 0 2 0 2 0 1 0 
2 0 2 0 2 0 1 0 2 0 2 0 2 0 1 0 
2 0 2 0 2 0 1 0 2 0 2 0 2 0 1 0 
2 0 2 0 2 0 3148 3148 100 MP stroke
1 0 2 0 2 0 2 0 1 0 2 0 2 0 2 0 
1 0 2 0 2 0 2 0 1 0 2 0 2 0 1 0 
2 0 2 0 2 0 1 0 2 0 2 0 2 0 1 0 
2 0 2 0 2 0 1 0 2 0 2 0 2 0 1 0 
2 0 2 0 2 0 1 0 2 0 2 0 2 0 1 0 
2 0 2 0 2 0 1 0 2 0 2 0 2 0 1 0 
2 0 2 0 2 0 1 0 2 0 2 0 2 0 1 0 
2 0 2 0 1 0 2 0 2 0 2 0 1 0 2 0 
2 0 2 0 1 0 2 0 2 0 2 0 1 0 2 0 
2 0 2 0 1 0 2 0 2 0 2 0 1 0 2 0 
2 0 2 0 1 0 2 0 2 0 2 0 1 -1 2 1 
2 -1 2 1 1 -1 2 1 2 -1 2 1 1 -1 2 1 
2 -1 1 1 2 0 2976 3148 100 MP stroke
2 0 2 0 1 0 2 0 2 0 2 0 1 0 2 0 
2 0 2 0 1 0 2 0 2 0 2 0 1 0 2 1 
2 -1 2 1 1 -1 2 1 2 -1 2 1 1 -1 2 2 
2 -2 2 2 1 -2 2 2 2 -2 2 2 1 -2 2 2 
2 -2 2 3 1 -3 2 3 2 -3 1 7 2 -147 2 11 
2 -11 1 -6 2 6 2 4 2 -4 1 -3 2 3 2 2 
2 -2 1 -2 2 2 2 2 2 -2 1 -2 2 2 2 1 
2 -1 1 -1 2 1 2 1 2 -1 1 -1 2 1 2 1 
2 -1 1 -1 2 1 2 1 2 -1 1 -1 2 1 2 1 
2 -1 1 -1 2 1 2 1 2 -1 1 -1 2 1 2 1 
1 -1 2 0 2 0 2 0 1 0 2 0 2 0 2 0 
1 0 2 0 2 0 2 0 1 0 2 0 2 0 2 0 
1 0 2 0 2 0 2803 3288 100 MP stroke
2 0 1 0 2 0 2 0 2 0 1 0 2 0 2 0 
2 0 1 0 2 0 2 0 2 0 1 0 2 0 2 0 
2 0 1 0 2 0 2 0 1 0 2 0 2 0 2 0 
1 0 2 0 2 0 2 0 1 0 2 0 2 0 2 0 
1 0 2 0 2 0 2 0 1 0 2 0 2 0 2 0 
1 0 2 0 2 0 2 0 1 0 2 0 2 0 2 0 
1 0 2 0 2 0 2 0 1 0 2 0 2 0 2 0 
1 0 2 0 2 0 1 0 2 0 2 0 2 0 1 0 
2 0 2 0 2 0 1 0 2 0 2 0 2 0 1 0 
2 0 2 0 2 0 1 0 2 0 2 0 2 0 1 0 
2 0 2 0 2 0 1 0 2 0 2 0 2 0 1 0 
2 0 2 0 2 0 1 0 2 0 2 0 2 0 1 0 
2 0 2 0 1 0 2631 3288 100 MP stroke
2 0 2 0 2 0 1 0 2 0 2 0 2 0 1 0 
2 0 2 0 2 0 1 0 2 0 2 0 2 0 1 0 
2 0 2 0 2 0 1 0 2 0 2 0 2 0 1 0 
2 0 2 0 2 0 1 0 2 0 2 0 2 0 1 0 
2 0 2 0 2 0 1 0 2 0 2 0 2 0 1 0 
2 0 2 0 1 0 2 0 2 0 2 0 1 0 2 0 
2 0 2 0 1 0 2 0 2 0 2 0 1 0 2 0 
2 0 2 0 1 0 2 0 2 0 2 0 1 0 2 0 
2 0 2 0 1 0 2 0 2 0 2 0 1 0 2 0 
2 0 2 0 1 0 2 0 2 0 2 0 1 0 2 0 
2 0 1 0 2 0 2 0 2 0 1 0 2 0 2 0 
2 0 1 0 2 0 2 0 2 0 1 0 2 0 2 0 
2 0 1 0 2 0 2458 3288 100 MP stroke
2 0 2 0 1 0 2 0 2 0 2 0 1 0 2 0 
2 0 2 0 1 0 2 0 2 0 2 0 1 0 2 0 
2 0 2 0 1 0 2 0 2 0 1 0 2 0 2 0 
2 0 1 0 2 0 2 0 2 0 1 0 2 0 2 0 
2 0 1 0 2 0 2 0 2 0 1 0 2 0 2 0 
2 0 1 0 2 0 2 0 2 0 1 0 2 0 2 0 
2 0 1 0 2 0 2 0 2 0 1 0 2 0 2 0 
2 0 1 0 2 0 2 0 2 0 1 0 2 0 2 0 
1 0 2 0 2 0 2 0 1 0 2 0 2 0 2 0 
1 0 2 0 2 0 2 0 1 0 2 0 2 0 2 0 
1 0 2 0 2 1 2 -1 1 -1 2 1 2 1 2 -1 
1 -1 2 1 2 1 2 -1 1 -1 2 1 2 1 2 -1 
1 -1 2 1 2 1 2285 3287 100 MP stroke
2 -1 1 -1 2 1 2 1 1 -1 2 -1 2 1 2 1 
1 -1 2 -2 2 2 2 2 1 -2 2 -2 2 2 2 2 
1 -2 2 -3 2 3 2 4 1 -4 2 -6 2 6 2 11 
1 -11 2 -38 2 -39 2 11 1 -11 2 6 2 -6 2 4 
1 -4 2 3 2 -3 2 3 1 -3 2 2 2 -2 2 2 
1 -2 2 2 2 -2 1 2 2 -2 2 2 2 -2 1 2 
2 -2 2 1 2 -1 1 1 2 -1 2 1 2 -1 1 1 
2 -1 2 1 2 -1 1 1 2 -1 2 1 2 -1 1 1 
2 -1 2 1 2 -1 1 1 2 -1 2 1 2 -1 1 1 
2 -1 2 1 2 -1 1 1 2 -1 2 1 2 -1 1 1 
2 -1 2 1 1 -1 2 1 2 -1 2 1 1 -1 2 1 
2 -1 2 1 1 -1 2 1 2 -1 2 1 1 -1 2 1 
2 -1 2 1 1 -1 2113 3365 100 MP stroke
2 1 2 -1 2 1 1 -1 2 1 2 -1 2 1 1 -1 
2 1 2 -1 2 1 1 -1 2 1 2 -1 2 1 1 -1 
2 1 2 -1 2 1 1 -1 2 1 2 -1 2 1 1 -1 
2 1 2 -1 1 1 2 -1 2 1 2 -1 1 1 2 -1 
2 1 2 -1 1 1 2 -1 2 1 2 -1 1 1 2 -1 
2 1 2 -1 1 1 2 -1 2 1 2 -1 1 1 2 -1 
2 1 2 -1 1 1 2 -1 2 1 2 -1 1 1 2 -1 
2 1 2 -1 1 1 2 -1 2 1 2 -1 1 1 2 -1 
2 1 1 -1 2 1 2 -1 2 1 1 -1 2 1 2 -1 
2 1 1 -1 2 1 2 -1 2 1 1 -1 2 1 2 -1 
2 1 1 -1 2 1 2 -1 2 1 1 -1 2 1 2 -1 
2 1 1 -1 2 1 2 -1 2 1 1 -1 2 1 2 -1 
2 1 1 -1 2 1 1940 3364 100 MP stroke
2 -1 2 1 1 -1 2 1 2 -1 1 1 2 -1 2 1 
2 -1 1 1 2 -1 2 1 2 -1 1 1 2 -1 2 1 
2 -1 1 1 2 -1 2 1 2 -1 1 1 2 -1 2 1 
2 -1 1 1 2 -1 2 1 2 -1 1 1 2 -1 2 1 
2 -1 1 1 2 -1 2 1 2 -1 1 1 2 -1 2 1 
2 -1 1 1 2 -1 2 1 2 -1 1 1 2 -1 2 1 
1 -1 2 1 2 -1 2 1 1 -1 2 1 2 -1 2 1 
1 -1 2 1 2 -1 2 1 1 -1 2 1 2 -1 2 1 
1 -1 2 1 2 -1 2 1 1 -1 2 1 2 -1 2 1 
1 -1 2 1 2 -1 2 1 1 -1 2 1 2 -1 2 1 
1 -1 2 1 2 -1 2 1 1 -1 2 1 2 -1 1 1 
2 -1 2 1 2 -1 1 1 2 -1 2 1 2 -1 1 1 
2 -1 2 1 2 -1 1767 3365 100 MP stroke
1 1 2 -1 2 1 2 -1 1 1 2 -1 2 1 2 -1 
1 1 2 -1 2 1 2 -1 1 1 2 -1 2 1 2 -1 
1 1 2 -1 2 1 2 -1 1 1 2 -1 2 1 2 -1 
1 1 2 -1 2 1 1 -1 2 1 2 -1 2 1 1 -1 
2 1 2 -1 2 1 1 -1 2 1 2 -1 2 1 1 -1 
2 1 2 -1 2 1 1 -1 2 1 2 -1 2 1 1 -1 
2 1 2 -1 2 1 1 -1 2 1 2 -1 2 1 1 -1 
2 1 2 -1 2 1 1 -1 2 1 2 -1 2 1 1 -1 
2 1 2 -1 1 1 2 -1 2 1 2 -1 1 1 2 -1 
2 1 2 -1 1 1 2 -1 2 1 2 -1 1 1 2 -1 
2 1 2 -1 1 1 2 -1 2 1 2 -1 1 1 2 -1 
2 1 2 -1 1 1 2 -1 2 1 2 -1 1 1 2 -1 
2 1 2 -1 1 1 1595 3364 100 MP stroke
2 -1 2 1 2 -1 1 1 2 -1 2 1 2 -1 1 1 
2 -1 2 1 1 -1 2 1 2 -1 2 1 1 -1 2 1 
2 -1 2 1 1 -1 2 1 2 -1 2 1 1 -1 2 1 
2 -1 2 1 1 -1 2 1 2 -1 2 1 1 -1 2 1 
2 -1 2 1 1 -1 2 1 2 -1 2 1 1 -1 2 1 
2 -1 2 1 1 -1 2 1 2 -1 2 1 1 -1 2 1 
2 -1 1 1 2 -1 2 1 2 -1 1 1 2 -1 2 1 
2 -1 1 1 2 -1 2 1 2 -1 1 1 2 -1 2 1 
2 -1 1 1 2 -1 2 1 2 -1 1 1 2 -1 2 1 
2 -1 1 1 2 -1 2 1 2 -1 1 1 2 -1 2 1 
2 -1 1 1 2 -1 2 1 2 -1 1 1 2 -1 2 1 
1 -1 2 1 2 -1 2 1 1 -1 2 1 2 -1 2 1 
1 -1 2 1 2 -1 1422 3365 100 MP stroke
2 1 1 -1 2 1 2 -1 2 1 1 -1 2 1 2 -1 
2 1 1 -1 2 1 2 -1 2 1 1 -1 2 1 2 -1 
2 1 1 -1 2 1 2 -1 2 1 1 -1 2 1 2 -1 
2 1 1 -1 2 1 2 -1 2 1 1 -1 2 1 2 -1 
1 1 2 -1 2 1 2 -1 1 1 2 -1 2 1 2 -1 
1 1 2 -1 2 1 2 -1 1 1 2 -1 2 1 2 -1 
1 1 2 -1 2 1 2 -1 1 1 2 -1 2 1 2 -1 
1 1 2 -1 2 1 2 -1 1 1 2 -1 2 1 2 -1 
1 1 2 -1 2 1 2 -1 1 1 2 -1 2 1 1 -1 
2 1 2 -1 2 1 1 -1 2 1 2 -1 2 1 1 -1 
2 1 2 -1 2 1 1 -1 2 1 2 -1 2 1 1 -1 
2 1 2 -1 2 1 1 -1 2 1 2 -1 2 1 1 -1 
2 1 2 -1 2 1 1249 3364 100 MP stroke
1 -1 2 1 2 -1 2 1 1 -1 2 1 2 -1 2 1 
1 -1 2 1 2 -1 1 1 2 -1 2 1 2 -1 1 1 
2 -1 2 1 2 -1 1 1 2 -1 2 1 2 -1 1 1 
2 -1 2 1 2 -1 1 1 2 -1 2 1 2 -1 1 1 
2 -1 2 1 2 -1 1 1 2 -1 2 1 2 -1 1 1 
2 -1 2 1 2 -1 1 1 2 -1 2 1 2 -1 1 1 
2 -1 2 1 1 -1 2 1 2 -1 2 1 1 -1 2 1 
2 -1 2 1 1 -1 2 1 2 -1 2 1 1 -1 2 1 
2 -1 2 1 1 -1 2 1 2 -1 2 1 1 -1 2 1 
2 -1 2 1 1 -1 2 1 2 -1 2 1 1 -1 2 1 
2 -1 2 1 1 -1 2 1 2 -1 2 1 1 -1 2 1 
2 -1 2 1 1 -1 2 1 2 -1 1 1 2 -1 2 1 
2 -1 1 1 2 -1 1077 3365 100 MP stroke
2 1 2 -1 1 1 2 -1 2 1 2 -1 1 1 2 -1 
2 1 2 -1 1 1 2 -1 2 1 2 -1 1 1 2 -1 
2 1 2 -1 1 1 2 -1 2 1 2 -1 1 1 2 -1 
2 1 2 -1 1 1 2 -1 2 1 2 -1 1 1 2 -1 
2 1 1 -1 2 1 2 -1 2 1 1 -1 2 1 2 -1 
2 1 1 -1 2 1 2 -1 2 1 1 -1 2 1 2 -1 
2 1 1 -1 2 1 2 -1 2 1 1 -1 2 1 2 -1 
2 1 1 -1 2 1 2 -1 2 1 1 -1 2 1 2 -1 
2 1 1 -1 2 1 2 -1 2 1 1 -1 2 1 2 -1 
1 1 2 -1 2 1 2 -1 1 1 2 -1 2 1 2 -1 
1 1 2 -1 2 1 2 -1 1 1 2 -1 2 1 2 -1 
1 1 2 -1 2 1 2 -1 1 1 2 -1 2 1 2 -1 
1 1 2 -1 2 1 904 3364 100 MP stroke
2 -1 1 1 2 -1 0 1 899 3364 5 MP stroke
gr

24 w
c9
0 sg
3559 3653 mt 
(f) s
 616 3165 mt  -90 rotate
(|FT|) s
90 rotate
2953 2658 mt 
(Output Spectrum \(k'=2\)) s
6 w
1 sg
0 613 5356 0 0 -613 899 4501 4 MP
PP
-5356 0 0 613 5356 0 0 -613 899 4501 5 MP stroke
4 w
DO
SO
6 w
0 sg
 899 3888 mt 6255 3888 L
 899 4501 mt 6255 4501 L
6255 4501 mt 6255 3888 L
 899 4501 mt  899 3888 L
 899 4501 mt 6255 4501 L
 899 4501 mt  899 3888 L
1066 4501 mt 1066 4447 L
1066 3888 mt 1066 3941 L
 930 4646 mt 
(-15) s
1903 4501 mt 1903 4447 L
1903 3888 mt 1903 3941 L
1767 4646 mt 
(-10) s
2740 4501 mt 2740 4447 L
2740 3888 mt 2740 3941 L
2637 4646 mt 
(-5) s
3577 4501 mt 3577 4447 L
3577 3888 mt 3577 3941 L
3544 4646 mt 
(0) s
4413 4501 mt 4413 4447 L
4413 3888 mt 4413 3941 L
4380 4646 mt 
(5) s
5250 4501 mt 5250 4447 L
5250 3888 mt 5250 3941 L
5184 4646 mt 
(10) s
6087 4501 mt 6087 4447 L
6087 3888 mt 6087 3941 L
6021 4646 mt 
(15) s
 899 4501 mt  952 4501 L
6255 4501 mt 6201 4501 L
 798 4545 mt 
(0) s
 899 4194 mt  952 4194 L
6255 4194 mt 6201 4194 L
 698 4238 mt 
(0.5) s
 899 3888 mt  952 3888 L
6255 3888 mt 6201 3888 L
 798 3932 mt 
(1) s
 899 3888 mt 6255 3888 L
 899 4501 mt 6255 4501 L
6255 4501 mt 6255 3888 L
 899 4501 mt  899 3888 L
gs 899 3888 5357 614 MR c np
24 w
c10
2 23 2 27 1 7 2 -7 2 -4 2 4 1 3 2 -3 
2 -2 2 2 1 1 2 -1 2 -2 2 2 1 1 2 -1 
2 -1 2 1 1 1 2 -1 2 -1 2 1 1 0 2 0 
2 -1 2 1 1 0 2 0 2 -1 2 1 1 0 2 0 
2 -1 1 1 2 0 2 0 2 -1 1 1 2 0 2 0 
2 -1 1 1 2 0 2 0 2 -1 1 1 2 0 2 0 
2 -1 1 1 2 0 2 0 2 -1 1 1 2 0 2 0 
2 -1 1 1 2 0 2 0 2 -1 1 1 2 0 2 0 
2 -1 1 1 2 0 2 0 2 -1 1 1 2 0 2 0 
1 -1 2 1 2 0 2 0 1 -1 2 1 2 0 2 0 
1 -1 2 1 2 0 2 0 1 0 2 0 2 0 2 0 
1 0 2 0 2 0 2 0 1 0 2 0 2 0 2 0 
1 0 2 0 2 0 6083 4446 100 MP stroke
2 0 1 0 2 0 2 0 2 0 1 0 2 0 2 0 
2 0 1 0 2 0 2 0 1 0 2 0 2 0 2 0 
1 0 2 0 2 0 2 0 1 0 2 0 2 0 2 0 
1 0 2 0 2 0 2 0 1 0 2 0 2 0 2 0 
1 0 2 0 2 0 2 0 1 0 2 0 2 0 2 0 
1 0 2 0 2 0 2 0 1 0 2 0 2 0 2 0 
1 0 2 0 2 0 2 0 1 0 2 0 2 0 1 0 
2 0 2 0 2 0 1 0 2 0 2 0 2 0 1 0 
2 0 2 0 2 0 1 0 2 0 2 0 2 0 1 0 
2 0 2 0 2 0 1 0 2 0 2 0 2 0 1 0 
2 0 2 0 2 0 1 0 2 0 2 0 2 0 1 0 
2 0 2 0 2 0 1 0 2 0 2 0 1 0 2 0 
2 0 2 0 1 0 5911 4446 100 MP stroke
2 0 2 0 2 0 1 0 2 0 2 0 2 0 1 0 
2 0 2 0 2 0 1 0 2 0 2 0 2 0 1 0 
2 0 2 0 2 0 1 0 2 0 2 0 2 0 1 0 
2 0 2 0 2 0 1 0 2 0 2 0 2 0 1 0 
2 0 2 0 1 0 2 0 2 0 2 0 1 0 2 0 
2 0 2 0 1 0 2 0 2 0 2 0 1 0 2 0 
2 0 2 0 1 0 2 0 2 0 2 0 1 0 2 0 
2 0 2 0 1 0 2 0 2 0 2 0 1 0 2 0 
2 0 2 0 1 0 2 0 2 0 2 0 1 0 2 0 
2 0 1 0 2 0 2 0 2 0 1 0 2 0 2 0 
2 0 1 0 2 0 2 0 2 0 1 0 2 0 2 0 
2 0 1 0 2 0 2 0 2 0 1 0 2 0 2 0 
2 0 1 0 2 0 5738 4446 100 MP stroke
2 0 2 0 1 0 2 0 2 0 2 0 1 0 2 0 
2 0 2 0 1 0 2 0 2 0 2 0 1 0 2 0 
2 0 1 0 2 0 2 0 2 0 1 0 2 0 2 0 
2 0 1 0 2 0 2 0 2 0 1 0 2 0 2 0 
2 0 1 0 2 0 2 0 2 0 1 0 2 0 2 0 
2 0 1 0 2 0 2 0 2 0 1 0 2 0 2 0 
2 0 1 0 2 0 2 0 2 0 1 0 2 0 2 0 
1 0 2 0 2 0 2 0 1 0 2 0 2 0 2 0 
1 0 2 0 2 0 2 0 1 0 2 0 2 0 2 0 
1 0 2 0 2 0 2 0 1 0 2 0 2 0 2 0 
1 0 2 0 2 0 2 0 1 0 2 0 2 0 2 0 
1 0 2 0 2 0 2 0 1 0 2 0 2 0 1 0 
2 0 2 0 2 0 5565 4446 100 MP stroke
1 0 2 0 2 0 2 0 1 0 2 0 2 0 2 0 
1 0 2 0 2 0 2 0 1 0 2 0 2 0 2 0 
1 0 2 0 2 0 2 0 1 0 2 0 2 0 2 0 
1 0 2 0 2 0 2 0 1 0 2 0 2 0 2 0 
1 0 2 0 2 0 2 0 1 0 2 0 2 0 1 0 
2 0 2 0 2 0 1 0 2 0 2 0 2 0 1 0 
2 0 2 0 2 0 1 0 2 0 2 0 2 0 1 0 
2 0 2 0 2 0 1 0 2 0 2 0 2 0 1 0 
2 0 2 0 2 0 1 0 2 0 2 0 2 0 1 0 
2 0 2 0 2 0 1 0 2 0 2 0 1 0 2 0 
2 0 2 0 1 0 2 0 2 0 2 0 1 0 2 0 
2 0 2 0 1 0 2 0 2 0 2 0 1 0 2 0 
2 0 2 0 1 0 5393 4446 100 MP stroke
2 0 2 0 2 0 1 0 2 0 2 0 2 0 1 0 
2 0 2 0 2 0 1 0 2 0 2 0 2 0 1 0 
2 0 2 0 1 0 2 0 2 0 2 0 1 0 2 0 
2 0 2 0 1 0 2 0 2 0 2 0 1 0 2 0 
2 0 2 0 1 0 2 0 2 0 2 0 1 0 2 0 
2 0 2 0 1 0 2 0 2 0 2 0 1 0 2 0 
2 0 2 0 1 0 2 0 2 0 2 0 1 0 2 0 
2 0 1 0 2 0 2 0 2 0 1 0 2 0 2 0 
2 0 1 0 2 0 2 0 2 0 1 0 2 0 2 0 
2 0 1 0 2 0 2 0 2 0 1 0 2 0 2 0 
2 0 1 0 2 0 2 0 2 0 1 0 2 0 2 0 
2 0 1 0 2 0 2 0 2 0 1 0 2 0 2 0 
2 0 1 0 2 0 5220 4446 100 MP stroke
2 0 1 0 2 0 2 0 2 0 1 0 2 0 2 0 
2 0 1 0 2 0 2 0 2 0 1 0 2 0 2 0 
2 0 1 0 2 0 2 0 2 0 1 0 2 0 2 0 
2 0 1 0 2 0 2 0 2 0 1 0 2 0 2 0 
2 0 1 0 2 0 2 0 2 0 1 0 2 0 2 0 
1 0 2 0 2 0 2 0 1 0 2 0 2 0 2 0 
1 0 2 0 2 0 2 0 1 0 2 0 2 0 2 0 
1 0 2 0 2 0 2 0 1 0 2 0 2 0 2 0 
1 0 2 0 2 0 2 0 1 0 2 0 2 0 2 0 
1 0 2 0 2 0 2 0 1 0 2 0 2 0 1 0 
2 0 2 0 2 0 1 0 2 0 2 0 2 0 1 0 
2 0 2 0 2 0 1 0 2 0 2 0 2 -1 1 1 
2 0 2 0 2 -1 5047 4447 100 MP stroke
1 1 2 0 2 0 2 -1 1 1 2 0 2 0 2 -1 
1 1 2 0 2 0 2 -1 1 1 2 0 2 0 2 -1 
1 1 2 0 2 0 2 -1 1 1 2 0 2 0 1 -1 
2 1 2 0 2 0 1 -1 2 1 2 0 2 0 1 -1 
2 1 2 0 2 0 1 -1 2 1 2 0 2 0 1 -1 
2 1 2 0 2 0 1 -1 2 1 2 0 2 0 1 -1 
2 1 2 0 2 0 1 -1 2 1 2 0 2 0 1 -1 
2 1 2 1 2 -1 1 -1 2 1 2 1 1 -1 2 -2 
2 2 2 1 1 -1 2 -2 2 2 2 3 1 -3 2 -4 
2 4 2 7 1 -7 2 104 2 -5 2 2 1 -2 2 2 
2 -2 2 2 1 -2 2 2 2 -2 2 1 1 -1 2 1 
2 -1 2 1 1 -1 2 1 2 -1 2 1 1 -1 2 0 
2 0 2 0 1 0 4875 4347 100 MP stroke
2 0 2 0 1 0 2 0 2 0 2 0 1 0 2 0 
2 -1 2 1 1 -1 2 1 2 -1 2 1 1 -1 2 1 
2 -1 2 1 1 -1 2 1 2 -1 2 1 1 -1 2 1 
2 0 2 0 1 0 2 0 2 0 2 0 1 0 2 0 
2 0 2 0 1 0 2 0 2 0 2 0 1 0 2 0 
2 0 1 0 2 0 2 0 2 0 1 0 2 0 2 0 
2 0 1 0 2 0 2 0 2 0 1 0 2 0 2 0 
2 0 1 0 2 0 2 0 2 0 1 0 2 0 2 0 
2 0 1 0 2 0 2 0 2 0 1 0 2 0 2 0 
2 0 1 0 2 0 2 0 2 0 1 0 2 0 2 0 
2 0 1 0 2 0 2 0 1 0 2 0 2 0 2 0 
1 0 2 0 2 0 2 0 1 0 2 0 2 0 2 0 
1 0 2 0 2 0 4702 4347 100 MP stroke
2 0 1 0 2 0 2 0 2 0 1 0 2 0 2 0 
2 0 1 0 2 0 2 0 2 0 1 0 2 0 2 0 
2 0 1 0 2 0 2 0 2 0 1 0 2 0 2 0 
1 0 2 0 2 0 2 0 1 0 2 0 2 0 2 0 
1 0 2 0 2 0 2 0 1 0 2 0 2 0 2 0 
1 0 2 0 2 0 2 0 1 0 2 0 2 0 2 0 
1 0 2 0 2 0 2 0 1 0 2 0 2 0 2 0 
1 0 2 0 2 0 2 0 1 0 2 0 2 0 1 0 
2 0 2 0 2 0 1 0 2 0 2 0 2 0 1 0 
2 0 2 0 2 0 1 0 2 0 2 0 2 0 1 0 
2 0 2 0 2 0 1 0 2 0 2 0 2 0 1 0 
2 0 2 0 2 0 1 0 2 0 2 0 2 0 1 0 
2 0 2 0 2 0 4529 4347 100 MP stroke
1 0 2 0 2 0 2 0 1 0 2 0 2 0 1 0 
2 0 2 0 2 0 1 0 2 0 2 0 2 0 1 0 
2 0 2 0 2 0 1 0 2 0 2 0 2 0 1 0 
2 0 2 0 2 0 1 0 2 0 2 0 2 0 1 0 
2 0 2 0 2 0 1 0 2 0 2 0 2 0 1 0 
2 0 2 0 2 0 1 0 2 0 2 0 1 0 2 0 
2 0 2 0 1 0 2 0 2 0 2 0 1 0 2 0 
2 0 2 0 1 0 2 0 2 0 2 0 1 0 2 0 
2 0 2 0 1 0 2 0 2 0 2 0 1 0 2 0 
2 0 2 0 1 0 2 0 2 0 2 0 1 0 2 0 
2 0 2 0 1 0 2 0 2 0 1 0 2 0 2 0 
2 0 1 0 2 0 2 0 2 0 1 0 2 0 2 0 
2 0 1 0 2 0 4357 4347 100 MP stroke
2 0 2 0 1 0 2 0 2 0 2 0 1 0 2 0 
2 0 2 0 1 0 2 0 2 0 2 0 1 0 2 0 
2 0 2 0 1 0 2 0 2 0 2 0 1 0 2 0 
2 0 1 0 2 0 2 0 2 0 1 0 2 0 2 0 
2 0 1 0 2 0 2 0 2 0 1 0 2 0 2 0 
2 0 1 0 2 0 2 0 2 0 1 0 2 0 2 0 
2 0 1 0 2 0 2 0 2 0 1 0 2 0 2 0 
2 0 1 0 2 0 2 0 2 0 1 0 2 0 2 -153 
2 -1 1 1 2 -1 2 1 1 -1 2 1 2 -1 2 1 
1 -1 2 1 2 -1 2 1 1 -1 2 1 2 -1 2 1 
1 -1 2 1 2 -1 2 1 1 -1 2 1 2 -1 2 1 
1 -1 2 1 2 -1 2 1 1 -1 2 1 2 -1 2 1 
1 -1 2 1 2 -1 4184 4501 100 MP stroke
2 1 1 -1 2 1 2 -1 2 1 1 -1 2 1 2 -1 
1 1 2 -1 2 1 2 -1 1 1 2 -1 2 1 2 -1 
1 1 2 -1 2 1 2 -1 1 1 2 -1 2 1 2 -1 
1 1 2 -1 2 1 2 -1 1 1 2 -1 2 1 2 -1 
1 1 2 -1 2 1 2 -1 1 1 2 -1 2 1 2 -1 
1 1 2 -1 2 1 2 -1 1 1 2 -1 2 1 1 -1 
2 1 2 -1 2 1 1 -1 2 1 2 -1 2 1 1 -1 
2 1 2 -1 2 1 1 -1 2 1 2 -1 2 1 1 -1 
2 1 2 -1 2 1 1 -1 2 1 2 -1 2 1 1 -1 
2 1 2 -1 2 1 1 -1 2 1 2 -1 2 1 1 -1 
2 1 2 -1 2 1 1 -1 2 1 2 -1 2 1 1 -1 
2 1 2 -1 1 1 2 -1 2 1 2 -1 1 1 2 -1 
2 1 2 -1 1 1 4012 4500 100 MP stroke
2 -1 2 1 2 -1 1 1 2 -1 2 1 2 -1 1 1 
2 -1 2 1 2 -1 1 1 2 -1 2 1 2 -1 1 1 
2 -1 2 1 2 -1 1 1 2 -1 2 1 2 -1 1 1 
2 -1 2 1 2 -1 1 1 2 -1 2 1 1 -1 2 1 
2 -1 2 1 1 -1 2 1 2 -1 2 1 1 -1 2 1 
2 -1 2 1 1 -1 2 1 2 -1 2 1 1 -1 2 1 
2 -1 2 1 1 -1 2 1 2 -1 2 1 1 -1 2 1 
2 -1 2 1 1 -1 2 1 2 -1 2 1 1 -1 2 1 
2 -1 2 1 1 -1 2 1 2 -1 1 1 2 -1 2 1 
2 -1 1 1 2 -1 2 1 2 -1 1 1 2 -1 2 1 
2 -1 1 1 2 -1 2 1 2 -1 1 1 2 -1 2 1 
2 -1 1 1 2 -1 2 1 2 -1 1 1 2 -1 2 1 
2 -1 1 1 2 -1 3839 4501 100 MP stroke
2 1 2 -1 1 1 2 -1 2 1 2 -1 1 1 2 -1 
2 1 1 -1 2 1 2 -1 2 1 1 -1 2 1 2 -1 
2 1 1 -1 2 1 2 -1 2 1 1 -1 2 1 2 -1 
2 1 1 -1 2 1 2 -1 2 1 1 -1 2 1 2 -1 
2 1 1 -1 2 1 2 -1 2 1 1 -1 2 1 2 -1 
2 1 1 -1 2 1 2 -1 2 1 1 -1 2 1 2 -1 
2 1 1 -1 2 1 2 -1 1 1 2 -1 2 1 2 -1 
1 1 2 -1 2 1 2 -1 1 1 2 -1 2 1 2 -1 
1 1 2 -1 2 1 2 -1 1 1 2 -1 2 1 2 -1 
1 1 2 -1 2 1 2 -1 1 1 2 -1 2 1 2 -1 
1 1 2 -1 2 1 2 -1 1 1 2 -1 2 1 2 -1 
1 1 2 -1 2 1 1 -1 2 1 2 -1 2 1 1 -1 
2 1 2 -1 2 1 3666 4500 100 MP stroke
1 -1 2 1 2 -1 2 1 1 -1 2 1 2 -1 2 1 
1 -1 2 1 2 -1 2 1 1 -1 2 1 2 -1 2 1 
1 -1 2 1 2 -1 2 1 1 -1 2 1 2 -1 2 1 
1 -1 2 1 2 -1 2 1 1 -1 2 1 2 -1 1 1 
2 -1 2 1 2 -1 1 1 2 -1 2 1 2 -1 1 1 
2 -1 2 1 2 -1 1 1 2 -1 2 1 2 -1 1 1 
2 -1 2 1 2 -1 1 1 2 -1 2 1 2 -1 1 1 
2 -1 2 1 2 -1 1 1 2 -1 2 1 2 -1 1 1 
2 -1 2 1 2 -1 1 1 2 -1 2 1 2 -1 1 1 
2 -1 2 1 1 -1 2 1 2 -1 2 1 1 -1 2 1 
2 -1 2 1 1 -1 2 1 2 -1 2 1 1 -1 2 1 
2 -1 2 1 1 -1 2 1 2 -1 2 1 1 -1 2 1 
2 -1 2 1 1 -1 3494 4501 100 MP stroke
2 1 2 -1 2 1 1 -1 2 1 2 -1 2 1 1 -1 
2 1 2 -1 2 1 1 -1 2 1 2 -1 1 1 2 -1 
2 1 2 -1 1 1 2 -1 2 1 2 -1 1 1 2 -1 
2 1 2 -1 1 1 2 -1 2 1 2 -1 1 1 2 -1 
2 1 2 -1 1 1 2 -1 2 1 2 -1 1 1 2 -1 
2 1 2 -1 1 1 2 -1 2 1 2 -1 1 1 2 -1 
2 1 2 -1 1 1 2 -1 2 1 1 -1 2 1 2 -1 
2 1 1 -1 2 1 2 -1 2 1 1 -1 2 1 2 -1 
2 1 1 -1 2 1 2 -1 2 1 1 -1 2 1 2 -1 
2 1 1 -1 2 1 2 -1 2 1 1 -1 2 1 2 -1 
2 1 1 -1 2 1 2 -1 2 1 1 -1 2 1 2 -1 
2 1 1 -1 2 1 2 -1 2 1 1 -1 2 1 2 -1 
1 1 2 -1 2 1 3321 4500 100 MP stroke
2 -1 1 1 2 -1 2 1 2 -1 1 1 2 -1 2 1 
2 -1 1 1 2 -1 2 1 2 -1 1 1 2 -1 2 1 
2 -1 1 1 2 -1 2 1 2 -1 1 1 2 -1 2 1 
2 -1 1 1 2 -1 2 1 2 -1 1 1 2 -1 2 1 
2 -1 1 1 2 -1 2 1 1 -1 2 1 2 -1 2 1 
1 -1 2 1 2 -1 2 1 1 -1 2 1 2 -1 2 1 
1 -1 2 1 2 -1 2 1 1 -1 2 1 2 -1 2 1 
1 -1 2 1 2 -1 2 1 1 -1 2 1 2 -1 2 1 
1 -1 2 1 2 -1 2 1 1 -1 2 1 2 -1 2 1 
1 -1 2 1 2 -1 1 1 2 -1 2 1 2 -1 1 1 
2 -1 2 1 2 -1 1 1 2 -1 2 1 2 -1 1 1 
2 -1 2 1 2 -1 1 1 2 -1 2 1 2 -1 1 1 
2 -1 2 1 2 -1 3148 4501 100 MP stroke
1 1 2 -1 2 1 2 -1 1 1 2 -1 2 1 2 -1 
1 1 2 -1 2 1 2 -1 1 1 2 -1 2 1 1 -1 
2 1 2 -1 2 1 1 -1 2 1 2 -1 2 1 1 -1 
2 1 2 -1 2 1 1 -1 2 1 2 -1 2 1 1 -1 
2 1 2 -1 2 1 1 -1 2 1 2 -1 2 1 1 -1 
2 1 2 -1 2 1 1 -1 2 1 2 -1 2 1 1 -1 
2 1 2 -1 2 1 1 -1 2 1 2 -1 2 1 1 -1 
2 1 2 -1 1 1 2 -1 2 1 2 -1 1 1 2 -1 
2 1 2 -1 1 1 2 -1 2 1 2 -1 1 1 2 -1 
2 1 2 -1 1 1 2 -1 2 1 2 -1 1 1 2 -1 
2 1 2 -1 1 1 2 -1 2 1 2 -1 1 1 2 -1 
2 1 2 -1 1 1 2 -1 2 1 2 -1 1 1 2 -1 
2 1 1 -1 2 1 2976 4500 100 MP stroke
2 -1 2 1 1 -1 2 1 2 -1 2 1 1 -1 2 1 
2 -1 2 1 1 -1 2 1 2 -1 2 1 1 -1 2 1 
2 -1 2 1 1 -1 2 1 2 -1 2 1 1 -1 2 1 
2 -1 2 1 1 -1 2 1 2 -1 2 1 1 -1 2 1 
2 -1 2 1 1 -1 2 1 2 -1 1 1 2 153 2 0 
2 0 1 0 2 0 2 0 2 0 1 0 2 0 2 0 
2 0 1 0 2 0 2 0 2 0 1 0 2 0 2 0 
2 0 1 0 2 0 2 0 2 0 1 0 2 0 2 0 
2 0 1 0 2 0 2 0 2 0 1 0 2 0 2 0 
2 0 1 0 2 0 2 0 2 0 1 0 2 0 2 0 
1 0 2 0 2 0 2 0 1 0 2 0 2 0 2 0 
1 0 2 0 2 0 2 0 1 0 2 0 2 0 2 0 
1 0 2 0 2 0 2803 4347 100 MP stroke
2 0 1 0 2 0 2 0 2 0 1 0 2 0 2 0 
2 0 1 0 2 0 2 0 2 0 1 0 2 0 2 0 
2 0 1 0 2 0 2 0 1 0 2 0 2 0 2 0 
1 0 2 0 2 0 2 0 1 0 2 0 2 0 2 0 
1 0 2 0 2 0 2 0 1 0 2 0 2 0 2 0 
1 0 2 0 2 0 2 0 1 0 2 0 2 0 2 0 
1 0 2 0 2 0 2 0 1 0 2 0 2 0 2 0 
1 0 2 0 2 0 1 0 2 0 2 0 2 0 1 0 
2 0 2 0 2 0 1 0 2 0 2 0 2 0 1 0 
2 0 2 0 2 0 1 0 2 0 2 0 2 0 1 0 
2 0 2 0 2 0 1 0 2 0 2 0 2 0 1 0 
2 0 2 0 2 0 1 0 2 0 2 0 2 0 1 0 
2 0 2 0 1 0 2631 4347 100 MP stroke
2 0 2 0 2 0 1 0 2 0 2 0 2 0 1 0 
2 0 2 0 2 0 1 0 2 0 2 0 2 0 1 0 
2 0 2 0 2 0 1 0 2 0 2 0 2 0 1 0 
2 0 2 0 2 0 1 0 2 0 2 0 2 0 1 0 
2 0 2 0 2 0 1 0 2 0 2 0 2 0 1 0 
2 0 2 0 1 0 2 0 2 0 2 0 1 0 2 0 
2 0 2 0 1 0 2 0 2 0 2 0 1 0 2 0 
2 0 2 0 1 0 2 0 2 0 2 0 1 0 2 0 
2 0 2 0 1 0 2 0 2 0 2 0 1 0 2 0 
2 0 2 0 1 0 2 0 2 0 2 0 1 0 2 0 
2 0 1 0 2 0 2 0 2 0 1 0 2 0 2 0 
2 0 1 0 2 0 2 0 2 0 1 0 2 0 2 0 
2 0 1 0 2 0 2458 4347 100 MP stroke
2 0 2 0 1 0 2 0 2 0 2 0 1 0 2 0 
2 0 2 0 1 0 2 0 2 0 2 0 1 0 2 0 
2 0 2 0 1 0 2 0 2 0 1 0 2 0 2 0 
2 0 1 0 2 0 2 0 2 0 1 0 2 0 2 0 
2 0 1 0 2 0 2 0 2 0 1 0 2 0 2 0 
2 0 1 0 2 0 2 0 2 0 1 0 2 0 2 0 
2 0 1 0 2 0 2 0 2 0 1 0 2 0 2 0 
2 0 1 0 2 0 2 0 2 0 1 0 2 0 2 0 
1 0 2 0 2 0 2 0 1 0 2 0 2 0 2 0 
1 0 2 0 2 0 2 0 1 0 2 0 2 -1 2 1 
1 -1 2 1 2 -1 2 1 1 -1 2 1 2 -1 2 1 
1 -1 2 1 2 -1 2 1 1 -1 2 1 2 0 2 0 
1 0 2 0 2 0 2285 4347 100 MP stroke
2 0 1 0 2 0 2 0 1 0 2 0 2 0 2 1 
1 -1 2 1 2 -1 2 1 1 -1 2 1 2 -1 2 1 
1 -1 2 2 2 -2 2 2 1 -2 2 2 2 -2 2 2 
1 -2 2 5 2 -104 2 7 1 -7 2 -4 2 4 2 3 
1 -3 2 -2 2 2 2 1 1 -1 2 -2 2 2 2 1 
1 -1 2 -1 2 1 1 1 2 -1 2 -1 2 1 1 0 
2 0 2 -1 2 1 1 0 2 0 2 -1 2 1 1 0 
2 0 2 -1 2 1 1 0 2 0 2 -1 2 1 1 0 
2 0 2 -1 2 1 1 0 2 0 2 -1 2 1 1 0 
2 0 2 -1 2 1 1 0 2 0 2 -1 2 1 1 0 
2 0 2 -1 1 1 2 0 2 0 2 -1 1 1 2 0 
2 0 2 -1 1 1 2 0 2 0 2 -1 1 1 2 0 
2 0 2 -1 1 1 2113 4446 100 MP stroke
2 0 2 0 2 -1 1 1 2 0 2 0 2 -1 1 1 
2 0 2 0 2 0 1 0 2 0 2 0 2 0 1 0 
2 0 2 0 2 0 1 0 2 0 2 0 2 0 1 0 
2 0 2 0 1 0 2 0 2 0 2 0 1 0 2 0 
2 0 2 0 1 0 2 0 2 0 2 0 1 0 2 0 
2 0 2 0 1 0 2 0 2 0 2 0 1 0 2 0 
2 0 2 0 1 0 2 0 2 0 2 0 1 0 2 0 
2 0 2 0 1 0 2 0 2 0 2 0 1 0 2 0 
2 0 1 0 2 0 2 0 2 0 1 0 2 0 2 0 
2 0 1 0 2 0 2 0 2 0 1 0 2 0 2 0 
2 0 1 0 2 0 2 0 2 0 1 0 2 0 2 0 
2 0 1 0 2 0 2 0 2 0 1 0 2 0 2 0 
2 0 1 0 2 0 1940 4446 100 MP stroke
2 0 2 0 1 0 2 0 2 0 1 0 2 0 2 0 
2 0 1 0 2 0 2 0 2 0 1 0 2 0 2 0 
2 0 1 0 2 0 2 0 2 0 1 0 2 0 2 0 
2 0 1 0 2 0 2 0 2 0 1 0 2 0 2 0 
2 0 1 0 2 0 2 0 2 0 1 0 2 0 2 0 
2 0 1 0 2 0 2 0 2 0 1 0 2 0 2 0 
1 0 2 0 2 0 2 0 1 0 2 0 2 0 2 0 
1 0 2 0 2 0 2 0 1 0 2 0 2 0 2 0 
1 0 2 0 2 0 2 0 1 0 2 0 2 0 2 0 
1 0 2 0 2 0 2 0 1 0 2 0 2 0 2 0 
1 0 2 0 2 0 2 0 1 0 2 0 2 0 1 0 
2 0 2 0 2 0 1 0 2 0 2 0 2 0 1 0 
2 0 2 0 2 0 1767 4446 100 MP stroke
1 0 2 0 2 0 2 0 1 0 2 0 2 0 2 0 
1 0 2 0 2 0 2 0 1 0 2 0 2 0 2 0 
1 0 2 0 2 0 2 0 1 0 2 0 2 0 2 0 
1 0 2 0 2 0 1 0 2 0 2 0 2 0 1 0 
2 0 2 0 2 0 1 0 2 0 2 0 2 0 1 0 
2 0 2 0 2 0 1 0 2 0 2 0 2 0 1 0 
2 0 2 0 2 0 1 0 2 0 2 0 2 0 1 0 
2 0 2 0 2 0 1 0 2 0 2 0 2 0 1 0 
2 0 2 0 1 0 2 0 2 0 2 0 1 0 2 0 
2 0 2 0 1 0 2 0 2 0 2 0 1 0 2 0 
2 0 2 0 1 0 2 0 2 0 2 0 1 0 2 0 
2 0 2 0 1 0 2 0 2 0 2 0 1 0 2 0 
2 0 2 0 1 0 1595 4446 100 MP stroke
2 0 2 0 2 0 1 0 2 0 2 0 2 0 1 0 
2 0 2 0 1 0 2 0 2 0 2 0 1 0 2 0 
2 0 2 0 1 0 2 0 2 0 2 0 1 0 2 0 
2 0 2 0 1 0 2 0 2 0 2 0 1 0 2 0 
2 0 2 0 1 0 2 0 2 0 2 0 1 0 2 0 
2 0 2 0 1 0 2 0 2 0 2 0 1 0 2 0 
2 0 1 0 2 0 2 0 2 0 1 0 2 0 2 0 
2 0 1 0 2 0 2 0 2 0 1 0 2 0 2 0 
2 0 1 0 2 0 2 0 2 0 1 0 2 0 2 0 
2 0 1 0 2 0 2 0 2 0 1 0 2 0 2 0 
2 0 1 0 2 0 2 0 2 0 1 0 2 0 2 0 
1 0 2 0 2 0 2 0 1 0 2 0 2 0 2 0 
1 0 2 0 2 0 1422 4446 100 MP stroke
2 0 1 0 2 0 2 0 2 0 1 0 2 0 2 0 
2 0 1 0 2 0 2 0 2 0 1 0 2 0 2 0 
2 0 1 0 2 0 2 0 2 0 1 0 2 0 2 0 
2 0 1 0 2 0 2 0 2 0 1 0 2 0 2 0 
1 0 2 0 2 0 2 0 1 0 2 0 2 0 2 0 
1 0 2 0 2 0 2 0 1 0 2 0 2 0 2 0 
1 0 2 0 2 0 2 0 1 0 2 0 2 0 2 0 
1 0 2 0 2 0 2 0 1 0 2 0 2 0 2 0 
1 0 2 0 2 0 2 0 1 0 2 0 2 0 1 0 
2 0 2 0 2 0 1 0 2 0 2 0 2 0 1 0 
2 0 2 0 2 0 1 0 2 0 2 0 2 0 1 0 
2 0 2 0 2 0 1 0 2 0 2 0 2 0 1 0 
2 0 2 0 2 0 1249 4446 100 MP stroke
1 0 2 0 2 0 2 0 1 0 2 0 2 0 2 0 
1 0 2 0 2 0 1 0 2 0 2 0 2 0 1 0 
2 0 2 0 2 0 1 0 2 0 2 0 2 0 1 0 
2 0 2 0 2 0 1 0 2 0 2 0 2 0 1 0 
2 0 2 0 2 0 1 0 2 0 2 0 2 0 1 0 
2 0 2 0 2 0 1 0 2 0 2 0 2 0 1 0 
2 0 2 0 1 0 2 0 2 0 2 0 1 0 2 0 
2 0 2 0 1 0 2 0 2 0 2 0 1 0 2 0 
2 0 2 0 1 0 2 0 2 0 2 0 1 0 2 0 
2 0 2 0 1 0 2 0 2 0 2 0 1 0 2 0 
2 0 2 0 1 0 2 0 2 0 2 0 1 0 2 0 
2 0 2 0 1 0 2 0 2 0 1 0 2 0 2 0 
2 0 1 0 2 0 1077 4446 100 MP stroke
2 0 2 0 1 0 2 0 2 0 2 0 1 0 2 0 
2 0 2 0 1 0 2 0 2 0 2 0 1 0 2 0 
2 0 2 0 1 0 2 0 2 -1 2 1 1 0 2 0 
2 -1 2 1 1 0 2 0 2 -1 2 1 1 0 2 0 
2 -1 1 1 2 0 2 0 2 -1 1 1 2 0 2 0 
2 -1 1 1 2 0 2 0 2 -1 1 1 2 0 2 0 
2 -1 1 1 2 0 2 0 2 -1 1 1 2 0 2 0 
2 -1 1 1 2 0 2 0 2 -1 1 1 2 0 2 0 
2 -1 1 1 2 0 2 0 2 -1 1 1 2 0 2 0 
1 -1 2 1 2 0 2 0 1 -1 2 1 2 0 2 0 
1 -1 2 1 2 1 2 -1 1 -1 2 1 2 1 2 -1 
1 -2 2 2 2 1 2 -1 1 -2 2 2 2 3 2 -3 
1 -4 2 4 2 7 904 4439 100 MP stroke
2 -7 1 -27 2 -28 0 2 899 4499 5 MP stroke
gr

24 w
c10
0 sg
3559 4789 mt 
(f) s
 616 4300 mt  -90 rotate
(|FT|) s
90 rotate
2953 3793 mt 
(Output Spectrum \(k'=3\)) s
6 w

end %%Color Dict

eplot
%%EndObject

epage
end

showpage

%%Trailer
%%EOF
