%!PS-Adobe-2.0 EPSF-1.2
%%Creator: MATLAB, The MathWorks, Inc. Version 7.14.0.739 (R2012a). Operating System: Microsoft Windows 7.
%%Title: .\CHE_SCH1_SPECTRUM.eps
%%CreationDate: 05/14/2015  18:37:51
%%DocumentNeededFonts: Helvetica
%%DocumentProcessColors: Cyan Magenta Yellow Black
%%Extensions: CMYK
%%Pages: 1
%%BoundingBox:    57   208   542   595
%%EndComments

%%BeginProlog
% MathWorks dictionary
/MathWorks 160 dict begin
% definition operators
/bdef {bind def} bind def
/ldef {load def} bind def
/xdef {exch def} bdef
/xstore {exch store} bdef
% operator abbreviations
/c  /clip ldef
/cc /concat ldef
/cp /closepath ldef
/gr /grestore ldef
/gs /gsave ldef
/mt /moveto ldef
/np /newpath ldef
/cm /currentmatrix ldef
/sm /setmatrix ldef
/rm /rmoveto ldef
/rl /rlineto ldef
/s {show newpath} bdef
/sc {setcmykcolor} bdef
/sr /setrgbcolor ldef
/sg /setgray ldef
/w /setlinewidth ldef
/j /setlinejoin ldef
/cap /setlinecap ldef
/rc {rectclip} bdef
/rf {rectfill} bdef
% page state control
/pgsv () def
/bpage {/pgsv save def} bdef
/epage {pgsv restore} bdef
/bplot /gsave ldef
/eplot {stroke grestore} bdef
% orientation switch
/portraitMode 0 def /landscapeMode 1 def /rotateMode 2 def
% coordinate system mappings
/dpi2point 0 def
% font control
/FontSize 0 def
/FMS {/FontSize xstore findfont [FontSize 0 0 FontSize neg 0 0]
  makefont setfont} bdef
/ISOLatin1Encoding where {pop /WindowsLatin1Encoding 256 array bdef
ISOLatin1Encoding WindowsLatin1Encoding copy pop
/.notdef/.notdef/quotesinglbase/florin/quotedblbase/ellipsis/dagger
/daggerdbl/circumflex/perthousand/Scaron/guilsinglleft/OE/.notdef/.notdef
/.notdef/.notdef/quoteleft/quoteright/quotedblleft/quotedblright/bullet
/endash/emdash/tilde/trademark/scaron/guilsinglright/oe/.notdef/.notdef
/Ydieresis WindowsLatin1Encoding 128 32 getinterval astore pop}
{/WindowsLatin1Encoding StandardEncoding bdef} ifelse
/reencode {exch dup where {pop load} {pop StandardEncoding} ifelse
  exch dup 3 1 roll findfont dup length dict begin
  { 1 index /FID ne {def}{pop pop} ifelse } forall
  /Encoding exch def currentdict end definefont pop} bdef
/isroman {findfont /CharStrings get /Agrave known} bdef
/FMSR {3 1 roll 1 index dup isroman {reencode} {pop pop} ifelse
  exch FMS} bdef
/csm {1 dpi2point div -1 dpi2point div scale neg translate
 dup landscapeMode eq {pop -90 rotate}
  {rotateMode eq {90 rotate} if} ifelse} bdef
% line types: solid, dotted, dashed, dotdash
/SO { [] 0 setdash } bdef
/DO { [.5 dpi2point mul 4 dpi2point mul] 0 setdash } bdef
/DA { [6 dpi2point mul] 0 setdash } bdef
/DD { [.5 dpi2point mul 4 dpi2point mul 6 dpi2point mul 4
  dpi2point mul] 0 setdash } bdef
% macros for lines and objects
/L {lineto stroke} bdef
/MP {3 1 roll moveto 1 sub {rlineto} repeat} bdef
/AP {{rlineto} repeat} bdef
/PDlw -1 def
/W {/PDlw currentlinewidth def setlinewidth} def
/PP {closepath eofill} bdef
/DP {closepath stroke} bdef
/MR {4 -2 roll moveto dup  0 exch rlineto exch 0 rlineto
  neg 0 exch rlineto closepath} bdef
/FR {MR stroke} bdef
/PR {MR fill} bdef
/L1i {{currentfile picstr readhexstring pop} image} bdef
/tMatrix matrix def
/MakeOval {newpath tMatrix currentmatrix pop translate scale
0 0 1 0 360 arc tMatrix setmatrix} bdef
/FO {MakeOval stroke} bdef
/PO {MakeOval fill} bdef
/PD {currentlinewidth 2 div 0 360 arc fill
   PDlw -1 eq not {PDlw w /PDlw -1 def} if} def
/FA {newpath tMatrix currentmatrix pop translate scale
  0 0 1 5 -2 roll arc tMatrix setmatrix stroke} bdef
/PA {newpath tMatrix currentmatrix pop	translate 0 0 moveto scale
  0 0 1 5 -2 roll arc closepath tMatrix setmatrix fill} bdef
/FAn {newpath tMatrix currentmatrix pop translate scale
  0 0 1 5 -2 roll arcn tMatrix setmatrix stroke} bdef
/PAn {newpath tMatrix currentmatrix pop translate 0 0 moveto scale
  0 0 1 5 -2 roll arcn closepath tMatrix setmatrix fill} bdef
/vradius 0 def /hradius 0 def /lry 0 def
/lrx 0 def /uly 0 def /ulx 0 def /rad 0 def
/MRR {/vradius xdef /hradius xdef /lry xdef /lrx xdef /uly xdef
  /ulx xdef newpath tMatrix currentmatrix pop ulx hradius add uly
  vradius add translate hradius vradius scale 0 0 1 180 270 arc 
  tMatrix setmatrix lrx hradius sub uly vradius add translate
  hradius vradius scale 0 0 1 270 360 arc tMatrix setmatrix
  lrx hradius sub lry vradius sub translate hradius vradius scale
  0 0 1 0 90 arc tMatrix setmatrix ulx hradius add lry vradius sub
  translate hradius vradius scale 0 0 1 90 180 arc tMatrix setmatrix
  closepath} bdef
/FRR {MRR stroke } bdef
/PRR {MRR fill } bdef
/MlrRR {/lry xdef /lrx xdef /uly xdef /ulx xdef /rad lry uly sub 2 div def
  newpath tMatrix currentmatrix pop ulx rad add uly rad add translate
  rad rad scale 0 0 1 90 270 arc tMatrix setmatrix lrx rad sub lry rad
  sub translate rad rad scale 0 0 1 270 90 arc tMatrix setmatrix
  closepath} bdef
/FlrRR {MlrRR stroke } bdef
/PlrRR {MlrRR fill } bdef
/MtbRR {/lry xdef /lrx xdef /uly xdef /ulx xdef /rad lrx ulx sub 2 div def
  newpath tMatrix currentmatrix pop ulx rad add uly rad add translate
  rad rad scale 0 0 1 180 360 arc tMatrix setmatrix lrx rad sub lry rad
  sub translate rad rad scale 0 0 1 0 180 arc tMatrix setmatrix
  closepath} bdef
/FtbRR {MtbRR stroke } bdef
/PtbRR {MtbRR fill } bdef
/stri 6 array def /dtri 6 array def
/smat 6 array def /dmat 6 array def
/tmat1 6 array def /tmat2 6 array def /dif 3 array def
/asub {/ind2 exch def /ind1 exch def dup dup
  ind1 get exch ind2 get sub exch } bdef
/tri_to_matrix {
  2 0 asub 3 1 asub 4 0 asub 5 1 asub
  dup 0 get exch 1 get 7 -1 roll astore } bdef
/compute_transform {
  dmat dtri tri_to_matrix tmat1 invertmatrix 
  smat stri tri_to_matrix tmat2 concatmatrix } bdef
/ds {stri astore pop} bdef
/dt {dtri astore pop} bdef
/db {2 copy /cols xdef /rows xdef mul dup 3 mul string
  currentfile exch readhexstring pop
  dup 0 3 index getinterval /rbmap xdef
  dup 2 index dup getinterval /gbmap xdef
  1 index dup 2 mul exch getinterval /bbmap xdef pop pop}bdef
/it {gs np dtri aload pop moveto lineto lineto cp c
  cols rows 8 compute_transform 
  rbmap gbmap bbmap true 3 colorimage gr}bdef
/il {newpath moveto lineto stroke}bdef
currentdict end def
%%EndProlog

%%BeginSetup
MathWorks begin

0 cap

end
%%EndSetup

%%Page: 1 1
%%BeginPageSetup
%%PageBoundingBox:    57   208   542   595
MathWorks begin
bpage
%%EndPageSetup

%%BeginObject: obj1
bplot

/dpi2point 12 def
portraitMode 0204 7344 csm

  480   202  5825  4639 MR c np
85 dict begin %Colortable dictionary
/c0 { 0.000000 0.000000 0.000000 sr} bdef
/c1 { 1.000000 1.000000 1.000000 sr} bdef
/c2 { 0.900000 0.000000 0.000000 sr} bdef
/c3 { 0.000000 0.820000 0.000000 sr} bdef
/c4 { 0.000000 0.000000 0.800000 sr} bdef
/c5 { 0.910000 0.820000 0.320000 sr} bdef
/c6 { 1.000000 0.260000 0.820000 sr} bdef
/c7 { 0.000000 0.820000 0.820000 sr} bdef
c0
1 j
1 sg
   0    0 6913 5185 PR
6 w
0 613 5356 0 0 -613 899 1094 4 MP
PP
-5356 0 0 613 5356 0 0 -613 899 1094 5 MP stroke
4 w
DO
SO
6 w
0 sg
 899  481 mt 6255  481 L
 899 1094 mt 6255 1094 L
6255 1094 mt 6255  481 L
 899 1094 mt  899  481 L
 899 1094 mt 6255 1094 L
 899 1094 mt  899  481 L
1066 1094 mt 1066 1040 L
1066  481 mt 1066  534 L
%%IncludeResource: font Helvetica
/Helvetica /WindowsLatin1Encoding 120 FMSR

 930 1239 mt 
(-15) s
1903 1094 mt 1903 1040 L
1903  481 mt 1903  534 L
1767 1239 mt 
(-10) s
2740 1094 mt 2740 1040 L
2740  481 mt 2740  534 L
2637 1239 mt 
(-5) s
3577 1094 mt 3577 1040 L
3577  481 mt 3577  534 L
3544 1239 mt 
(0) s
4413 1094 mt 4413 1040 L
4413  481 mt 4413  534 L
4380 1239 mt 
(5) s
5250 1094 mt 5250 1040 L
5250  481 mt 5250  534 L
5184 1239 mt 
(10) s
6087 1094 mt 6087 1040 L
6087  481 mt 6087  534 L
6021 1239 mt 
(15) s
 899 1094 mt  952 1094 L
6255 1094 mt 6201 1094 L
 798 1138 mt 
(0) s
 899  787 mt  952  787 L
6255  787 mt 6201  787 L
 698  831 mt 
(0.5) s
 899  481 mt  952  481 L
6255  481 mt 6201  481 L
 798  525 mt 
(1) s
 899  481 mt 6255  481 L
 899 1094 mt 6255 1094 L
6255 1094 mt 6255  481 L
 899 1094 mt  899  481 L
gs 899 481 5357 614 MR c np
24 w
/c8 { 0.000000 0.000000 1.000000 sr} bdef
c8
2 0 2 0 1 0 2 0 2 0 2 0 1 0 2 0 
2 0 2 0 1 0 2 0 2 0 2 0 1 0 2 0 
2 0 2 0 1 0 2 0 2 0 2 0 1 0 2 0 
2 0 2 0 1 0 2 0 2 0 2 0 1 0 2 0 
2 0 1 0 2 0 2 0 2 0 1 0 2 0 2 0 
2 0 1 0 2 0 2 0 2 0 1 0 2 0 2 0 
2 0 1 0 2 0 2 0 2 0 1 0 2 0 2 0 
2 0 1 0 2 0 2 0 2 0 1 0 2 0 2 0 
2 0 1 0 2 0 2 0 2 0 1 0 2 0 2 0 
1 0 2 0 2 0 2 0 1 0 2 0 2 0 2 0 
1 0 2 0 2 0 2 0 1 0 2 0 2 0 2 0 
1 0 2 0 2 0 2 0 1 0 2 0 2 0 2 0 
1 0 2 0 2 0 6083 1094 100 MP stroke
2 0 1 0 2 0 2 0 2 0 1 0 2 0 2 0 
2 0 1 0 2 0 2 0 1 0 2 0 2 0 2 0 
1 0 2 0 2 0 2 0 1 0 2 0 2 0 2 0 
1 0 2 0 2 0 2 0 1 0 2 0 2 0 2 0 
1 0 2 0 2 0 2 0 1 0 2 0 2 0 2 0 
1 0 2 0 2 0 2 0 1 0 2 0 2 0 2 0 
1 0 2 0 2 0 2 0 1 0 2 0 2 0 1 0 
2 0 2 0 2 0 1 0 2 0 2 0 2 0 1 0 
2 0 2 0 2 0 1 0 2 0 2 0 2 0 1 0 
2 0 2 0 2 0 1 0 2 0 2 0 2 0 1 0 
2 0 2 0 2 0 1 0 2 0 2 0 2 0 1 0 
2 0 2 0 2 0 1 0 2 0 2 0 1 0 2 0 
2 0 2 0 1 0 5911 1094 100 MP stroke
2 0 2 0 2 0 1 0 2 0 2 0 2 0 1 0 
2 0 2 0 2 0 1 0 2 0 2 0 2 0 1 0 
2 0 2 0 2 0 1 0 2 0 2 0 2 0 1 0 
2 0 2 0 2 0 1 0 2 0 2 0 2 0 1 0 
2 0 2 0 1 0 2 0 2 0 2 0 1 0 2 0 
2 0 2 0 1 0 2 0 2 0 2 0 1 0 2 0 
2 0 2 0 1 0 2 0 2 0 2 0 1 0 2 0 
2 0 2 0 1 0 2 0 2 0 2 0 1 0 2 0 
2 0 2 0 1 0 2 0 2 0 2 0 1 0 2 0 
2 0 1 0 2 0 2 0 2 0 1 0 2 0 2 0 
2 0 1 0 2 0 2 0 2 0 1 0 2 0 2 0 
2 0 1 0 2 0 2 0 2 0 1 0 2 0 2 0 
2 0 1 0 2 0 5738 1094 100 MP stroke
2 0 2 0 1 0 2 0 2 0 2 0 1 0 2 0 
2 0 2 0 1 0 2 0 2 0 2 0 1 0 2 0 
2 0 1 0 2 0 2 0 2 0 1 0 2 0 2 0 
2 0 1 0 2 0 2 0 2 0 1 0 2 0 2 0 
2 0 1 0 2 0 2 0 2 0 1 0 2 0 2 0 
2 0 1 0 2 0 2 0 2 0 1 0 2 0 2 0 
2 0 1 0 2 0 2 0 2 0 1 0 2 0 2 0 
1 0 2 0 2 0 2 0 1 0 2 0 2 0 2 0 
1 0 2 0 2 0 2 0 1 0 2 0 2 0 2 0 
1 0 2 0 2 0 2 0 1 0 2 0 2 0 2 0 
1 0 2 0 2 0 2 0 1 0 2 0 2 0 2 0 
1 0 2 0 2 0 2 0 1 0 2 0 2 0 1 0 
2 0 2 0 2 0 5565 1094 100 MP stroke
1 0 2 0 2 0 2 0 1 0 2 0 2 0 2 0 
1 0 2 0 2 0 2 0 1 0 2 0 2 0 2 0 
1 0 2 0 2 0 2 0 1 0 2 0 2 0 2 0 
1 0 2 0 2 0 2 0 1 0 2 0 2 0 2 0 
1 0 2 0 2 0 2 0 1 0 2 0 2 0 1 0 
2 0 2 0 2 0 1 0 2 0 2 0 2 0 1 0 
2 0 2 0 2 0 1 0 2 0 2 0 2 0 1 0 
2 0 2 0 2 0 1 0 2 0 2 0 2 0 1 0 
2 0 2 0 2 0 1 0 2 0 2 0 2 0 1 0 
2 0 2 0 2 0 1 0 2 0 2 0 1 0 2 0 
2 0 2 0 1 0 2 0 2 0 2 0 1 0 2 0 
2 0 2 0 1 0 2 0 2 0 2 0 1 0 2 0 
2 0 2 0 1 0 5393 1094 100 MP stroke
2 0 2 0 2 0 1 0 2 0 2 0 2 0 1 0 
2 0 2 0 2 0 1 0 2 0 2 0 2 0 1 0 
2 0 2 0 1 0 2 0 2 0 2 0 1 0 2 0 
2 0 2 0 1 0 2 0 2 0 2 0 1 0 2 0 
2 0 2 0 1 0 2 0 2 0 2 0 1 0 2 0 
2 0 2 0 1 0 2 0 2 0 2 0 1 0 2 0 
2 0 2 0 1 0 2 0 2 0 2 0 1 0 2 0 
2 0 1 0 2 0 2 0 2 0 1 0 2 0 2 0 
2 0 1 0 2 0 2 0 2 0 1 0 2 0 2 0 
2 0 1 0 2 0 2 0 2 0 1 0 2 0 2 0 
2 0 1 0 2 0 2 0 2 0 1 0 2 0 2 0 
2 0 1 0 2 0 2 0 2 0 1 0 2 0 2 0 
2 0 1 0 2 0 5220 1094 100 MP stroke
2 0 1 0 2 0 2 0 2 0 1 0 2 0 2 0 
2 0 1 0 2 0 2 0 2 0 1 0 2 0 2 0 
2 0 1 0 2 0 2 0 2 0 1 0 2 0 2 0 
2 0 1 0 2 0 2 0 2 0 1 0 2 0 2 0 
2 0 1 0 2 0 2 0 2 0 1 0 2 0 2 0 
1 0 2 0 2 0 2 0 1 0 2 0 2 0 2 0 
1 0 2 0 2 0 2 0 1 0 2 0 2 0 2 0 
1 0 2 0 2 0 2 0 1 0 2 0 2 0 2 0 
1 0 2 0 2 0 2 0 1 0 2 0 2 0 2 0 
1 0 2 0 2 0 2 0 1 0 2 0 2 0 1 0 
2 0 2 0 2 0 1 0 2 0 2 0 2 0 1 0 
2 0 2 0 2 0 1 0 2 0 2 0 2 0 1 0 
2 0 2 0 2 0 5047 1094 100 MP stroke
1 0 2 0 2 0 2 0 1 0 2 0 2 0 2 0 
1 0 2 0 2 0 2 0 1 0 2 0 2 0 2 0 
1 0 2 0 2 0 2 0 1 0 2 0 2 0 1 0 
2 0 2 0 2 0 1 0 2 0 2 0 2 0 1 0 
2 0 2 0 2 0 1 0 2 0 2 0 2 0 1 0 
2 0 2 0 2 0 1 0 2 0 2 0 2 0 1 0 
2 0 2 0 2 0 1 0 2 0 2 0 2 0 1 0 
2 0 2 0 2 0 1 0 2 0 2 0 1 0 2 0 
2 0 2 0 1 0 2 0 2 0 2 0 1 0 2 0 
2 0 2 0 1 0 2 0 2 0 2 0 1 0 2 0 
2 0 2 0 1 0 2 0 2 0 2 0 1 0 2 0 
2 0 2 0 1 0 2 0 2 0 2 0 1 0 2 0 
2 0 2 0 1 0 4875 1094 100 MP stroke
2 0 2 0 1 0 2 0 2 0 2 0 1 0 2 0 
2 0 2 0 1 0 2 0 2 0 2 0 1 0 2 0 
2 0 2 0 1 0 2 0 2 0 2 0 1 0 2 0 
2 0 2 0 1 0 2 0 2 0 2 0 1 0 2 0 
2 0 2 0 1 0 2 0 2 0 2 0 1 0 2 0 
2 0 1 0 2 0 2 0 2 0 1 0 2 0 2 0 
2 0 1 0 2 0 2 0 2 0 1 0 2 0 2 0 
2 0 1 0 2 0 2 0 2 0 1 0 2 0 2 0 
2 0 1 0 2 0 2 0 2 0 1 0 2 0 2 0 
2 0 1 0 2 0 2 0 2 0 1 0 2 0 2 0 
2 0 1 0 2 0 2 0 1 0 2 0 2 0 2 0 
1 0 2 0 2 0 2 0 1 0 2 0 2 0 2 0 
1 0 2 0 2 0 4702 1094 100 MP stroke
2 0 1 0 2 0 2 0 2 0 1 0 2 0 2 0 
2 0 1 0 2 0 2 0 2 0 1 0 2 0 2 0 
2 0 1 0 2 0 2 0 2 0 1 0 2 0 2 0 
1 0 2 0 2 0 2 0 1 0 2 0 2 0 2 0 
1 0 2 0 2 0 2 0 1 0 2 0 2 0 2 0 
1 0 2 0 2 0 2 0 1 0 2 0 2 0 2 0 
1 0 2 0 2 0 2 0 1 0 2 0 2 0 2 0 
1 0 2 0 2 0 2 0 1 0 2 0 2 0 1 0 
2 0 2 0 2 0 1 0 2 0 2 0 2 0 1 0 
2 0 2 0 2 0 1 0 2 0 2 0 2 0 1 0 
2 0 2 0 2 0 1 0 2 0 2 0 2 0 1 0 
2 0 2 0 2 0 1 0 2 0 2 0 2 0 1 0 
2 0 2 0 2 0 4529 1094 100 MP stroke
1 0 2 0 2 0 2 0 1 0 2 0 2 0 1 0 
2 0 2 0 2 0 1 0 2 0 2 0 2 0 1 0 
2 0 2 0 2 0 1 0 2 0 2 0 2 0 1 0 
2 0 2 0 2 0 1 0 2 0 2 0 2 0 1 0 
2 0 2 0 2 0 1 0 2 0 2 0 2 0 1 0 
2 0 2 0 2 0 1 0 2 0 2 0 1 0 2 0 
2 0 2 0 1 0 2 0 2 0 2 0 1 0 2 0 
2 0 2 0 1 0 2 0 2 0 2 0 1 0 2 0 
2 0 2 0 1 0 2 0 2 0 2 0 1 0 2 0 
2 0 2 0 1 0 2 0 2 0 2 0 1 0 2 0 
2 0 2 0 1 0 2 0 2 0 1 0 2 0 2 0 
2 0 1 0 2 0 2 0 2 0 1 0 2 0 2 0 
2 0 1 0 2 0 4357 1094 100 MP stroke
2 0 2 0 1 0 2 0 2 0 2 0 1 0 2 0 
2 0 2 0 1 0 2 0 2 0 2 0 1 0 2 0 
2 0 2 0 1 0 2 0 2 0 2 0 1 0 2 0 
2 0 1 0 2 0 2 0 2 0 1 0 2 0 2 0 
2 0 1 0 2 0 2 0 2 0 1 0 2 0 2 0 
2 0 1 0 2 0 2 0 2 0 1 0 2 0 2 0 
2 0 1 0 2 0 2 0 2 0 1 0 2 0 2 0 
2 0 1 0 2 0 2 0 2 0 1 0 2 0 2 0 
2 0 1 0 2 0 2 0 1 0 2 0 2 0 2 0 
1 0 2 0 2 0 2 0 1 0 2 0 2 0 2 0 
1 0 2 0 2 0 2 0 1 0 2 0 2 0 2 0 
1 0 2 0 2 0 2 0 1 0 2 0 2 0 2 0 
1 0 2 0 2 0 4184 1094 100 MP stroke
2 0 1 0 2 0 2 0 2 0 1 0 2 0 2 0 
1 0 2 0 2 0 2 0 1 0 2 0 2 0 2 0 
1 0 2 0 2 0 2 0 1 0 2 0 2 0 2 0 
1 0 2 0 2 0 2 0 1 0 2 0 2 0 2 0 
1 0 2 0 2 0 2 0 1 0 2 0 2 0 2 0 
1 0 2 0 2 0 2 0 1 0 2 0 2 0 1 0 
2 0 2 0 2 0 1 0 2 0 2 0 2 0 1 0 
2 0 2 0 2 0 1 0 2 0 2 0 2 0 1 0 
2 0 2 0 2 0 1 0 2 0 2 0 2 0 1 0 
2 0 2 0 2 0 1 0 2 0 2 0 2 0 1 0 
2 0 2 0 2 0 1 0 2 0 2 0 2 0 1 0 
2 0 2 0 1 0 2 0 2 0 2 0 1 0 2 0 
2 0 2 0 1 0 4012 1094 100 MP stroke
2 0 2 0 2 0 1 0 2 0 2 0 2 0 1 0 
2 0 2 0 2 0 1 0 2 0 2 0 2 0 1 0 
2 0 2 0 2 0 1 0 2 0 2 0 2 0 1 0 
2 0 2 0 2 0 1 0 2 0 2 0 1 0 2 0 
2 0 2 0 1 0 2 0 2 0 2 0 1 0 2 0 
2 0 2 0 1 0 2 0 2 0 2 0 1 0 2 0 
2 0 2 0 1 0 2 0 2 0 2 0 1 0 2 0 
2 0 2 307 1 0 2 0 2 0 2 0 1 0 2 0 
2 0 2 0 1 0 2 0 2 0 1 0 2 0 2 0 
2 0 1 0 2 0 2 0 2 0 1 0 2 0 2 0 
2 0 1 0 2 0 2 0 2 0 1 0 2 0 2 0 
2 0 1 0 2 0 2 0 2 0 1 0 2 0 2 0 
2 0 1 0 2 0 3839 787 100 MP stroke
2 0 2 0 1 0 2 0 2 0 2 0 1 0 2 0 
2 0 1 0 2 0 2 0 2 0 1 0 2 0 2 0 
2 0 1 0 2 0 2 0 2 0 1 0 2 0 2 0 
2 0 1 0 2 0 2 0 2 0 1 0 2 0 2 0 
2 0 1 0 2 0 2 0 2 0 1 0 2 0 2 0 
2 0 1 0 2 0 2 0 2 0 1 0 2 0 2 0 
2 0 1 0 2 0 2 0 1 0 2 0 2 -307 2 0 
1 0 2 0 2 0 2 0 1 0 2 0 2 0 2 0 
1 0 2 0 2 0 2 0 1 0 2 0 2 0 2 0 
1 0 2 0 2 0 2 0 1 0 2 0 2 0 2 0 
1 0 2 0 2 0 2 0 1 0 2 0 2 0 2 0 
1 0 2 0 2 0 1 0 2 0 2 0 2 0 1 0 
2 0 2 0 2 0 3666 1094 100 MP stroke
1 0 2 0 2 0 2 0 1 0 2 0 2 0 2 0 
1 0 2 0 2 0 2 0 1 0 2 0 2 0 2 0 
1 0 2 0 2 0 2 0 1 0 2 0 2 0 2 0 
1 0 2 0 2 0 2 0 1 0 2 0 2 0 1 0 
2 0 2 0 2 0 1 0 2 0 2 0 2 0 1 0 
2 0 2 0 2 0 1 0 2 0 2 0 2 0 1 0 
2 0 2 0 2 0 1 0 2 0 2 0 2 0 1 0 
2 0 2 0 2 0 1 0 2 0 2 0 2 0 1 0 
2 0 2 0 2 0 1 0 2 0 2 0 2 0 1 0 
2 0 2 0 1 0 2 0 2 0 2 0 1 0 2 0 
2 0 2 0 1 0 2 0 2 0 2 0 1 0 2 0 
2 0 2 0 1 0 2 0 2 0 2 0 1 0 2 0 
2 0 2 0 1 0 3494 1094 100 MP stroke
2 0 2 0 2 0 1 0 2 0 2 0 2 0 1 0 
2 0 2 0 2 0 1 0 2 0 2 0 1 0 2 0 
2 0 2 0 1 0 2 0 2 0 2 0 1 0 2 0 
2 0 2 0 1 0 2 0 2 0 2 0 1 0 2 0 
2 0 2 0 1 0 2 0 2 0 2 0 1 0 2 0 
2 0 2 0 1 0 2 0 2 0 2 0 1 0 2 307 
2 0 2 0 1 0 2 0 2 0 1 0 2 0 2 0 
2 0 1 0 2 0 2 0 2 0 1 0 2 0 2 0 
2 0 1 0 2 0 2 0 2 0 1 0 2 0 2 0 
2 0 1 0 2 0 2 0 2 0 1 0 2 0 2 0 
2 0 1 0 2 0 2 0 2 0 1 0 2 0 2 0 
2 0 1 0 2 0 2 0 2 0 1 0 2 0 2 0 
1 0 2 0 2 0 3321 787 100 MP stroke
2 0 1 0 2 0 2 0 2 0 1 0 2 0 2 0 
2 0 1 0 2 0 2 0 2 0 1 0 2 0 2 0 
2 0 1 0 2 0 2 0 2 0 1 0 2 0 2 0 
2 0 1 0 2 0 2 0 2 0 1 0 2 0 2 0 
2 0 1 0 2 0 2 0 1 0 2 0 2 0 2 0 
1 0 2 0 2 0 2 0 1 -307 2 0 2 0 2 0 
1 0 2 0 2 0 2 0 1 0 2 0 2 0 2 0 
1 0 2 0 2 0 2 0 1 0 2 0 2 0 2 0 
1 0 2 0 2 0 2 0 1 0 2 0 2 0 2 0 
1 0 2 0 2 0 1 0 2 0 2 0 2 0 1 0 
2 0 2 0 2 0 1 0 2 0 2 0 2 0 1 0 
2 0 2 0 2 0 1 0 2 0 2 0 2 0 1 0 
2 0 2 0 2 0 3148 1094 100 MP stroke
1 0 2 0 2 0 2 0 1 0 2 0 2 0 2 0 
1 0 2 0 2 0 2 0 1 0 2 0 2 0 1 0 
2 0 2 0 2 0 1 0 2 0 2 0 2 0 1 0 
2 0 2 0 2 0 1 0 2 0 2 0 2 0 1 0 
2 0 2 0 2 0 1 0 2 0 2 0 2 0 1 0 
2 0 2 0 2 0 1 0 2 0 2 0 2 0 1 0 
2 0 2 0 2 0 1 0 2 0 2 0 2 0 1 0 
2 0 2 0 1 0 2 0 2 0 2 0 1 0 2 0 
2 0 2 0 1 0 2 0 2 0 2 0 1 0 2 0 
2 0 2 0 1 0 2 0 2 0 2 0 1 0 2 0 
2 0 2 0 1 0 2 0 2 0 2 0 1 0 2 0 
2 0 2 0 1 0 2 0 2 0 2 0 1 0 2 0 
2 0 1 0 2 0 2976 1094 100 MP stroke
2 0 2 0 1 0 2 0 2 0 2 0 1 0 2 0 
2 0 2 0 1 0 2 0 2 0 2 0 1 0 2 0 
2 0 2 0 1 0 2 0 2 0 2 0 1 0 2 0 
2 0 2 0 1 0 2 0 2 0 2 0 1 0 2 0 
2 0 2 0 1 0 2 0 2 0 1 0 2 0 2 0 
2 0 1 0 2 0 2 0 2 0 1 0 2 0 2 0 
2 0 1 0 2 0 2 0 2 0 1 0 2 0 2 0 
2 0 1 0 2 0 2 0 2 0 1 0 2 0 2 0 
2 0 1 0 2 0 2 0 2 0 1 0 2 0 2 0 
2 0 1 0 2 0 2 0 2 0 1 0 2 0 2 0 
1 0 2 0 2 0 2 0 1 0 2 0 2 0 2 0 
1 0 2 0 2 0 2 0 1 0 2 0 2 0 2 0 
1 0 2 0 2 0 2803 1094 100 MP stroke
2 0 1 0 2 0 2 0 2 0 1 0 2 0 2 0 
2 0 1 0 2 0 2 0 2 0 1 0 2 0 2 0 
2 0 1 0 2 0 2 0 1 0 2 0 2 0 2 0 
1 0 2 0 2 0 2 0 1 0 2 0 2 0 2 0 
1 0 2 0 2 0 2 0 1 0 2 0 2 0 2 0 
1 0 2 0 2 0 2 0 1 0 2 0 2 0 2 0 
1 0 2 0 2 0 2 0 1 0 2 0 2 0 2 0 
1 0 2 0 2 0 1 0 2 0 2 0 2 0 1 0 
2 0 2 0 2 0 1 0 2 0 2 0 2 0 1 0 
2 0 2 0 2 0 1 0 2 0 2 0 2 0 1 0 
2 0 2 0 2 0 1 0 2 0 2 0 2 0 1 0 
2 0 2 0 2 0 1 0 2 0 2 0 2 0 1 0 
2 0 2 0 1 0 2631 1094 100 MP stroke
2 0 2 0 2 0 1 0 2 0 2 0 2 0 1 0 
2 0 2 0 2 0 1 0 2 0 2 0 2 0 1 0 
2 0 2 0 2 0 1 0 2 0 2 0 2 0 1 0 
2 0 2 0 2 0 1 0 2 0 2 0 2 0 1 0 
2 0 2 0 2 0 1 0 2 0 2 0 2 0 1 0 
2 0 2 0 1 0 2 0 2 0 2 0 1 0 2 0 
2 0 2 0 1 0 2 0 2 0 2 0 1 0 2 0 
2 0 2 0 1 0 2 0 2 0 2 0 1 0 2 0 
2 0 2 0 1 0 2 0 2 0 2 0 1 0 2 0 
2 0 2 0 1 0 2 0 2 0 2 0 1 0 2 0 
2 0 1 0 2 0 2 0 2 0 1 0 2 0 2 0 
2 0 1 0 2 0 2 0 2 0 1 0 2 0 2 0 
2 0 1 0 2 0 2458 1094 100 MP stroke
2 0 2 0 1 0 2 0 2 0 2 0 1 0 2 0 
2 0 2 0 1 0 2 0 2 0 2 0 1 0 2 0 
2 0 2 0 1 0 2 0 2 0 1 0 2 0 2 0 
2 0 1 0 2 0 2 0 2 0 1 0 2 0 2 0 
2 0 1 0 2 0 2 0 2 0 1 0 2 0 2 0 
2 0 1 0 2 0 2 0 2 0 1 0 2 0 2 0 
2 0 1 0 2 0 2 0 2 0 1 0 2 0 2 0 
2 0 1 0 2 0 2 0 2 0 1 0 2 0 2 0 
1 0 2 0 2 0 2 0 1 0 2 0 2 0 2 0 
1 0 2 0 2 0 2 0 1 0 2 0 2 0 2 0 
1 0 2 0 2 0 2 0 1 0 2 0 2 0 2 0 
1 0 2 0 2 0 2 0 1 0 2 0 2 0 2 0 
1 0 2 0 2 0 2285 1094 100 MP stroke
2 0 1 0 2 0 2 0 1 0 2 0 2 0 2 0 
1 0 2 0 2 0 2 0 1 0 2 0 2 0 2 0 
1 0 2 0 2 0 2 0 1 0 2 0 2 0 2 0 
1 0 2 0 2 0 2 0 1 0 2 0 2 0 2 0 
1 0 2 0 2 0 2 0 1 0 2 0 2 0 2 0 
1 0 2 0 2 0 1 0 2 0 2 0 2 0 1 0 
2 0 2 0 2 0 1 0 2 0 2 0 2 0 1 0 
2 0 2 0 2 0 1 0 2 0 2 0 2 0 1 0 
2 0 2 0 2 0 1 0 2 0 2 0 2 0 1 0 
2 0 2 0 2 0 1 0 2 0 2 0 2 0 1 0 
2 0 2 0 1 0 2 0 2 0 2 0 1 0 2 0 
2 0 2 0 1 0 2 0 2 0 2 0 1 0 2 0 
2 0 2 0 1 0 2113 1094 100 MP stroke
2 0 2 0 2 0 1 0 2 0 2 0 2 0 1 0 
2 0 2 0 2 0 1 0 2 0 2 0 2 0 1 0 
2 0 2 0 2 0 1 0 2 0 2 0 2 0 1 0 
2 0 2 0 1 0 2 0 2 0 2 0 1 0 2 0 
2 0 2 0 1 0 2 0 2 0 2 0 1 0 2 0 
2 0 2 0 1 0 2 0 2 0 2 0 1 0 2 0 
2 0 2 0 1 0 2 0 2 0 2 0 1 0 2 0 
2 0 2 0 1 0 2 0 2 0 2 0 1 0 2 0 
2 0 1 0 2 0 2 0 2 0 1 0 2 0 2 0 
2 0 1 0 2 0 2 0 2 0 1 0 2 0 2 0 
2 0 1 0 2 0 2 0 2 0 1 0 2 0 2 0 
2 0 1 0 2 0 2 0 2 0 1 0 2 0 2 0 
2 0 1 0 2 0 1940 1094 100 MP stroke
2 0 2 0 1 0 2 0 2 0 1 0 2 0 2 0 
2 0 1 0 2 0 2 0 2 0 1 0 2 0 2 0 
2 0 1 0 2 0 2 0 2 0 1 0 2 0 2 0 
2 0 1 0 2 0 2 0 2 0 1 0 2 0 2 0 
2 0 1 0 2 0 2 0 2 0 1 0 2 0 2 0 
2 0 1 0 2 0 2 0 2 0 1 0 2 0 2 0 
1 0 2 0 2 0 2 0 1 0 2 0 2 0 2 0 
1 0 2 0 2 0 2 0 1 0 2 0 2 0 2 0 
1 0 2 0 2 0 2 0 1 0 2 0 2 0 2 0 
1 0 2 0 2 0 2 0 1 0 2 0 2 0 2 0 
1 0 2 0 2 0 2 0 1 0 2 0 2 0 1 0 
2 0 2 0 2 0 1 0 2 0 2 0 2 0 1 0 
2 0 2 0 2 0 1767 1094 100 MP stroke
1 0 2 0 2 0 2 0 1 0 2 0 2 0 2 0 
1 0 2 0 2 0 2 0 1 0 2 0 2 0 2 0 
1 0 2 0 2 0 2 0 1 0 2 0 2 0 2 0 
1 0 2 0 2 0 1 0 2 0 2 0 2 0 1 0 
2 0 2 0 2 0 1 0 2 0 2 0 2 0 1 0 
2 0 2 0 2 0 1 0 2 0 2 0 2 0 1 0 
2 0 2 0 2 0 1 0 2 0 2 0 2 0 1 0 
2 0 2 0 2 0 1 0 2 0 2 0 2 0 1 0 
2 0 2 0 1 0 2 0 2 0 2 0 1 0 2 0 
2 0 2 0 1 0 2 0 2 0 2 0 1 0 2 0 
2 0 2 0 1 0 2 0 2 0 2 0 1 0 2 0 
2 0 2 0 1 0 2 0 2 0 2 0 1 0 2 0 
2 0 2 0 1 0 1595 1094 100 MP stroke
2 0 2 0 2 0 1 0 2 0 2 0 2 0 1 0 
2 0 2 0 1 0 2 0 2 0 2 0 1 0 2 0 
2 0 2 0 1 0 2 0 2 0 2 0 1 0 2 0 
2 0 2 0 1 0 2 0 2 0 2 0 1 0 2 0 
2 0 2 0 1 0 2 0 2 0 2 0 1 0 2 0 
2 0 2 0 1 0 2 0 2 0 2 0 1 0 2 0 
2 0 1 0 2 0 2 0 2 0 1 0 2 0 2 0 
2 0 1 0 2 0 2 0 2 0 1 0 2 0 2 0 
2 0 1 0 2 0 2 0 2 0 1 0 2 0 2 0 
2 0 1 0 2 0 2 0 2 0 1 0 2 0 2 0 
2 0 1 0 2 0 2 0 2 0 1 0 2 0 2 0 
1 0 2 0 2 0 2 0 1 0 2 0 2 0 2 0 
1 0 2 0 2 0 1422 1094 100 MP stroke
2 0 1 0 2 0 2 0 2 0 1 0 2 0 2 0 
2 0 1 0 2 0 2 0 2 0 1 0 2 0 2 0 
2 0 1 0 2 0 2 0 2 0 1 0 2 0 2 0 
2 0 1 0 2 0 2 0 2 0 1 0 2 0 2 0 
1 0 2 0 2 0 2 0 1 0 2 0 2 0 2 0 
1 0 2 0 2 0 2 0 1 0 2 0 2 0 2 0 
1 0 2 0 2 0 2 0 1 0 2 0 2 0 2 0 
1 0 2 0 2 0 2 0 1 0 2 0 2 0 2 0 
1 0 2 0 2 0 2 0 1 0 2 0 2 0 1 0 
2 0 2 0 2 0 1 0 2 0 2 0 2 0 1 0 
2 0 2 0 2 0 1 0 2 0 2 0 2 0 1 0 
2 0 2 0 2 0 1 0 2 0 2 0 2 0 1 0 
2 0 2 0 2 0 1249 1094 100 MP stroke
1 0 2 0 2 0 2 0 1 0 2 0 2 0 2 0 
1 0 2 0 2 0 1 0 2 0 2 0 2 0 1 0 
2 0 2 0 2 0 1 0 2 0 2 0 2 0 1 0 
2 0 2 0 2 0 1 0 2 0 2 0 2 0 1 0 
2 0 2 0 2 0 1 0 2 0 2 0 2 0 1 0 
2 0 2 0 2 0 1 0 2 0 2 0 2 0 1 0 
2 0 2 0 1 0 2 0 2 0 2 0 1 0 2 0 
2 0 2 0 1 0 2 0 2 0 2 0 1 0 2 0 
2 0 2 0 1 0 2 0 2 0 2 0 1 0 2 0 
2 0 2 0 1 0 2 0 2 0 2 0 1 0 2 0 
2 0 2 0 1 0 2 0 2 0 2 0 1 0 2 0 
2 0 2 0 1 0 2 0 2 0 1 0 2 0 2 0 
2 0 1 0 2 0 1077 1094 100 MP stroke
2 0 2 0 1 0 2 0 2 0 2 0 1 0 2 0 
2 0 2 0 1 0 2 0 2 0 2 0 1 0 2 0 
2 0 2 0 1 0 2 0 2 0 2 0 1 0 2 0 
2 0 2 0 1 0 2 0 2 0 2 0 1 0 2 0 
2 0 1 0 2 0 2 0 2 0 1 0 2 0 2 0 
2 0 1 0 2 0 2 0 2 0 1 0 2 0 2 0 
2 0 1 0 2 0 2 0 2 0 1 0 2 0 2 0 
2 0 1 0 2 0 2 0 2 0 1 0 2 0 2 0 
2 0 1 0 2 0 2 0 2 0 1 0 2 0 2 0 
1 0 2 0 2 0 2 0 1 0 2 0 2 0 2 0 
1 0 2 0 2 0 2 0 1 0 2 0 2 0 2 0 
1 0 2 0 2 0 2 0 1 0 2 0 2 0 2 0 
1 0 2 0 2 0 904 1094 100 MP stroke
2 0 1 0 2 0 899 1094 4 MP stroke
/c9 { 0.000000 0.500000 0.000000 sr} bdef
c9
2 0 2 0 1 0 2 0 2 0 2 0 1 0 2 0 
2 0 2 0 1 0 2 0 2 0 2 0 1 0 2 0 
2 0 2 0 1 0 2 0 2 0 2 0 1 0 2 0 
2 0 2 0 1 0 2 0 2 0 2 0 1 0 2 0 
2 0 1 0 2 0 2 0 2 0 1 0 2 0 2 0 
2 0 1 0 2 0 2 0 2 0 1 0 2 0 2 0 
2 0 1 0 2 0 2 0 2 0 1 0 2 0 2 0 
2 0 1 0 2 0 2 0 2 0 1 0 2 0 2 0 
2 0 1 0 2 0 2 0 2 0 1 0 2 0 2 0 
1 0 2 0 2 0 2 0 1 0 2 0 2 0 2 0 
1 0 2 0 2 0 2 0 1 0 2 0 2 0 2 0 
1 0 2 0 2 0 2 0 1 0 2 0 2 0 2 0 
1 0 2 0 2 0 6083 1094 100 MP stroke
2 0 1 0 2 0 2 0 2 0 1 0 2 0 2 0 
2 0 1 0 2 0 2 0 1 0 2 0 2 0 2 0 
1 0 2 0 2 0 2 0 1 0 2 0 2 0 2 0 
1 0 2 0 2 0 2 0 1 0 2 0 2 0 2 0 
1 0 2 0 2 0 2 0 1 0 2 0 2 0 2 0 
1 0 2 0 2 0 2 0 1 0 2 0 2 0 2 0 
1 0 2 0 2 0 2 0 1 0 2 0 2 0 1 0 
2 0 2 0 2 0 1 0 2 0 2 0 2 0 1 0 
2 0 2 0 2 0 1 0 2 0 2 0 2 0 1 0 
2 0 2 0 2 0 1 0 2 0 2 0 2 0 1 0 
2 0 2 0 2 0 1 0 2 0 2 0 2 0 1 0 
2 0 2 0 2 0 1 0 2 0 2 0 1 0 2 0 
2 0 2 0 1 0 5911 1094 100 MP stroke
2 0 2 0 2 0 1 0 2 0 2 0 2 0 1 0 
2 0 2 0 2 0 1 0 2 0 2 0 2 0 1 0 
2 0 2 0 2 0 1 0 2 0 2 0 2 0 1 0 
2 0 2 0 2 0 1 0 2 0 2 0 2 0 1 0 
2 0 2 0 1 0 2 0 2 0 2 0 1 0 2 0 
2 0 2 0 1 0 2 0 2 0 2 0 1 0 2 0 
2 0 2 0 1 0 2 0 2 0 2 0 1 0 2 0 
2 0 2 0 1 0 2 0 2 0 2 0 1 0 2 0 
2 0 2 0 1 0 2 0 2 0 2 0 1 0 2 0 
2 0 1 0 2 0 2 0 2 0 1 0 2 0 2 0 
2 0 1 0 2 0 2 0 2 0 1 0 2 0 2 0 
2 0 1 0 2 0 2 0 2 0 1 0 2 0 2 0 
2 0 1 0 2 0 5738 1094 100 MP stroke
2 0 2 0 1 0 2 0 2 0 2 0 1 0 2 0 
2 0 2 0 1 0 2 0 2 0 2 0 1 0 2 0 
2 0 1 0 2 0 2 0 2 0 1 0 2 0 2 0 
2 0 1 0 2 0 2 0 2 0 1 0 2 0 2 0 
2 0 1 0 2 0 2 0 2 0 1 0 2 0 2 0 
2 0 1 0 2 0 2 0 2 0 1 0 2 0 2 0 
2 0 1 0 2 0 2 0 2 0 1 0 2 0 2 0 
1 0 2 0 2 0 2 0 1 0 2 0 2 0 2 0 
1 0 2 0 2 0 2 0 1 0 2 0 2 0 2 0 
1 0 2 0 2 0 2 0 1 0 2 0 2 0 2 0 
1 0 2 0 2 0 2 0 1 0 2 0 2 0 2 0 
1 0 2 0 2 0 2 0 1 0 2 0 2 0 1 0 
2 0 2 0 2 0 5565 1094 100 MP stroke
1 0 2 0 2 0 2 0 1 0 2 0 2 0 2 0 
1 0 2 0 2 0 2 0 1 0 2 0 2 0 2 0 
1 0 2 0 2 0 2 0 1 0 2 0 2 0 2 0 
1 0 2 0 2 0 2 0 1 0 2 0 2 0 2 0 
1 0 2 0 2 0 2 0 1 0 2 0 2 0 1 0 
2 0 2 0 2 0 1 0 2 0 2 0 2 0 1 0 
2 0 2 0 2 0 1 0 2 0 2 0 2 0 1 0 
2 0 2 0 2 0 1 0 2 0 2 0 2 0 1 0 
2 0 2 0 2 0 1 0 2 0 2 0 2 0 1 0 
2 0 2 0 2 0 1 0 2 0 2 0 1 0 2 0 
2 0 2 0 1 0 2 0 2 0 2 0 1 0 2 0 
2 0 2 0 1 0 2 0 2 0 2 0 1 0 2 0 
2 0 2 0 1 0 5393 1094 100 MP stroke
2 0 2 0 2 0 1 0 2 0 2 0 2 0 1 0 
2 0 2 0 2 0 1 0 2 0 2 0 2 0 1 0 
2 0 2 0 1 0 2 0 2 0 2 0 1 0 2 0 
2 0 2 0 1 0 2 0 2 0 2 0 1 0 2 0 
2 0 2 0 1 0 2 0 2 0 2 0 1 0 2 0 
2 0 2 0 1 0 2 0 2 0 2 0 1 0 2 0 
2 0 2 0 1 0 2 0 2 0 2 0 1 0 2 0 
2 0 1 0 2 0 2 0 2 0 1 0 2 0 2 0 
2 0 1 0 2 0 2 0 2 0 1 0 2 0 2 0 
2 0 1 0 2 0 2 0 2 0 1 0 2 0 2 0 
2 0 1 0 2 0 2 0 2 0 1 0 2 0 2 0 
2 0 1 0 2 0 2 0 2 0 1 0 2 0 2 0 
2 0 1 0 2 0 5220 1094 100 MP stroke
2 0 1 0 2 0 2 0 2 0 1 0 2 0 2 0 
2 0 1 0 2 0 2 0 2 0 1 0 2 0 2 0 
2 0 1 0 2 0 2 0 2 0 1 0 2 0 2 0 
2 0 1 0 2 0 2 0 2 0 1 0 2 0 2 0 
2 0 1 0 2 0 2 0 2 0 1 0 2 0 2 0 
1 0 2 0 2 0 2 0 1 0 2 0 2 0 2 0 
1 0 2 0 2 0 2 0 1 0 2 0 2 0 2 0 
1 0 2 0 2 0 2 0 1 0 2 0 2 0 2 0 
1 0 2 0 2 0 2 0 1 0 2 0 2 0 2 0 
1 0 2 0 2 0 2 0 1 0 2 0 2 0 1 0 
2 0 2 0 2 0 1 0 2 0 2 0 2 0 1 0 
2 0 2 0 2 0 1 0 2 0 2 0 2 0 1 0 
2 0 2 0 2 0 5047 1094 100 MP stroke
1 0 2 0 2 0 2 0 1 0 2 0 2 0 2 0 
1 0 2 0 2 0 2 0 1 0 2 0 2 0 2 0 
1 0 2 0 2 0 2 0 1 0 2 0 2 0 1 0 
2 0 2 0 2 0 1 0 2 0 2 0 2 0 1 0 
2 0 2 0 2 0 1 0 2 0 2 0 2 0 1 0 
2 0 2 0 2 0 1 0 2 0 2 0 2 0 1 0 
2 0 2 0 2 0 1 0 2 0 2 0 2 0 1 0 
2 0 2 0 2 0 1 0 2 0 2 0 1 0 2 0 
2 0 2 0 1 0 2 0 2 0 2 0 1 0 2 0 
2 0 2 0 1 0 2 0 2 0 2 0 1 0 2 0 
2 0 2 0 1 0 2 0 2 0 2 0 1 0 2 0 
2 0 2 0 1 0 2 0 2 0 2 0 1 0 2 0 
2 0 2 0 1 0 4875 1094 100 MP stroke
2 0 2 0 1 0 2 0 2 0 2 0 1 0 2 0 
2 0 2 0 1 0 2 0 2 0 2 0 1 0 2 0 
2 0 2 0 1 0 2 0 2 0 2 0 1 0 2 0 
2 0 2 0 1 0 2 0 2 0 2 0 1 0 2 0 
2 0 2 0 1 0 2 0 2 0 2 0 1 0 2 0 
2 0 1 0 2 0 2 0 2 0 1 0 2 0 2 0 
2 0 1 0 2 0 2 0 2 0 1 0 2 0 2 0 
2 0 1 0 2 0 2 0 2 0 1 0 2 0 2 0 
2 0 1 0 2 0 2 0 2 0 1 0 2 0 2 0 
2 0 1 0 2 0 2 0 2 0 1 0 2 0 2 0 
2 0 1 0 2 0 2 0 1 0 2 0 2 0 2 0 
1 0 2 0 2 0 2 0 1 0 2 0 2 0 2 0 
1 0 2 0 2 0 4702 1094 100 MP stroke
2 0 1 0 2 0 2 0 2 0 1 0 2 0 2 0 
2 0 1 0 2 0 2 0 2 0 1 0 2 0 2 0 
2 0 1 0 2 0 2 0 2 0 1 0 2 0 2 0 
1 0 2 0 2 0 2 0 1 0 2 0 2 0 2 0 
1 0 2 0 2 0 2 0 1 0 2 0 2 0 2 0 
1 0 2 0 2 0 2 0 1 0 2 0 2 0 2 0 
1 0 2 0 2 0 2 0 1 0 2 0 2 0 2 0 
1 0 2 0 2 0 2 0 1 0 2 0 2 0 1 0 
2 0 2 0 2 0 1 0 2 0 2 0 2 0 1 0 
2 0 2 0 2 0 1 0 2 0 2 0 2 0 1 0 
2 0 2 0 2 0 1 0 2 0 2 0 2 0 1 0 
2 0 2 0 2 0 1 0 2 0 2 0 2 0 1 0 
2 0 2 0 2 0 4529 1094 100 MP stroke
1 0 2 0 2 0 2 0 1 0 2 0 2 0 1 0 
2 0 2 0 2 0 1 0 2 0 2 0 2 0 1 0 
2 0 2 0 2 0 1 0 2 0 2 0 2 0 1 0 
2 0 2 0 2 0 1 0 2 0 2 0 2 0 1 0 
2 0 2 0 2 0 1 0 2 0 2 0 2 0 1 0 
2 0 2 0 2 0 1 0 2 0 2 0 1 0 2 0 
2 0 2 0 1 0 2 0 2 0 2 0 1 0 2 0 
2 0 2 0 1 0 2 0 2 0 2 0 1 0 2 0 
2 0 2 0 1 0 2 0 2 0 2 0 1 0 2 0 
2 0 2 0 1 0 2 0 2 0 2 0 1 0 2 0 
2 0 2 0 1 0 2 0 2 0 1 0 2 0 2 0 
2 0 1 0 2 0 2 0 2 0 1 0 2 0 2 0 
2 0 1 0 2 0 4357 1094 100 MP stroke
2 0 2 0 1 0 2 0 2 0 2 0 1 0 2 0 
2 0 2 0 1 0 2 0 2 0 2 0 1 0 2 0 
2 0 2 0 1 0 2 0 2 0 2 0 1 0 2 0 
2 0 1 0 2 0 2 0 2 0 1 0 2 0 2 0 
2 0 1 0 2 0 2 0 2 0 1 0 2 0 2 0 
2 0 1 0 2 0 2 0 2 0 1 0 2 0 2 0 
2 0 1 0 2 0 2 0 2 0 1 0 2 0 2 0 
2 0 1 0 2 0 2 0 2 0 1 0 2 0 2 217 
2 0 1 0 2 0 2 0 1 0 2 0 2 0 2 0 
1 0 2 0 2 0 2 0 1 0 2 0 2 0 2 0 
1 0 2 0 2 0 2 0 1 0 2 0 2 0 2 0 
1 0 2 0 2 0 2 0 1 0 2 0 2 0 2 0 
1 0 2 0 2 0 4184 877 100 MP stroke
2 0 1 0 2 0 2 0 2 0 1 0 2 0 2 0 
1 0 2 0 2 0 2 0 1 0 2 0 2 0 2 0 
1 0 2 0 2 0 2 0 1 0 2 0 2 0 2 0 
1 0 2 0 2 0 2 0 1 0 2 0 2 0 2 0 
1 0 2 0 2 0 2 0 1 0 2 0 2 0 2 0 
1 0 2 0 2 0 2 0 1 0 2 0 2 0 1 0 
2 0 2 0 2 0 1 0 2 0 2 0 2 0 1 0 
2 0 2 0 2 0 1 0 2 0 2 0 2 0 1 0 
2 0 2 0 2 0 1 0 2 0 2 0 2 0 1 0 
2 0 2 0 2 0 1 0 2 0 2 0 2 0 1 0 
2 0 2 0 2 0 1 0 2 0 2 0 2 0 1 0 
2 0 2 0 1 0 2 0 2 0 2 0 1 0 2 0 
2 0 2 0 1 0 4012 877 100 MP stroke
2 0 2 0 2 0 1 0 2 0 2 0 2 0 1 0 
2 0 2 0 2 0 1 0 2 0 2 0 2 0 1 0 
2 0 2 0 2 0 1 0 2 0 2 0 2 0 1 0 
2 0 2 0 2 0 1 0 2 0 2 0 1 0 2 0 
2 0 2 0 1 0 2 0 2 0 2 0 1 0 2 0 
2 0 2 0 1 0 2 0 2 0 2 0 1 0 2 0 
2 0 2 0 1 0 2 0 2 0 2 0 1 0 2 0 
2 0 2 -217 1 0 2 0 2 0 2 0 1 0 2 0 
2 0 2 0 1 0 2 0 2 0 1 0 2 0 2 0 
2 0 1 0 2 0 2 0 2 0 1 0 2 0 2 0 
2 0 1 0 2 0 2 0 2 0 1 0 2 0 2 0 
2 0 1 0 2 0 2 0 2 0 1 0 2 0 2 0 
2 0 1 0 2 0 3839 1094 100 MP stroke
2 0 2 0 1 0 2 0 2 0 2 0 1 0 2 0 
2 0 1 0 2 0 2 0 2 0 1 0 2 0 2 0 
2 0 1 0 2 0 2 0 2 0 1 0 2 0 2 0 
2 0 1 0 2 0 2 0 2 0 1 0 2 0 2 0 
2 0 1 0 2 0 2 0 2 0 1 0 2 0 2 0 
2 0 1 0 2 0 2 0 2 0 1 0 2 0 2 0 
2 0 1 0 2 0 2 0 1 0 2 0 2 0 2 0 
1 0 2 0 2 0 2 0 1 0 2 0 2 0 2 0 
1 0 2 0 2 0 2 0 1 0 2 0 2 0 2 0 
1 0 2 0 2 0 2 0 1 0 2 0 2 0 2 0 
1 0 2 0 2 0 2 0 1 0 2 0 2 0 2 0 
1 0 2 0 2 0 1 0 2 0 2 0 2 0 1 0 
2 0 2 0 2 0 3666 1094 100 MP stroke
1 0 2 0 2 0 2 0 1 0 2 0 2 0 2 0 
1 0 2 0 2 0 2 0 1 0 2 0 2 0 2 0 
1 0 2 0 2 0 2 0 1 0 2 0 2 0 2 0 
1 0 2 0 2 0 2 0 1 0 2 0 2 0 1 0 
2 0 2 0 2 0 1 0 2 0 2 0 2 0 1 0 
2 0 2 0 2 0 1 0 2 0 2 0 2 0 1 0 
2 0 2 0 2 0 1 0 2 0 2 0 2 0 1 0 
2 0 2 0 2 0 1 0 2 0 2 0 2 0 1 0 
2 0 2 0 2 0 1 0 2 0 2 0 2 0 1 0 
2 0 2 0 1 0 2 0 2 0 2 0 1 0 2 0 
2 0 2 0 1 0 2 0 2 0 2 0 1 0 2 0 
2 0 2 0 1 0 2 0 2 0 2 0 1 0 2 0 
2 0 2 0 1 0 3494 1094 100 MP stroke
2 0 2 0 2 0 1 0 2 0 2 0 2 0 1 0 
2 0 2 0 2 0 1 0 2 0 2 0 1 0 2 0 
2 0 2 0 1 0 2 0 2 0 2 0 1 0 2 0 
2 0 2 0 1 0 2 0 2 0 2 0 1 0 2 0 
2 0 2 0 1 0 2 0 2 0 2 0 1 0 2 0 
2 0 2 0 1 0 2 0 2 0 2 0 1 0 2 0 
2 0 2 0 1 0 2 0 2 0 1 0 2 0 2 0 
2 0 1 0 2 0 2 0 2 0 1 0 2 0 2 0 
2 0 1 0 2 0 2 0 2 0 1 0 2 0 2 0 
2 0 1 0 2 0 2 0 2 0 1 0 2 0 2 0 
2 0 1 0 2 0 2 0 2 0 1 0 2 0 2 0 
2 0 1 0 2 0 2 0 2 0 1 0 2 0 2 0 
1 0 2 0 2 0 3321 1094 100 MP stroke
2 0 1 0 2 0 2 0 2 0 1 0 2 0 2 0 
2 0 1 0 2 0 2 0 2 0 1 0 2 0 2 0 
2 0 1 0 2 0 2 0 2 0 1 0 2 0 2 0 
2 0 1 0 2 0 2 0 2 0 1 0 2 0 2 0 
2 0 1 0 2 0 2 0 1 0 2 0 2 0 2 0 
1 0 2 0 2 0 2 0 1 217 2 0 2 0 2 0 
1 0 2 0 2 0 2 0 1 0 2 0 2 0 2 0 
1 0 2 0 2 0 2 0 1 0 2 0 2 0 2 0 
1 0 2 0 2 0 2 0 1 0 2 0 2 0 2 0 
1 0 2 0 2 0 1 0 2 0 2 0 2 0 1 0 
2 0 2 0 2 0 1 0 2 0 2 0 2 0 1 0 
2 0 2 0 2 0 1 0 2 0 2 0 2 0 1 0 
2 0 2 0 2 0 3148 877 100 MP stroke
1 0 2 0 2 0 2 0 1 0 2 0 2 0 2 0 
1 0 2 0 2 0 2 0 1 0 2 0 2 0 1 0 
2 0 2 0 2 0 1 0 2 0 2 0 2 0 1 0 
2 0 2 0 2 0 1 0 2 0 2 0 2 0 1 0 
2 0 2 0 2 0 1 0 2 0 2 0 2 0 1 0 
2 0 2 0 2 0 1 0 2 0 2 0 2 0 1 0 
2 0 2 0 2 0 1 0 2 0 2 0 2 0 1 0 
2 0 2 0 1 0 2 0 2 0 2 0 1 0 2 0 
2 0 2 0 1 0 2 0 2 0 2 0 1 0 2 0 
2 0 2 0 1 0 2 0 2 0 2 0 1 0 2 0 
2 0 2 0 1 0 2 0 2 0 2 0 1 0 2 0 
2 0 2 0 1 0 2 0 2 0 2 0 1 0 2 0 
2 0 1 0 2 0 2976 877 100 MP stroke
2 0 2 0 1 0 2 0 2 0 2 0 1 0 2 0 
2 0 2 0 1 0 2 0 2 0 2 0 1 0 2 0 
2 0 2 0 1 0 2 0 2 0 2 0 1 0 2 0 
2 0 2 0 1 0 2 0 2 0 2 0 1 0 2 0 
2 0 2 0 1 0 2 0 2 0 1 0 2 -217 2 0 
2 0 1 0 2 0 2 0 2 0 1 0 2 0 2 0 
2 0 1 0 2 0 2 0 2 0 1 0 2 0 2 0 
2 0 1 0 2 0 2 0 2 0 1 0 2 0 2 0 
2 0 1 0 2 0 2 0 2 0 1 0 2 0 2 0 
2 0 1 0 2 0 2 0 2 0 1 0 2 0 2 0 
1 0 2 0 2 0 2 0 1 0 2 0 2 0 2 0 
1 0 2 0 2 0 2 0 1 0 2 0 2 0 2 0 
1 0 2 0 2 0 2803 1094 100 MP stroke
2 0 1 0 2 0 2 0 2 0 1 0 2 0 2 0 
2 0 1 0 2 0 2 0 2 0 1 0 2 0 2 0 
2 0 1 0 2 0 2 0 1 0 2 0 2 0 2 0 
1 0 2 0 2 0 2 0 1 0 2 0 2 0 2 0 
1 0 2 0 2 0 2 0 1 0 2 0 2 0 2 0 
1 0 2 0 2 0 2 0 1 0 2 0 2 0 2 0 
1 0 2 0 2 0 2 0 1 0 2 0 2 0 2 0 
1 0 2 0 2 0 1 0 2 0 2 0 2 0 1 0 
2 0 2 0 2 0 1 0 2 0 2 0 2 0 1 0 
2 0 2 0 2 0 1 0 2 0 2 0 2 0 1 0 
2 0 2 0 2 0 1 0 2 0 2 0 2 0 1 0 
2 0 2 0 2 0 1 0 2 0 2 0 2 0 1 0 
2 0 2 0 1 0 2631 1094 100 MP stroke
2 0 2 0 2 0 1 0 2 0 2 0 2 0 1 0 
2 0 2 0 2 0 1 0 2 0 2 0 2 0 1 0 
2 0 2 0 2 0 1 0 2 0 2 0 2 0 1 0 
2 0 2 0 2 0 1 0 2 0 2 0 2 0 1 0 
2 0 2 0 2 0 1 0 2 0 2 0 2 0 1 0 
2 0 2 0 1 0 2 0 2 0 2 0 1 0 2 0 
2 0 2 0 1 0 2 0 2 0 2 0 1 0 2 0 
2 0 2 0 1 0 2 0 2 0 2 0 1 0 2 0 
2 0 2 0 1 0 2 0 2 0 2 0 1 0 2 0 
2 0 2 0 1 0 2 0 2 0 2 0 1 0 2 0 
2 0 1 0 2 0 2 0 2 0 1 0 2 0 2 0 
2 0 1 0 2 0 2 0 2 0 1 0 2 0 2 0 
2 0 1 0 2 0 2458 1094 100 MP stroke
2 0 2 0 1 0 2 0 2 0 2 0 1 0 2 0 
2 0 2 0 1 0 2 0 2 0 2 0 1 0 2 0 
2 0 2 0 1 0 2 0 2 0 1 0 2 0 2 0 
2 0 1 0 2 0 2 0 2 0 1 0 2 0 2 0 
2 0 1 0 2 0 2 0 2 0 1 0 2 0 2 0 
2 0 1 0 2 0 2 0 2 0 1 0 2 0 2 0 
2 0 1 0 2 0 2 0 2 0 1 0 2 0 2 0 
2 0 1 0 2 0 2 0 2 0 1 0 2 0 2 0 
1 0 2 0 2 0 2 0 1 0 2 0 2 0 2 0 
1 0 2 0 2 0 2 0 1 0 2 0 2 0 2 0 
1 0 2 0 2 0 2 0 1 0 2 0 2 0 2 0 
1 0 2 0 2 0 2 0 1 0 2 0 2 0 2 0 
1 0 2 0 2 0 2285 1094 100 MP stroke
2 0 1 0 2 0 2 0 1 0 2 0 2 0 2 0 
1 0 2 0 2 0 2 0 1 0 2 0 2 0 2 0 
1 0 2 0 2 0 2 0 1 0 2 0 2 0 2 0 
1 0 2 0 2 0 2 0 1 0 2 0 2 0 2 0 
1 0 2 0 2 0 2 0 1 0 2 0 2 0 2 0 
1 0 2 0 2 0 1 0 2 0 2 0 2 0 1 0 
2 0 2 0 2 0 1 0 2 0 2 0 2 0 1 0 
2 0 2 0 2 0 1 0 2 0 2 0 2 0 1 0 
2 0 2 0 2 0 1 0 2 0 2 0 2 0 1 0 
2 0 2 0 2 0 1 0 2 0 2 0 2 0 1 0 
2 0 2 0 1 0 2 0 2 0 2 0 1 0 2 0 
2 0 2 0 1 0 2 0 2 0 2 0 1 0 2 0 
2 0 2 0 1 0 2113 1094 100 MP stroke
2 0 2 0 2 0 1 0 2 0 2 0 2 0 1 0 
2 0 2 0 2 0 1 0 2 0 2 0 2 0 1 0 
2 0 2 0 2 0 1 0 2 0 2 0 2 0 1 0 
2 0 2 0 1 0 2 0 2 0 2 0 1 0 2 0 
2 0 2 0 1 0 2 0 2 0 2 0 1 0 2 0 
2 0 2 0 1 0 2 0 2 0 2 0 1 0 2 0 
2 0 2 0 1 0 2 0 2 0 2 0 1 0 2 0 
2 0 2 0 1 0 2 0 2 0 2 0 1 0 2 0 
2 0 1 0 2 0 2 0 2 0 1 0 2 0 2 0 
2 0 1 0 2 0 2 0 2 0 1 0 2 0 2 0 
2 0 1 0 2 0 2 0 2 0 1 0 2 0 2 0 
2 0 1 0 2 0 2 0 2 0 1 0 2 0 2 0 
2 0 1 0 2 0 1940 1094 100 MP stroke
2 0 2 0 1 0 2 0 2 0 1 0 2 0 2 0 
2 0 1 0 2 0 2 0 2 0 1 0 2 0 2 0 
2 0 1 0 2 0 2 0 2 0 1 0 2 0 2 0 
2 0 1 0 2 0 2 0 2 0 1 0 2 0 2 0 
2 0 1 0 2 0 2 0 2 0 1 0 2 0 2 0 
2 0 1 0 2 0 2 0 2 0 1 0 2 0 2 0 
1 0 2 0 2 0 2 0 1 0 2 0 2 0 2 0 
1 0 2 0 2 0 2 0 1 0 2 0 2 0 2 0 
1 0 2 0 2 0 2 0 1 0 2 0 2 0 2 0 
1 0 2 0 2 0 2 0 1 0 2 0 2 0 2 0 
1 0 2 0 2 0 2 0 1 0 2 0 2 0 1 0 
2 0 2 0 2 0 1 0 2 0 2 0 2 0 1 0 
2 0 2 0 2 0 1767 1094 100 MP stroke
1 0 2 0 2 0 2 0 1 0 2 0 2 0 2 0 
1 0 2 0 2 0 2 0 1 0 2 0 2 0 2 0 
1 0 2 0 2 0 2 0 1 0 2 0 2 0 2 0 
1 0 2 0 2 0 1 0 2 0 2 0 2 0 1 0 
2 0 2 0 2 0 1 0 2 0 2 0 2 0 1 0 
2 0 2 0 2 0 1 0 2 0 2 0 2 0 1 0 
2 0 2 0 2 0 1 0 2 0 2 0 2 0 1 0 
2 0 2 0 2 0 1 0 2 0 2 0 2 0 1 0 
2 0 2 0 1 0 2 0 2 0 2 0 1 0 2 0 
2 0 2 0 1 0 2 0 2 0 2 0 1 0 2 0 
2 0 2 0 1 0 2 0 2 0 2 0 1 0 2 0 
2 0 2 0 1 0 2 0 2 0 2 0 1 0 2 0 
2 0 2 0 1 0 1595 1094 100 MP stroke
2 0 2 0 2 0 1 0 2 0 2 0 2 0 1 0 
2 0 2 0 1 0 2 0 2 0 2 0 1 0 2 0 
2 0 2 0 1 0 2 0 2 0 2 0 1 0 2 0 
2 0 2 0 1 0 2 0 2 0 2 0 1 0 2 0 
2 0 2 0 1 0 2 0 2 0 2 0 1 0 2 0 
2 0 2 0 1 0 2 0 2 0 2 0 1 0 2 0 
2 0 1 0 2 0 2 0 2 0 1 0 2 0 2 0 
2 0 1 0 2 0 2 0 2 0 1 0 2 0 2 0 
2 0 1 0 2 0 2 0 2 0 1 0 2 0 2 0 
2 0 1 0 2 0 2 0 2 0 1 0 2 0 2 0 
2 0 1 0 2 0 2 0 2 0 1 0 2 0 2 0 
1 0 2 0 2 0 2 0 1 0 2 0 2 0 2 0 
1 0 2 0 2 0 1422 1094 100 MP stroke
2 0 1 0 2 0 2 0 2 0 1 0 2 0 2 0 
2 0 1 0 2 0 2 0 2 0 1 0 2 0 2 0 
2 0 1 0 2 0 2 0 2 0 1 0 2 0 2 0 
2 0 1 0 2 0 2 0 2 0 1 0 2 0 2 0 
1 0 2 0 2 0 2 0 1 0 2 0 2 0 2 0 
1 0 2 0 2 0 2 0 1 0 2 0 2 0 2 0 
1 0 2 0 2 0 2 0 1 0 2 0 2 0 2 0 
1 0 2 0 2 0 2 0 1 0 2 0 2 0 2 0 
1 0 2 0 2 0 2 0 1 0 2 0 2 0 1 0 
2 0 2 0 2 0 1 0 2 0 2 0 2 0 1 0 
2 0 2 0 2 0 1 0 2 0 2 0 2 0 1 0 
2 0 2 0 2 0 1 0 2 0 2 0 2 0 1 0 
2 0 2 0 2 0 1249 1094 100 MP stroke
1 0 2 0 2 0 2 0 1 0 2 0 2 0 2 0 
1 0 2 0 2 0 1 0 2 0 2 0 2 0 1 0 
2 0 2 0 2 0 1 0 2 0 2 0 2 0 1 0 
2 0 2 0 2 0 1 0 2 0 2 0 2 0 1 0 
2 0 2 0 2 0 1 0 2 0 2 0 2 0 1 0 
2 0 2 0 2 0 1 0 2 0 2 0 2 0 1 0 
2 0 2 0 1 0 2 0 2 0 2 0 1 0 2 0 
2 0 2 0 1 0 2 0 2 0 2 0 1 0 2 0 
2 0 2 0 1 0 2 0 2 0 2 0 1 0 2 0 
2 0 2 0 1 0 2 0 2 0 2 0 1 0 2 0 
2 0 2 0 1 0 2 0 2 0 2 0 1 0 2 0 
2 0 2 0 1 0 2 0 2 0 1 0 2 0 2 0 
2 0 1 0 2 0 1077 1094 100 MP stroke
2 0 2 0 1 0 2 0 2 0 2 0 1 0 2 0 
2 0 2 0 1 0 2 0 2 0 2 0 1 0 2 0 
2 0 2 0 1 0 2 0 2 0 2 0 1 0 2 0 
2 0 2 0 1 0 2 0 2 0 2 0 1 0 2 0 
2 0 1 0 2 0 2 0 2 0 1 0 2 0 2 0 
2 0 1 0 2 0 2 0 2 0 1 0 2 0 2 0 
2 0 1 0 2 0 2 0 2 0 1 0 2 0 2 0 
2 0 1 0 2 0 2 0 2 0 1 0 2 0 2 0 
2 0 1 0 2 0 2 0 2 0 1 0 2 0 2 0 
1 0 2 0 2 0 2 0 1 0 2 0 2 0 2 0 
1 0 2 0 2 0 2 0 1 0 2 0 2 0 2 0 
1 0 2 0 2 0 2 0 1 0 2 0 2 0 2 0 
1 0 2 0 2 0 904 1094 100 MP stroke
2 0 1 0 2 0 899 1094 4 MP stroke
/c10 { 1.000000 0.000000 0.000000 sr} bdef
c10
2 0 2 0 1 0 2 0 2 0 2 0 1 0 2 0 
2 0 2 0 1 0 2 0 2 0 2 0 1 0 2 0 
2 0 2 0 1 0 2 0 2 0 2 0 1 0 2 0 
2 0 2 0 1 0 2 0 2 0 2 0 1 0 2 0 
2 0 1 0 2 0 2 0 2 0 1 0 2 0 2 0 
2 0 1 0 2 0 2 0 2 0 1 0 2 0 2 0 
2 0 1 0 2 0 2 0 2 0 1 0 2 0 2 0 
2 0 1 0 2 0 2 0 2 0 1 0 2 0 2 0 
2 0 1 0 2 0 2 0 2 0 1 0 2 0 2 0 
1 0 2 0 2 0 2 0 1 0 2 0 2 0 2 0 
1 0 2 0 2 0 2 0 1 0 2 0 2 0 2 0 
1 0 2 0 2 0 2 0 1 0 2 0 2 0 2 0 
1 0 2 0 2 0 6083 1094 100 MP stroke
2 0 1 0 2 0 2 0 2 0 1 0 2 0 2 0 
2 0 1 0 2 0 2 0 1 0 2 0 2 0 2 0 
1 0 2 0 2 0 2 0 1 0 2 0 2 0 2 0 
1 0 2 0 2 0 2 0 1 0 2 0 2 0 2 0 
1 0 2 0 2 0 2 0 1 0 2 0 2 0 2 0 
1 0 2 0 2 0 2 0 1 0 2 0 2 0 2 0 
1 0 2 0 2 0 2 0 1 0 2 0 2 0 1 0 
2 0 2 0 2 0 1 0 2 0 2 0 2 0 1 0 
2 0 2 0 2 0 1 0 2 0 2 0 2 0 1 0 
2 0 2 0 2 0 1 0 2 0 2 0 2 0 1 0 
2 0 2 0 2 0 1 0 2 0 2 0 2 0 1 0 
2 0 2 0 2 0 1 0 2 0 2 0 1 0 2 0 
2 0 2 0 1 0 5911 1094 100 MP stroke
2 0 2 0 2 0 1 0 2 0 2 0 2 0 1 0 
2 0 2 0 2 0 1 0 2 0 2 0 2 0 1 0 
2 0 2 0 2 0 1 0 2 0 2 0 2 0 1 0 
2 0 2 0 2 0 1 0 2 0 2 0 2 0 1 0 
2 0 2 0 1 0 2 0 2 0 2 0 1 0 2 0 
2 0 2 0 1 0 2 0 2 0 2 0 1 0 2 0 
2 0 2 0 1 0 2 0 2 0 2 0 1 0 2 0 
2 0 2 0 1 0 2 0 2 0 2 0 1 0 2 0 
2 0 2 0 1 0 2 0 2 0 2 0 1 0 2 0 
2 0 1 0 2 0 2 0 2 0 1 0 2 0 2 0 
2 0 1 0 2 0 2 0 2 0 1 0 2 0 2 0 
2 0 1 0 2 0 2 0 2 0 1 0 2 0 2 0 
2 0 1 0 2 0 5738 1094 100 MP stroke
2 0 2 0 1 0 2 0 2 0 2 0 1 0 2 0 
2 0 2 0 1 0 2 0 2 0 2 0 1 0 2 0 
2 0 1 0 2 0 2 0 2 0 1 0 2 0 2 0 
2 0 1 0 2 0 2 0 2 0 1 0 2 0 2 0 
2 0 1 0 2 0 2 0 2 0 1 0 2 0 2 0 
2 0 1 0 2 0 2 0 2 0 1 0 2 0 2 0 
2 0 1 0 2 0 2 0 2 0 1 0 2 0 2 0 
1 0 2 0 2 0 2 0 1 0 2 0 2 0 2 0 
1 0 2 0 2 0 2 0 1 0 2 0 2 0 2 0 
1 0 2 0 2 0 2 0 1 0 2 0 2 0 2 0 
1 0 2 0 2 0 2 0 1 0 2 0 2 0 2 0 
1 0 2 0 2 0 2 0 1 0 2 0 2 0 1 0 
2 0 2 0 2 0 5565 1094 100 MP stroke
1 0 2 0 2 0 2 0 1 0 2 0 2 0 2 0 
1 0 2 0 2 0 2 0 1 0 2 0 2 0 2 0 
1 0 2 0 2 0 2 0 1 0 2 0 2 0 2 0 
1 0 2 0 2 0 2 0 1 0 2 0 2 0 2 0 
1 0 2 0 2 0 2 0 1 0 2 0 2 0 1 0 
2 0 2 0 2 0 1 0 2 0 2 0 2 0 1 0 
2 0 2 0 2 0 1 0 2 0 2 0 2 0 1 0 
2 0 2 0 2 0 1 0 2 0 2 0 2 0 1 0 
2 0 2 0 2 0 1 0 2 0 2 0 2 0 1 0 
2 0 2 0 2 0 1 0 2 0 2 0 1 0 2 0 
2 0 2 0 1 0 2 0 2 0 2 0 1 0 2 0 
2 0 2 0 1 0 2 0 2 0 2 0 1 0 2 0 
2 0 2 0 1 0 5393 1094 100 MP stroke
2 0 2 0 2 0 1 0 2 0 2 0 2 0 1 0 
2 0 2 0 2 0 1 0 2 0 2 0 2 0 1 0 
2 0 2 0 1 0 2 0 2 0 2 0 1 0 2 0 
2 0 2 0 1 0 2 0 2 0 2 0 1 0 2 0 
2 0 2 0 1 0 2 0 2 0 2 0 1 0 2 0 
2 0 2 0 1 0 2 0 2 0 2 0 1 0 2 0 
2 0 2 0 1 0 2 0 2 0 2 0 1 0 2 0 
2 0 1 0 2 0 2 0 2 0 1 0 2 0 2 0 
2 0 1 0 2 0 2 0 2 0 1 0 2 0 2 0 
2 0 1 0 2 0 2 0 2 0 1 0 2 0 2 0 
2 0 1 0 2 0 2 0 2 0 1 0 2 0 2 0 
2 0 1 0 2 0 2 0 2 0 1 0 2 0 2 0 
2 0 1 0 2 0 5220 1094 100 MP stroke
2 0 1 0 2 0 2 0 2 0 1 0 2 0 2 0 
2 0 1 0 2 0 2 0 2 0 1 0 2 0 2 0 
2 0 1 0 2 0 2 0 2 0 1 0 2 0 2 0 
2 0 1 0 2 0 2 0 2 0 1 0 2 0 2 0 
2 0 1 0 2 0 2 0 2 0 1 0 2 0 2 0 
1 0 2 0 2 0 2 0 1 0 2 0 2 0 2 0 
1 0 2 0 2 0 2 0 1 0 2 0 2 0 2 0 
1 0 2 0 2 0 2 0 1 0 2 0 2 0 2 0 
1 0 2 0 2 0 2 0 1 0 2 0 2 0 2 0 
1 0 2 0 2 0 2 0 1 0 2 0 2 0 1 0 
2 0 2 0 2 0 1 0 2 0 2 0 2 0 1 0 
2 0 2 0 2 0 1 0 2 0 2 0 2 0 1 0 
2 0 2 0 2 0 5047 1094 100 MP stroke
1 0 2 0 2 0 2 0 1 0 2 0 2 0 2 0 
1 0 2 0 2 0 2 0 1 0 2 0 2 0 2 0 
1 0 2 0 2 0 2 0 1 0 2 0 2 0 1 0 
2 0 2 0 2 0 1 0 2 0 2 0 2 0 1 0 
2 0 2 0 2 0 1 0 2 0 2 0 2 0 1 0 
2 0 2 0 2 0 1 0 2 0 2 0 2 0 1 0 
2 0 2 0 2 0 1 0 2 0 2 0 2 0 1 0 
2 0 2 0 2 0 1 0 2 0 2 0 1 0 2 0 
2 0 2 0 1 0 2 0 2 0 2 0 1 0 2 0 
2 0 2 0 1 0 2 154 2 0 2 0 1 0 2 0 
2 0 2 0 1 0 2 0 2 0 2 0 1 0 2 0 
2 0 2 0 1 0 2 0 2 0 2 0 1 0 2 0 
2 0 2 0 1 0 4875 940 100 MP stroke
2 0 2 0 1 0 2 0 2 0 2 0 1 0 2 0 
2 0 2 0 1 0 2 0 2 0 2 0 1 0 2 0 
2 0 2 0 1 0 2 0 2 0 2 0 1 0 2 0 
2 0 2 0 1 0 2 0 2 0 2 0 1 0 2 0 
2 0 2 0 1 0 2 0 2 0 2 0 1 0 2 0 
2 0 1 0 2 0 2 0 2 0 1 0 2 0 2 0 
2 0 1 0 2 0 2 0 2 0 1 0 2 0 2 0 
2 0 1 0 2 0 2 0 2 0 1 0 2 0 2 0 
2 0 1 0 2 0 2 0 2 0 1 0 2 0 2 0 
2 0 1 0 2 0 2 0 2 0 1 0 2 0 2 0 
2 0 1 0 2 0 2 0 1 0 2 0 2 0 2 0 
1 0 2 0 2 0 2 0 1 0 2 0 2 0 2 0 
1 0 2 0 2 0 4702 940 100 MP stroke
2 0 1 0 2 0 2 0 2 0 1 0 2 0 2 0 
2 0 1 0 2 0 2 0 2 0 1 0 2 0 2 0 
2 0 1 0 2 0 2 0 2 0 1 0 2 0 2 0 
1 0 2 0 2 0 2 0 1 0 2 0 2 0 2 0 
1 0 2 0 2 0 2 0 1 0 2 0 2 0 2 0 
1 0 2 0 2 0 2 0 1 0 2 0 2 0 2 0 
1 0 2 0 2 0 2 0 1 0 2 0 2 0 2 0 
1 0 2 0 2 0 2 0 1 0 2 0 2 0 1 0 
2 0 2 0 2 0 1 0 2 0 2 0 2 0 1 0 
2 0 2 0 2 0 1 0 2 0 2 0 2 0 1 0 
2 0 2 0 2 0 1 0 2 0 2 0 2 0 1 0 
2 0 2 0 2 0 1 0 2 0 2 0 2 0 1 0 
2 0 2 0 2 0 4529 940 100 MP stroke
1 0 2 0 2 0 2 0 1 0 2 0 2 0 1 0 
2 0 2 0 2 0 1 0 2 0 2 0 2 0 1 0 
2 0 2 0 2 0 1 0 2 0 2 0 2 0 1 0 
2 0 2 0 2 0 1 0 2 0 2 0 2 0 1 0 
2 0 2 0 2 0 1 0 2 0 2 0 2 0 1 0 
2 0 2 0 2 0 1 0 2 0 2 0 1 0 2 0 
2 0 2 0 1 0 2 0 2 0 2 0 1 0 2 0 
2 0 2 0 1 0 2 0 2 0 2 0 1 0 2 0 
2 0 2 0 1 0 2 0 2 0 2 0 1 0 2 0 
2 0 2 0 1 0 2 0 2 0 2 0 1 0 2 0 
2 0 2 0 1 0 2 0 2 0 1 0 2 0 2 0 
2 0 1 0 2 0 2 0 2 0 1 0 2 0 2 0 
2 0 1 0 2 0 4357 940 100 MP stroke
2 0 2 0 1 0 2 0 2 0 2 0 1 0 2 0 
2 0 2 0 1 0 2 0 2 0 2 0 1 0 2 0 
2 0 2 0 1 0 2 0 2 0 2 0 1 0 2 0 
2 0 1 0 2 0 2 0 2 0 1 0 2 0 2 0 
2 0 1 0 2 0 2 0 2 0 1 0 2 0 2 0 
2 0 1 0 2 0 2 0 2 0 1 0 2 0 2 0 
2 0 1 0 2 0 2 0 2 0 1 0 2 0 2 0 
2 0 1 0 2 0 2 0 2 0 1 0 2 0 2 -154 
2 0 1 0 2 0 2 0 1 0 2 0 2 0 2 0 
1 0 2 0 2 0 2 0 1 0 2 0 2 0 2 0 
1 0 2 0 2 0 2 0 1 0 2 0 2 0 2 0 
1 0 2 0 2 0 2 0 1 0 2 0 2 0 2 0 
1 0 2 0 2 0 4184 1094 100 MP stroke
2 0 1 0 2 0 2 0 2 0 1 0 2 0 2 0 
1 0 2 0 2 0 2 0 1 0 2 0 2 0 2 0 
1 0 2 0 2 0 2 0 1 0 2 0 2 0 2 0 
1 0 2 0 2 0 2 0 1 0 2 0 2 0 2 0 
1 0 2 0 2 0 2 0 1 0 2 0 2 0 2 0 
1 0 2 0 2 0 2 0 1 0 2 0 2 0 1 0 
2 0 2 0 2 0 1 0 2 0 2 0 2 0 1 0 
2 0 2 0 2 0 1 0 2 0 2 0 2 0 1 0 
2 0 2 0 2 0 1 0 2 0 2 0 2 0 1 0 
2 0 2 0 2 0 1 0 2 0 2 0 2 0 1 0 
2 0 2 0 2 0 1 0 2 0 2 0 2 0 1 0 
2 0 2 0 1 0 2 0 2 0 2 0 1 0 2 0 
2 0 2 0 1 0 4012 1094 100 MP stroke
2 0 2 0 2 0 1 0 2 0 2 0 2 0 1 0 
2 0 2 0 2 0 1 0 2 0 2 0 2 0 1 0 
2 0 2 0 2 0 1 0 2 0 2 0 2 0 1 0 
2 0 2 0 2 0 1 0 2 0 2 0 1 0 2 0 
2 0 2 0 1 0 2 0 2 0 2 0 1 0 2 0 
2 0 2 0 1 0 2 0 2 0 2 0 1 0 2 0 
2 0 2 0 1 0 2 0 2 0 2 0 1 0 2 0 
2 0 2 0 1 0 2 0 2 0 2 0 1 0 2 0 
2 0 2 0 1 0 2 0 2 0 1 0 2 0 2 0 
2 0 1 0 2 0 2 0 2 0 1 0 2 0 2 0 
2 0 1 0 2 0 2 0 2 0 1 0 2 0 2 0 
2 0 1 0 2 0 2 0 2 0 1 0 2 0 2 0 
2 0 1 0 2 0 3839 1094 100 MP stroke
2 0 2 0 1 0 2 0 2 0 2 0 1 0 2 0 
2 0 1 0 2 0 2 0 2 0 1 0 2 0 2 0 
2 0 1 0 2 0 2 0 2 0 1 0 2 0 2 0 
2 0 1 0 2 0 2 0 2 0 1 0 2 0 2 0 
2 0 1 0 2 0 2 0 2 0 1 0 2 0 2 0 
2 0 1 0 2 0 2 0 2 0 1 0 2 0 2 0 
2 0 1 0 2 0 2 0 1 0 2 0 2 0 2 0 
1 0 2 0 2 0 2 0 1 0 2 0 2 0 2 0 
1 0 2 0 2 0 2 0 1 0 2 0 2 0 2 0 
1 0 2 0 2 0 2 0 1 0 2 0 2 0 2 0 
1 0 2 0 2 0 2 0 1 0 2 0 2 0 2 0 
1 0 2 0 2 0 1 0 2 0 2 0 2 0 1 0 
2 0 2 0 2 0 3666 1094 100 MP stroke
1 0 2 0 2 0 2 0 1 0 2 0 2 0 2 0 
1 0 2 0 2 0 2 0 1 0 2 0 2 0 2 0 
1 0 2 0 2 0 2 0 1 0 2 0 2 0 2 0 
1 0 2 0 2 0 2 0 1 0 2 0 2 0 1 0 
2 0 2 0 2 0 1 0 2 0 2 0 2 0 1 0 
2 0 2 0 2 0 1 0 2 0 2 0 2 0 1 0 
2 0 2 0 2 0 1 0 2 0 2 0 2 0 1 0 
2 0 2 0 2 0 1 0 2 0 2 0 2 0 1 0 
2 0 2 0 2 0 1 0 2 0 2 0 2 0 1 0 
2 0 2 0 1 0 2 0 2 0 2 0 1 0 2 0 
2 0 2 0 1 0 2 0 2 0 2 0 1 0 2 0 
2 0 2 0 1 0 2 0 2 0 2 0 1 0 2 0 
2 0 2 0 1 0 3494 1094 100 MP stroke
2 0 2 0 2 0 1 0 2 0 2 0 2 0 1 0 
2 0 2 0 2 0 1 0 2 0 2 0 1 0 2 0 
2 0 2 0 1 0 2 0 2 0 2 0 1 0 2 0 
2 0 2 0 1 0 2 0 2 0 2 0 1 0 2 0 
2 0 2 0 1 0 2 0 2 0 2 0 1 0 2 0 
2 0 2 0 1 0 2 0 2 0 2 0 1 0 2 0 
2 0 2 0 1 0 2 0 2 0 1 0 2 0 2 0 
2 0 1 0 2 0 2 0 2 0 1 0 2 0 2 0 
2 0 1 0 2 0 2 0 2 0 1 0 2 0 2 0 
2 0 1 0 2 0 2 0 2 0 1 0 2 0 2 0 
2 0 1 0 2 0 2 0 2 0 1 0 2 0 2 0 
2 0 1 0 2 0 2 0 2 0 1 0 2 0 2 0 
1 0 2 0 2 0 3321 1094 100 MP stroke
2 0 1 0 2 0 2 0 2 0 1 0 2 0 2 0 
2 0 1 0 2 0 2 0 2 0 1 0 2 0 2 0 
2 0 1 0 2 0 2 0 2 0 1 0 2 0 2 0 
2 0 1 0 2 0 2 0 2 0 1 0 2 0 2 0 
2 0 1 0 2 0 2 0 1 0 2 0 2 0 2 0 
1 0 2 0 2 0 2 0 1 0 2 0 2 0 2 0 
1 0 2 0 2 0 2 0 1 0 2 0 2 0 2 0 
1 0 2 0 2 0 2 0 1 0 2 0 2 0 2 0 
1 0 2 0 2 0 2 0 1 0 2 0 2 0 2 0 
1 0 2 0 2 0 1 0 2 0 2 0 2 0 1 0 
2 0 2 0 2 0 1 0 2 0 2 0 2 0 1 0 
2 0 2 0 2 0 1 0 2 0 2 0 2 0 1 0 
2 0 2 0 2 0 3148 1094 100 MP stroke
1 0 2 0 2 0 2 0 1 0 2 0 2 0 2 0 
1 0 2 0 2 0 2 0 1 0 2 0 2 0 1 0 
2 0 2 0 2 0 1 0 2 0 2 0 2 0 1 0 
2 0 2 0 2 0 1 0 2 0 2 0 2 0 1 0 
2 0 2 0 2 0 1 0 2 0 2 0 2 0 1 0 
2 0 2 0 2 0 1 0 2 0 2 0 2 0 1 0 
2 0 2 0 2 0 1 0 2 0 2 0 2 0 1 0 
2 0 2 0 1 0 2 0 2 0 2 0 1 0 2 0 
2 0 2 0 1 0 2 0 2 0 2 0 1 0 2 0 
2 0 2 0 1 0 2 0 2 0 2 0 1 0 2 0 
2 0 2 0 1 0 2 0 2 0 2 0 1 0 2 0 
2 0 2 0 1 0 2 0 2 0 2 0 1 0 2 0 
2 0 1 0 2 0 2976 1094 100 MP stroke
2 0 2 0 1 0 2 0 2 0 2 0 1 0 2 0 
2 0 2 0 1 0 2 0 2 0 2 0 1 0 2 0 
2 0 2 0 1 0 2 0 2 0 2 0 1 0 2 0 
2 0 2 0 1 0 2 0 2 0 2 0 1 0 2 0 
2 0 2 0 1 0 2 0 2 0 1 0 2 154 2 0 
2 0 1 0 2 0 2 0 2 0 1 0 2 0 2 0 
2 0 1 0 2 0 2 0 2 0 1 0 2 0 2 0 
2 0 1 0 2 0 2 0 2 0 1 0 2 0 2 0 
2 0 1 0 2 0 2 0 2 0 1 0 2 0 2 0 
2 0 1 0 2 0 2 0 2 0 1 0 2 0 2 0 
1 0 2 0 2 0 2 0 1 0 2 0 2 0 2 0 
1 0 2 0 2 0 2 0 1 0 2 0 2 0 2 0 
1 0 2 0 2 0 2803 940 100 MP stroke
2 0 1 0 2 0 2 0 2 0 1 0 2 0 2 0 
2 0 1 0 2 0 2 0 2 0 1 0 2 0 2 0 
2 0 1 0 2 0 2 0 1 0 2 0 2 0 2 0 
1 0 2 0 2 0 2 0 1 0 2 0 2 0 2 0 
1 0 2 0 2 0 2 0 1 0 2 0 2 0 2 0 
1 0 2 0 2 0 2 0 1 0 2 0 2 0 2 0 
1 0 2 0 2 0 2 0 1 0 2 0 2 0 2 0 
1 0 2 0 2 0 1 0 2 0 2 0 2 0 1 0 
2 0 2 0 2 0 1 0 2 0 2 0 2 0 1 0 
2 0 2 0 2 0 1 0 2 0 2 0 2 0 1 0 
2 0 2 0 2 0 1 0 2 0 2 0 2 0 1 0 
2 0 2 0 2 0 1 0 2 0 2 0 2 0 1 0 
2 0 2 0 1 0 2631 940 100 MP stroke
2 0 2 0 2 0 1 0 2 0 2 0 2 0 1 0 
2 0 2 0 2 0 1 0 2 0 2 0 2 0 1 0 
2 0 2 0 2 0 1 0 2 0 2 0 2 0 1 0 
2 0 2 0 2 0 1 0 2 0 2 0 2 0 1 0 
2 0 2 0 2 0 1 0 2 0 2 0 2 0 1 0 
2 0 2 0 1 0 2 0 2 0 2 0 1 0 2 0 
2 0 2 0 1 0 2 0 2 0 2 0 1 0 2 0 
2 0 2 0 1 0 2 0 2 0 2 0 1 0 2 0 
2 0 2 0 1 0 2 0 2 0 2 0 1 0 2 0 
2 0 2 0 1 0 2 0 2 0 2 0 1 0 2 0 
2 0 1 0 2 0 2 0 2 0 1 0 2 0 2 0 
2 0 1 0 2 0 2 0 2 0 1 0 2 0 2 0 
2 0 1 0 2 0 2458 940 100 MP stroke
2 0 2 0 1 0 2 0 2 0 2 0 1 0 2 0 
2 0 2 0 1 0 2 0 2 0 2 0 1 0 2 0 
2 0 2 0 1 0 2 0 2 0 1 0 2 0 2 0 
2 0 1 0 2 0 2 0 2 0 1 0 2 0 2 0 
2 0 1 0 2 0 2 0 2 0 1 0 2 0 2 0 
2 0 1 0 2 0 2 0 2 0 1 0 2 0 2 0 
2 0 1 0 2 0 2 0 2 0 1 0 2 0 2 0 
2 0 1 0 2 0 2 0 2 0 1 0 2 0 2 0 
1 0 2 0 2 0 2 0 1 0 2 0 2 0 2 0 
1 0 2 0 2 0 2 0 1 0 2 0 2 0 2 0 
1 0 2 0 2 0 2 0 1 0 2 0 2 0 2 0 
1 0 2 0 2 0 2 0 1 0 2 0 2 0 2 0 
1 0 2 0 2 0 2285 940 100 MP stroke
2 0 1 0 2 0 2 0 1 0 2 0 2 0 2 0 
1 0 2 0 2 0 2 0 1 0 2 0 2 0 2 0 
1 0 2 0 2 0 2 0 1 0 2 0 2 0 2 0 
1 0 2 0 2 -154 2 0 1 0 2 0 2 0 2 0 
1 0 2 0 2 0 2 0 1 0 2 0 2 0 2 0 
1 0 2 0 2 0 1 0 2 0 2 0 2 0 1 0 
2 0 2 0 2 0 1 0 2 0 2 0 2 0 1 0 
2 0 2 0 2 0 1 0 2 0 2 0 2 0 1 0 
2 0 2 0 2 0 1 0 2 0 2 0 2 0 1 0 
2 0 2 0 2 0 1 0 2 0 2 0 2 0 1 0 
2 0 2 0 1 0 2 0 2 0 2 0 1 0 2 0 
2 0 2 0 1 0 2 0 2 0 2 0 1 0 2 0 
2 0 2 0 1 0 2113 1094 100 MP stroke
2 0 2 0 2 0 1 0 2 0 2 0 2 0 1 0 
2 0 2 0 2 0 1 0 2 0 2 0 2 0 1 0 
2 0 2 0 2 0 1 0 2 0 2 0 2 0 1 0 
2 0 2 0 1 0 2 0 2 0 2 0 1 0 2 0 
2 0 2 0 1 0 2 0 2 0 2 0 1 0 2 0 
2 0 2 0 1 0 2 0 2 0 2 0 1 0 2 0 
2 0 2 0 1 0 2 0 2 0 2 0 1 0 2 0 
2 0 2 0 1 0 2 0 2 0 2 0 1 0 2 0 
2 0 1 0 2 0 2 0 2 0 1 0 2 0 2 0 
2 0 1 0 2 0 2 0 2 0 1 0 2 0 2 0 
2 0 1 0 2 0 2 0 2 0 1 0 2 0 2 0 
2 0 1 0 2 0 2 0 2 0 1 0 2 0 2 0 
2 0 1 0 2 0 1940 1094 100 MP stroke
2 0 2 0 1 0 2 0 2 0 1 0 2 0 2 0 
2 0 1 0 2 0 2 0 2 0 1 0 2 0 2 0 
2 0 1 0 2 0 2 0 2 0 1 0 2 0 2 0 
2 0 1 0 2 0 2 0 2 0 1 0 2 0 2 0 
2 0 1 0 2 0 2 0 2 0 1 0 2 0 2 0 
2 0 1 0 2 0 2 0 2 0 1 0 2 0 2 0 
1 0 2 0 2 0 2 0 1 0 2 0 2 0 2 0 
1 0 2 0 2 0 2 0 1 0 2 0 2 0 2 0 
1 0 2 0 2 0 2 0 1 0 2 0 2 0 2 0 
1 0 2 0 2 0 2 0 1 0 2 0 2 0 2 0 
1 0 2 0 2 0 2 0 1 0 2 0 2 0 1 0 
2 0 2 0 2 0 1 0 2 0 2 0 2 0 1 0 
2 0 2 0 2 0 1767 1094 100 MP stroke
1 0 2 0 2 0 2 0 1 0 2 0 2 0 2 0 
1 0 2 0 2 0 2 0 1 0 2 0 2 0 2 0 
1 0 2 0 2 0 2 0 1 0 2 0 2 0 2 0 
1 0 2 0 2 0 1 0 2 0 2 0 2 0 1 0 
2 0 2 0 2 0 1 0 2 0 2 0 2 0 1 0 
2 0 2 0 2 0 1 0 2 0 2 0 2 0 1 0 
2 0 2 0 2 0 1 0 2 0 2 0 2 0 1 0 
2 0 2 0 2 0 1 0 2 0 2 0 2 0 1 0 
2 0 2 0 1 0 2 0 2 0 2 0 1 0 2 0 
2 0 2 0 1 0 2 0 2 0 2 0 1 0 2 0 
2 0 2 0 1 0 2 0 2 0 2 0 1 0 2 0 
2 0 2 0 1 0 2 0 2 0 2 0 1 0 2 0 
2 0 2 0 1 0 1595 1094 100 MP stroke
2 0 2 0 2 0 1 0 2 0 2 0 2 0 1 0 
2 0 2 0 1 0 2 0 2 0 2 0 1 0 2 0 
2 0 2 0 1 0 2 0 2 0 2 0 1 0 2 0 
2 0 2 0 1 0 2 0 2 0 2 0 1 0 2 0 
2 0 2 0 1 0 2 0 2 0 2 0 1 0 2 0 
2 0 2 0 1 0 2 0 2 0 2 0 1 0 2 0 
2 0 1 0 2 0 2 0 2 0 1 0 2 0 2 0 
2 0 1 0 2 0 2 0 2 0 1 0 2 0 2 0 
2 0 1 0 2 0 2 0 2 0 1 0 2 0 2 0 
2 0 1 0 2 0 2 0 2 0 1 0 2 0 2 0 
2 0 1 0 2 0 2 0 2 0 1 0 2 0 2 0 
1 0 2 0 2 0 2 0 1 0 2 0 2 0 2 0 
1 0 2 0 2 0 1422 1094 100 MP stroke
2 0 1 0 2 0 2 0 2 0 1 0 2 0 2 0 
2 0 1 0 2 0 2 0 2 0 1 0 2 0 2 0 
2 0 1 0 2 0 2 0 2 0 1 0 2 0 2 0 
2 0 1 0 2 0 2 0 2 0 1 0 2 0 2 0 
1 0 2 0 2 0 2 0 1 0 2 0 2 0 2 0 
1 0 2 0 2 0 2 0 1 0 2 0 2 0 2 0 
1 0 2 0 2 0 2 0 1 0 2 0 2 0 2 0 
1 0 2 0 2 0 2 0 1 0 2 0 2 0 2 0 
1 0 2 0 2 0 2 0 1 0 2 0 2 0 1 0 
2 0 2 0 2 0 1 0 2 0 2 0 2 0 1 0 
2 0 2 0 2 0 1 0 2 0 2 0 2 0 1 0 
2 0 2 0 2 0 1 0 2 0 2 0 2 0 1 0 
2 0 2 0 2 0 1249 1094 100 MP stroke
1 0 2 0 2 0 2 0 1 0 2 0 2 0 2 0 
1 0 2 0 2 0 1 0 2 0 2 0 2 0 1 0 
2 0 2 0 2 0 1 0 2 0 2 0 2 0 1 0 
2 0 2 0 2 0 1 0 2 0 2 0 2 0 1 0 
2 0 2 0 2 0 1 0 2 0 2 0 2 0 1 0 
2 0 2 0 2 0 1 0 2 0 2 0 2 0 1 0 
2 0 2 0 1 0 2 0 2 0 2 0 1 0 2 0 
2 0 2 0 1 0 2 0 2 0 2 0 1 0 2 0 
2 0 2 0 1 0 2 0 2 0 2 0 1 0 2 0 
2 0 2 0 1 0 2 0 2 0 2 0 1 0 2 0 
2 0 2 0 1 0 2 0 2 0 2 0 1 0 2 0 
2 0 2 0 1 0 2 0 2 0 1 0 2 0 2 0 
2 0 1 0 2 0 1077 1094 100 MP stroke
2 0 2 0 1 0 2 0 2 0 2 0 1 0 2 0 
2 0 2 0 1 0 2 0 2 0 2 0 1 0 2 0 
2 0 2 0 1 0 2 0 2 0 2 0 1 0 2 0 
2 0 2 0 1 0 2 0 2 0 2 0 1 0 2 0 
2 0 1 0 2 0 2 0 2 0 1 0 2 0 2 0 
2 0 1 0 2 0 2 0 2 0 1 0 2 0 2 0 
2 0 1 0 2 0 2 0 2 0 1 0 2 0 2 0 
2 0 1 0 2 0 2 0 2 0 1 0 2 0 2 0 
2 0 1 0 2 0 2 0 2 0 1 0 2 0 2 0 
1 0 2 0 2 0 2 0 1 0 2 0 2 0 2 0 
1 0 2 0 2 0 2 0 1 0 2 0 2 0 2 0 
1 0 2 0 2 0 2 0 1 0 2 0 2 0 2 0 
1 0 2 0 2 0 904 1094 100 MP stroke
2 0 1 0 2 0 899 1094 4 MP stroke
gr

24 w
c10
0 sg
3559 1382 mt 
(f) s
 616  893 mt  -90 rotate
(|FT|) s
90 rotate
3168  386 mt 
(Input Spectrum) s
6 w
1 sg
0 613 5356 0 0 -613 899 2230 4 MP
PP
-5356 0 0 613 5356 0 0 -613 899 2230 5 MP stroke
4 w
DO
SO
6 w
0 sg
 899 1617 mt 6255 1617 L
 899 2230 mt 6255 2230 L
6255 2230 mt 6255 1617 L
 899 2230 mt  899 1617 L
 899 2230 mt 6255 2230 L
 899 2230 mt  899 1617 L
1066 2230 mt 1066 2176 L
1066 1617 mt 1066 1670 L
 930 2375 mt 
(-15) s
1903 2230 mt 1903 2176 L
1903 1617 mt 1903 1670 L
1767 2375 mt 
(-10) s
2740 2230 mt 2740 2176 L
2740 1617 mt 2740 1670 L
2637 2375 mt 
(-5) s
3577 2230 mt 3577 2176 L
3577 1617 mt 3577 1670 L
3544 2375 mt 
(0) s
4413 2230 mt 4413 2176 L
4413 1617 mt 4413 1670 L
4380 2375 mt 
(5) s
5250 2230 mt 5250 2176 L
5250 1617 mt 5250 1670 L
5184 2375 mt 
(10) s
6087 2230 mt 6087 2176 L
6087 1617 mt 6087 1670 L
6021 2375 mt 
(15) s
 899 2230 mt  952 2230 L
6255 2230 mt 6201 2230 L
 798 2274 mt 
(0) s
 899 1923 mt  952 1923 L
6255 1923 mt 6201 1923 L
 698 1967 mt 
(0.5) s
 899 1617 mt  952 1617 L
6255 1617 mt 6201 1617 L
 798 1661 mt 
(1) s
 899 1617 mt 6255 1617 L
 899 2230 mt 6255 2230 L
6255 2230 mt 6255 1617 L
 899 2230 mt  899 1617 L
gs 899 1617 5357 614 MR c np
24 w
c8
2 0 2 0 1 0 2 0 2 0 2 0 1 0 2 0 
2 0 2 0 1 0 2 0 2 0 2 0 1 0 2 0 
2 0 2 0 1 0 2 0 2 0 2 0 1 0 2 0 
2 0 2 0 1 0 2 0 2 0 2 0 1 0 2 0 
2 0 1 0 2 0 2 0 2 0 1 0 2 0 2 0 
2 0 1 0 2 0 2 0 2 0 1 0 2 0 2 0 
2 0 1 0 2 0 2 0 2 0 1 0 2 0 2 0 
2 0 1 0 2 0 2 0 2 0 1 0 2 0 2 0 
2 0 1 0 2 0 2 0 2 0 1 0 2 0 2 0 
1 0 2 0 2 0 2 0 1 0 2 0 2 0 2 0 
1 0 2 0 2 0 2 0 1 0 2 0 2 0 2 0 
1 0 2 0 2 0 2 0 1 0 2 0 2 0 2 0 
1 0 2 0 2 0 6083 2229 100 MP stroke
2 0 1 0 2 0 2 0 2 0 1 0 2 0 2 0 
2 0 1 0 2 0 2 0 1 0 2 0 2 0 2 0 
1 0 2 0 2 0 2 0 1 0 2 0 2 0 2 0 
1 0 2 0 2 0 2 0 1 0 2 0 2 0 2 0 
1 0 2 0 2 0 2 0 1 0 2 0 2 0 2 0 
1 0 2 0 2 0 2 0 1 0 2 0 2 0 2 0 
1 0 2 0 2 0 2 0 1 0 2 0 2 0 1 0 
2 0 2 0 2 0 1 0 2 0 2 0 2 0 1 0 
2 0 2 0 2 0 1 0 2 0 2 0 2 0 1 0 
2 0 2 0 2 0 1 0 2 0 2 0 2 0 1 0 
2 0 2 0 2 0 1 0 2 0 2 0 2 0 1 0 
2 0 2 0 2 0 1 0 2 0 2 0 1 0 2 0 
2 0 2 0 1 0 5911 2229 100 MP stroke
2 0 2 0 2 0 1 0 2 0 2 0 2 0 1 0 
2 0 2 0 2 0 1 0 2 0 2 0 2 0 1 0 
2 0 2 0 2 0 1 0 2 0 2 0 2 0 1 0 
2 0 2 0 2 0 1 0 2 0 2 0 2 0 1 0 
2 0 2 0 1 0 2 0 2 0 2 0 1 0 2 0 
2 0 2 0 1 0 2 0 2 0 2 0 1 0 2 0 
2 0 2 0 1 0 2 0 2 0 2 0 1 0 2 0 
2 0 2 0 1 0 2 0 2 0 2 0 1 0 2 0 
2 0 2 0 1 0 2 0 2 0 2 0 1 0 2 0 
2 0 1 0 2 0 2 0 2 0 1 0 2 0 2 0 
2 0 1 0 2 0 2 0 2 0 1 0 2 0 2 0 
2 0 1 0 2 0 2 0 2 0 1 0 2 0 2 0 
2 0 1 0 2 0 5738 2229 100 MP stroke
2 0 2 0 1 0 2 0 2 0 2 0 1 0 2 0 
2 0 2 0 1 0 2 0 2 0 2 0 1 0 2 0 
2 0 1 0 2 0 2 0 2 0 1 0 2 0 2 0 
2 0 1 0 2 0 2 0 2 0 1 0 2 0 2 0 
2 0 1 0 2 0 2 0 2 0 1 0 2 0 2 0 
2 0 1 0 2 0 2 0 2 0 1 0 2 0 2 0 
2 0 1 0 2 0 2 0 2 0 1 0 2 0 2 0 
1 0 2 0 2 0 2 0 1 0 2 0 2 0 2 0 
1 0 2 0 2 0 2 0 1 0 2 0 2 0 2 0 
1 0 2 0 2 0 2 0 1 0 2 0 2 0 2 0 
1 0 2 0 2 0 2 0 1 0 2 0 2 0 2 0 
1 0 2 0 2 0 2 0 1 0 2 0 2 0 1 0 
2 0 2 0 2 0 5565 2229 100 MP stroke
1 0 2 0 2 0 2 0 1 0 2 0 2 0 2 0 
1 0 2 0 2 0 2 0 1 0 2 0 2 0 2 0 
1 0 2 0 2 0 2 0 1 0 2 0 2 0 2 0 
1 0 2 0 2 0 2 0 1 0 2 0 2 0 2 0 
1 0 2 0 2 0 2 0 1 0 2 0 2 0 1 0 
2 0 2 0 2 0 1 0 2 0 2 0 2 0 1 0 
2 0 2 0 2 0 1 0 2 0 2 0 2 0 1 0 
2 0 2 0 2 0 1 0 2 0 2 0 2 0 1 0 
2 0 2 0 2 0 1 0 2 0 2 0 2 0 1 0 
2 0 2 0 2 0 1 0 2 0 2 0 1 0 2 0 
2 0 2 0 1 0 2 0 2 0 2 0 1 0 2 0 
2 0 2 0 1 0 2 0 2 0 2 0 1 0 2 0 
2 0 2 0 1 0 5393 2229 100 MP stroke
2 0 2 0 2 0 1 0 2 0 2 0 2 0 1 0 
2 0 2 0 2 0 1 0 2 0 2 0 2 0 1 0 
2 0 2 0 1 0 2 0 2 0 2 0 1 0 2 0 
2 0 2 0 1 0 2 0 2 0 2 0 1 0 2 0 
2 0 2 0 1 0 2 0 2 0 2 0 1 0 2 0 
2 0 2 0 1 0 2 0 2 0 2 0 1 0 2 0 
2 0 2 0 1 0 2 0 2 0 2 0 1 0 2 0 
2 0 1 0 2 0 2 0 2 0 1 0 2 0 2 0 
2 0 1 0 2 0 2 0 2 0 1 0 2 0 2 0 
2 0 1 0 2 0 2 0 2 0 1 0 2 0 2 0 
2 0 1 0 2 0 2 0 2 0 1 0 2 0 2 0 
2 0 1 0 2 0 2 0 2 0 1 0 2 0 2 0 
2 0 1 0 2 0 5220 2229 100 MP stroke
2 0 1 0 2 0 2 0 2 0 1 0 2 0 2 0 
2 0 1 0 2 0 2 0 2 0 1 0 2 0 2 0 
2 0 1 0 2 0 2 0 2 0 1 0 2 0 2 0 
2 0 1 0 2 0 2 0 2 0 1 0 2 0 2 0 
2 0 1 0 2 0 2 0 2 0 1 0 2 0 2 0 
1 0 2 0 2 0 2 0 1 0 2 0 2 0 2 0 
1 0 2 0 2 0 2 0 1 0 2 0 2 0 2 0 
1 0 2 0 2 0 2 0 1 0 2 0 2 0 2 0 
1 0 2 0 2 0 2 0 1 0 2 0 2 0 2 0 
1 0 2 0 2 0 2 0 1 0 2 0 2 0 1 0 
2 0 2 0 2 0 1 0 2 0 2 0 2 0 1 0 
2 0 2 0 2 0 1 0 2 0 2 0 2 0 1 0 
2 0 2 0 2 0 5047 2229 100 MP stroke
1 0 2 0 2 0 2 0 1 0 2 0 2 0 2 0 
1 0 2 0 2 0 2 0 1 0 2 0 2 0 2 0 
1 0 2 0 2 0 2 0 1 0 2 0 2 0 1 0 
2 0 2 0 2 0 1 0 2 0 2 0 2 0 1 0 
2 0 2 0 2 0 1 0 2 0 2 0 2 0 1 0 
2 0 2 0 2 0 1 0 2 0 2 0 2 0 1 0 
2 0 2 0 2 0 1 0 2 0 2 0 2 0 1 0 
2 0 2 0 2 0 1 0 2 0 2 0 1 0 2 0 
2 0 2 0 1 0 2 0 2 0 2 0 1 0 2 0 
2 0 2 0 1 0 2 0 2 0 2 0 1 0 2 0 
2 0 2 0 1 0 2 0 2 0 2 0 1 0 2 0 
2 0 2 0 1 0 2 0 2 0 2 0 1 0 2 0 
2 0 2 0 1 0 4875 2229 100 MP stroke
2 0 2 0 1 0 2 0 2 0 2 0 1 0 2 0 
2 0 2 0 1 0 2 0 2 0 2 0 1 0 2 0 
2 0 2 0 1 0 2 0 2 0 2 0 1 0 2 0 
2 0 2 0 1 0 2 0 2 0 2 0 1 0 2 0 
2 0 2 0 1 0 2 0 2 0 2 0 1 0 2 0 
2 0 1 0 2 0 2 0 2 0 1 0 2 0 2 0 
2 0 1 0 2 0 2 0 2 0 1 0 2 0 2 0 
2 0 1 0 2 0 2 0 2 0 1 0 2 0 2 0 
2 0 1 0 2 0 2 0 2 0 1 0 2 0 2 0 
2 0 1 0 2 0 2 0 2 0 1 0 2 0 2 0 
2 0 1 0 2 0 2 0 1 0 2 0 2 0 2 0 
1 0 2 0 2 0 2 0 1 0 2 0 2 0 2 0 
1 0 2 0 2 0 4702 2229 100 MP stroke
2 0 1 0 2 0 2 0 2 0 1 0 2 0 2 0 
2 0 1 0 2 0 2 0 2 0 1 0 2 0 2 0 
2 0 1 0 2 0 2 0 2 0 1 0 2 0 2 0 
1 0 2 0 2 0 2 0 1 0 2 0 2 0 2 0 
1 0 2 0 2 0 2 0 1 0 2 0 2 0 2 0 
1 0 2 0 2 0 2 0 1 0 2 0 2 0 2 0 
1 0 2 0 2 0 2 0 1 0 2 0 2 0 2 0 
1 0 2 0 2 0 2 0 1 0 2 0 2 0 1 0 
2 0 2 0 2 0 1 0 2 0 2 0 2 0 1 0 
2 0 2 0 2 0 1 0 2 0 2 0 2 0 1 0 
2 0 2 0 2 0 1 0 2 0 2 0 2 0 1 0 
2 0 2 0 2 0 1 0 2 0 2 0 2 0 1 0 
2 0 2 0 2 0 4529 2229 100 MP stroke
1 0 2 0 2 0 2 0 1 0 2 0 2 0 1 0 
2 0 2 0 2 0 1 0 2 0 2 0 2 0 1 0 
2 0 2 0 2 0 1 0 2 0 2 0 2 0 1 0 
2 0 2 0 2 0 1 0 2 0 2 0 2 0 1 0 
2 0 2 0 2 0 1 0 2 0 2 0 2 0 1 0 
2 0 2 0 2 0 1 0 2 0 2 0 1 0 2 0 
2 0 2 0 1 0 2 0 2 0 2 0 1 0 2 0 
2 0 2 0 1 0 2 0 2 0 2 0 1 0 2 0 
2 0 2 0 1 0 2 0 2 0 2 0 1 0 2 0 
2 0 2 0 1 0 2 0 2 0 2 0 1 0 2 0 
2 0 2 0 1 0 2 0 2 0 1 0 2 0 2 0 
2 1 1 -1 2 1 2 -1 2 1 1 -1 2 1 2 -1 
2 1 1 -1 2 1 4357 2228 100 MP stroke
2 -1 2 1 1 -1 2 1 2 -1 2 1 1 -1 2 1 
2 -1 2 1 1 -1 2 1 2 -1 2 1 1 -1 2 1 
2 -1 2 1 1 -1 2 1 2 -1 2 1 1 -1 2 2 
2 -2 1 2 2 -2 2 2 2 -2 1 2 2 -2 2 2 
2 -2 1 2 2 -2 2 3 2 -3 1 3 2 -3 2 3 
2 -3 1 4 2 -4 2 4 2 -4 1 5 2 -5 2 6 
2 -6 1 6 2 -6 2 8 2 -8 1 9 2 -9 2 12 
2 -12 1 16 2 -16 2 23 2 -23 1 43 2 -43 2 161 
2 164 1 45 2 -45 2 -25 1 25 2 17 2 -17 2 -13 
1 13 2 10 2 -10 2 -9 1 9 2 7 2 -7 2 -6 
1 5 2 6 2 -5 2 -5 1 4 2 5 2 -4 2 -4 
1 3 2 4 2 -3 2 -3 1 3 2 2 2 -2 2 -3 
1 3 2 1 2 -1 4184 1904 100 MP stroke
2 -2 1 2 2 1 2 -1 2 -1 1 1 2 0 2 0 
1 -1 2 1 2 0 2 0 1 0 2 0 2 -1 2 0 
1 1 2 0 2 -1 2 0 1 2 2 -1 2 -1 2 0 
1 2 2 -2 2 -1 2 2 1 1 2 -2 2 -1 2 2 
1 1 2 -2 2 -1 2 2 1 1 2 -2 2 -1 2 2 
1 1 2 -1 2 -2 2 2 1 1 2 -1 2 -2 1 2 
2 1 2 -1 2 -3 1 2 2 3 2 -2 2 -3 1 2 
2 3 2 -2 2 -3 1 2 2 3 2 -3 2 -2 1 3 
2 2 2 -3 2 -1 1 2 2 2 2 -3 2 -1 1 2 
2 1 2 -2 2 -1 1 2 2 1 2 -1 2 -2 1 1 
2 2 2 0 2 -3 1 1 2 2 2 0 2 -4 1 3 
2 1 2 0 1 -4 2 3 2 1 2 0 1 -4 2 3 
2 2 2 -3 1 -2 4012 1907 100 MP stroke
2 3 2 4 2 -8 1 3 2 0 2 8 2 -20 1 21 
2 -8 2 131 2 83 1 -85 2 -105 2 -160 2 -36 1 138 
2 139 2 80 2 -7 1 -82 2 -141 2 -140 2 63 1 157 
2 115 2 40 2 -41 1 -105 2 -162 2 -69 1 135 2 149 
2 80 2 2 1 -69 2 -132 2 -155 2 36 1 161 2 124 
2 45 2 -35 1 -99 2 -148 2 -99 2 119 1 155 2 96 
2 10 2 -78 1 -122 2 -135 2 -5 2 137 1 142 2 105 
2 -60 2 29 1 -61 2 -69 2 -146 2 -116 1 28 2 121 
2 126 2 67 1 23 2 -43 2 -93 1 -127 2 -114 2 51 
2 131 1 115 2 64 2 13 2 -50 1 -94 2 -136 2 -98 
2 67 1 137 2 104 2 65 2 -1 1 -49 2 -109 2 -124 
2 -95 1 88 2 133 2 104 2 54 1 -3 2 -61 2 -104 
2 -138 1 -71 2 104 3839 2010 100 MP stroke
2 128 2 99 1 48 2 -8 2 -67 2 -113 1 -129 2 -55 
2 109 1 130 2 94 2 42 2 -18 1 -70 2 -115 2 -135 
2 -35 1 126 2 122 2 91 2 32 1 -15 2 -87 2 -113 
2 -132 1 -4 2 115 2 123 2 95 1 24 2 -173 2 -20 
2 -13 1 20 2 -12 2 5 2 -7 1 11 2 -10 2 5 
2 -2 1 4 2 -5 2 2 2 1 1 -1 2 0 2 -1 
2 4 1 -6 2 5 2 -4 1 5 2 -7 2 -299 2 -1 
1 1 2 0 2 0 2 -1 1 0 2 0 2 1 2 0 
1 0 2 -1 2 0 2 0 1 1 2 -1 2 0 2 -1 
1 1 2 0 2 0 2 -1 1 0 2 0 2 0 2 0 
1 0 2 0 2 0 2 0 1 -1 2 0 2 0 2 0 
1 0 2 0 2 0 1 0 2 0 2 0 2 0 1 0 
2 0 2 0 2 0 3666 2229 100 MP stroke
1 0 2 0 2 0 2 0 1 0 2 0 2 0 2 0 
1 0 2 0 2 0 2 0 1 0 2 0 2 0 2 0 
1 0 2 0 2 0 2 0 1 0 2 0 2 0 2 0 
1 0 2 0 2 0 2 0 1 0 2 0 2 0 1 0 
2 0 2 0 2 0 1 0 2 0 2 0 2 0 1 0 
2 0 2 0 2 0 1 0 2 0 2 0 2 0 1 0 
2 0 2 0 2 0 1 0 2 0 2 0 2 0 1 0 
2 0 2 0 2 0 1 0 2 0 2 0 2 0 1 0 
2 0 2 0 2 0 1 0 2 0 2 0 2 0 1 0 
2 0 2 0 1 0 2 0 2 0 2 0 1 0 2 0 
2 0 2 0 1 0 2 0 2 0 2 0 1 0 2 0 
2 0 2 0 1 0 2 0 2 0 2 0 1 0 2 0 
2 0 2 0 1 0 3494 2229 100 MP stroke
2 0 2 0 2 0 1 0 2 0 2 0 2 0 1 0 
2 0 2 0 2 0 1 0 2 0 2 0 1 0 2 0 
2 0 2 1 1 0 2 0 2 0 2 0 1 0 2 0 
2 0 2 0 1 1 2 0 2 0 2 -1 1 1 2 0 
2 1 2 -1 1 0 2 0 2 1 2 0 1 0 2 -1 
2 0 2 0 1 1 2 0 2 0 2 -1 1 1 2 299 
2 7 2 -5 1 4 2 -5 2 6 1 -4 2 1 2 0 
2 1 1 -1 2 -2 2 5 2 -4 1 2 2 -5 2 10 
2 -11 1 7 2 -5 2 12 2 -20 1 13 2 20 2 173 
2 -24 1 -95 2 -123 2 -115 2 4 1 132 2 113 2 87 
2 15 1 -32 2 -91 2 -122 2 -126 1 35 2 135 2 115 
2 70 1 18 2 -42 2 -94 2 -130 1 -109 2 55 2 129 
1 113 2 67 2 8 3321 1735 100 MP stroke
2 -48 1 -99 2 -128 2 -104 2 71 1 138 2 104 2 61 
2 3 1 -54 2 -104 2 -133 2 -88 1 95 2 124 2 109 
2 49 1 1 2 -65 2 -104 2 -137 1 -67 2 98 2 136 
2 94 1 50 2 -13 2 -64 2 -115 1 -131 2 -51 2 114 
2 127 1 93 2 43 2 -23 1 -67 2 -126 2 -121 2 -28 
1 116 2 146 2 69 2 61 1 -29 2 60 2 -105 2 -142 
1 -137 2 5 2 135 2 122 1 78 2 -10 2 -96 2 -155 
1 -119 2 99 2 148 2 99 1 35 2 -45 2 -124 2 -161 
1 -36 2 155 2 132 2 69 1 -2 2 -80 2 -149 2 -135 
1 69 2 162 2 105 1 41 2 -40 2 -115 2 -157 1 -63 
2 140 2 141 2 82 1 7 2 -80 2 -139 2 -138 1 36 
2 160 2 105 2 85 1 -83 2 -131 2 8 2 -21 1 20 
2 -8 2 0 2 -3 3148 1908 100 MP stroke
1 8 2 -4 2 -3 2 2 1 3 2 -2 2 -3 2 4 
1 0 2 -1 2 -3 2 4 1 0 2 -1 2 -3 1 4 
2 0 2 -2 2 -1 1 3 2 0 2 -2 2 -1 1 2 
2 1 2 -1 2 -2 1 1 2 2 2 -1 2 -2 1 1 
2 3 2 -2 2 -2 1 1 2 3 2 -2 2 -3 1 2 
2 3 2 -3 2 -2 1 3 2 2 2 -3 2 -2 1 3 
2 2 2 -3 2 -2 1 3 2 1 2 -1 2 -2 1 2 
2 1 2 -1 1 -2 2 2 2 1 2 -1 1 -2 2 1 
2 2 2 -1 1 -2 2 1 2 2 2 -1 1 -2 2 1 
2 2 2 -1 1 -2 2 1 2 2 2 -2 1 0 2 1 
2 1 2 -2 1 0 2 1 2 0 2 -1 1 0 2 1 
2 0 2 0 1 0 2 0 2 -1 2 1 1 0 2 0 
2 -1 1 1 2 1 2976 1903 100 MP stroke
2 -1 2 -2 1 2 2 1 2 -1 2 -3 1 3 2 2 
2 -2 2 -3 1 3 2 3 2 -4 2 -3 1 4 2 4 
2 -5 2 -4 1 5 2 5 2 -6 2 -5 1 6 2 7 
2 -7 2 -9 1 9 2 10 2 -10 2 -13 1 13 2 17 
2 -17 2 -25 1 25 2 45 2 -45 1 -164 2 -161 2 43 
2 -43 1 23 2 -23 2 16 2 -16 1 12 2 -12 2 9 
2 -9 1 8 2 -8 2 6 2 -6 1 6 2 -6 2 5 
2 -5 1 4 2 -4 2 4 2 -4 1 3 2 -3 2 3 
2 -3 1 3 2 -3 2 2 2 -2 1 2 2 -2 2 2 
2 -2 1 2 2 -2 2 2 2 -2 1 2 2 -2 2 1 
1 -1 2 1 2 -1 2 1 1 -1 2 1 2 -1 2 1 
1 -1 2 1 2 -1 2 1 1 -1 2 1 2 -1 2 1 
1 -1 2 1 2 -1 2803 2229 100 MP stroke
2 1 1 -1 2 1 2 -1 2 1 1 -1 2 1 2 -1 
2 1 1 -1 2 1 2 -1 2 1 1 -1 2 0 2 0 
2 0 1 0 2 0 2 0 1 0 2 0 2 0 2 0 
1 0 2 0 2 0 2 0 1 0 2 0 2 0 2 0 
1 0 2 0 2 0 2 0 1 0 2 0 2 0 2 0 
1 0 2 0 2 0 2 0 1 0 2 0 2 0 2 0 
1 0 2 0 2 0 2 0 1 0 2 0 2 0 2 0 
1 0 2 0 2 0 1 0 2 0 2 0 2 0 1 0 
2 0 2 0 2 0 1 0 2 0 2 0 2 0 1 0 
2 0 2 0 2 0 1 0 2 0 2 0 2 0 1 0 
2 0 2 0 2 0 1 0 2 0 2 0 2 0 1 0 
2 0 2 0 2 0 1 0 2 0 2 0 2 0 1 0 
2 0 2 0 1 0 2631 2229 100 MP stroke
2 0 2 0 2 0 1 0 2 0 2 0 2 0 1 0 
2 0 2 0 2 0 1 0 2 0 2 0 2 0 1 0 
2 0 2 0 2 0 1 0 2 0 2 0 2 0 1 0 
2 0 2 0 2 0 1 0 2 0 2 0 2 0 1 0 
2 0 2 0 2 0 1 0 2 0 2 0 2 0 1 0 
2 0 2 0 1 0 2 0 2 0 2 0 1 0 2 0 
2 0 2 0 1 0 2 0 2 0 2 0 1 0 2 0 
2 0 2 0 1 0 2 0 2 0 2 0 1 0 2 0 
2 0 2 0 1 0 2 0 2 0 2 0 1 0 2 0 
2 0 2 0 1 0 2 0 2 0 2 0 1 0 2 0 
2 0 1 0 2 0 2 0 2 0 1 0 2 0 2 0 
2 0 1 0 2 0 2 0 2 0 1 0 2 0 2 0 
2 0 1 0 2 0 2458 2229 100 MP stroke
2 0 2 0 1 0 2 0 2 0 2 0 1 0 2 0 
2 0 2 0 1 0 2 0 2 0 2 0 1 0 2 0 
2 0 2 0 1 0 2 0 2 0 1 0 2 0 2 0 
2 0 1 0 2 0 2 0 2 0 1 0 2 0 2 0 
2 0 1 0 2 0 2 0 2 0 1 0 2 0 2 0 
2 0 1 0 2 0 2 0 2 0 1 0 2 0 2 0 
2 0 1 0 2 0 2 0 2 0 1 0 2 0 2 0 
2 0 1 0 2 0 2 0 2 0 1 0 2 0 2 0 
1 0 2 0 2 0 2 0 1 0 2 0 2 0 2 0 
1 0 2 0 2 0 2 0 1 0 2 0 2 0 2 0 
1 0 2 0 2 0 2 0 1 0 2 0 2 0 2 0 
1 0 2 0 2 0 2 0 1 0 2 0 2 0 2 0 
1 0 2 0 2 0 2285 2229 100 MP stroke
2 0 1 0 2 0 2 0 1 0 2 0 2 0 2 0 
1 0 2 0 2 0 2 0 1 0 2 0 2 0 2 0 
1 0 2 0 2 0 2 0 1 0 2 0 2 0 2 0 
1 0 2 0 2 0 2 0 1 0 2 0 2 0 2 0 
1 0 2 0 2 0 2 0 1 0 2 0 2 0 2 0 
1 0 2 0 2 0 1 0 2 0 2 0 2 0 1 0 
2 0 2 0 2 0 1 0 2 0 2 0 2 0 1 0 
2 0 2 0 2 0 1 0 2 0 2 0 2 0 1 0 
2 0 2 0 2 0 1 0 2 0 2 0 2 0 1 0 
2 0 2 0 2 0 1 0 2 0 2 0 2 0 1 0 
2 0 2 0 1 0 2 0 2 0 2 0 1 0 2 0 
2 0 2 0 1 0 2 0 2 0 2 0 1 0 2 0 
2 0 2 0 1 0 2113 2229 100 MP stroke
2 0 2 0 2 0 1 0 2 0 2 0 2 0 1 0 
2 0 2 0 2 0 1 0 2 0 2 0 2 0 1 0 
2 0 2 0 2 0 1 0 2 0 2 0 2 0 1 0 
2 0 2 0 1 0 2 0 2 0 2 0 1 0 2 0 
2 0 2 0 1 0 2 0 2 0 2 0 1 0 2 0 
2 0 2 0 1 0 2 0 2 0 2 0 1 0 2 0 
2 0 2 0 1 0 2 0 2 0 2 0 1 0 2 0 
2 0 2 0 1 0 2 0 2 0 2 0 1 0 2 0 
2 0 1 0 2 0 2 0 2 0 1 0 2 0 2 0 
2 0 1 0 2 0 2 0 2 0 1 0 2 0 2 0 
2 0 1 0 2 0 2 0 2 0 1 0 2 0 2 0 
2 0 1 0 2 0 2 0 2 0 1 0 2 0 2 0 
2 0 1 0 2 0 1940 2229 100 MP stroke
2 0 2 0 1 0 2 0 2 0 1 0 2 0 2 0 
2 0 1 0 2 0 2 0 2 0 1 0 2 0 2 0 
2 0 1 0 2 0 2 0 2 0 1 0 2 0 2 0 
2 0 1 0 2 0 2 0 2 0 1 0 2 0 2 0 
2 0 1 0 2 0 2 0 2 0 1 0 2 0 2 0 
2 0 1 0 2 0 2 0 2 0 1 0 2 0 2 0 
1 0 2 0 2 0 2 0 1 0 2 0 2 0 2 0 
1 0 2 0 2 0 2 0 1 0 2 0 2 0 2 0 
1 0 2 0 2 0 2 0 1 0 2 0 2 0 2 0 
1 0 2 0 2 0 2 0 1 0 2 0 2 0 2 0 
1 0 2 0 2 0 2 0 1 0 2 0 2 0 1 0 
2 0 2 0 2 0 1 0 2 0 2 0 2 0 1 0 
2 0 2 0 2 0 1767 2229 100 MP stroke
1 0 2 0 2 0 2 0 1 0 2 0 2 0 2 0 
1 0 2 0 2 0 2 0 1 0 2 0 2 0 2 0 
1 0 2 0 2 0 2 0 1 0 2 0 2 0 2 0 
1 0 2 0 2 0 1 0 2 0 2 0 2 0 1 0 
2 0 2 0 2 0 1 0 2 0 2 0 2 0 1 0 
2 0 2 0 2 0 1 0 2 0 2 0 2 0 1 0 
2 0 2 0 2 0 1 0 2 0 2 0 2 0 1 0 
2 0 2 0 2 0 1 0 2 0 2 0 2 0 1 0 
2 0 2 0 1 0 2 0 2 0 2 0 1 0 2 0 
2 0 2 0 1 0 2 0 2 0 2 0 1 0 2 0 
2 0 2 0 1 0 2 0 2 0 2 0 1 0 2 0 
2 0 2 0 1 0 2 0 2 0 2 0 1 0 2 0 
2 0 2 0 1 0 1595 2229 100 MP stroke
2 0 2 0 2 0 1 0 2 0 2 0 2 0 1 0 
2 0 2 0 1 0 2 0 2 0 2 0 1 0 2 0 
2 0 2 0 1 0 2 0 2 0 2 0 1 0 2 0 
2 0 2 0 1 0 2 0 2 0 2 0 1 0 2 0 
2 0 2 0 1 0 2 0 2 0 2 0 1 0 2 0 
2 0 2 0 1 0 2 0 2 0 2 0 1 0 2 0 
2 0 1 0 2 0 2 0 2 0 1 0 2 0 2 0 
2 0 1 0 2 0 2 0 2 0 1 0 2 0 2 0 
2 0 1 0 2 0 2 0 2 0 1 0 2 0 2 0 
2 0 1 0 2 0 2 0 2 0 1 0 2 0 2 0 
2 0 1 0 2 0 2 0 2 0 1 0 2 0 2 0 
1 0 2 0 2 0 2 0 1 0 2 0 2 0 2 0 
1 0 2 0 2 0 1422 2229 100 MP stroke
2 0 1 0 2 0 2 0 2 0 1 0 2 0 2 0 
2 0 1 0 2 0 2 0 2 0 1 0 2 0 2 0 
2 0 1 0 2 0 2 0 2 0 1 0 2 0 2 0 
2 0 1 0 2 0 2 0 2 0 1 0 2 0 2 0 
1 0 2 0 2 0 2 0 1 0 2 0 2 0 2 0 
1 0 2 0 2 0 2 0 1 0 2 0 2 0 2 0 
1 0 2 0 2 0 2 0 1 0 2 0 2 0 2 0 
1 0 2 0 2 0 2 0 1 0 2 0 2 0 2 0 
1 0 2 0 2 0 2 0 1 0 2 0 2 0 1 0 
2 0 2 0 2 0 1 0 2 0 2 0 2 0 1 0 
2 0 2 0 2 0 1 0 2 0 2 0 2 0 1 0 
2 0 2 0 2 0 1 0 2 0 2 0 2 0 1 0 
2 0 2 0 2 0 1249 2229 100 MP stroke
1 0 2 0 2 0 2 0 1 0 2 0 2 0 2 0 
1 0 2 0 2 0 1 0 2 0 2 0 2 0 1 0 
2 0 2 0 2 0 1 0 2 0 2 0 2 0 1 0 
2 0 2 0 2 0 1 0 2 0 2 0 2 0 1 0 
2 0 2 0 2 0 1 0 2 0 2 0 2 0 1 0 
2 0 2 0 2 0 1 0 2 0 2 0 2 0 1 0 
2 0 2 0 1 0 2 0 2 0 2 0 1 0 2 0 
2 0 2 0 1 0 2 0 2 0 2 0 1 0 2 0 
2 0 2 0 1 0 2 0 2 0 2 0 1 0 2 0 
2 0 2 0 1 0 2 0 2 0 2 0 1 0 2 0 
2 0 2 0 1 0 2 0 2 0 2 0 1 0 2 0 
2 0 2 0 1 0 2 0 2 0 1 0 2 0 2 0 
2 0 1 0 2 0 1077 2229 100 MP stroke
2 0 2 0 1 0 2 0 2 0 2 0 1 0 2 0 
2 0 2 0 1 0 2 0 2 0 2 0 1 0 2 0 
2 0 2 0 1 0 2 0 2 0 2 0 1 0 2 0 
2 0 2 0 1 0 2 0 2 0 2 0 1 0 2 0 
2 0 1 0 2 0 2 0 2 0 1 0 2 0 2 0 
2 0 1 0 2 0 2 0 2 0 1 0 2 0 2 0 
2 0 1 0 2 0 2 0 2 0 1 0 2 0 2 0 
2 0 1 0 2 0 2 0 2 0 1 0 2 0 2 0 
2 0 1 0 2 0 2 0 2 0 1 0 2 0 2 0 
1 0 2 0 2 0 2 0 1 0 2 0 2 0 2 0 
1 0 2 0 2 0 2 0 1 0 2 0 2 0 2 0 
1 0 2 0 2 0 2 0 1 0 2 0 2 0 2 0 
1 0 2 0 2 0 904 2229 100 MP stroke
2 0 1 0 2 0 899 2229 4 MP stroke
gr

24 w
c8
0 sg
3559 2518 mt 
(f) s
 616 2029 mt  -90 rotate
(|FT|) s
90 rotate
2953 1522 mt 
(Output Spectrum \(k'=1\)) s
6 w
1 sg
0 612 5356 0 0 -612 899 3365 4 MP
PP
-5356 0 0 612 5356 0 0 -612 899 3365 5 MP stroke
4 w
DO
SO
6 w
0 sg
 899 2753 mt 6255 2753 L
 899 3365 mt 6255 3365 L
6255 3365 mt 6255 2753 L
 899 3365 mt  899 2753 L
 899 3365 mt 6255 3365 L
 899 3365 mt  899 2753 L
1066 3365 mt 1066 3311 L
1066 2753 mt 1066 2806 L
 930 3510 mt 
(-15) s
1903 3365 mt 1903 3311 L
1903 2753 mt 1903 2806 L
1767 3510 mt 
(-10) s
2740 3365 mt 2740 3311 L
2740 2753 mt 2740 2806 L
2637 3510 mt 
(-5) s
3577 3365 mt 3577 3311 L
3577 2753 mt 3577 2806 L
3544 3510 mt 
(0) s
4413 3365 mt 4413 3311 L
4413 2753 mt 4413 2806 L
4380 3510 mt 
(5) s
5250 3365 mt 5250 3311 L
5250 2753 mt 5250 2806 L
5184 3510 mt 
(10) s
6087 3365 mt 6087 3311 L
6087 2753 mt 6087 2806 L
6021 3510 mt 
(15) s
 899 3365 mt  952 3365 L
6255 3365 mt 6201 3365 L
 798 3409 mt 
(0) s
 899 3059 mt  952 3059 L
6255 3059 mt 6201 3059 L
 698 3103 mt 
(0.5) s
 899 2753 mt  952 2753 L
6255 2753 mt 6201 2753 L
 798 2797 mt 
(1) s
 899 2753 mt 6255 2753 L
 899 3365 mt 6255 3365 L
6255 3365 mt 6255 2753 L
 899 3365 mt  899 2753 L
gs 899 2753 5357 613 MR c np
24 w
c9
2 0 2 0 1 0 2 0 2 0 2 0 1 0 2 0 
2 0 2 0 1 0 2 0 2 0 2 0 1 0 2 0 
2 0 2 0 1 0 2 0 2 0 2 0 1 0 2 0 
2 0 2 0 1 0 2 0 2 0 2 0 1 0 2 0 
2 0 1 0 2 0 2 0 2 0 1 0 2 0 2 0 
2 0 1 0 2 0 2 0 2 0 1 0 2 0 2 0 
2 0 1 0 2 0 2 0 2 0 1 0 2 0 2 0 
2 0 1 0 2 0 2 0 2 0 1 0 2 0 2 0 
2 0 1 0 2 0 2 0 2 0 1 0 2 0 2 0 
1 0 2 0 2 0 2 0 1 0 2 0 2 0 2 0 
1 0 2 0 2 0 2 0 1 0 2 0 2 0 2 0 
1 0 2 0 2 0 2 0 1 0 2 0 2 0 2 0 
1 0 2 0 2 0 6083 3364 100 MP stroke
2 0 1 0 2 0 2 0 2 0 1 0 2 0 2 0 
2 0 1 0 2 0 2 0 1 0 2 0 2 0 2 0 
1 0 2 0 2 0 2 0 1 0 2 0 2 0 2 0 
1 0 2 0 2 0 2 0 1 0 2 0 2 0 2 0 
1 0 2 0 2 0 2 0 1 0 2 0 2 0 2 0 
1 0 2 0 2 0 2 0 1 0 2 0 2 0 2 0 
1 0 2 0 2 0 2 0 1 0 2 0 2 0 1 0 
2 0 2 0 2 0 1 0 2 0 2 0 2 0 1 0 
2 0 2 0 2 0 1 0 2 0 2 0 2 0 1 0 
2 0 2 0 2 0 1 0 2 0 2 0 2 0 1 0 
2 0 2 0 2 0 1 0 2 0 2 0 2 0 1 0 
2 0 2 0 2 0 1 0 2 0 2 0 1 0 2 0 
2 0 2 0 1 0 5911 3364 100 MP stroke
2 0 2 0 2 0 1 0 2 0 2 0 2 0 1 0 
2 0 2 0 2 0 1 0 2 0 2 0 2 0 1 0 
2 0 2 0 2 0 1 0 2 0 2 0 2 0 1 0 
2 0 2 0 2 0 1 0 2 0 2 0 2 0 1 0 
2 0 2 0 1 0 2 0 2 0 2 0 1 0 2 0 
2 0 2 0 1 0 2 0 2 0 2 0 1 0 2 0 
2 0 2 0 1 0 2 0 2 0 2 0 1 0 2 0 
2 0 2 0 1 0 2 0 2 0 2 0 1 0 2 0 
2 0 2 0 1 0 2 0 2 0 2 0 1 0 2 0 
2 0 1 0 2 0 2 0 2 0 1 0 2 0 2 0 
2 0 1 0 2 0 2 0 2 0 1 0 2 0 2 0 
2 0 1 0 2 0 2 0 2 0 1 0 2 0 2 0 
2 0 1 0 2 0 5738 3364 100 MP stroke
2 0 2 0 1 0 2 0 2 0 2 0 1 0 2 0 
2 0 2 0 1 0 2 0 2 0 2 0 1 0 2 0 
2 0 1 0 2 0 2 0 2 0 1 0 2 0 2 0 
2 0 1 0 2 0 2 0 2 0 1 0 2 0 2 0 
2 0 1 0 2 0 2 0 2 0 1 0 2 0 2 0 
2 0 1 0 2 0 2 0 2 0 1 0 2 0 2 0 
2 0 1 0 2 0 2 0 2 0 1 0 2 0 2 0 
1 0 2 0 2 0 2 0 1 0 2 0 2 0 2 0 
1 0 2 0 2 0 2 0 1 0 2 0 2 0 2 0 
1 0 2 0 2 0 2 0 1 0 2 0 2 0 2 0 
1 0 2 0 2 0 2 0 1 0 2 0 2 0 2 0 
1 0 2 0 2 0 2 0 1 0 2 0 2 0 1 0 
2 0 2 0 2 0 5565 3364 100 MP stroke
1 0 2 0 2 0 2 0 1 0 2 0 2 0 2 0 
1 0 2 0 2 0 2 0 1 0 2 0 2 0 2 0 
1 0 2 0 2 0 2 0 1 0 2 0 2 0 2 0 
1 0 2 0 2 0 2 0 1 0 2 0 2 0 2 0 
1 0 2 0 2 0 2 0 1 0 2 0 2 0 1 0 
2 0 2 0 2 0 1 0 2 0 2 0 2 0 1 0 
2 0 2 0 2 0 1 0 2 0 2 0 2 0 1 0 
2 0 2 0 2 0 1 0 2 0 2 0 2 0 1 0 
2 0 2 0 2 0 1 0 2 0 2 0 2 0 1 0 
2 0 2 0 2 0 1 0 2 0 2 0 1 0 2 0 
2 0 2 0 1 0 2 0 2 0 2 0 1 0 2 0 
2 0 2 0 1 0 2 0 2 0 2 0 1 0 2 0 
2 0 2 0 1 0 5393 3364 100 MP stroke
2 0 2 0 2 0 1 0 2 0 2 0 2 0 1 0 
2 0 2 0 2 0 1 0 2 0 2 0 2 0 1 0 
2 0 2 0 1 0 2 0 2 0 2 0 1 0 2 0 
2 0 2 0 1 0 2 0 2 0 2 0 1 0 2 0 
2 0 2 0 1 0 2 0 2 0 2 0 1 0 2 0 
2 0 2 0 1 0 2 0 2 0 2 0 1 0 2 0 
2 0 2 0 1 0 2 0 2 0 2 0 1 0 2 0 
2 0 1 0 2 0 2 0 2 0 1 0 2 0 2 0 
2 0 1 0 2 0 2 0 2 0 1 0 2 0 2 0 
2 0 1 0 2 0 2 0 2 0 1 0 2 0 2 0 
2 0 1 0 2 0 2 0 2 0 1 0 2 0 2 0 
2 0 1 0 2 0 2 0 2 0 1 0 2 0 2 0 
2 0 1 0 2 0 5220 3364 100 MP stroke
2 0 1 0 2 0 2 0 2 0 1 0 2 0 2 0 
2 0 1 0 2 0 2 0 2 0 1 0 2 0 2 0 
2 0 1 0 2 0 2 0 2 0 1 0 2 0 2 0 
2 0 1 0 2 0 2 0 2 0 1 0 2 0 2 0 
2 0 1 0 2 0 2 0 2 0 1 0 2 0 2 0 
1 0 2 0 2 0 2 0 1 0 2 0 2 0 2 0 
1 0 2 0 2 0 2 0 1 0 2 0 2 0 2 0 
1 0 2 0 2 0 2 0 1 0 2 0 2 0 2 0 
1 0 2 0 2 0 2 0 1 0 2 0 2 0 2 0 
1 0 2 0 2 0 2 0 1 0 2 0 2 0 1 0 
2 0 2 0 2 0 1 0 2 0 2 0 2 0 1 0 
2 0 2 0 2 0 1 0 2 0 2 0 2 0 1 0 
2 0 2 0 2 0 5047 3364 100 MP stroke
1 0 2 0 2 0 2 0 1 0 2 0 2 0 2 0 
1 0 2 0 2 0 2 0 1 0 2 0 2 0 2 1 
1 -1 2 1 2 -1 2 1 1 -1 2 1 2 -1 1 1 
2 -1 2 1 2 -1 1 1 2 -1 2 1 2 -1 1 1 
2 -1 2 1 2 -1 1 1 2 -1 2 1 2 -1 1 1 
2 -1 2 1 2 -1 1 2 2 -2 2 2 2 -2 1 2 
2 -2 2 2 2 -2 1 2 2 -2 2 3 2 -3 1 3 
2 -3 2 3 2 -3 1 4 2 -4 2 4 1 -4 2 5 
2 -5 2 7 1 -7 2 8 2 -8 2 11 1 -11 2 17 
2 -17 2 31 1 -31 2 114 2 115 2 32 1 -32 2 -18 
2 18 2 12 1 -12 2 -9 2 9 2 7 1 -7 2 -6 
2 6 2 5 1 -5 2 -5 2 5 2 4 1 -4 2 -4 
2 4 2 3 1 -3 4875 3135 100 MP stroke
2 -3 2 3 1 3 2 -3 2 -3 2 3 1 2 2 -2 
2 -2 2 2 1 2 2 -2 2 -2 2 2 1 2 2 -2 
2 -2 2 2 1 2 2 -2 2 -1 2 1 1 1 2 -1 
2 -1 2 1 1 1 2 -1 2 -1 2 1 1 1 2 -1 
2 -1 2 1 1 1 2 -1 2 -1 2 1 1 1 2 -1 
2 -1 1 1 2 1 2 -1 2 -1 1 1 2 0 2 0 
2 0 1 0 2 0 2 0 2 0 1 0 2 0 2 0 
2 0 1 0 2 0 2 0 2 0 1 0 2 0 2 0 
2 0 1 0 2 0 2 0 2 0 1 0 2 0 2 0 
2 0 1 0 2 0 2 0 2 0 1 0 2 0 2 0 
2 0 1 0 2 0 2 0 1 0 2 0 2 0 2 0 
1 0 2 0 2 0 2 0 1 0 2 0 2 0 2 0 
1 0 2 0 2 0 4702 3135 100 MP stroke
2 0 1 0 2 0 2 0 2 0 1 0 2 0 2 0 
2 0 1 1 2 -1 2 0 2 0 1 1 2 -1 2 -1 
2 1 1 1 2 -1 2 -1 2 1 1 1 2 -1 2 -1 
1 1 2 1 2 -1 2 -1 1 1 2 1 2 -1 2 -1 
1 1 2 1 2 -1 2 -1 1 1 2 1 2 -1 2 -1 
1 1 2 1 2 -1 2 -1 1 1 2 1 2 -1 2 -1 
1 1 2 1 2 -1 2 -1 1 1 2 1 2 -1 2 -1 
1 1 2 1 2 -1 2 -1 1 1 2 1 2 -1 1 -1 
2 1 2 1 2 -1 1 -1 2 1 2 1 2 -1 1 -1 
2 1 2 1 2 -1 1 -1 2 1 2 1 2 -1 1 -1 
2 1 2 1 2 -1 1 -1 2 1 2 1 2 -1 1 0 
2 0 2 1 2 -1 1 -1 2 1 2 1 2 -1 1 -1 
2 1 2 1 2 -1 4529 3135 100 MP stroke
1 -1 2 1 2 1 2 -1 1 -1 2 1 2 1 1 -1 
2 -1 2 1 2 1 1 -1 2 -1 2 1 2 1 1 -1 
2 -1 2 1 2 1 1 -1 2 -1 2 1 2 1 1 -1 
2 0 2 0 2 1 1 -2 2 1 2 0 2 1 1 -1 
2 0 2 0 2 0 1 0 2 0 2 0 2 0 1 0 
2 0 2 0 2 0 1 1 2 -2 2 1 1 0 2 1 
2 -2 2 1 1 0 2 1 2 -3 2 2 1 1 2 -1 
2 -1 2 1 1 2 2 -4 2 2 2 0 1 5 2 -14 
2 15 2 -6 1 92 2 60 2 -58 2 -72 1 -111 2 -36 
2 93 2 98 1 62 2 2 2 -53 2 -93 1 -104 2 18 
2 109 2 87 1 42 2 -20 2 -66 1 -106 2 -79 2 70 
2 106 1 74 2 20 2 -37 2 -82 1 -110 2 -32 2 101 
2 97 1 57 2 -2 4357 3008 100 MP stroke
2 -53 2 -95 1 -103 2 27 2 110 2 85 1 37 2 -21 
2 -69 2 -106 1 -75 2 77 2 106 2 71 1 16 2 -40 
2 -85 2 -106 1 -25 2 103 2 95 2 55 1 -4 2 -59 
2 -98 1 -94 2 34 2 107 2 83 1 38 2 -25 2 -77 
2 -103 1 -65 2 80 2 100 2 72 1 17 2 -46 2 -91 
2 -102 1 -13 2 100 2 92 2 56 1 -5 2 -63 2 -102 
2 -92 1 47 2 103 2 79 2 36 1 -20 2 -81 2 -115 
2 -55 1 95 2 97 2 49 2 25 1 -12 2 -119 2 40 
2 75 1 10 2 -35 2 -60 1 -98 2 -75 2 41 2 89 
1 81 2 46 2 8 2 -33 1 -69 2 -90 2 -76 2 46 
1 91 2 80 2 42 2 9 1 -37 2 -66 2 -95 2 -68 
1 45 2 96 2 73 2 48 1 0 2 -31 2 -74 2 -88 
1 -74 2 55 2 91 4184 3138 100 MP stroke
2 78 1 40 2 6 2 -39 2 -69 1 -94 2 -65 2 53 
1 94 2 73 2 44 2 0 1 -36 2 -73 2 -91 2 -67 
1 60 2 91 2 76 2 38 1 3 2 -40 2 -72 2 -94 
1 -60 2 59 2 94 2 71 1 42 2 -3 2 -38 2 -75 
1 -91 2 -61 2 64 2 92 1 73 2 38 2 -1 2 -42 
1 -73 2 -93 2 -57 2 66 1 91 2 73 2 36 1 -2 
2 -42 2 -74 2 -95 1 -53 2 68 2 93 2 69 1 37 
2 -4 2 -43 2 -76 1 -92 2 -51 2 69 2 93 1 69 
2 36 2 -6 2 -43 1 -77 2 -93 2 -49 2 74 1 90 
2 70 2 33 2 -4 1 -47 2 -76 2 -94 2 -44 1 74 
2 90 2 70 2 31 1 -6 2 -45 2 -80 2 -92 1 -41 
2 75 2 92 1 65 2 35 2 -11 2 -46 1 -78 2 -92 
2 -42 2 81 1 89 4012 3112 100 MP stroke
2 69 2 25 2 -3 1 -51 2 -80 2 -94 2 -24 1 70 
2 91 2 -24 2 -31 1 24 2 -9 2 0 2 -2 1 6 
2 -4 2 0 2 1 1 0 2 -1 2 0 2 3 1 -3 
2 1 2 -1 2 3 1 -4 2 3 2 -2 1 2 2 -3 
2 4 2 -3 1 2 2 -3 2 3 2 -2 1 1 2 -1 
2 2 2 -2 1 1 2 0 2 -1 2 1 1 -1 2 2 
2 -3 2 3 1 -3 2 4 2 -4 2 4 1 -4 2 4 
2 -5 2 -211 1 0 2 0 2 0 2 0 1 0 2 0 
2 -1 2 1 1 0 2 0 2 -1 1 0 2 0 2 1 
2 -1 1 0 2 0 2 0 2 0 1 0 2 0 2 0 
2 0 1 0 2 0 2 0 2 -1 1 0 2 1 2 -1 
2 0 1 0 2 0 2 0 2 0 1 0 2 0 2 0 
2 0 1 0 2 0 3839 3364 100 MP stroke
2 0 2 0 1 0 2 0 2 0 2 0 1 0 2 0 
2 0 1 0 2 0 2 0 2 0 1 0 2 0 2 0 
2 0 1 0 2 0 2 0 2 0 1 0 2 0 2 0 
2 0 1 0 2 0 2 0 2 0 1 0 2 0 2 0 
2 0 1 0 2 0 2 0 2 0 1 0 2 0 2 0 
2 0 1 0 2 0 2 0 2 0 1 0 2 0 2 0 
2 0 1 0 2 0 2 0 1 0 2 0 2 0 2 0 
1 0 2 0 2 0 2 0 1 0 2 0 2 0 2 0 
1 0 2 0 2 0 2 0 1 0 2 0 2 0 2 0 
1 0 2 0 2 0 2 0 1 0 2 0 2 0 2 0 
1 0 2 0 2 0 2 0 1 0 2 0 2 0 2 0 
1 0 2 0 2 0 1 0 2 0 2 0 2 0 1 0 
2 0 2 0 2 0 3666 3364 100 MP stroke
1 0 2 0 2 0 2 0 1 0 2 0 2 0 2 0 
1 0 2 0 2 0 2 0 1 0 2 0 2 0 2 0 
1 0 2 0 2 0 2 0 1 0 2 0 2 0 2 0 
1 0 2 0 2 0 2 0 1 0 2 0 2 0 1 0 
2 0 2 0 2 0 1 0 2 0 2 0 2 0 1 0 
2 0 2 0 2 0 1 0 2 0 2 0 2 0 1 0 
2 0 2 0 2 0 1 0 2 0 2 0 2 0 1 0 
2 0 2 0 2 0 1 0 2 0 2 0 2 0 1 0 
2 0 2 0 2 0 1 0 2 0 2 0 2 0 1 0 
2 0 2 0 1 0 2 0 2 0 2 0 1 0 2 0 
2 0 2 0 1 0 2 0 2 0 2 0 1 0 2 0 
2 0 2 0 1 0 2 0 2 0 2 0 1 0 2 0 
2 0 2 0 1 0 3494 3364 100 MP stroke
2 0 2 0 2 0 1 0 2 0 2 0 2 0 1 0 
2 0 2 0 2 0 1 0 2 0 2 0 1 0 2 0 
2 0 2 0 1 0 2 0 2 0 2 0 1 0 2 0 
2 0 2 0 1 0 2 0 2 0 2 0 1 0 2 0 
2 0 2 0 1 0 2 0 2 0 2 0 1 0 2 0 
2 0 2 0 1 0 2 0 2 0 2 0 1 0 2 0 
2 0 2 0 1 0 2 0 2 0 1 0 2 0 2 0 
2 0 1 0 2 0 2 0 2 0 1 0 2 0 2 0 
2 0 1 0 2 0 2 0 2 0 1 0 2 0 2 0 
2 0 1 0 2 0 2 0 2 0 1 0 2 0 2 0 
2 0 1 0 2 0 2 0 2 0 1 0 2 0 2 0 
2 0 1 0 2 0 2 0 2 0 1 0 2 0 2 0 
1 0 2 0 2 0 3321 3364 100 MP stroke
2 0 1 0 2 0 2 0 2 0 1 0 2 0 2 0 
2 0 1 0 2 0 2 0 2 0 1 0 2 1 2 -1 
2 0 1 1 2 0 2 0 2 0 1 0 2 0 2 0 
2 0 1 0 2 0 2 0 2 0 1 1 2 -1 2 0 
2 0 1 1 2 0 2 0 1 -1 2 1 2 0 2 0 
1 0 2 0 2 0 2 0 1 211 2 5 2 -4 2 4 
1 -4 2 4 2 -4 2 3 1 -3 2 3 2 -2 2 1 
1 -1 2 1 2 0 2 -1 1 2 2 -2 2 1 2 -1 
1 2 2 -3 2 3 2 -2 1 3 2 -4 2 3 2 -2 
1 2 2 -3 2 4 1 -3 2 1 2 -1 2 3 1 -3 
2 0 2 1 2 0 1 -1 2 0 2 4 2 -6 1 2 
2 0 2 9 2 -24 1 31 2 24 2 -91 2 -70 1 24 
2 94 2 80 2 51 3148 3021 100 MP stroke
1 3 2 -25 2 -69 2 -89 1 -81 2 42 2 92 2 78 
1 46 2 11 2 -35 2 -65 1 -92 2 -75 2 41 1 92 
2 80 2 45 2 6 1 -31 2 -70 2 -90 2 -74 1 44 
2 94 2 76 2 47 1 4 2 -33 2 -70 2 -90 1 -74 
2 49 2 93 2 77 1 43 2 6 2 -36 2 -69 1 -93 
2 -69 2 51 2 92 1 76 2 43 2 4 2 -37 1 -69 
2 -93 2 -68 2 53 1 95 2 74 2 42 2 2 1 -36 
2 -73 2 -91 1 -66 2 57 2 93 2 73 1 42 2 1 
2 -38 2 -73 1 -92 2 -64 2 61 2 91 1 75 2 38 
2 3 2 -42 1 -71 2 -94 2 -59 2 60 1 94 2 72 
2 40 2 -3 1 -38 2 -76 2 -91 2 -60 1 67 2 91 
2 73 2 36 1 0 2 -44 2 -73 2 -94 1 -53 2 65 
2 94 1 69 2 39 2976 3014 100 MP stroke
2 -6 2 -40 1 -78 2 -91 2 -55 2 74 1 88 2 74 
2 31 2 0 1 -48 2 -73 2 -96 2 -45 1 68 2 95 
2 66 2 37 1 -9 2 -42 2 -80 2 -91 1 -46 2 76 
2 90 2 69 1 33 2 -8 2 -46 2 -81 1 -89 2 -41 
2 75 2 98 1 60 2 35 2 -10 1 -75 2 -40 2 119 
2 12 1 -25 2 -49 2 -97 2 -95 1 55 2 115 2 81 
2 20 1 -36 2 -79 2 -103 2 -47 1 92 2 102 2 63 
2 5 1 -56 2 -92 2 -100 2 13 1 102 2 91 2 46 
2 -17 1 -72 2 -100 2 -80 2 65 1 103 2 77 2 25 
2 -38 1 -83 2 -107 2 -34 2 94 1 98 2 59 2 4 
1 -55 2 -95 2 -103 2 25 1 106 2 85 2 40 2 -16 
1 -71 2 -106 2 -77 2 75 1 106 2 69 2 21 2 -37 
1 -85 2 -110 2 -27 2803 3259 100 MP stroke
2 103 1 95 2 53 2 2 2 -57 1 -97 2 -101 2 32 
2 110 1 82 2 37 2 -20 2 -74 1 -106 2 -70 2 79 
2 106 1 66 2 20 2 -42 1 -87 2 -109 2 -18 2 104 
1 93 2 53 2 -2 2 -62 1 -98 2 -93 2 36 2 111 
1 72 2 58 2 -60 2 -92 1 6 2 -15 2 14 2 -5 
1 0 2 -2 2 4 2 -2 1 -1 2 1 2 1 2 -1 
1 -2 2 3 2 -1 2 0 1 -1 2 2 2 -1 2 0 
1 -1 2 2 2 -1 1 0 2 0 2 0 2 0 1 0 
2 0 2 0 2 0 1 0 2 0 2 0 2 1 1 -1 
2 0 2 -1 2 2 1 -1 2 0 2 0 2 1 1 -1 
2 -1 2 1 2 1 1 -1 2 -1 2 1 2 1 1 -1 
2 -1 2 1 2 1 1 -1 2 -1 2 1 2 1 1 -1 
2 -1 2 1 1 1 2631 3134 100 MP stroke
2 -1 2 -1 2 1 1 1 2 -1 2 -1 2 1 1 1 
2 -1 2 -1 2 1 1 1 2 -1 2 0 2 0 1 1 
2 -1 2 -1 2 1 1 1 2 -1 2 -1 2 1 1 1 
2 -1 2 -1 2 1 1 1 2 -1 2 -1 2 1 1 1 
2 -1 2 -1 2 1 1 1 2 -1 2 -1 2 1 1 1 
2 -1 2 -1 1 1 2 1 2 -1 2 -1 1 1 2 1 
2 -1 2 -1 1 1 2 1 2 -1 2 -1 1 1 2 1 
2 -1 2 -1 1 1 2 1 2 -1 2 -1 1 1 2 1 
2 -1 2 -1 1 1 2 1 2 -1 2 -1 1 1 2 1 
2 -1 2 -1 1 1 2 1 2 -1 2 -1 1 1 2 1 
2 -1 1 -1 2 1 2 1 2 -1 1 -1 2 1 2 1 
2 -1 1 0 2 0 2 1 2 -1 1 0 2 0 2 0 
2 0 1 0 2 0 2458 3135 100 MP stroke
2 0 2 0 1 0 2 0 2 0 2 0 1 0 2 0 
2 0 2 0 1 0 2 0 2 0 2 0 1 0 2 0 
2 0 2 0 1 0 2 0 2 0 1 0 2 0 2 0 
2 0 1 0 2 0 2 0 2 0 1 0 2 0 2 0 
2 0 1 0 2 0 2 0 2 0 1 0 2 0 2 0 
2 0 1 0 2 0 2 0 2 0 1 0 2 0 2 0 
2 0 1 0 2 0 2 0 2 0 1 0 2 0 2 0 
2 -1 1 1 2 1 2 -1 2 -1 1 1 2 1 2 -1 
1 -1 2 1 2 1 2 -1 1 -1 2 1 2 1 2 -1 
1 -1 2 1 2 1 2 -1 1 -1 2 1 2 1 2 -1 
1 -1 2 1 2 2 2 -2 1 -2 2 2 2 2 2 -2 
1 -2 2 2 2 2 2 -2 1 -2 2 2 2 2 2 -2 
1 -3 2 3 2 3 2285 3132 100 MP stroke
2 -3 1 -3 2 3 2 3 1 -3 2 -4 2 4 2 4 
1 -4 2 -5 2 5 2 5 1 -5 2 -6 2 6 2 7 
1 -7 2 -9 2 9 2 12 1 -12 2 -18 2 18 2 32 
1 -32 2 -115 2 -114 2 31 1 -31 2 17 2 -17 2 11 
1 -11 2 8 2 -8 2 7 1 -7 2 5 2 -5 2 4 
1 -4 2 4 2 -4 1 3 2 -3 2 3 2 -3 1 3 
2 -3 2 2 2 -2 1 2 2 -2 2 2 2 -2 1 2 
2 -2 2 2 2 -2 1 1 2 -1 2 1 2 -1 1 1 
2 -1 2 1 2 -1 1 1 2 -1 2 1 2 -1 1 1 
2 -1 2 1 2 -1 1 1 2 -1 2 1 2 -1 1 1 
2 -1 2 1 1 -1 2 1 2 -1 2 1 1 -1 2 0 
2 0 2 0 1 0 2 0 2 0 2 0 1 0 2 0 
2 0 2 0 1 0 2113 3364 100 MP stroke
2 0 2 0 2 0 1 0 2 0 2 0 2 0 1 0 
2 0 2 0 2 0 1 0 2 0 2 0 2 0 1 0 
2 0 2 0 2 0 1 0 2 0 2 0 2 0 1 0 
2 0 2 0 1 0 2 0 2 0 2 0 1 0 2 0 
2 0 2 0 1 0 2 0 2 0 2 0 1 0 2 0 
2 0 2 0 1 0 2 0 2 0 2 0 1 0 2 0 
2 0 2 0 1 0 2 0 2 0 2 0 1 0 2 0 
2 0 2 0 1 0 2 0 2 0 2 0 1 0 2 0 
2 0 1 0 2 0 2 0 2 0 1 0 2 0 2 0 
2 0 1 0 2 0 2 0 2 0 1 0 2 0 2 0 
2 0 1 0 2 0 2 0 2 0 1 0 2 0 2 0 
2 0 1 0 2 0 2 0 2 0 1 0 2 0 2 0 
2 0 1 0 2 0 1940 3364 100 MP stroke
2 0 2 0 1 0 2 0 2 0 1 0 2 0 2 0 
2 0 1 0 2 0 2 0 2 0 1 0 2 0 2 0 
2 0 1 0 2 0 2 0 2 0 1 0 2 0 2 0 
2 0 1 0 2 0 2 0 2 0 1 0 2 0 2 0 
2 0 1 0 2 0 2 0 2 0 1 0 2 0 2 0 
2 0 1 0 2 0 2 0 2 0 1 0 2 0 2 0 
1 0 2 0 2 0 2 0 1 0 2 0 2 0 2 0 
1 0 2 0 2 0 2 0 1 0 2 0 2 0 2 0 
1 0 2 0 2 0 2 0 1 0 2 0 2 0 2 0 
1 0 2 0 2 0 2 0 1 0 2 0 2 0 2 0 
1 0 2 0 2 0 2 0 1 0 2 0 2 0 1 0 
2 0 2 0 2 0 1 0 2 0 2 0 2 0 1 0 
2 0 2 0 2 0 1767 3364 100 MP stroke
1 0 2 0 2 0 2 0 1 0 2 0 2 0 2 0 
1 0 2 0 2 0 2 0 1 0 2 0 2 0 2 0 
1 0 2 0 2 0 2 0 1 0 2 0 2 0 2 0 
1 0 2 0 2 0 1 0 2 0 2 0 2 0 1 0 
2 0 2 0 2 0 1 0 2 0 2 0 2 0 1 0 
2 0 2 0 2 0 1 0 2 0 2 0 2 0 1 0 
2 0 2 0 2 0 1 0 2 0 2 0 2 0 1 0 
2 0 2 0 2 0 1 0 2 0 2 0 2 0 1 0 
2 0 2 0 1 0 2 0 2 0 2 0 1 0 2 0 
2 0 2 0 1 0 2 0 2 0 2 0 1 0 2 0 
2 0 2 0 1 0 2 0 2 0 2 0 1 0 2 0 
2 0 2 0 1 0 2 0 2 0 2 0 1 0 2 0 
2 0 2 0 1 0 1595 3364 100 MP stroke
2 0 2 0 2 0 1 0 2 0 2 0 2 0 1 0 
2 0 2 0 1 0 2 0 2 0 2 0 1 0 2 0 
2 0 2 0 1 0 2 0 2 0 2 0 1 0 2 0 
2 0 2 0 1 0 2 0 2 0 2 0 1 0 2 0 
2 0 2 0 1 0 2 0 2 0 2 0 1 0 2 0 
2 0 2 0 1 0 2 0 2 0 2 0 1 0 2 0 
2 0 1 0 2 0 2 0 2 0 1 0 2 0 2 0 
2 0 1 0 2 0 2 0 2 0 1 0 2 0 2 0 
2 0 1 0 2 0 2 0 2 0 1 0 2 0 2 0 
2 0 1 0 2 0 2 0 2 0 1 0 2 0 2 0 
2 0 1 0 2 0 2 0 2 0 1 0 2 0 2 0 
1 0 2 0 2 0 2 0 1 0 2 0 2 0 2 0 
1 0 2 0 2 0 1422 3364 100 MP stroke
2 0 1 0 2 0 2 0 2 0 1 0 2 0 2 0 
2 0 1 0 2 0 2 0 2 0 1 0 2 0 2 0 
2 0 1 0 2 0 2 0 2 0 1 0 2 0 2 0 
2 0 1 0 2 0 2 0 2 0 1 0 2 0 2 0 
1 0 2 0 2 0 2 0 1 0 2 0 2 0 2 0 
1 0 2 0 2 0 2 0 1 0 2 0 2 0 2 0 
1 0 2 0 2 0 2 0 1 0 2 0 2 0 2 0 
1 0 2 0 2 0 2 0 1 0 2 0 2 0 2 0 
1 0 2 0 2 0 2 0 1 0 2 0 2 0 1 0 
2 0 2 0 2 0 1 0 2 0 2 0 2 0 1 0 
2 0 2 0 2 0 1 0 2 0 2 0 2 0 1 0 
2 0 2 0 2 0 1 0 2 0 2 0 2 0 1 0 
2 0 2 0 2 0 1249 3364 100 MP stroke
1 0 2 0 2 0 2 0 1 0 2 0 2 0 2 0 
1 0 2 0 2 0 1 0 2 0 2 0 2 0 1 0 
2 0 2 0 2 0 1 0 2 0 2 0 2 0 1 0 
2 0 2 0 2 0 1 0 2 0 2 0 2 0 1 0 
2 0 2 0 2 0 1 0 2 0 2 0 2 0 1 0 
2 0 2 0 2 0 1 0 2 0 2 0 2 0 1 0 
2 0 2 0 1 0 2 0 2 0 2 0 1 0 2 0 
2 0 2 0 1 0 2 0 2 0 2 0 1 0 2 0 
2 0 2 0 1 0 2 0 2 0 2 0 1 0 2 0 
2 0 2 0 1 0 2 0 2 0 2 0 1 0 2 0 
2 0 2 0 1 0 2 0 2 0 2 0 1 0 2 0 
2 0 2 0 1 0 2 0 2 0 1 0 2 0 2 0 
2 0 1 0 2 0 1077 3364 100 MP stroke
2 0 2 0 1 0 2 0 2 0 2 0 1 0 2 0 
2 0 2 0 1 0 2 0 2 0 2 0 1 0 2 0 
2 0 2 0 1 0 2 0 2 0 2 0 1 0 2 0 
2 0 2 0 1 0 2 0 2 0 2 0 1 0 2 0 
2 0 1 0 2 0 2 0 2 0 1 0 2 0 2 0 
2 0 1 0 2 0 2 0 2 0 1 0 2 0 2 0 
2 0 1 0 2 0 2 0 2 0 1 0 2 0 2 0 
2 0 1 0 2 0 2 0 2 0 1 0 2 0 2 0 
2 0 1 0 2 0 2 0 2 0 1 0 2 0 2 0 
1 0 2 0 2 0 2 0 1 0 2 0 2 0 2 0 
1 0 2 0 2 0 2 0 1 0 2 0 2 0 2 0 
1 0 2 0 2 0 2 0 1 0 2 0 2 0 2 0 
1 0 2 0 2 0 904 3364 100 MP stroke
2 0 1 0 2 0 899 3364 4 MP stroke
gr

24 w
c9
0 sg
3559 3653 mt 
(f) s
 616 3165 mt  -90 rotate
(|FT|) s
90 rotate
2953 2658 mt 
(Output Spectrum \(k'=2\)) s
6 w
1 sg
0 613 5356 0 0 -613 899 4501 4 MP
PP
-5356 0 0 613 5356 0 0 -613 899 4501 5 MP stroke
4 w
DO
SO
6 w
0 sg
 899 3888 mt 6255 3888 L
 899 4501 mt 6255 4501 L
6255 4501 mt 6255 3888 L
 899 4501 mt  899 3888 L
 899 4501 mt 6255 4501 L
 899 4501 mt  899 3888 L
1066 4501 mt 1066 4447 L
1066 3888 mt 1066 3941 L
 930 4646 mt 
(-15) s
1903 4501 mt 1903 4447 L
1903 3888 mt 1903 3941 L
1767 4646 mt 
(-10) s
2740 4501 mt 2740 4447 L
2740 3888 mt 2740 3941 L
2637 4646 mt 
(-5) s
3577 4501 mt 3577 4447 L
3577 3888 mt 3577 3941 L
3544 4646 mt 
(0) s
4413 4501 mt 4413 4447 L
4413 3888 mt 4413 3941 L
4380 4646 mt 
(5) s
5250 4501 mt 5250 4447 L
5250 3888 mt 5250 3941 L
5184 4646 mt 
(10) s
6087 4501 mt 6087 4447 L
6087 3888 mt 6087 3941 L
6021 4646 mt 
(15) s
 899 4501 mt  952 4501 L
6255 4501 mt 6201 4501 L
 798 4545 mt 
(0) s
 899 4194 mt  952 4194 L
6255 4194 mt 6201 4194 L
 698 4238 mt 
(0.5) s
 899 3888 mt  952 3888 L
6255 3888 mt 6201 3888 L
 798 3932 mt 
(1) s
 899 3888 mt 6255 3888 L
 899 4501 mt 6255 4501 L
6255 4501 mt 6255 3888 L
 899 4501 mt  899 3888 L
gs 899 3888 5357 614 MR c np
24 w
c10
2 67 2 81 1 22 2 -22 2 -12 2 12 1 9 2 -9 
2 -6 2 6 1 5 2 -5 2 -4 2 4 1 4 2 -4 
2 -3 2 3 1 3 2 -3 2 -3 2 3 1 2 2 -2 
2 -2 2 2 1 2 2 -2 2 -2 2 2 1 2 2 -2 
2 -2 1 2 2 2 2 -2 2 -1 1 1 2 1 2 -1 
2 -1 1 1 2 1 2 -1 2 -1 1 1 2 1 2 -1 
2 -1 1 1 2 1 2 -1 2 -1 1 1 2 1 2 -1 
2 -1 1 1 2 1 2 -1 2 -1 1 1 2 1 2 -1 
2 -1 1 1 2 1 2 -1 2 -1 1 1 2 1 2 -1 
1 -1 2 1 2 1 2 -1 1 -1 2 1 2 1 2 -1 
1 -1 2 1 2 1 2 -1 1 0 2 0 2 1 2 -1 
1 0 2 0 2 1 2 -1 1 0 2 0 2 1 2 -1 
1 0 2 0 2 0 6083 4338 100 MP stroke
2 0 1 0 2 0 2 0 2 0 1 0 2 0 2 0 
2 0 1 0 2 0 2 0 1 0 2 0 2 0 2 0 
1 0 2 0 2 0 2 0 1 0 2 0 2 0 2 0 
1 0 2 0 2 0 2 0 1 0 2 0 2 0 2 0 
1 0 2 0 2 0 2 0 1 0 2 0 2 0 2 0 
1 0 2 0 2 0 2 0 1 0 2 0 2 0 2 0 
1 0 2 0 2 0 2 0 1 0 2 0 2 0 1 0 
2 0 2 0 2 0 1 0 2 0 2 0 2 0 1 0 
2 0 2 0 2 0 1 0 2 0 2 0 2 0 1 0 
2 0 2 0 2 0 1 0 2 0 2 0 2 0 1 0 
2 0 2 0 2 0 1 0 2 0 2 0 2 0 1 0 
2 0 2 0 2 0 1 0 2 0 2 0 1 0 2 0 
2 0 2 0 1 0 5911 4338 100 MP stroke
2 0 2 0 2 0 1 0 2 0 2 0 2 0 1 0 
2 0 2 0 2 0 1 0 2 0 2 0 2 0 1 0 
2 0 2 0 2 0 1 0 2 0 2 0 2 0 1 0 
2 0 2 0 2 0 1 0 2 0 2 0 2 0 1 0 
2 0 2 0 1 0 2 0 2 0 2 0 1 0 2 0 
2 0 2 0 1 0 2 0 2 0 2 0 1 0 2 0 
2 0 2 0 1 0 2 0 2 0 2 0 1 0 2 0 
2 0 2 0 1 0 2 0 2 0 2 0 1 0 2 0 
2 0 2 0 1 0 2 0 2 0 2 0 1 0 2 0 
2 0 1 0 2 0 2 0 2 0 1 0 2 0 2 0 
2 0 1 0 2 0 2 0 2 0 1 0 2 0 2 0 
2 0 1 0 2 0 2 0 2 0 1 0 2 0 2 0 
2 0 1 0 2 0 5738 4338 100 MP stroke
2 0 2 0 1 0 2 0 2 0 2 0 1 0 2 0 
2 0 2 0 1 0 2 0 2 0 2 0 1 0 2 0 
2 0 1 0 2 0 2 0 2 0 1 0 2 0 2 0 
2 0 1 0 2 0 2 0 2 0 1 0 2 0 2 0 
2 0 1 0 2 0 2 0 2 0 1 0 2 0 2 0 
2 0 1 0 2 0 2 0 2 0 1 0 2 0 2 0 
2 0 1 0 2 0 2 0 2 0 1 0 2 0 2 0 
1 0 2 0 2 0 2 0 1 0 2 0 2 0 2 0 
1 0 2 0 2 0 2 0 1 0 2 0 2 0 2 0 
1 0 2 0 2 0 2 0 1 0 2 0 2 0 2 0 
1 0 2 0 2 0 2 0 1 0 2 0 2 0 2 0 
1 0 2 0 2 0 2 0 1 0 2 0 2 0 1 0 
2 0 2 0 2 0 5565 4338 100 MP stroke
1 0 2 0 2 0 2 0 1 0 2 0 2 0 2 0 
1 0 2 0 2 0 2 0 1 0 2 0 2 0 2 0 
1 0 2 0 2 0 2 0 1 0 2 0 2 0 2 0 
1 0 2 0 2 0 2 0 1 0 2 0 2 0 2 0 
1 0 2 0 2 0 2 0 1 0 2 0 2 0 1 0 
2 0 2 0 2 0 1 0 2 0 2 0 2 0 1 0 
2 0 2 0 2 0 1 0 2 0 2 0 2 0 1 0 
2 0 2 0 2 0 1 0 2 0 2 0 2 0 1 0 
2 0 2 0 2 0 1 0 2 0 2 0 2 0 1 0 
2 0 2 0 2 0 1 0 2 0 2 0 1 0 2 0 
2 0 2 0 1 0 2 0 2 0 2 0 1 0 2 0 
2 0 2 0 1 0 2 0 2 0 2 0 1 0 2 0 
2 0 2 0 1 0 5393 4338 100 MP stroke
2 0 2 0 2 0 1 0 2 0 2 0 2 0 1 0 
2 0 2 0 2 0 1 0 2 0 2 0 2 0 1 0 
2 0 2 0 1 0 2 0 2 0 2 0 1 0 2 0 
2 0 2 0 1 0 2 0 2 0 2 0 1 0 2 0 
2 0 2 0 1 0 2 0 2 0 2 0 1 0 2 0 
2 0 2 0 1 0 2 0 2 0 2 0 1 0 2 0 
2 0 2 0 1 0 2 0 2 0 2 0 1 0 2 0 
2 0 1 0 2 1 2 -1 2 0 1 0 2 1 2 -2 
2 1 1 0 2 1 2 -2 2 1 1 1 2 -1 2 -1 
2 1 1 2 2 -4 2 2 2 0 1 3 2 -10 2 12 
2 -5 1 65 2 42 2 -40 2 -50 1 -78 2 -29 2 65 
2 69 1 46 2 3 2 -35 2 -64 1 -74 2 3 2 75 
2 64 1 33 2 -9 5220 4252 100 MP stroke
2 -44 1 -72 2 -63 2 37 2 76 1 56 2 20 2 -20 
2 -53 1 -77 2 -41 2 63 2 72 1 47 2 7 2 -30 
2 -64 1 -75 2 -7 2 74 2 66 1 35 2 -5 2 -41 
2 -71 1 -67 2 29 2 76 2 59 1 22 2 -15 2 -52 
2 -75 1 -49 2 58 2 73 2 49 1 11 2 -28 2 -61 
1 -75 2 -17 2 71 2 68 1 38 2 0 2 -40 2 -68 
1 -70 2 19 2 76 2 61 1 27 2 -13 2 -51 2 -72 
1 -55 2 50 2 74 2 52 1 15 2 -25 2 -59 2 -76 
1 -26 2 68 2 70 2 41 1 4 2 -37 2 -67 2 -72 
1 9 2 75 2 63 2 31 1 -9 2 -47 2 -73 1 -61 
2 43 2 75 2 54 1 19 2 -21 2 -56 2 -77 1 -35 
2 65 2 71 2 44 1 7 2 -33 2 -64 2 -76 1 0 
2 74 2 65 2 33 5047 4245 100 MP stroke
1 -6 2 -42 2 -72 2 -67 1 35 2 77 2 56 2 21 
1 -17 2 -52 2 -77 2 -45 1 61 2 74 2 46 2 9 
1 -29 2 -61 2 -77 2 -12 1 74 2 67 2 36 1 -3 
2 -40 2 -69 2 -70 1 25 2 76 2 60 2 25 1 -16 
2 -50 2 -73 2 -53 1 54 2 74 2 52 2 12 1 -29 
2 -58 2 -74 2 -23 1 68 2 71 2 42 2 -2 1 -39 
2 -65 2 -71 2 13 1 74 2 65 2 29 2 -14 1 -49 
2 -71 2 -56 2 43 1 74 2 56 2 18 1 -25 2 -60 
2 -75 2 -26 1 63 2 67 2 46 2 12 1 -40 2 -78 
2 -65 2 26 1 57 2 -11 2 -90 2 42 1 75 2 44 
2 27 2 -4 1 -34 2 -53 2 -68 2 -30 1 52 2 65 
2 47 2 25 1 -6 2 -31 2 -56 2 -65 1 -33 2 55 
2 62 2 51 1 21 4875 4253 100 MP stroke
2 -2 2 -35 1 -53 2 -67 2 -29 2 49 1 67 2 45 
2 27 2 -7 1 -29 2 -57 2 -64 2 -34 1 53 2 62 
2 51 2 22 1 -2 2 -32 2 -54 2 -66 1 -33 2 50 
2 65 2 48 1 25 2 -4 2 -31 2 -53 1 -66 2 -36 
2 52 2 63 1 50 2 24 2 -2 2 -31 1 -54 2 -65 
2 -36 1 48 2 66 2 49 2 26 1 -4 2 -30 2 -53 
2 -66 1 -37 2 49 2 64 2 50 1 26 2 -2 2 -30 
2 -53 1 -66 2 -38 2 48 2 64 1 51 2 26 2 -2 
2 -30 1 -52 2 -66 2 -39 2 47 1 65 2 50 2 27 
2 -2 1 -29 2 -53 2 -64 2 -42 1 47 2 65 2 51 
2 26 1 0 2 -29 2 -52 1 -66 2 -41 2 45 2 65 
1 51 2 27 2 0 2 -29 1 -51 2 -66 2 -42 2 44 
1 65 2 51 2 28 4702 4255 100 MP stroke
2 0 1 -28 2 -52 2 -64 2 -44 1 43 2 65 2 52 
2 28 1 0 2 -28 2 -50 2 -66 1 -44 2 42 2 66 
2 51 1 29 2 0 2 -27 2 -51 1 -64 2 -46 2 41 
1 66 2 52 2 28 2 2 1 -27 2 -51 2 -65 2 -46 
1 41 2 65 2 52 2 30 1 1 2 -26 2 -51 2 -65 
1 -47 2 40 2 65 2 53 1 29 2 2 2 -26 2 -50 
1 -65 2 -48 2 39 2 65 1 53 2 30 2 2 2 -26 
1 -49 2 -65 2 -49 2 38 1 65 2 53 2 31 1 2 
2 -25 2 -50 2 -64 1 -50 2 37 2 65 2 54 1 31 
2 2 2 -24 2 -50 1 -65 2 -50 2 36 2 65 1 54 
2 31 2 4 2 -25 1 -49 2 -65 2 -50 2 34 1 66 
2 54 2 31 2 4 1 -24 2 -50 2 -63 2 -52 1 33 
2 66 2 54 2 32 4529 4257 100 MP stroke
1 4 2 -24 2 -48 2 -65 1 -52 2 32 2 66 1 55 
2 31 2 5 2 -24 1 -48 2 -64 2 -52 2 30 1 66 
2 55 2 32 2 5 1 -23 2 -48 2 -64 2 -53 1 30 
2 65 2 55 2 33 1 6 2 -24 2 -47 2 -64 1 -54 
2 28 2 66 2 55 1 34 2 5 2 -21 2 -49 1 -63 
2 -55 2 28 2 65 1 56 2 34 2 6 1 -23 2 -45 
2 -65 2 -55 1 26 2 65 2 57 2 32 1 9 2 -23 
2 -47 2 -63 1 -54 2 22 2 67 2 54 1 40 2 -4 
2 -9 2 -52 1 -37 2 21 2 -17 2 7 1 -1 2 2 
2 -5 2 4 1 -1 2 0 2 -1 2 2 1 -2 2 1 
2 0 2 1 1 -2 2 1 2 0 1 0 2 -1 2 1 
2 0 1 0 2 -1 2 1 2 0 1 0 2 0 2 0 
2 0 1 0 2 0 4357 4347 100 MP stroke
2 0 2 0 1 0 2 0 2 -1 2 1 1 0 2 0 
2 -1 2 1 1 0 2 0 2 -1 2 1 1 0 2 0 
2 0 2 0 1 0 2 0 2 0 2 -1 1 1 2 -1 
2 1 1 -1 2 1 2 -1 2 1 1 -1 2 2 2 -2 
2 1 1 -1 2 2 2 -2 2 1 1 -1 2 1 2 -1 
2 1 1 -1 2 1 2 -1 2 1 1 0 2 -1 2 1 
2 -1 1 1 2 -1 2 2 2 -2 1 2 2 -2 2 2 
2 -3 1 3 2 -3 2 3 2 -3 1 3 2 -3 2 -150 
2 0 1 0 2 0 2 0 1 0 2 0 2 0 2 0 
1 0 2 0 2 0 2 0 1 0 2 0 2 0 2 0 
1 0 2 0 2 0 2 0 1 0 2 0 2 -1 2 0 
1 0 2 0 2 0 2 0 1 0 2 0 2 0 2 0 
1 0 2 0 2 0 4184 4500 100 MP stroke
2 0 1 0 2 0 2 0 2 0 1 0 2 0 2 0 
1 0 2 0 2 0 2 0 1 0 2 0 2 0 2 0 
1 0 2 0 2 0 2 0 1 0 2 0 2 0 2 0 
1 0 2 0 2 0 2 0 1 0 2 0 2 0 2 0 
1 0 2 0 2 0 2 0 1 0 2 0 2 0 2 0 
1 0 2 0 2 0 2 0 1 0 2 0 2 0 1 0 
2 0 2 0 2 0 1 0 2 0 2 0 2 0 1 0 
2 0 2 0 2 0 1 0 2 0 2 0 2 0 1 0 
2 0 2 0 2 0 1 0 2 0 2 0 2 0 1 0 
2 0 2 0 2 0 1 0 2 0 2 0 2 0 1 0 
2 0 2 0 2 0 1 0 2 0 2 0 2 0 1 0 
2 0 2 0 1 0 2 0 2 0 2 0 1 0 2 0 
2 0 2 0 1 0 4012 4500 100 MP stroke
2 0 2 0 2 0 1 0 2 0 2 0 2 0 1 0 
2 0 2 0 2 0 1 0 2 0 2 0 2 0 1 0 
2 0 2 0 2 0 1 0 2 0 2 0 2 0 1 0 
2 0 2 0 2 0 1 0 2 0 2 0 1 0 2 0 
2 0 2 0 1 0 2 0 2 0 2 0 1 0 2 0 
2 0 2 0 1 0 2 0 2 0 2 0 1 0 2 0 
2 0 2 0 1 0 2 0 2 0 2 0 1 0 2 0 
2 0 2 0 1 0 2 0 2 0 2 0 1 0 2 0 
2 0 2 0 1 0 2 0 2 0 1 0 2 0 2 0 
2 0 1 0 2 0 2 0 2 0 1 0 2 0 2 0 
2 0 1 0 2 0 2 0 2 0 1 0 2 0 2 0 
2 0 1 0 2 0 2 0 2 0 1 0 2 0 2 0 
2 0 1 0 2 0 3839 4500 100 MP stroke
2 0 2 0 1 0 2 0 2 0 2 0 1 0 2 0 
2 0 1 0 2 0 2 0 2 0 1 0 2 0 2 0 
2 0 1 0 2 0 2 0 2 0 1 0 2 0 2 0 
2 0 1 0 2 0 2 0 2 0 1 0 2 0 2 0 
2 0 1 0 2 0 2 0 2 0 1 0 2 0 2 0 
2 0 1 0 2 0 2 0 2 0 1 0 2 0 2 0 
2 0 1 0 2 0 2 0 1 0 2 0 2 0 2 0 
1 0 2 0 2 0 2 0 1 0 2 0 2 0 2 0 
1 0 2 0 2 0 2 0 1 0 2 0 2 0 2 0 
1 0 2 0 2 0 2 0 1 0 2 0 2 0 2 0 
1 0 2 0 2 0 2 0 1 0 2 0 2 0 2 0 
1 0 2 0 2 0 1 0 2 0 2 0 2 0 1 0 
2 0 2 0 2 0 3666 4500 100 MP stroke
1 0 2 0 2 0 2 0 1 0 2 0 2 0 2 0 
1 0 2 0 2 0 2 0 1 0 2 0 2 0 2 0 
1 0 2 0 2 0 2 0 1 0 2 0 2 0 2 0 
1 0 2 0 2 0 2 0 1 0 2 0 2 0 1 0 
2 0 2 0 2 0 1 0 2 0 2 0 2 0 1 0 
2 0 2 0 2 0 1 0 2 0 2 0 2 0 1 0 
2 0 2 0 2 0 1 0 2 0 2 0 2 0 1 0 
2 0 2 0 2 0 1 0 2 0 2 0 2 0 1 0 
2 0 2 0 2 0 1 0 2 0 2 0 2 0 1 0 
2 0 2 0 1 0 2 0 2 0 2 0 1 0 2 0 
2 0 2 0 1 0 2 0 2 0 2 0 1 0 2 0 
2 0 2 0 1 0 2 0 2 0 2 0 1 0 2 0 
2 0 2 0 1 0 3494 4500 100 MP stroke
2 0 2 0 2 0 1 0 2 0 2 0 2 0 1 0 
2 0 2 0 2 0 1 0 2 0 2 0 1 0 2 0 
2 0 2 0 1 0 2 0 2 0 2 0 1 0 2 0 
2 0 2 0 1 0 2 0 2 0 2 0 1 0 2 0 
2 0 2 0 1 0 2 0 2 0 2 0 1 0 2 0 
2 0 2 0 1 0 2 0 2 0 2 0 1 0 2 0 
2 0 2 0 1 0 2 0 2 0 1 0 2 0 2 0 
2 0 1 0 2 0 2 0 2 0 1 0 2 0 2 0 
2 0 1 0 2 0 2 0 2 0 1 0 2 0 2 0 
2 0 1 0 2 0 2 0 2 0 1 0 2 0 2 0 
2 0 1 0 2 0 2 0 2 0 1 0 2 0 2 0 
2 0 1 0 2 0 2 0 2 0 1 0 2 0 2 0 
1 0 2 0 2 0 3321 4500 100 MP stroke
2 0 1 0 2 0 2 0 2 0 1 0 2 0 2 0 
2 0 1 0 2 0 2 0 2 0 1 0 2 0 2 0 
2 0 1 0 2 0 2 0 2 0 1 0 2 0 2 0 
2 0 1 0 2 0 2 0 2 0 1 0 2 0 2 0 
2 0 1 0 2 0 2 0 1 0 2 0 2 0 2 0 
1 0 2 0 2 0 2 0 1 0 2 0 2 0 2 0 
1 0 2 0 2 0 2 0 1 0 2 0 2 0 2 0 
1 0 2 0 2 0 2 0 1 0 2 0 2 0 2 0 
1 0 2 0 2 0 2 0 1 0 2 0 2 0 2 0 
1 0 2 0 2 0 1 0 2 0 2 0 2 0 1 0 
2 0 2 0 2 0 1 0 2 0 2 0 2 0 1 0 
2 0 2 0 2 0 1 0 2 0 2 0 2 0 1 0 
2 0 2 0 2 0 3148 4500 100 MP stroke
1 0 2 0 2 0 2 0 1 0 2 0 2 0 2 0 
1 0 2 0 2 0 2 0 1 0 2 0 2 0 1 0 
2 0 2 0 2 0 1 0 2 0 2 0 2 0 1 0 
2 0 2 0 2 0 1 0 2 0 2 0 2 0 1 0 
2 0 2 0 2 0 1 0 2 0 2 0 2 0 1 0 
2 0 2 0 2 0 1 0 2 0 2 0 2 0 1 0 
2 0 2 0 2 0 1 0 2 0 2 0 2 0 1 0 
2 0 2 0 1 0 2 0 2 0 2 0 1 0 2 0 
2 0 2 0 1 0 2 0 2 0 2 0 1 0 2 0 
2 0 2 0 1 0 2 0 2 0 2 0 1 0 2 0 
2 0 2 0 1 0 2 0 2 0 2 0 1 0 2 0 
2 0 2 0 1 0 2 0 2 0 2 0 1 0 2 0 
2 0 1 0 2 0 2976 4500 100 MP stroke
2 0 2 0 1 0 2 0 2 0 2 0 1 0 2 0 
2 0 2 0 1 0 2 0 2 0 2 0 1 0 2 1 
2 0 2 0 1 0 2 0 2 0 2 0 1 0 2 0 
2 0 2 0 1 0 2 0 2 0 2 0 1 0 2 0 
2 0 2 0 1 0 2 0 2 0 1 0 2 150 2 3 
2 -3 1 3 2 -3 2 3 2 -3 1 3 2 -2 2 2 
2 -2 1 2 2 -2 2 1 2 -1 1 1 2 -1 2 1 
2 0 1 -1 2 1 2 -1 2 1 1 -1 2 1 2 -1 
2 1 1 -1 2 2 2 -2 2 1 1 -1 2 2 2 -2 
2 1 1 -1 2 1 2 -1 2 1 1 -1 2 1 2 -1 
1 1 2 0 2 0 2 0 1 0 2 0 2 0 2 0 
1 -1 2 1 2 0 2 0 1 -1 2 1 2 0 2 0 
1 -1 2 1 2 0 2803 4347 100 MP stroke
2 0 1 0 2 0 2 0 2 0 1 0 2 0 2 0 
2 0 1 0 2 -1 2 1 2 0 1 0 2 -1 2 1 
2 0 1 0 2 -1 2 2 1 -1 2 0 2 -1 2 2 
1 -2 2 1 2 0 2 1 1 -4 2 5 2 -2 2 1 
1 -7 2 17 2 -21 2 37 1 52 2 9 2 4 2 -40 
1 -54 2 -67 2 -22 2 54 1 63 2 47 2 23 2 -9 
1 -32 2 -57 2 -65 2 -26 1 55 2 65 2 45 2 23 
1 -6 2 -34 2 -56 1 -65 2 -28 2 55 2 63 1 49 
2 21 2 -5 2 -34 1 -55 2 -66 2 -28 2 54 1 64 
2 47 2 24 2 -6 1 -33 2 -55 2 -65 2 -30 1 53 
2 64 2 48 2 23 1 -5 2 -32 2 -55 2 -66 1 -30 
2 52 2 64 2 48 1 24 2 -5 2 -31 2 -55 1 -66 
2 -32 2 52 1 65 2631 4325 100 MP stroke
2 48 2 24 2 -4 1 -32 2 -54 2 -66 2 -33 1 52 
2 63 2 50 2 24 1 -4 2 -31 2 -54 2 -66 1 -34 
2 50 2 65 2 49 1 25 2 -4 2 -31 2 -54 1 -65 
2 -36 2 50 2 65 1 50 2 24 2 -2 2 -31 1 -54 
2 -65 2 -37 2 50 1 64 2 50 2 25 2 -2 1 -31 
2 -53 2 -65 1 -38 2 49 2 65 2 49 1 26 2 -2 
2 -30 2 -53 1 -65 2 -39 2 48 2 65 1 50 2 26 
2 -2 2 -29 1 -53 2 -65 2 -40 2 47 1 65 2 51 
2 26 2 -1 1 -30 2 -52 2 -65 2 -41 1 46 2 65 
2 51 2 27 1 -2 2 -28 2 -52 2 -66 1 -41 2 46 
2 64 1 51 2 27 2 0 2 -29 1 -51 2 -66 2 -42 
2 44 1 66 2 50 2 28 2 0 1 -28 2 -52 2 -65 
2 -43 1 44 2 64 2458 4335 100 MP stroke
2 52 2 28 1 0 2 -28 2 -51 2 -65 1 -44 2 42 
2 66 2 51 1 29 2 0 2 -27 2 -51 1 -65 2 -45 
2 41 2 66 1 52 2 29 2 0 1 -26 2 -51 2 -65 
2 -47 1 42 2 64 2 53 2 29 1 2 2 -27 2 -50 
2 -65 1 -47 2 39 2 66 2 52 1 30 2 2 2 -26 
2 -51 1 -64 2 -48 2 38 2 66 1 53 2 30 2 2 
2 -26 1 -50 2 -64 2 -49 2 37 1 66 2 53 2 30 
2 4 1 -26 2 -49 2 -66 2 -48 1 36 2 65 2 54 
1 31 2 2 2 -24 2 -50 1 -63 2 -52 2 36 2 66 
1 53 2 31 2 4 2 -25 1 -48 2 -65 2 -50 2 33 
1 66 2 54 2 32 2 2 1 -22 2 -51 2 -62 2 -53 
1 34 2 64 2 57 2 29 1 7 2 -27 2 -45 2 -67 
1 -49 2 29 2 67 2285 4343 100 MP stroke
2 53 1 35 2 2 2 -21 1 -51 2 -62 2 -55 2 33 
1 65 2 56 2 31 2 6 1 -25 2 -47 2 -65 2 -52 
1 30 2 68 2 53 2 34 1 4 2 -27 2 -44 2 -75 
1 -42 2 90 2 11 2 -57 1 -26 2 65 2 78 2 40 
1 -12 2 -46 2 -67 2 -63 1 26 2 75 2 60 2 25 
1 -18 2 -56 2 -74 1 -43 2 56 2 71 2 49 1 14 
2 -29 2 -65 2 -74 1 -13 2 71 2 65 2 39 1 2 
2 -42 2 -71 2 -68 1 23 2 74 2 58 2 29 1 -12 
2 -52 2 -74 2 -54 1 53 2 73 2 50 2 16 1 -25 
2 -60 2 -76 2 -25 1 70 2 69 2 40 2 3 1 -36 
2 -67 2 -74 1 12 2 77 2 61 2 29 1 -9 2 -46 
2 -74 2 -61 1 45 2 77 2 52 2 17 1 -21 2 -56 
2 -77 2 -35 1 67 2113 4365 100 MP stroke
2 72 2 42 2 6 1 -33 2 -65 2 -74 2 0 1 76 
2 64 2 33 2 -7 1 -44 2 -71 2 -65 2 35 1 77 
2 56 2 21 2 -19 1 -54 2 -75 2 -43 2 61 1 73 
2 47 2 9 1 -31 2 -63 2 -75 2 -9 1 72 2 67 
2 37 2 -4 1 -41 2 -70 2 -68 2 26 1 76 2 59 
2 25 2 -15 1 -52 2 -74 2 -50 2 55 1 72 2 51 
2 13 2 -27 1 -61 2 -76 2 -19 2 70 1 68 2 40 
2 0 2 -38 1 -68 2 -71 2 17 2 75 1 61 2 28 
2 -11 1 -49 2 -73 2 -58 2 49 1 75 2 52 2 15 
2 -22 1 -59 2 -76 2 -29 2 67 1 71 2 41 2 5 
2 -35 1 -66 2 -74 2 7 2 75 1 64 2 30 2 -7 
2 -47 1 -72 2 -63 2 41 2 77 1 53 2 20 2 -20 
2 -56 1 -76 2 -37 1940 4431 100 MP stroke
2 63 2 72 1 44 2 9 2 -33 1 -64 2 -75 2 -3 
2 74 1 64 2 35 2 -3 2 -46 1 -69 2 -65 2 29 
2 78 1 50 2 40 2 -42 2 -65 1 5 2 -12 2 10 
2 -3 1 0 2 -2 2 4 2 -2 1 -1 2 1 2 1 
2 -1 1 -1 2 2 2 -1 2 0 1 -1 2 2 2 -1 
2 0 1 0 2 1 2 -1 2 0 1 0 2 0 2 0 
1 0 2 0 2 0 2 0 1 0 2 0 2 0 2 0 
1 0 2 0 2 0 2 0 1 0 2 0 2 0 2 0 
1 0 2 0 2 0 2 0 1 0 2 0 2 0 2 0 
1 0 2 0 2 0 2 0 1 0 2 0 2 0 2 0 
1 0 2 0 2 0 2 0 1 0 2 0 2 0 1 0 
2 0 2 0 2 0 1 0 2 0 2 0 2 0 1 0 
2 0 2 0 2 0 1767 4338 100 MP stroke
1 0 2 0 2 0 2 0 1 0 2 0 2 0 2 0 
1 0 2 0 2 0 2 0 1 0 2 0 2 0 2 0 
1 0 2 0 2 0 2 0 1 0 2 0 2 0 2 0 
1 0 2 0 2 0 1 0 2 0 2 0 2 0 1 0 
2 0 2 0 2 0 1 0 2 0 2 0 2 0 1 0 
2 0 2 0 2 0 1 0 2 0 2 0 2 0 1 0 
2 0 2 0 2 0 1 0 2 0 2 0 2 0 1 0 
2 0 2 0 2 0 1 0 2 0 2 0 2 0 1 0 
2 0 2 0 1 0 2 0 2 0 2 0 1 0 2 0 
2 0 2 0 1 0 2 0 2 0 2 0 1 0 2 0 
2 0 2 0 1 0 2 0 2 0 2 0 1 0 2 0 
2 0 2 0 1 0 2 0 2 0 2 0 1 0 2 0 
2 0 2 0 1 0 1595 4338 100 MP stroke
2 0 2 0 2 0 1 0 2 0 2 0 2 0 1 0 
2 0 2 0 1 0 2 0 2 0 2 0 1 0 2 0 
2 0 2 0 1 0 2 0 2 0 2 0 1 0 2 0 
2 0 2 0 1 0 2 0 2 0 2 0 1 0 2 0 
2 0 2 0 1 0 2 0 2 0 2 0 1 0 2 0 
2 0 2 0 1 0 2 0 2 0 2 0 1 0 2 0 
2 0 1 0 2 0 2 0 2 0 1 0 2 0 2 0 
2 0 1 0 2 0 2 0 2 0 1 0 2 0 2 0 
2 0 1 0 2 0 2 0 2 0 1 0 2 0 2 0 
2 0 1 0 2 0 2 0 2 0 1 0 2 0 2 0 
2 0 1 0 2 0 2 0 2 0 1 0 2 0 2 0 
1 0 2 0 2 0 2 0 1 0 2 0 2 0 2 0 
1 0 2 0 2 0 1422 4338 100 MP stroke
2 0 1 0 2 0 2 0 2 0 1 0 2 0 2 0 
2 0 1 0 2 0 2 0 2 0 1 0 2 0 2 0 
2 0 1 0 2 0 2 0 2 0 1 0 2 0 2 0 
2 0 1 0 2 0 2 0 2 0 1 0 2 0 2 0 
1 0 2 0 2 0 2 0 1 0 2 0 2 0 2 0 
1 0 2 0 2 0 2 0 1 0 2 0 2 0 2 0 
1 0 2 0 2 0 2 0 1 0 2 0 2 0 2 0 
1 0 2 0 2 0 2 0 1 0 2 0 2 0 2 0 
1 0 2 0 2 0 2 0 1 0 2 0 2 0 1 0 
2 0 2 0 2 0 1 0 2 0 2 0 2 0 1 0 
2 0 2 0 2 0 1 0 2 0 2 0 2 0 1 0 
2 0 2 0 2 0 1 0 2 0 2 0 2 0 1 0 
2 0 2 0 2 0 1249 4338 100 MP stroke
1 0 2 0 2 0 2 0 1 0 2 0 2 0 2 0 
1 0 2 0 2 0 1 0 2 0 2 0 2 0 1 0 
2 0 2 0 2 0 1 0 2 0 2 0 2 0 1 0 
2 0 2 0 2 0 1 0 2 0 2 0 2 0 1 0 
2 0 2 0 2 0 1 0 2 0 2 0 2 0 1 0 
2 0 2 0 2 0 1 0 2 0 2 0 2 0 1 0 
2 0 2 0 1 0 2 0 2 0 2 0 1 0 2 0 
2 0 2 0 1 0 2 0 2 0 2 0 1 0 2 0 
2 0 2 0 1 0 2 0 2 0 2 0 1 0 2 0 
2 0 2 0 1 0 2 0 2 0 2 0 1 0 2 0 
2 0 2 0 1 0 2 0 2 0 2 0 1 0 2 0 
2 0 2 0 1 0 2 0 2 0 1 0 2 0 2 0 
2 0 1 0 2 0 1077 4338 100 MP stroke
2 0 2 0 1 0 2 0 2 0 2 0 1 1 2 -1 
2 0 2 0 1 1 2 -1 2 0 2 0 1 1 2 -1 
2 0 2 0 1 1 2 -1 2 -1 2 1 1 1 2 -1 
2 -1 2 1 1 1 2 -1 2 -1 2 1 1 1 2 -1 
2 -1 1 1 2 1 2 -1 2 -1 1 1 2 1 2 -1 
2 -1 1 1 2 1 2 -1 2 -1 1 1 2 1 2 -1 
2 -1 1 1 2 1 2 -1 2 -1 1 1 2 1 2 -1 
2 -1 1 1 2 1 2 -1 2 -1 1 1 2 1 2 -1 
2 -1 1 1 2 2 2 -2 2 -2 1 2 2 2 2 -2 
1 -2 2 2 2 2 2 -2 1 -2 2 2 2 2 2 -2 
1 -3 2 3 2 3 2 -3 1 -3 2 3 2 4 2 -4 
1 -4 2 4 2 5 2 -5 1 -6 2 6 2 9 2 -9 
1 -12 2 12 2 22 904 4316 100 MP stroke
2 -22 1 -81 2 -81 0 5 899 4495 5 MP stroke
gr

24 w
c10
0 sg
3559 4789 mt 
(f) s
 616 4300 mt  -90 rotate
(|FT|) s
90 rotate
2953 3793 mt 
(Output Spectrum \(k'=3\)) s
6 w

end %%Color Dict

eplot
%%EndObject

epage
end

showpage

%%Trailer
%%EOF
