%!PS-Adobe-2.0 EPSF-1.2
%%Creator: MATLAB, The MathWorks, Inc. Version 7.14.0.739 (R2012a). Operating System: Microsoft Windows 7.
%%Title: .\RATE_CHD_SCH1vsSCH2.eps
%%CreationDate: 05/06/2015  12:28:23
%%DocumentNeededFonts: Helvetica
%%DocumentProcessColors: Cyan Magenta Yellow Black
%%Extensions: CMYK
%%Pages: 1
%%BoundingBox:    51   192   552   602
%%EndComments

%%BeginProlog
% MathWorks dictionary
/MathWorks 160 dict begin
% definition operators
/bdef {bind def} bind def
/ldef {load def} bind def
/xdef {exch def} bdef
/xstore {exch store} bdef
% operator abbreviations
/c  /clip ldef
/cc /concat ldef
/cp /closepath ldef
/gr /grestore ldef
/gs /gsave ldef
/mt /moveto ldef
/np /newpath ldef
/cm /currentmatrix ldef
/sm /setmatrix ldef
/rm /rmoveto ldef
/rl /rlineto ldef
/s {show newpath} bdef
/sc {setcmykcolor} bdef
/sr /setrgbcolor ldef
/sg /setgray ldef
/w /setlinewidth ldef
/j /setlinejoin ldef
/cap /setlinecap ldef
/rc {rectclip} bdef
/rf {rectfill} bdef
% page state control
/pgsv () def
/bpage {/pgsv save def} bdef
/epage {pgsv restore} bdef
/bplot /gsave ldef
/eplot {stroke grestore} bdef
% orientation switch
/portraitMode 0 def /landscapeMode 1 def /rotateMode 2 def
% coordinate system mappings
/dpi2point 0 def
% font control
/FontSize 0 def
/FMS {/FontSize xstore findfont [FontSize 0 0 FontSize neg 0 0]
  makefont setfont} bdef
/ISOLatin1Encoding where {pop /WindowsLatin1Encoding 256 array bdef
ISOLatin1Encoding WindowsLatin1Encoding copy pop
/.notdef/.notdef/quotesinglbase/florin/quotedblbase/ellipsis/dagger
/daggerdbl/circumflex/perthousand/Scaron/guilsinglleft/OE/.notdef/.notdef
/.notdef/.notdef/quoteleft/quoteright/quotedblleft/quotedblright/bullet
/endash/emdash/tilde/trademark/scaron/guilsinglright/oe/.notdef/.notdef
/Ydieresis WindowsLatin1Encoding 128 32 getinterval astore pop}
{/WindowsLatin1Encoding StandardEncoding bdef} ifelse
/reencode {exch dup where {pop load} {pop StandardEncoding} ifelse
  exch dup 3 1 roll findfont dup length dict begin
  { 1 index /FID ne {def}{pop pop} ifelse } forall
  /Encoding exch def currentdict end definefont pop} bdef
/isroman {findfont /CharStrings get /Agrave known} bdef
/FMSR {3 1 roll 1 index dup isroman {reencode} {pop pop} ifelse
  exch FMS} bdef
/csm {1 dpi2point div -1 dpi2point div scale neg translate
 dup landscapeMode eq {pop -90 rotate}
  {rotateMode eq {90 rotate} if} ifelse} bdef
% line types: solid, dotted, dashed, dotdash
/SO { [] 0 setdash } bdef
/DO { [.5 dpi2point mul 4 dpi2point mul] 0 setdash } bdef
/DA { [6 dpi2point mul] 0 setdash } bdef
/DD { [.5 dpi2point mul 4 dpi2point mul 6 dpi2point mul 4
  dpi2point mul] 0 setdash } bdef
% macros for lines and objects
/L {lineto stroke} bdef
/MP {3 1 roll moveto 1 sub {rlineto} repeat} bdef
/AP {{rlineto} repeat} bdef
/PDlw -1 def
/W {/PDlw currentlinewidth def setlinewidth} def
/PP {closepath eofill} bdef
/DP {closepath stroke} bdef
/MR {4 -2 roll moveto dup  0 exch rlineto exch 0 rlineto
  neg 0 exch rlineto closepath} bdef
/FR {MR stroke} bdef
/PR {MR fill} bdef
/L1i {{currentfile picstr readhexstring pop} image} bdef
/tMatrix matrix def
/MakeOval {newpath tMatrix currentmatrix pop translate scale
0 0 1 0 360 arc tMatrix setmatrix} bdef
/FO {MakeOval stroke} bdef
/PO {MakeOval fill} bdef
/PD {currentlinewidth 2 div 0 360 arc fill
   PDlw -1 eq not {PDlw w /PDlw -1 def} if} def
/FA {newpath tMatrix currentmatrix pop translate scale
  0 0 1 5 -2 roll arc tMatrix setmatrix stroke} bdef
/PA {newpath tMatrix currentmatrix pop	translate 0 0 moveto scale
  0 0 1 5 -2 roll arc closepath tMatrix setmatrix fill} bdef
/FAn {newpath tMatrix currentmatrix pop translate scale
  0 0 1 5 -2 roll arcn tMatrix setmatrix stroke} bdef
/PAn {newpath tMatrix currentmatrix pop translate 0 0 moveto scale
  0 0 1 5 -2 roll arcn closepath tMatrix setmatrix fill} bdef
/vradius 0 def /hradius 0 def /lry 0 def
/lrx 0 def /uly 0 def /ulx 0 def /rad 0 def
/MRR {/vradius xdef /hradius xdef /lry xdef /lrx xdef /uly xdef
  /ulx xdef newpath tMatrix currentmatrix pop ulx hradius add uly
  vradius add translate hradius vradius scale 0 0 1 180 270 arc 
  tMatrix setmatrix lrx hradius sub uly vradius add translate
  hradius vradius scale 0 0 1 270 360 arc tMatrix setmatrix
  lrx hradius sub lry vradius sub translate hradius vradius scale
  0 0 1 0 90 arc tMatrix setmatrix ulx hradius add lry vradius sub
  translate hradius vradius scale 0 0 1 90 180 arc tMatrix setmatrix
  closepath} bdef
/FRR {MRR stroke } bdef
/PRR {MRR fill } bdef
/MlrRR {/lry xdef /lrx xdef /uly xdef /ulx xdef /rad lry uly sub 2 div def
  newpath tMatrix currentmatrix pop ulx rad add uly rad add translate
  rad rad scale 0 0 1 90 270 arc tMatrix setmatrix lrx rad sub lry rad
  sub translate rad rad scale 0 0 1 270 90 arc tMatrix setmatrix
  closepath} bdef
/FlrRR {MlrRR stroke } bdef
/PlrRR {MlrRR fill } bdef
/MtbRR {/lry xdef /lrx xdef /uly xdef /ulx xdef /rad lrx ulx sub 2 div def
  newpath tMatrix currentmatrix pop ulx rad add uly rad add translate
  rad rad scale 0 0 1 180 360 arc tMatrix setmatrix lrx rad sub lry rad
  sub translate rad rad scale 0 0 1 0 180 arc tMatrix setmatrix
  closepath} bdef
/FtbRR {MtbRR stroke } bdef
/PtbRR {MtbRR fill } bdef
/stri 6 array def /dtri 6 array def
/smat 6 array def /dmat 6 array def
/tmat1 6 array def /tmat2 6 array def /dif 3 array def
/asub {/ind2 exch def /ind1 exch def dup dup
  ind1 get exch ind2 get sub exch } bdef
/tri_to_matrix {
  2 0 asub 3 1 asub 4 0 asub 5 1 asub
  dup 0 get exch 1 get 7 -1 roll astore } bdef
/compute_transform {
  dmat dtri tri_to_matrix tmat1 invertmatrix 
  smat stri tri_to_matrix tmat2 concatmatrix } bdef
/ds {stri astore pop} bdef
/dt {dtri astore pop} bdef
/db {2 copy /cols xdef /rows xdef mul dup 3 mul string
  currentfile exch readhexstring pop
  dup 0 3 index getinterval /rbmap xdef
  dup 2 index dup getinterval /gbmap xdef
  1 index dup 2 mul exch getinterval /bbmap xdef pop pop}bdef
/it {gs np dtri aload pop moveto lineto lineto cp c
  cols rows 8 compute_transform 
  rbmap gbmap bbmap true 3 colorimage gr}bdef
/il {newpath moveto lineto stroke}bdef
currentdict end def
%%EndProlog

%%BeginSetup
MathWorks begin

0 cap

end
%%EndSetup

%%Page: 1 1
%%BeginPageSetup
%%PageBoundingBox:    51   192   552   602
MathWorks begin
bpage
%%EndPageSetup

%%BeginObject: obj1
bplot

/dpi2point 12 def
portraitMode 0204 7344 csm

  417   110  6014  4924 MR c np
85 dict begin %Colortable dictionary
/c0 { 0.000000 0.000000 0.000000 sr} bdef
/c1 { 1.000000 1.000000 1.000000 sr} bdef
/c2 { 0.900000 0.000000 0.000000 sr} bdef
/c3 { 0.000000 0.820000 0.000000 sr} bdef
/c4 { 0.000000 0.000000 0.800000 sr} bdef
/c5 { 0.910000 0.820000 0.320000 sr} bdef
/c6 { 1.000000 0.260000 0.820000 sr} bdef
/c7 { 0.000000 0.820000 0.820000 sr} bdef
c0
1 j
1 sg
   0    0 6913 5185 PR
6 w
0 4225 5356 0 0 -4225 899 4614 4 MP
PP
-5356 0 0 4225 5356 0 0 -4225 899 4614 5 MP stroke
4 w
DO
SO
6 w
0 sg
 899  389 mt 6255  389 L
 899 4614 mt 6255 4614 L
6255 4614 mt 6255  389 L
 899 4614 mt  899  389 L
 899 4614 mt 6255 4614 L
 899 4614 mt  899  389 L
 899 4614 mt  899 4560 L
 899  389 mt  899  442 L
%%IncludeResource: font Helvetica
/Helvetica /WindowsLatin1Encoding 120 FMSR

 866 4759 mt 
(0) s
1791 4614 mt 1791 4560 L
1791  389 mt 1791  442 L
1758 4759 mt 
(5) s
2684 4614 mt 2684 4560 L
2684  389 mt 2684  442 L
2618 4759 mt 
(10) s
3577 4614 mt 3577 4560 L
3577  389 mt 3577  442 L
3511 4759 mt 
(15) s
4469 4614 mt 4469 4560 L
4469  389 mt 4469  442 L
4403 4759 mt 
(20) s
5362 4614 mt 5362 4560 L
5362  389 mt 5362  442 L
5296 4759 mt 
(25) s
6255 4614 mt 6255 4560 L
6255  389 mt 6255  442 L
6189 4759 mt 
(30) s
 899 4614 mt  952 4614 L
6255 4614 mt 6201 4614 L
 798 4658 mt 
(0) s
 899 4010 mt  952 4010 L
6255 4010 mt 6201 4010 L
 798 4054 mt 
(5) s
 899 3406 mt  952 3406 L
6255 3406 mt 6201 3406 L
 731 3450 mt 
(10) s
 899 2803 mt  952 2803 L
6255 2803 mt 6201 2803 L
 731 2847 mt 
(15) s
 899 2199 mt  952 2199 L
6255 2199 mt 6201 2199 L
 731 2243 mt 
(20) s
 899 1596 mt  952 1596 L
6255 1596 mt 6201 1596 L
 731 1640 mt 
(25) s
 899  992 mt  952  992 L
6255  992 mt 6201  992 L
 731 1036 mt 
(30) s
 899  389 mt  952  389 L
6255  389 mt 6201  389 L
 731  433 mt 
(35) s
 899  389 mt 6255  389 L
 899 4614 mt 6255 4614 L
6255 4614 mt 6255  389 L
 899 4614 mt  899  389 L
gs 899 389 5357 4226 MR c np
DA
24 w
/c8 { 0.000000 0.000000 1.000000 sr} bdef
c8
179 -182 179 -181 178 -181 179 -180 178 -178 179 -177 178 -176 179 -173 
178 -171 179 -169 178 -164 179 -161 178 -157 179 -151 178 -145 179 -139 
179 -131 178 -123 179 -115 178 -107 179 -97 178 -88 179 -79 178 -71 
179 -62 178 -54 179 -46 178 -40 179 -34 178 -29 899 4486 31 MP stroke
gr

24 w
c8
DA
gs 753 579 5649 4054 MR c np
SO
 839 4486 mt  959 4486 L
 899 4426 mt  899 4546 L
1017 4457 mt 1137 4457 L
1077 4397 mt 1077 4517 L
1196 4423 mt 1316 4423 L
1256 4363 mt 1256 4483 L
1374 4383 mt 1494 4383 L
1434 4323 mt 1434 4443 L
1553 4337 mt 1673 4337 L
1613 4277 mt 1613 4397 L
1731 4283 mt 1851 4283 L
1791 4223 mt 1791 4343 L
1910 4221 mt 2030 4221 L
1970 4161 mt 1970 4281 L
2088 4150 mt 2208 4150 L
2148 4090 mt 2148 4210 L
2267 4071 mt 2387 4071 L
2327 4011 mt 2327 4131 L
2445 3983 mt 2565 3983 L
2505 3923 mt 2505 4043 L
2624 3886 mt 2744 3886 L
2684 3826 mt 2684 3946 L
2802 3779 mt 2922 3779 L
2862 3719 mt 2862 3839 L
2981 3664 mt 3101 3664 L
3041 3604 mt 3041 3724 L
3159 3541 mt 3279 3541 L
3219 3481 mt 3219 3601 L
3338 3410 mt 3458 3410 L
3398 3350 mt 3398 3470 L
3517 3271 mt 3637 3271 L
3577 3211 mt 3577 3331 L
3695 3126 mt 3815 3126 L
3755 3066 mt 3755 3186 L
3874 2975 mt 3994 2975 L
3934 2915 mt 3934 3035 L
4052 2818 mt 4172 2818 L
4112 2758 mt 4112 2878 L
4231 2657 mt 4351 2657 L
4291 2597 mt 4291 2717 L
4409 2493 mt 4529 2493 L
4469 2433 mt 4469 2553 L
4588 2324 mt 4708 2324 L
4648 2264 mt 4648 2384 L
4766 2153 mt 4886 2153 L
4826 2093 mt 4826 2213 L
4945 1980 mt 5065 1980 L
5005 1920 mt 5005 2040 L
5123 1804 mt 5243 1804 L
5183 1744 mt 5183 1864 L
5302 1627 mt 5422 1627 L
5362 1567 mt 5362 1687 L
5480 1449 mt 5600 1449 L
5540 1389 mt 5540 1509 L
5659 1269 mt 5779 1269 L
5719 1209 mt 5719 1329 L
5837 1088 mt 5957 1088 L
5897 1028 mt 5897 1148 L
6016  907 mt 6136  907 L
6076  847 mt 6076  967 L
6195  725 mt 6315  725 L
6255  665 mt 6255  785 L
DA
gr

gs 899 389 5357 4226 MR c np
gr

0 sg
3293  294 mt 
(Channel D) s
%%IncludeResource: font Helvetica
/Helvetica /WindowsLatin1Encoding 204 FMSR

3140 4964 mt 
(SNR \(dB\)) s
 631 3783 mt  -90 rotate
(Information Rates \(nats/sec\)) s
90 rotate
gs 899 389 5357 4226 MR c np
/c9 { 1.000000 0.000000 0.000000 sr} bdef
c9
179 -162 179 -162 178 -161 179 -161 178 -160 179 -158 178 -158 179 -155 
178 -154 179 -152 178 -149 179 -145 178 -142 179 -137 178 -133 179 -127 
179 -120 178 -114 179 -106 178 -99 179 -90 178 -83 179 -74 178 -66 
179 -58 178 -51 179 -44 178 -37 179 -32 178 -27 899 4494 31 MP stroke
gr

c9
gs 753 931 5649 3710 MR c np
SO
 857 4452 mt  941 4536 L
 941 4452 mt  857 4536 L
1035 4425 mt 1119 4509 L
1119 4425 mt 1035 4509 L
1214 4393 mt 1298 4477 L
1298 4393 mt 1214 4477 L
1392 4356 mt 1476 4440 L
1476 4356 mt 1392 4440 L
1571 4312 mt 1655 4396 L
1655 4312 mt 1571 4396 L
1749 4261 mt 1833 4345 L
1833 4261 mt 1749 4345 L
1928 4203 mt 2012 4287 L
2012 4203 mt 1928 4287 L
2106 4137 mt 2190 4221 L
2190 4137 mt 2106 4221 L
2285 4063 mt 2369 4147 L
2369 4063 mt 2285 4147 L
2463 3980 mt 2547 4064 L
2547 3980 mt 2463 4064 L
2642 3890 mt 2726 3974 L
2726 3890 mt 2642 3974 L
2820 3791 mt 2904 3875 L
2904 3791 mt 2820 3875 L
2999 3685 mt 3083 3769 L
3083 3685 mt 2999 3769 L
3177 3571 mt 3261 3655 L
3261 3571 mt 3177 3655 L
3356 3451 mt 3440 3535 L
3440 3451 mt 3356 3535 L
3535 3324 mt 3619 3408 L
3619 3324 mt 3535 3408 L
3713 3191 mt 3797 3275 L
3797 3191 mt 3713 3275 L
3892 3054 mt 3976 3138 L
3976 3054 mt 3892 3138 L
4070 2912 mt 4154 2996 L
4154 2912 mt 4070 2996 L
4249 2767 mt 4333 2851 L
4333 2767 mt 4249 2851 L
4427 2618 mt 4511 2702 L
4511 2618 mt 4427 2702 L
4606 2466 mt 4690 2550 L
4690 2466 mt 4606 2550 L
4784 2312 mt 4868 2396 L
4868 2312 mt 4784 2396 L
4963 2157 mt 5047 2241 L
5047 2157 mt 4963 2241 L
5141 1999 mt 5225 2083 L
5225 1999 mt 5141 2083 L
5320 1841 mt 5404 1925 L
5404 1841 mt 5320 1925 L
5498 1681 mt 5582 1765 L
5582 1681 mt 5498 1765 L
5677 1520 mt 5761 1604 L
5761 1520 mt 5677 1604 L
5855 1359 mt 5939 1443 L
5939 1359 mt 5855 1443 L
6034 1197 mt 6118 1281 L
6118 1197 mt 6034 1281 L
6213 1035 mt 6297 1119 L
6297 1035 mt 6213 1119 L
DA
gr

gs 899 389 5357 4226 MR c np
SO
c8
179 -199 179 -198 178 -197 179 -195 178 -194 179 -191 178 -189 179 -186 
178 -183 179 -179 178 -175 179 -170 178 -164 179 -158 178 -151 179 -144 
179 -136 178 -127 179 -118 178 -109 179 -100 178 -91 179 -82 178 -73 
179 -64 178 -57 179 -49 178 -42 179 -36 178 -30 899 4475 31 MP stroke
gr

c8
SO
gs 753 342 5649 4280 MR c np
 839 4475 mt  959 4475 L
 899 4415 mt  899 4535 L
1017 4445 mt 1137 4445 L
1077 4385 mt 1077 4505 L
1196 4409 mt 1316 4409 L
1256 4349 mt 1256 4469 L
1374 4367 mt 1494 4367 L
1434 4307 mt 1434 4427 L
1553 4318 mt 1673 4318 L
1613 4258 mt 1613 4378 L
1731 4261 mt 1851 4261 L
1791 4201 mt 1791 4321 L
1910 4197 mt 2030 4197 L
1970 4137 mt 1970 4257 L
2088 4124 mt 2208 4124 L
2148 4064 mt 2148 4184 L
2267 4042 mt 2387 4042 L
2327 3982 mt 2327 4102 L
2445 3951 mt 2565 3951 L
2505 3891 mt 2505 4011 L
2624 3851 mt 2744 3851 L
2684 3791 mt 2684 3911 L
2802 3742 mt 2922 3742 L
2862 3682 mt 2862 3802 L
2981 3624 mt 3101 3624 L
3041 3564 mt 3041 3684 L
3159 3497 mt 3279 3497 L
3219 3437 mt 3219 3557 L
3338 3361 mt 3458 3361 L
3398 3301 mt 3398 3421 L
3517 3217 mt 3637 3217 L
3577 3157 mt 3577 3277 L
3695 3066 mt 3815 3066 L
3755 3006 mt 3755 3126 L
3874 2908 mt 3994 2908 L
3934 2848 mt 3934 2968 L
4052 2744 mt 4172 2744 L
4112 2684 mt 4112 2804 L
4231 2574 mt 4351 2574 L
4291 2514 mt 4291 2634 L
4409 2399 mt 4529 2399 L
4469 2339 mt 4469 2459 L
4588 2220 mt 4708 2220 L
4648 2160 mt 4648 2280 L
4766 2037 mt 4886 2037 L
4826 1977 mt 4826 2097 L
4945 1851 mt 5065 1851 L
5005 1791 mt 5005 1911 L
5123 1662 mt 5243 1662 L
5183 1602 mt 5183 1722 L
5302 1471 mt 5422 1471 L
5362 1411 mt 5362 1531 L
5480 1277 mt 5600 1277 L
5540 1217 mt 5540 1337 L
5659 1082 mt 5779 1082 L
5719 1022 mt 5719 1142 L
5837  885 mt 5957  885 L
5897  825 mt 5897  945 L
6016  687 mt 6136  687 L
6076  627 mt 6076  747 L
6195  488 mt 6315  488 L
6255  428 mt 6255  548 L
gs 899 389 5357 4226 MR c np
c9
179 -113 179 -113 178 -113 179 -113 178 -112 179 -112 178 -111 179 -111 
178 -109 179 -108 178 -107 179 -104 178 -102 179 -99 178 -95 179 -92 
179 -89 178 -84 179 -79 178 -74 179 -70 178 -64 179 -59 178 -53 
179 -48 178 -42 179 -38 178 -32 179 -29 178 -24 899 4502 31 MP stroke
gr

c9
 857 4460 mt  941 4544 L
 941 4460 mt  857 4544 L
1035 4436 mt 1119 4520 L
1119 4436 mt 1035 4520 L
1214 4407 mt 1298 4491 L
1298 4407 mt 1214 4491 L
1392 4375 mt 1476 4459 L
1476 4375 mt 1392 4459 L
1571 4337 mt 1655 4421 L
1655 4337 mt 1571 4421 L
1749 4295 mt 1833 4379 L
1833 4295 mt 1749 4379 L
1928 4247 mt 2012 4331 L
2012 4247 mt 1928 4331 L
2106 4194 mt 2190 4278 L
2190 4194 mt 2106 4278 L
2285 4135 mt 2369 4219 L
2369 4135 mt 2285 4219 L
2463 4071 mt 2547 4155 L
2547 4071 mt 2463 4155 L
2642 4001 mt 2726 4085 L
2726 4001 mt 2642 4085 L
2820 3927 mt 2904 4011 L
2904 3927 mt 2820 4011 L
2999 3848 mt 3083 3932 L
3083 3848 mt 2999 3932 L
3177 3764 mt 3261 3848 L
3261 3764 mt 3177 3848 L
3356 3675 mt 3440 3759 L
3440 3675 mt 3356 3759 L
3535 3583 mt 3619 3667 L
3619 3583 mt 3535 3667 L
3713 3488 mt 3797 3572 L
3797 3488 mt 3713 3572 L
3892 3389 mt 3976 3473 L
3976 3389 mt 3892 3473 L
4070 3287 mt 4154 3371 L
4154 3287 mt 4070 3371 L
4249 3183 mt 4333 3267 L
4333 3183 mt 4249 3267 L
4427 3076 mt 4511 3160 L
4511 3076 mt 4427 3160 L
4606 2968 mt 4690 3052 L
4690 2968 mt 4606 3052 L
4784 2859 mt 4868 2943 L
4868 2859 mt 4784 2943 L
4963 2748 mt 5047 2832 L
5047 2748 mt 4963 2832 L
5141 2637 mt 5225 2721 L
5225 2637 mt 5141 2721 L
5320 2525 mt 5404 2609 L
5404 2525 mt 5320 2609 L
5498 2413 mt 5582 2497 L
5582 2413 mt 5498 2497 L
5677 2300 mt 5761 2384 L
5761 2300 mt 5677 2384 L
5855 2187 mt 5939 2271 L
5939 2187 mt 5855 2271 L
6034 2074 mt 6118 2158 L
6118 2074 mt 6034 2158 L
6213 1961 mt 6297 2045 L
6297 1961 mt 6213 2045 L
gr

c9
gs 899 389 5357 4226 MR c np
gr

0 sg
%%IncludeResource: font Helvetica
/Helvetica /WindowsLatin1Encoding 120 FMSR

 882 4657 mt 
( ) s
6239  431 mt 
( ) s
6 w
1 sg
0 846 1913 0 0 -846 4283 4555 4 MP
PP
-1913 0 0 846 1913 0 0 -846 4283 4555 5 MP stroke
4 w
DO
SO
6 w
0 sg
4283 3709 mt 6196 3709 L
4283 4555 mt 6196 4555 L
6196 4555 mt 6196 3709 L
4283 4555 mt 4283 3709 L
4283 4555 mt 6196 4555 L
4283 4555 mt 4283 3709 L
4283 3709 mt 6196 3709 L
4283 4555 mt 6196 4555 L
6196 4555 mt 6196 3709 L
4283 4555 mt 4283 3709 L
%%IncludeResource: font Helvetica
/Helvetica /WindowsLatin1Encoding 168 FMSR

4733 3889 mt 
(SB JLD, Scheme 1) s
gs 4283 3709 1914 847 MR c np
DA
24 w
c8
346 0 4352 3829 2 MP stroke
SO
gr

24 w
c8
gs 4379 3683 293 293 MR c np
4465 3829 mt 4585 3829 L
4525 3769 mt 4525 3889 L
gr

gs 4283 3709 1914 847 MR c np
gr

0 sg
4733 4091 mt 
(SB ILD, Scheme 1) s
gs 4283 3709 1914 847 MR c np
DA
c9
346 0 4352 4031 2 MP stroke
SO
gs 4379 3885 293 293 MR c np
4483 3989 mt 4567 4073 L
4567 3989 mt 4483 4073 L
gr

gr

c9
0 sg
4733 4294 mt 
(SB JLD, Scheme 2) s
gs 4283 3709 1914 847 MR c np
c8
346 0 4352 4232 2 MP stroke
gs 4379 4086 293 293 MR c np
4465 4232 mt 4585 4232 L
4525 4172 mt 4525 4292 L
gr

gr

c8
0 sg
4733 4496 mt 
(SB ILD, Scheme 2) s
gs 4283 3709 1914 847 MR c np
c9
346 0 4352 4434 2 MP stroke
gr

c9
gs 4379 4288 293 293 MR c np
4483 4392 mt 4567 4476 L
4567 4392 mt 4483 4476 L
gr

gs 4283 3709 1914 847 MR c np
6 w
gr

6 w

end %%Color Dict

eplot
%%EndObject

epage
end

showpage

%%Trailer
%%EOF
