%!PS-Adobe-2.0 EPSF-1.2
%%Creator: MATLAB, The MathWorks, Inc. Version 7.14.0.739 (R2012a). Operating System: Microsoft Windows 7.
%%Title: .\RATE_CHA_SCHEME1.eps
%%CreationDate: 05/06/2015  12:27:48
%%DocumentNeededFonts: Helvetica
%%DocumentProcessColors: Cyan Magenta Yellow Black
%%Extensions: CMYK
%%Pages: 1
%%BoundingBox:    51   192   552   602
%%EndComments

%%BeginProlog
% MathWorks dictionary
/MathWorks 160 dict begin
% definition operators
/bdef {bind def} bind def
/ldef {load def} bind def
/xdef {exch def} bdef
/xstore {exch store} bdef
% operator abbreviations
/c  /clip ldef
/cc /concat ldef
/cp /closepath ldef
/gr /grestore ldef
/gs /gsave ldef
/mt /moveto ldef
/np /newpath ldef
/cm /currentmatrix ldef
/sm /setmatrix ldef
/rm /rmoveto ldef
/rl /rlineto ldef
/s {show newpath} bdef
/sc {setcmykcolor} bdef
/sr /setrgbcolor ldef
/sg /setgray ldef
/w /setlinewidth ldef
/j /setlinejoin ldef
/cap /setlinecap ldef
/rc {rectclip} bdef
/rf {rectfill} bdef
% page state control
/pgsv () def
/bpage {/pgsv save def} bdef
/epage {pgsv restore} bdef
/bplot /gsave ldef
/eplot {stroke grestore} bdef
% orientation switch
/portraitMode 0 def /landscapeMode 1 def /rotateMode 2 def
% coordinate system mappings
/dpi2point 0 def
% font control
/FontSize 0 def
/FMS {/FontSize xstore findfont [FontSize 0 0 FontSize neg 0 0]
  makefont setfont} bdef
/ISOLatin1Encoding where {pop /WindowsLatin1Encoding 256 array bdef
ISOLatin1Encoding WindowsLatin1Encoding copy pop
/.notdef/.notdef/quotesinglbase/florin/quotedblbase/ellipsis/dagger
/daggerdbl/circumflex/perthousand/Scaron/guilsinglleft/OE/.notdef/.notdef
/.notdef/.notdef/quoteleft/quoteright/quotedblleft/quotedblright/bullet
/endash/emdash/tilde/trademark/scaron/guilsinglright/oe/.notdef/.notdef
/Ydieresis WindowsLatin1Encoding 128 32 getinterval astore pop}
{/WindowsLatin1Encoding StandardEncoding bdef} ifelse
/reencode {exch dup where {pop load} {pop StandardEncoding} ifelse
  exch dup 3 1 roll findfont dup length dict begin
  { 1 index /FID ne {def}{pop pop} ifelse } forall
  /Encoding exch def currentdict end definefont pop} bdef
/isroman {findfont /CharStrings get /Agrave known} bdef
/FMSR {3 1 roll 1 index dup isroman {reencode} {pop pop} ifelse
  exch FMS} bdef
/csm {1 dpi2point div -1 dpi2point div scale neg translate
 dup landscapeMode eq {pop -90 rotate}
  {rotateMode eq {90 rotate} if} ifelse} bdef
% line types: solid, dotted, dashed, dotdash
/SO { [] 0 setdash } bdef
/DO { [.5 dpi2point mul 4 dpi2point mul] 0 setdash } bdef
/DA { [6 dpi2point mul] 0 setdash } bdef
/DD { [.5 dpi2point mul 4 dpi2point mul 6 dpi2point mul 4
  dpi2point mul] 0 setdash } bdef
% macros for lines and objects
/L {lineto stroke} bdef
/MP {3 1 roll moveto 1 sub {rlineto} repeat} bdef
/AP {{rlineto} repeat} bdef
/PDlw -1 def
/W {/PDlw currentlinewidth def setlinewidth} def
/PP {closepath eofill} bdef
/DP {closepath stroke} bdef
/MR {4 -2 roll moveto dup  0 exch rlineto exch 0 rlineto
  neg 0 exch rlineto closepath} bdef
/FR {MR stroke} bdef
/PR {MR fill} bdef
/L1i {{currentfile picstr readhexstring pop} image} bdef
/tMatrix matrix def
/MakeOval {newpath tMatrix currentmatrix pop translate scale
0 0 1 0 360 arc tMatrix setmatrix} bdef
/FO {MakeOval stroke} bdef
/PO {MakeOval fill} bdef
/PD {currentlinewidth 2 div 0 360 arc fill
   PDlw -1 eq not {PDlw w /PDlw -1 def} if} def
/FA {newpath tMatrix currentmatrix pop translate scale
  0 0 1 5 -2 roll arc tMatrix setmatrix stroke} bdef
/PA {newpath tMatrix currentmatrix pop	translate 0 0 moveto scale
  0 0 1 5 -2 roll arc closepath tMatrix setmatrix fill} bdef
/FAn {newpath tMatrix currentmatrix pop translate scale
  0 0 1 5 -2 roll arcn tMatrix setmatrix stroke} bdef
/PAn {newpath tMatrix currentmatrix pop translate 0 0 moveto scale
  0 0 1 5 -2 roll arcn closepath tMatrix setmatrix fill} bdef
/vradius 0 def /hradius 0 def /lry 0 def
/lrx 0 def /uly 0 def /ulx 0 def /rad 0 def
/MRR {/vradius xdef /hradius xdef /lry xdef /lrx xdef /uly xdef
  /ulx xdef newpath tMatrix currentmatrix pop ulx hradius add uly
  vradius add translate hradius vradius scale 0 0 1 180 270 arc 
  tMatrix setmatrix lrx hradius sub uly vradius add translate
  hradius vradius scale 0 0 1 270 360 arc tMatrix setmatrix
  lrx hradius sub lry vradius sub translate hradius vradius scale
  0 0 1 0 90 arc tMatrix setmatrix ulx hradius add lry vradius sub
  translate hradius vradius scale 0 0 1 90 180 arc tMatrix setmatrix
  closepath} bdef
/FRR {MRR stroke } bdef
/PRR {MRR fill } bdef
/MlrRR {/lry xdef /lrx xdef /uly xdef /ulx xdef /rad lry uly sub 2 div def
  newpath tMatrix currentmatrix pop ulx rad add uly rad add translate
  rad rad scale 0 0 1 90 270 arc tMatrix setmatrix lrx rad sub lry rad
  sub translate rad rad scale 0 0 1 270 90 arc tMatrix setmatrix
  closepath} bdef
/FlrRR {MlrRR stroke } bdef
/PlrRR {MlrRR fill } bdef
/MtbRR {/lry xdef /lrx xdef /uly xdef /ulx xdef /rad lrx ulx sub 2 div def
  newpath tMatrix currentmatrix pop ulx rad add uly rad add translate
  rad rad scale 0 0 1 180 360 arc tMatrix setmatrix lrx rad sub lry rad
  sub translate rad rad scale 0 0 1 0 180 arc tMatrix setmatrix
  closepath} bdef
/FtbRR {MtbRR stroke } bdef
/PtbRR {MtbRR fill } bdef
/stri 6 array def /dtri 6 array def
/smat 6 array def /dmat 6 array def
/tmat1 6 array def /tmat2 6 array def /dif 3 array def
/asub {/ind2 exch def /ind1 exch def dup dup
  ind1 get exch ind2 get sub exch } bdef
/tri_to_matrix {
  2 0 asub 3 1 asub 4 0 asub 5 1 asub
  dup 0 get exch 1 get 7 -1 roll astore } bdef
/compute_transform {
  dmat dtri tri_to_matrix tmat1 invertmatrix 
  smat stri tri_to_matrix tmat2 concatmatrix } bdef
/ds {stri astore pop} bdef
/dt {dtri astore pop} bdef
/db {2 copy /cols xdef /rows xdef mul dup 3 mul string
  currentfile exch readhexstring pop
  dup 0 3 index getinterval /rbmap xdef
  dup 2 index dup getinterval /gbmap xdef
  1 index dup 2 mul exch getinterval /bbmap xdef pop pop}bdef
/it {gs np dtri aload pop moveto lineto lineto cp c
  cols rows 8 compute_transform 
  rbmap gbmap bbmap true 3 colorimage gr}bdef
/il {newpath moveto lineto stroke}bdef
currentdict end def
%%EndProlog

%%BeginSetup
MathWorks begin

0 cap

end
%%EndSetup

%%Page: 1 1
%%BeginPageSetup
%%PageBoundingBox:    51   192   552   602
MathWorks begin
bpage
%%EndPageSetup

%%BeginObject: obj1
bplot

/dpi2point 12 def
portraitMode 0204 7344 csm

  417   110  6014  4924 MR c np
87 dict begin %Colortable dictionary
/c0 { 0.000000 0.000000 0.000000 sr} bdef
/c1 { 1.000000 1.000000 1.000000 sr} bdef
/c2 { 0.900000 0.000000 0.000000 sr} bdef
/c3 { 0.000000 0.820000 0.000000 sr} bdef
/c4 { 0.000000 0.000000 0.800000 sr} bdef
/c5 { 0.910000 0.820000 0.320000 sr} bdef
/c6 { 1.000000 0.260000 0.820000 sr} bdef
/c7 { 0.000000 0.820000 0.820000 sr} bdef
c0
1 j
1 sg
   0    0 6913 5185 PR
6 w
0 4225 5356 0 0 -4225 899 4614 4 MP
PP
-5356 0 0 4225 5356 0 0 -4225 899 4614 5 MP stroke
4 w
DO
SO
6 w
0 sg
 899  389 mt 6255  389 L
 899 4614 mt 6255 4614 L
6255 4614 mt 6255  389 L
 899 4614 mt  899  389 L
 899 4614 mt 6255 4614 L
 899 4614 mt  899  389 L
 899 4614 mt  899 4560 L
 899  389 mt  899  442 L
%%IncludeResource: font Helvetica
/Helvetica /WindowsLatin1Encoding 120 FMSR

 866 4759 mt 
(0) s
1791 4614 mt 1791 4560 L
1791  389 mt 1791  442 L
1758 4759 mt 
(5) s
2684 4614 mt 2684 4560 L
2684  389 mt 2684  442 L
2618 4759 mt 
(10) s
3577 4614 mt 3577 4560 L
3577  389 mt 3577  442 L
3511 4759 mt 
(15) s
4469 4614 mt 4469 4560 L
4469  389 mt 4469  442 L
4403 4759 mt 
(20) s
5362 4614 mt 5362 4560 L
5362  389 mt 5362  442 L
5296 4759 mt 
(25) s
6255 4614 mt 6255 4560 L
6255  389 mt 6255  442 L
6189 4759 mt 
(30) s
 899 4614 mt  952 4614 L
6255 4614 mt 6201 4614 L
 798 4658 mt 
(0) s
 899 4085 mt  952 4085 L
6255 4085 mt 6201 4085 L
 798 4129 mt 
(5) s
 899 3557 mt  952 3557 L
6255 3557 mt 6201 3557 L
 731 3601 mt 
(10) s
 899 3029 mt  952 3029 L
6255 3029 mt 6201 3029 L
 731 3073 mt 
(15) s
 899 2501 mt  952 2501 L
6255 2501 mt 6201 2501 L
 731 2545 mt 
(20) s
 899 1973 mt  952 1973 L
6255 1973 mt 6201 1973 L
 731 2017 mt 
(25) s
 899 1445 mt  952 1445 L
6255 1445 mt 6201 1445 L
 731 1489 mt 
(30) s
 899  917 mt  952  917 L
6255  917 mt 6201  917 L
 731  961 mt 
(35) s
 899  389 mt  952  389 L
6255  389 mt 6201  389 L
 731  433 mt 
(40) s
 899  389 mt 6255  389 L
 899 4614 mt 6255 4614 L
6255 4614 mt 6255  389 L
 899 4614 mt  899  389 L
gs 899 389 5357 4226 MR c np
24 w
/c8 { 0.000000 1.000000 0.000000 sr} bdef
c8
179 -169 179 -168 178 -168 179 -168 178 -167 179 -166 178 -165 179 -163 
178 -162 179 -161 178 -157 179 -155 178 -151 179 -147 178 -142 179 -137 
179 -130 178 -123 179 -115 178 -106 179 -98 178 -88 179 -79 178 -70 
179 -62 178 -53 179 -46 178 -38 179 -33 178 -27 899 4495 31 MP stroke
gr

24 w
c8
gs 753 735 5649 3907 MR c np
 839 4495 mt  959 4495 L
 899 4435 mt  899 4555 L
1017 4468 mt 1137 4468 L
1077 4408 mt 1077 4528 L
1196 4435 mt 1316 4435 L
1256 4375 mt 1256 4495 L
1374 4397 mt 1494 4397 L
1434 4337 mt 1434 4457 L
1553 4351 mt 1673 4351 L
1613 4291 mt 1613 4411 L
1731 4298 mt 1851 4298 L
1791 4238 mt 1791 4358 L
1910 4236 mt 2030 4236 L
1970 4176 mt 1970 4296 L
2088 4166 mt 2208 4166 L
2148 4106 mt 2148 4226 L
2267 4087 mt 2387 4087 L
2327 4027 mt 2327 4147 L
2445 3999 mt 2565 3999 L
2505 3939 mt 2505 4059 L
2624 3901 mt 2744 3901 L
2684 3841 mt 2684 3961 L
2802 3795 mt 2922 3795 L
2862 3735 mt 2862 3855 L
2981 3680 mt 3101 3680 L
3041 3620 mt 3041 3740 L
3159 3557 mt 3279 3557 L
3219 3497 mt 3219 3617 L
3338 3427 mt 3458 3427 L
3398 3367 mt 3398 3487 L
3517 3290 mt 3637 3290 L
3577 3230 mt 3577 3350 L
3695 3148 mt 3815 3148 L
3755 3088 mt 3755 3208 L
3874 3001 mt 3994 3001 L
3934 2941 mt 3934 3061 L
4052 2850 mt 4172 2850 L
4112 2790 mt 4112 2910 L
4231 2695 mt 4351 2695 L
4291 2635 mt 4291 2755 L
4409 2538 mt 4529 2538 L
4469 2478 mt 4469 2598 L
4588 2377 mt 4708 2377 L
4648 2317 mt 4648 2437 L
4766 2215 mt 4886 2215 L
4826 2155 mt 4826 2275 L
4945 2052 mt 5065 2052 L
5005 1992 mt 5005 2112 L
5123 1887 mt 5243 1887 L
5183 1827 mt 5183 1947 L
5302 1721 mt 5422 1721 L
5362 1661 mt 5362 1781 L
5480 1554 mt 5600 1554 L
5540 1494 mt 5540 1614 L
5659 1386 mt 5779 1386 L
5719 1326 mt 5719 1446 L
5837 1218 mt 5957 1218 L
5897 1158 mt 5897 1278 L
6016 1050 mt 6136 1050 L
6076  990 mt 6076 1110 L
6195  881 mt 6315  881 L
6255  821 mt 6255  941 L
 857 4453 mt  941 4537 L
 941 4453 mt  857 4537 L
1035 4426 mt 1119 4510 L
1119 4426 mt 1035 4510 L
1214 4393 mt 1298 4477 L
1298 4393 mt 1214 4477 L
1392 4355 mt 1476 4439 L
1476 4355 mt 1392 4439 L
1571 4309 mt 1655 4393 L
1655 4309 mt 1571 4393 L
1749 4256 mt 1833 4340 L
1833 4256 mt 1749 4340 L
1928 4194 mt 2012 4278 L
2012 4194 mt 1928 4278 L
2106 4124 mt 2190 4208 L
2190 4124 mt 2106 4208 L
2285 4045 mt 2369 4129 L
2369 4045 mt 2285 4129 L
2463 3957 mt 2547 4041 L
2547 3957 mt 2463 4041 L
2642 3859 mt 2726 3943 L
2726 3859 mt 2642 3943 L
2820 3753 mt 2904 3837 L
2904 3753 mt 2820 3837 L
2999 3638 mt 3083 3722 L
3083 3638 mt 2999 3722 L
3177 3515 mt 3261 3599 L
3261 3515 mt 3177 3599 L
3356 3385 mt 3440 3469 L
3440 3385 mt 3356 3469 L
3535 3248 mt 3619 3332 L
3619 3248 mt 3535 3332 L
3713 3106 mt 3797 3190 L
3797 3106 mt 3713 3190 L
3892 2959 mt 3976 3043 L
3976 2959 mt 3892 3043 L
4070 2808 mt 4154 2892 L
4154 2808 mt 4070 2892 L
4249 2653 mt 4333 2737 L
4333 2653 mt 4249 2737 L
4427 2496 mt 4511 2580 L
4511 2496 mt 4427 2580 L
4606 2335 mt 4690 2419 L
4690 2335 mt 4606 2419 L
4784 2173 mt 4868 2257 L
4868 2173 mt 4784 2257 L
4963 2010 mt 5047 2094 L
5047 2010 mt 4963 2094 L
5141 1845 mt 5225 1929 L
5225 1845 mt 5141 1929 L
5320 1679 mt 5404 1763 L
5404 1679 mt 5320 1763 L
5498 1512 mt 5582 1596 L
5582 1512 mt 5498 1596 L
5677 1344 mt 5761 1428 L
5761 1344 mt 5677 1428 L
5855 1176 mt 5939 1260 L
5939 1176 mt 5855 1260 L
6034 1008 mt 6118 1092 L
6118 1008 mt 6034 1092 L
6213  839 mt 6297  923 L
6297  839 mt 6213  923 L
gr

gs 899 389 5357 4226 MR c np
gr

0 sg
2992  294 mt 
(Channel A, Scheme 1) s
%%IncludeResource: font Helvetica
/Helvetica /WindowsLatin1Encoding 204 FMSR

3140 4964 mt 
(SNR \(dB\)) s
 631 3783 mt  -90 rotate
(Information Rates \(nats/sec\)) s
90 rotate
gs 899 389 5357 4226 MR c np
/c9 { 0.000000 0.000000 1.000000 sr} bdef
c9
179 -168 179 -168 178 -168 179 -167 178 -166 179 -165 178 -163 179 -163 
178 -160 179 -157 178 -155 179 -151 178 -148 179 -142 178 -137 179 -130 
179 -123 178 -115 179 -107 178 -98 179 -88 178 -80 179 -70 178 -62 
179 -53 178 -46 179 -39 178 -33 179 -27 178 -23 899 4517 31 MP stroke
gr

c9
gs 753 899 5649 3765 MR c np
0 j
0 -94 -94 0 0 94 94 0 852 4470 5 MP
DP
0 -94 -94 0 0 94 94 0 1030 4447 5 MP
DP
0 -94 -94 0 0 94 94 0 1209 4420 5 MP
DP
0 -94 -94 0 0 94 94 0 1387 4387 5 MP
DP
0 -94 -94 0 0 94 94 0 1566 4348 5 MP
DP
0 -94 -94 0 0 94 94 0 1744 4302 5 MP
DP
0 -94 -94 0 0 94 94 0 1923 4249 5 MP
DP
0 -94 -94 0 0 94 94 0 2101 4187 5 MP
DP
0 -94 -94 0 0 94 94 0 2280 4117 5 MP
DP
0 -94 -94 0 0 94 94 0 2458 4037 5 MP
DP
0 -94 -94 0 0 94 94 0 2637 3949 5 MP
DP
0 -94 -94 0 0 94 94 0 2815 3851 5 MP
DP
0 -94 -94 0 0 94 94 0 2994 3744 5 MP
DP
0 -94 -94 0 0 94 94 0 3172 3629 5 MP
DP
0 -94 -94 0 0 94 94 0 3351 3506 5 MP
DP
0 -94 -94 0 0 94 94 0 3530 3376 5 MP
DP
0 -94 -94 0 0 94 94 0 3708 3239 5 MP
DP
0 -94 -94 0 0 94 94 0 3887 3097 5 MP
DP
0 -94 -94 0 0 94 94 0 4065 2949 5 MP
DP
0 -94 -94 0 0 94 94 0 4244 2798 5 MP
DP
0 -94 -94 0 0 94 94 0 4422 2643 5 MP
DP
0 -94 -94 0 0 94 94 0 4601 2486 5 MP
DP
0 -94 -94 0 0 94 94 0 4779 2326 5 MP
DP
0 -94 -94 0 0 94 94 0 4958 2163 5 MP
DP
0 -94 -94 0 0 94 94 0 5136 2000 5 MP
DP
0 -94 -94 0 0 94 94 0 5315 1835 5 MP
DP
0 -94 -94 0 0 94 94 0 5493 1669 5 MP
DP
0 -94 -94 0 0 94 94 0 5672 1502 5 MP
DP
0 -94 -94 0 0 94 94 0 5850 1334 5 MP
DP
0 -94 -94 0 0 94 94 0 6029 1166 5 MP
DP
0 -94 -94 0 0 94 94 0 6208 998 5 MP
DP
gr

gs 899 389 5357 4226 MR c np
/c10 { 1.000000 0.000000 1.000000 sr} bdef
c10
179 -168 179 -168 178 -168 179 -167 178 -166 179 -165 178 -163 179 -163 
178 -160 179 -157 178 -155 179 -152 178 -147 179 -142 178 -137 179 -130 
179 -123 178 -115 179 -107 178 -98 179 -88 178 -80 179 -70 178 -62 
179 -53 178 -46 179 -39 178 -33 179 -27 178 -23 899 4517 31 MP stroke
gr

c10
gs 753 899 5649 3765 MR c np
 839 4517 mt  959 4517 L
 899 4457 mt  899 4577 L
1017 4494 mt 1137 4494 L
1077 4434 mt 1077 4554 L
1196 4467 mt 1316 4467 L
1256 4407 mt 1256 4527 L
1374 4434 mt 1494 4434 L
1434 4374 mt 1434 4494 L
1553 4395 mt 1673 4395 L
1613 4335 mt 1613 4455 L
1731 4349 mt 1851 4349 L
1791 4289 mt 1791 4409 L
1910 4296 mt 2030 4296 L
1970 4236 mt 1970 4356 L
2088 4234 mt 2208 4234 L
2148 4174 mt 2148 4294 L
2267 4164 mt 2387 4164 L
2327 4104 mt 2327 4224 L
2445 4084 mt 2565 4084 L
2505 4024 mt 2505 4144 L
2624 3996 mt 2744 3996 L
2684 3936 mt 2684 4056 L
2802 3898 mt 2922 3898 L
2862 3838 mt 2862 3958 L
2981 3791 mt 3101 3791 L
3041 3731 mt 3041 3851 L
3159 3676 mt 3279 3676 L
3219 3616 mt 3219 3736 L
3338 3553 mt 3458 3553 L
3398 3493 mt 3398 3613 L
3517 3423 mt 3637 3423 L
3577 3363 mt 3577 3483 L
3695 3286 mt 3815 3286 L
3755 3226 mt 3755 3346 L
3874 3144 mt 3994 3144 L
3934 3084 mt 3934 3204 L
4052 2997 mt 4172 2997 L
4112 2937 mt 4112 3057 L
4231 2845 mt 4351 2845 L
4291 2785 mt 4291 2905 L
4409 2690 mt 4529 2690 L
4469 2630 mt 4469 2750 L
4588 2533 mt 4708 2533 L
4648 2473 mt 4648 2593 L
4766 2373 mt 4886 2373 L
4826 2313 mt 4826 2433 L
4945 2210 mt 5065 2210 L
5005 2150 mt 5005 2270 L
5123 2047 mt 5243 2047 L
5183 1987 mt 5183 2107 L
5302 1882 mt 5422 1882 L
5362 1822 mt 5362 1942 L
5480 1716 mt 5600 1716 L
5540 1656 mt 5540 1776 L
5659 1549 mt 5779 1549 L
5719 1489 mt 5719 1609 L
5837 1381 mt 5957 1381 L
5897 1321 mt 5897 1441 L
6016 1213 mt 6136 1213 L
6076 1153 mt 6076 1273 L
6195 1045 mt 6315 1045 L
6255  985 mt 6255 1105 L
gr

gs 899 389 5357 4226 MR c np
/c11 { 1.000000 0.000000 0.000000 sr} bdef
c11
179 -168 179 -167 178 -167 179 -166 178 -166 179 -164 178 -163 179 -162 
178 -160 179 -157 178 -155 179 -151 178 -147 179 -142 178 -137 179 -130 
179 -123 178 -115 179 -107 178 -98 179 -89 178 -79 179 -70 178 -62 
179 -53 178 -46 179 -39 178 -33 179 -27 178 -23 899 4517 31 MP stroke
gr

c11
gs 753 905 5649 3759 MR c np
 857 4475 mt  941 4559 L
 941 4475 mt  857 4559 L
1035 4452 mt 1119 4536 L
1119 4452 mt 1035 4536 L
1214 4425 mt 1298 4509 L
1298 4425 mt 1214 4509 L
1392 4392 mt 1476 4476 L
1476 4392 mt 1392 4476 L
1571 4353 mt 1655 4437 L
1655 4353 mt 1571 4437 L
1749 4307 mt 1833 4391 L
1833 4307 mt 1749 4391 L
1928 4254 mt 2012 4338 L
2012 4254 mt 1928 4338 L
2106 4192 mt 2190 4276 L
2190 4192 mt 2106 4276 L
2285 4122 mt 2369 4206 L
2369 4122 mt 2285 4206 L
2463 4043 mt 2547 4127 L
2547 4043 mt 2463 4127 L
2642 3954 mt 2726 4038 L
2726 3954 mt 2642 4038 L
2820 3856 mt 2904 3940 L
2904 3856 mt 2820 3940 L
2999 3749 mt 3083 3833 L
3083 3749 mt 2999 3833 L
3177 3634 mt 3261 3718 L
3261 3634 mt 3177 3718 L
3356 3511 mt 3440 3595 L
3440 3511 mt 3356 3595 L
3535 3381 mt 3619 3465 L
3619 3381 mt 3535 3465 L
3713 3244 mt 3797 3328 L
3797 3244 mt 3713 3328 L
3892 3102 mt 3976 3186 L
3976 3102 mt 3892 3186 L
4070 2955 mt 4154 3039 L
4154 2955 mt 4070 3039 L
4249 2804 mt 4333 2888 L
4333 2804 mt 4249 2888 L
4427 2649 mt 4511 2733 L
4511 2649 mt 4427 2733 L
4606 2492 mt 4690 2576 L
4690 2492 mt 4606 2576 L
4784 2332 mt 4868 2416 L
4868 2332 mt 4784 2416 L
4963 2170 mt 5047 2254 L
5047 2170 mt 4963 2254 L
5141 2007 mt 5225 2091 L
5225 2007 mt 5141 2091 L
5320 1843 mt 5404 1927 L
5404 1843 mt 5320 1927 L
5498 1677 mt 5582 1761 L
5582 1677 mt 5498 1761 L
5677 1511 mt 5761 1595 L
5761 1511 mt 5677 1595 L
5855 1344 mt 5939 1428 L
5939 1344 mt 5855 1428 L
6034 1177 mt 6118 1261 L
6118 1177 mt 6034 1261 L
6213 1009 mt 6297 1093 L
6297 1009 mt 6213 1093 L
gr

gs 899 389 5357 4226 MR c np
gr

0 sg
%%IncludeResource: font Helvetica
/Helvetica /WindowsLatin1Encoding 120 FMSR

 882 4657 mt 
( ) s
6239  431 mt 
( ) s
6 w
1 sg
0 907 1367 0 0 -907 4828 4555 4 MP
PP
-1367 0 0 907 1367 0 0 -907 4828 4555 5 MP stroke
4 w
DO
SO
6 w
0 sg
4828 3648 mt 6195 3648 L
4828 4555 mt 6195 4555 L
6195 4555 mt 6195 3648 L
4828 4555 mt 4828 3648 L
4828 4555 mt 6195 4555 L
4828 4555 mt 4828 3648 L
4828 3648 mt 6195 3648 L
4828 4555 mt 6195 4555 L
6195 4555 mt 6195 3648 L
4828 4555 mt 4828 3648 L
%%IncludeResource: font Helvetica
/Helvetica /WindowsLatin1Encoding 168 FMSR

5281 3830 mt 
(Optimal Rx) s
gs 4828 3648 1368 908 MR c np
24 w
c8
348 0 4897 3769 2 MP stroke
gr

24 w
c8
gs 4925 3623 293 293 MR c np
5011 3769 mt 5131 3769 L
5071 3709 mt 5071 3829 L
5029 3727 mt 5113 3811 L
5113 3727 mt 5029 3811 L
gr

gs 4828 3648 1368 908 MR c np
gr

0 sg
5281 4090 mt 
(EB, K=K) s
%%IncludeResource: font Symbol
/Symbol /WindowsLatin1Encoding 132 FMSR

5917 4006 mt 
(\242) s
%%IncludeResource: font Helvetica
/Helvetica /WindowsLatin1Encoding 168 FMSR

5949 4090 mt 
(+1) s
gs 4828 3648 1368 908 MR c np
c9
348 0 4897 3999 2 MP stroke
gs 4925 3853 293 293 MR c np
0 j
0 -94 -94 0 0 94 94 0 5024 3952 5 MP
DP
gr

gr

c9
0 sg
5281 4289 mt 
(SB, JLD) s
gs 4828 3648 1368 908 MR c np
c10
348 0 4897 4228 2 MP stroke
gs 4925 4082 293 293 MR c np
5011 4228 mt 5131 4228 L
5071 4168 mt 5071 4288 L
gr

gr

c10
0 sg
5281 4494 mt 
(SB, ILD) s
gs 4828 3648 1368 908 MR c np
c11
348 0 4897 4433 2 MP stroke
gr

c11
gs 4925 4287 293 293 MR c np
5029 4391 mt 5113 4475 L
5113 4391 mt 5029 4475 L
gr

gs 4828 3648 1368 908 MR c np
6 w
gr

6 w

end %%Color Dict

eplot
%%EndObject

epage
end

showpage

%%Trailer
%%EOF
