%!PS-Adobe-2.0 EPSF-1.2
%%Creator: MATLAB, The MathWorks, Inc. Version 7.14.0.739 (R2012a). Operating System: Microsoft Windows 7.
%%Title: .\RATE_CHC_SCHEME2.eps
%%CreationDate: 05/06/2015  12:28:04
%%DocumentNeededFonts: Helvetica
%%DocumentProcessColors: Cyan Magenta Yellow Black
%%Extensions: CMYK
%%Pages: 1
%%BoundingBox:    51   192   552   602
%%EndComments

%%BeginProlog
% MathWorks dictionary
/MathWorks 160 dict begin
% definition operators
/bdef {bind def} bind def
/ldef {load def} bind def
/xdef {exch def} bdef
/xstore {exch store} bdef
% operator abbreviations
/c  /clip ldef
/cc /concat ldef
/cp /closepath ldef
/gr /grestore ldef
/gs /gsave ldef
/mt /moveto ldef
/np /newpath ldef
/cm /currentmatrix ldef
/sm /setmatrix ldef
/rm /rmoveto ldef
/rl /rlineto ldef
/s {show newpath} bdef
/sc {setcmykcolor} bdef
/sr /setrgbcolor ldef
/sg /setgray ldef
/w /setlinewidth ldef
/j /setlinejoin ldef
/cap /setlinecap ldef
/rc {rectclip} bdef
/rf {rectfill} bdef
% page state control
/pgsv () def
/bpage {/pgsv save def} bdef
/epage {pgsv restore} bdef
/bplot /gsave ldef
/eplot {stroke grestore} bdef
% orientation switch
/portraitMode 0 def /landscapeMode 1 def /rotateMode 2 def
% coordinate system mappings
/dpi2point 0 def
% font control
/FontSize 0 def
/FMS {/FontSize xstore findfont [FontSize 0 0 FontSize neg 0 0]
  makefont setfont} bdef
/ISOLatin1Encoding where {pop /WindowsLatin1Encoding 256 array bdef
ISOLatin1Encoding WindowsLatin1Encoding copy pop
/.notdef/.notdef/quotesinglbase/florin/quotedblbase/ellipsis/dagger
/daggerdbl/circumflex/perthousand/Scaron/guilsinglleft/OE/.notdef/.notdef
/.notdef/.notdef/quoteleft/quoteright/quotedblleft/quotedblright/bullet
/endash/emdash/tilde/trademark/scaron/guilsinglright/oe/.notdef/.notdef
/Ydieresis WindowsLatin1Encoding 128 32 getinterval astore pop}
{/WindowsLatin1Encoding StandardEncoding bdef} ifelse
/reencode {exch dup where {pop load} {pop StandardEncoding} ifelse
  exch dup 3 1 roll findfont dup length dict begin
  { 1 index /FID ne {def}{pop pop} ifelse } forall
  /Encoding exch def currentdict end definefont pop} bdef
/isroman {findfont /CharStrings get /Agrave known} bdef
/FMSR {3 1 roll 1 index dup isroman {reencode} {pop pop} ifelse
  exch FMS} bdef
/csm {1 dpi2point div -1 dpi2point div scale neg translate
 dup landscapeMode eq {pop -90 rotate}
  {rotateMode eq {90 rotate} if} ifelse} bdef
% line types: solid, dotted, dashed, dotdash
/SO { [] 0 setdash } bdef
/DO { [.5 dpi2point mul 4 dpi2point mul] 0 setdash } bdef
/DA { [6 dpi2point mul] 0 setdash } bdef
/DD { [.5 dpi2point mul 4 dpi2point mul 6 dpi2point mul 4
  dpi2point mul] 0 setdash } bdef
% macros for lines and objects
/L {lineto stroke} bdef
/MP {3 1 roll moveto 1 sub {rlineto} repeat} bdef
/AP {{rlineto} repeat} bdef
/PDlw -1 def
/W {/PDlw currentlinewidth def setlinewidth} def
/PP {closepath eofill} bdef
/DP {closepath stroke} bdef
/MR {4 -2 roll moveto dup  0 exch rlineto exch 0 rlineto
  neg 0 exch rlineto closepath} bdef
/FR {MR stroke} bdef
/PR {MR fill} bdef
/L1i {{currentfile picstr readhexstring pop} image} bdef
/tMatrix matrix def
/MakeOval {newpath tMatrix currentmatrix pop translate scale
0 0 1 0 360 arc tMatrix setmatrix} bdef
/FO {MakeOval stroke} bdef
/PO {MakeOval fill} bdef
/PD {currentlinewidth 2 div 0 360 arc fill
   PDlw -1 eq not {PDlw w /PDlw -1 def} if} def
/FA {newpath tMatrix currentmatrix pop translate scale
  0 0 1 5 -2 roll arc tMatrix setmatrix stroke} bdef
/PA {newpath tMatrix currentmatrix pop	translate 0 0 moveto scale
  0 0 1 5 -2 roll arc closepath tMatrix setmatrix fill} bdef
/FAn {newpath tMatrix currentmatrix pop translate scale
  0 0 1 5 -2 roll arcn tMatrix setmatrix stroke} bdef
/PAn {newpath tMatrix currentmatrix pop translate 0 0 moveto scale
  0 0 1 5 -2 roll arcn closepath tMatrix setmatrix fill} bdef
/vradius 0 def /hradius 0 def /lry 0 def
/lrx 0 def /uly 0 def /ulx 0 def /rad 0 def
/MRR {/vradius xdef /hradius xdef /lry xdef /lrx xdef /uly xdef
  /ulx xdef newpath tMatrix currentmatrix pop ulx hradius add uly
  vradius add translate hradius vradius scale 0 0 1 180 270 arc 
  tMatrix setmatrix lrx hradius sub uly vradius add translate
  hradius vradius scale 0 0 1 270 360 arc tMatrix setmatrix
  lrx hradius sub lry vradius sub translate hradius vradius scale
  0 0 1 0 90 arc tMatrix setmatrix ulx hradius add lry vradius sub
  translate hradius vradius scale 0 0 1 90 180 arc tMatrix setmatrix
  closepath} bdef
/FRR {MRR stroke } bdef
/PRR {MRR fill } bdef
/MlrRR {/lry xdef /lrx xdef /uly xdef /ulx xdef /rad lry uly sub 2 div def
  newpath tMatrix currentmatrix pop ulx rad add uly rad add translate
  rad rad scale 0 0 1 90 270 arc tMatrix setmatrix lrx rad sub lry rad
  sub translate rad rad scale 0 0 1 270 90 arc tMatrix setmatrix
  closepath} bdef
/FlrRR {MlrRR stroke } bdef
/PlrRR {MlrRR fill } bdef
/MtbRR {/lry xdef /lrx xdef /uly xdef /ulx xdef /rad lrx ulx sub 2 div def
  newpath tMatrix currentmatrix pop ulx rad add uly rad add translate
  rad rad scale 0 0 1 180 360 arc tMatrix setmatrix lrx rad sub lry rad
  sub translate rad rad scale 0 0 1 0 180 arc tMatrix setmatrix
  closepath} bdef
/FtbRR {MtbRR stroke } bdef
/PtbRR {MtbRR fill } bdef
/stri 6 array def /dtri 6 array def
/smat 6 array def /dmat 6 array def
/tmat1 6 array def /tmat2 6 array def /dif 3 array def
/asub {/ind2 exch def /ind1 exch def dup dup
  ind1 get exch ind2 get sub exch } bdef
/tri_to_matrix {
  2 0 asub 3 1 asub 4 0 asub 5 1 asub
  dup 0 get exch 1 get 7 -1 roll astore } bdef
/compute_transform {
  dmat dtri tri_to_matrix tmat1 invertmatrix 
  smat stri tri_to_matrix tmat2 concatmatrix } bdef
/ds {stri astore pop} bdef
/dt {dtri astore pop} bdef
/db {2 copy /cols xdef /rows xdef mul dup 3 mul string
  currentfile exch readhexstring pop
  dup 0 3 index getinterval /rbmap xdef
  dup 2 index dup getinterval /gbmap xdef
  1 index dup 2 mul exch getinterval /bbmap xdef pop pop}bdef
/it {gs np dtri aload pop moveto lineto lineto cp c
  cols rows 8 compute_transform 
  rbmap gbmap bbmap true 3 colorimage gr}bdef
/il {newpath moveto lineto stroke}bdef
currentdict end def
%%EndProlog

%%BeginSetup
MathWorks begin

0 cap

end
%%EndSetup

%%Page: 1 1
%%BeginPageSetup
%%PageBoundingBox:    51   192   552   602
MathWorks begin
bpage
%%EndPageSetup

%%BeginObject: obj1
bplot

/dpi2point 12 def
portraitMode 0204 7344 csm

  417   110  6014  4924 MR c np
87 dict begin %Colortable dictionary
/c0 { 0.000000 0.000000 0.000000 sr} bdef
/c1 { 1.000000 1.000000 1.000000 sr} bdef
/c2 { 0.900000 0.000000 0.000000 sr} bdef
/c3 { 0.000000 0.820000 0.000000 sr} bdef
/c4 { 0.000000 0.000000 0.800000 sr} bdef
/c5 { 0.910000 0.820000 0.320000 sr} bdef
/c6 { 1.000000 0.260000 0.820000 sr} bdef
/c7 { 0.000000 0.820000 0.820000 sr} bdef
c0
1 j
1 sg
   0    0 6913 5185 PR
6 w
0 4225 5356 0 0 -4225 899 4614 4 MP
PP
-5356 0 0 4225 5356 0 0 -4225 899 4614 5 MP stroke
4 w
DO
SO
6 w
0 sg
 899  389 mt 6255  389 L
 899 4614 mt 6255 4614 L
6255 4614 mt 6255  389 L
 899 4614 mt  899  389 L
 899 4614 mt 6255 4614 L
 899 4614 mt  899  389 L
 899 4614 mt  899 4560 L
 899  389 mt  899  442 L
%%IncludeResource: font Helvetica
/Helvetica /WindowsLatin1Encoding 120 FMSR

 866 4759 mt 
(0) s
1791 4614 mt 1791 4560 L
1791  389 mt 1791  442 L
1758 4759 mt 
(5) s
2684 4614 mt 2684 4560 L
2684  389 mt 2684  442 L
2618 4759 mt 
(10) s
3577 4614 mt 3577 4560 L
3577  389 mt 3577  442 L
3511 4759 mt 
(15) s
4469 4614 mt 4469 4560 L
4469  389 mt 4469  442 L
4403 4759 mt 
(20) s
5362 4614 mt 5362 4560 L
5362  389 mt 5362  442 L
5296 4759 mt 
(25) s
6255 4614 mt 6255 4560 L
6255  389 mt 6255  442 L
6189 4759 mt 
(30) s
 899 4614 mt  952 4614 L
6255 4614 mt 6201 4614 L
 798 4658 mt 
(0) s
 899 4144 mt  952 4144 L
6255 4144 mt 6201 4144 L
 798 4188 mt 
(5) s
 899 3675 mt  952 3675 L
6255 3675 mt 6201 3675 L
 731 3719 mt 
(10) s
 899 3205 mt  952 3205 L
6255 3205 mt 6201 3205 L
 731 3249 mt 
(15) s
 899 2736 mt  952 2736 L
6255 2736 mt 6201 2736 L
 731 2780 mt 
(20) s
 899 2266 mt  952 2266 L
6255 2266 mt 6201 2266 L
 731 2310 mt 
(25) s
 899 1797 mt  952 1797 L
6255 1797 mt 6201 1797 L
 731 1841 mt 
(30) s
 899 1327 mt  952 1327 L
6255 1327 mt 6201 1327 L
 731 1371 mt 
(35) s
 899  858 mt  952  858 L
6255  858 mt 6201  858 L
 731  902 mt 
(40) s
 899  389 mt  952  389 L
6255  389 mt 6201  389 L
 731  433 mt 
(45) s
 899  389 mt 6255  389 L
 899 4614 mt 6255 4614 L
6255 4614 mt 6255  389 L
 899 4614 mt  899  389 L
gs 899 389 5357 4226 MR c np
24 w
/c8 { 0.000000 1.000000 0.000000 sr} bdef
c8
179 -163 179 -163 178 -162 179 -162 178 -161 179 -160 178 -160 179 -158 
178 -158 179 -156 178 -155 179 -153 178 -151 179 -148 178 -146 179 -142 
179 -139 178 -134 179 -128 178 -124 179 -116 178 -110 179 -103 178 -94 
179 -87 178 -78 179 -71 178 -62 179 -55 178 -47 899 4376 31 MP stroke
gr

24 w
c8
gs 753 384 5649 4139 MR c np
 839 4376 mt  959 4376 L
 899 4316 mt  899 4436 L
1017 4329 mt 1137 4329 L
1077 4269 mt 1077 4389 L
1196 4274 mt 1316 4274 L
1256 4214 mt 1256 4334 L
1374 4212 mt 1494 4212 L
1434 4152 mt 1434 4272 L
1553 4141 mt 1673 4141 L
1613 4081 mt 1613 4201 L
1731 4063 mt 1851 4063 L
1791 4003 mt 1791 4123 L
1910 3976 mt 2030 3976 L
1970 3916 mt 1970 4036 L
2088 3882 mt 2208 3882 L
2148 3822 mt 2148 3942 L
2267 3779 mt 2387 3779 L
2327 3719 mt 2327 3839 L
2445 3669 mt 2565 3669 L
2505 3609 mt 2505 3729 L
2624 3553 mt 2744 3553 L
2684 3493 mt 2684 3613 L
2802 3429 mt 2922 3429 L
2862 3369 mt 2862 3489 L
2981 3301 mt 3101 3301 L
3041 3241 mt 3041 3361 L
3159 3167 mt 3279 3167 L
3219 3107 mt 3219 3227 L
3338 3028 mt 3458 3028 L
3398 2968 mt 3398 3088 L
3517 2886 mt 3637 2886 L
3577 2826 mt 3577 2946 L
3695 2740 mt 3815 2740 L
3755 2680 mt 3755 2800 L
3874 2592 mt 3994 2592 L
3934 2532 mt 3934 2652 L
4052 2441 mt 4172 2441 L
4112 2381 mt 4112 2501 L
4231 2288 mt 4351 2288 L
4291 2228 mt 4291 2348 L
4409 2133 mt 4529 2133 L
4469 2073 mt 4469 2193 L
4588 1977 mt 4708 1977 L
4648 1917 mt 4648 2037 L
4766 1819 mt 4886 1819 L
4826 1759 mt 4826 1879 L
4945 1661 mt 5065 1661 L
5005 1601 mt 5005 1721 L
5123 1501 mt 5243 1501 L
5183 1441 mt 5183 1561 L
5302 1341 mt 5422 1341 L
5362 1281 mt 5362 1401 L
5480 1180 mt 5600 1180 L
5540 1120 mt 5540 1240 L
5659 1018 mt 5779 1018 L
5719  958 mt 5719 1078 L
5837  856 mt 5957  856 L
5897  796 mt 5897  916 L
6016  693 mt 6136  693 L
6076  633 mt 6076  753 L
6195  530 mt 6315  530 L
6255  470 mt 6255  590 L
 857 4334 mt  941 4418 L
 941 4334 mt  857 4418 L
1035 4287 mt 1119 4371 L
1119 4287 mt 1035 4371 L
1214 4232 mt 1298 4316 L
1298 4232 mt 1214 4316 L
1392 4170 mt 1476 4254 L
1476 4170 mt 1392 4254 L
1571 4099 mt 1655 4183 L
1655 4099 mt 1571 4183 L
1749 4021 mt 1833 4105 L
1833 4021 mt 1749 4105 L
1928 3934 mt 2012 4018 L
2012 3934 mt 1928 4018 L
2106 3840 mt 2190 3924 L
2190 3840 mt 2106 3924 L
2285 3737 mt 2369 3821 L
2369 3737 mt 2285 3821 L
2463 3627 mt 2547 3711 L
2547 3627 mt 2463 3711 L
2642 3511 mt 2726 3595 L
2726 3511 mt 2642 3595 L
2820 3387 mt 2904 3471 L
2904 3387 mt 2820 3471 L
2999 3259 mt 3083 3343 L
3083 3259 mt 2999 3343 L
3177 3125 mt 3261 3209 L
3261 3125 mt 3177 3209 L
3356 2986 mt 3440 3070 L
3440 2986 mt 3356 3070 L
3535 2844 mt 3619 2928 L
3619 2844 mt 3535 2928 L
3713 2698 mt 3797 2782 L
3797 2698 mt 3713 2782 L
3892 2550 mt 3976 2634 L
3976 2550 mt 3892 2634 L
4070 2399 mt 4154 2483 L
4154 2399 mt 4070 2483 L
4249 2246 mt 4333 2330 L
4333 2246 mt 4249 2330 L
4427 2091 mt 4511 2175 L
4511 2091 mt 4427 2175 L
4606 1935 mt 4690 2019 L
4690 1935 mt 4606 2019 L
4784 1777 mt 4868 1861 L
4868 1777 mt 4784 1861 L
4963 1619 mt 5047 1703 L
5047 1619 mt 4963 1703 L
5141 1459 mt 5225 1543 L
5225 1459 mt 5141 1543 L
5320 1299 mt 5404 1383 L
5404 1299 mt 5320 1383 L
5498 1138 mt 5582 1222 L
5582 1138 mt 5498 1222 L
5677  976 mt 5761 1060 L
5761  976 mt 5677 1060 L
5855  814 mt 5939  898 L
5939  814 mt 5855  898 L
6034  651 mt 6118  735 L
6118  651 mt 6034  735 L
6213  488 mt 6297  572 L
6297  488 mt 6213  572 L
gr

gs 899 389 5357 4226 MR c np
gr

0 sg
2991  294 mt 
(Channel C, Scheme 2) s
%%IncludeResource: font Helvetica
/Helvetica /WindowsLatin1Encoding 204 FMSR

3140 4964 mt 
(SNR \(dB\)) s
 631 3783 mt  -90 rotate
(Information Rates \(nats/sec\)) s
90 rotate
gs 899 389 5357 4226 MR c np
/c9 { 0.000000 0.000000 1.000000 sr} bdef
c9
179 -161 179 -159 178 -159 179 -157 178 -156 179 -155 178 -153 179 -151 
178 -149 179 -145 178 -143 179 -138 178 -134 179 -129 178 -123 179 -117 
179 -109 178 -103 179 -94 178 -87 179 -78 178 -71 179 -62 178 -55 
179 -48 178 -41 179 -35 178 -30 179 -25 178 -20 899 4523 31 MP stroke
gr

c9
gs 753 1190 5649 3480 MR c np
0 j
0 -94 -94 0 0 94 94 0 852 4476 5 MP
DP
0 -94 -94 0 0 94 94 0 1030 4456 5 MP
DP
0 -94 -94 0 0 94 94 0 1209 4431 5 MP
DP
0 -94 -94 0 0 94 94 0 1387 4401 5 MP
DP
0 -94 -94 0 0 94 94 0 1566 4366 5 MP
DP
0 -94 -94 0 0 94 94 0 1744 4325 5 MP
DP
0 -94 -94 0 0 94 94 0 1923 4277 5 MP
DP
0 -94 -94 0 0 94 94 0 2101 4222 5 MP
DP
0 -94 -94 0 0 94 94 0 2280 4160 5 MP
DP
0 -94 -94 0 0 94 94 0 2458 4089 5 MP
DP
0 -94 -94 0 0 94 94 0 2637 4011 5 MP
DP
0 -94 -94 0 0 94 94 0 2815 3924 5 MP
DP
0 -94 -94 0 0 94 94 0 2994 3830 5 MP
DP
0 -94 -94 0 0 94 94 0 3172 3727 5 MP
DP
0 -94 -94 0 0 94 94 0 3351 3618 5 MP
DP
0 -94 -94 0 0 94 94 0 3530 3501 5 MP
DP
0 -94 -94 0 0 94 94 0 3708 3378 5 MP
DP
0 -94 -94 0 0 94 94 0 3887 3249 5 MP
DP
0 -94 -94 0 0 94 94 0 4065 3115 5 MP
DP
0 -94 -94 0 0 94 94 0 4244 2977 5 MP
DP
0 -94 -94 0 0 94 94 0 4422 2834 5 MP
DP
0 -94 -94 0 0 94 94 0 4601 2689 5 MP
DP
0 -94 -94 0 0 94 94 0 4779 2540 5 MP
DP
0 -94 -94 0 0 94 94 0 4958 2389 5 MP
DP
0 -94 -94 0 0 94 94 0 5136 2236 5 MP
DP
0 -94 -94 0 0 94 94 0 5315 2081 5 MP
DP
0 -94 -94 0 0 94 94 0 5493 1925 5 MP
DP
0 -94 -94 0 0 94 94 0 5672 1768 5 MP
DP
0 -94 -94 0 0 94 94 0 5850 1609 5 MP
DP
0 -94 -94 0 0 94 94 0 6029 1450 5 MP
DP
0 -94 -94 0 0 94 94 0 6208 1289 5 MP
DP
gr

gs 899 389 5357 4226 MR c np
/c10 { 1.000000 0.000000 1.000000 sr} bdef
c10
179 -160 179 -159 178 -158 179 -158 178 -156 179 -154 178 -153 179 -151 
178 -148 179 -146 178 -142 179 -138 178 -133 179 -129 178 -123 179 -116 
179 -109 178 -102 179 -95 178 -86 179 -78 178 -70 179 -62 178 -54 
179 -47 178 -41 179 -35 178 -29 179 -25 178 -20 899 4525 31 MP stroke
gr

c10
gs 753 1202 5649 3470 MR c np
 839 4525 mt  959 4525 L
 899 4465 mt  899 4585 L
1017 4505 mt 1137 4505 L
1077 4445 mt 1077 4565 L
1196 4480 mt 1316 4480 L
1256 4420 mt 1256 4540 L
1374 4451 mt 1494 4451 L
1434 4391 mt 1434 4511 L
1553 4416 mt 1673 4416 L
1613 4356 mt 1613 4476 L
1731 4375 mt 1851 4375 L
1791 4315 mt 1791 4435 L
1910 4328 mt 2030 4328 L
1970 4268 mt 1970 4388 L
2088 4274 mt 2208 4274 L
2148 4214 mt 2148 4334 L
2267 4212 mt 2387 4212 L
2327 4152 mt 2327 4272 L
2445 4142 mt 2565 4142 L
2505 4082 mt 2505 4202 L
2624 4064 mt 2744 4064 L
2684 4004 mt 2684 4124 L
2802 3978 mt 2922 3978 L
2862 3918 mt 2862 4038 L
2981 3883 mt 3101 3883 L
3041 3823 mt 3041 3943 L
3159 3781 mt 3279 3781 L
3219 3721 mt 3219 3841 L
3338 3672 mt 3458 3672 L
3398 3612 mt 3398 3732 L
3517 3556 mt 3637 3556 L
3577 3496 mt 3577 3616 L
3695 3433 mt 3815 3433 L
3755 3373 mt 3755 3493 L
3874 3304 mt 3994 3304 L
3934 3244 mt 3934 3364 L
4052 3171 mt 4172 3171 L
4112 3111 mt 4112 3231 L
4231 3033 mt 4351 3033 L
4291 2973 mt 4291 3093 L
4409 2891 mt 4529 2891 L
4469 2831 mt 4469 2951 L
4588 2745 mt 4708 2745 L
4648 2685 mt 4648 2805 L
4766 2597 mt 4886 2597 L
4826 2537 mt 4826 2657 L
4945 2446 mt 5065 2446 L
5005 2386 mt 5005 2506 L
5123 2293 mt 5243 2293 L
5183 2233 mt 5183 2353 L
5302 2139 mt 5422 2139 L
5362 2079 mt 5362 2199 L
5480 1983 mt 5600 1983 L
5540 1923 mt 5540 2043 L
5659 1825 mt 5779 1825 L
5719 1765 mt 5719 1885 L
5837 1667 mt 5957 1667 L
5897 1607 mt 5897 1727 L
6016 1508 mt 6136 1508 L
6076 1448 mt 6076 1568 L
6195 1348 mt 6315 1348 L
6255 1288 mt 6255 1408 L
gr

gs 899 389 5357 4226 MR c np
/c11 { 1.000000 0.000000 0.000000 sr} bdef
c11
179 -99 179 -99 178 -99 179 -99 178 -98 179 -99 178 -98 179 -98 
178 -97 179 -96 178 -94 179 -94 178 -91 179 -89 178 -87 179 -83 
179 -80 178 -76 179 -72 178 -67 179 -62 178 -57 179 -51 178 -46 
179 -40 178 -36 179 -31 178 -26 179 -23 178 -18 899 4530 31 MP stroke
gr

c11
gs 753 2179 5649 2498 MR c np
 857 4488 mt  941 4572 L
 941 4488 mt  857 4572 L
1035 4470 mt 1119 4554 L
1119 4470 mt 1035 4554 L
1214 4447 mt 1298 4531 L
1298 4447 mt 1214 4531 L
1392 4421 mt 1476 4505 L
1476 4421 mt 1392 4505 L
1571 4390 mt 1655 4474 L
1655 4390 mt 1571 4474 L
1749 4354 mt 1833 4438 L
1833 4354 mt 1749 4438 L
1928 4314 mt 2012 4398 L
2012 4314 mt 1928 4398 L
2106 4268 mt 2190 4352 L
2190 4268 mt 2106 4352 L
2285 4217 mt 2369 4301 L
2369 4217 mt 2285 4301 L
2463 4160 mt 2547 4244 L
2547 4160 mt 2463 4244 L
2642 4098 mt 2726 4182 L
2726 4098 mt 2642 4182 L
2820 4031 mt 2904 4115 L
2904 4031 mt 2820 4115 L
2999 3959 mt 3083 4043 L
3083 3959 mt 2999 4043 L
3177 3883 mt 3261 3967 L
3261 3883 mt 3177 3967 L
3356 3803 mt 3440 3887 L
3440 3803 mt 3356 3887 L
3535 3720 mt 3619 3804 L
3619 3720 mt 3535 3804 L
3713 3633 mt 3797 3717 L
3797 3633 mt 3713 3717 L
3892 3544 mt 3976 3628 L
3976 3544 mt 3892 3628 L
4070 3453 mt 4154 3537 L
4154 3453 mt 4070 3537 L
4249 3359 mt 4333 3443 L
4333 3359 mt 4249 3443 L
4427 3265 mt 4511 3349 L
4511 3265 mt 4427 3349 L
4606 3169 mt 4690 3253 L
4690 3169 mt 4606 3253 L
4784 3072 mt 4868 3156 L
4868 3072 mt 4784 3156 L
4963 2974 mt 5047 3058 L
5047 2974 mt 4963 3058 L
5141 2876 mt 5225 2960 L
5225 2876 mt 5141 2960 L
5320 2777 mt 5404 2861 L
5404 2777 mt 5320 2861 L
5498 2679 mt 5582 2763 L
5582 2679 mt 5498 2763 L
5677 2580 mt 5761 2664 L
5761 2580 mt 5677 2664 L
5855 2481 mt 5939 2565 L
5939 2481 mt 5855 2565 L
6034 2382 mt 6118 2466 L
6118 2382 mt 6034 2466 L
6213 2283 mt 6297 2367 L
6297 2283 mt 6213 2367 L
gr

gs 899 389 5357 4226 MR c np
gr

0 sg
%%IncludeResource: font Helvetica
/Helvetica /WindowsLatin1Encoding 120 FMSR

 882 4657 mt 
( ) s
6239  431 mt 
( ) s
6 w
1 sg
0 907 1367 0 0 -907 4828 4555 4 MP
PP
-1367 0 0 907 1367 0 0 -907 4828 4555 5 MP stroke
4 w
DO
SO
6 w
0 sg
4828 3648 mt 6195 3648 L
4828 4555 mt 6195 4555 L
6195 4555 mt 6195 3648 L
4828 4555 mt 4828 3648 L
4828 4555 mt 6195 4555 L
4828 4555 mt 4828 3648 L
4828 3648 mt 6195 3648 L
4828 4555 mt 6195 4555 L
6195 4555 mt 6195 3648 L
4828 4555 mt 4828 3648 L
%%IncludeResource: font Helvetica
/Helvetica /WindowsLatin1Encoding 168 FMSR

5281 3830 mt 
(Optimal Rx) s
gs 4828 3648 1368 908 MR c np
24 w
c8
348 0 4897 3769 2 MP stroke
gr

24 w
c8
gs 4925 3623 293 293 MR c np
5011 3769 mt 5131 3769 L
5071 3709 mt 5071 3829 L
5029 3727 mt 5113 3811 L
5113 3727 mt 5029 3811 L
gr

gs 4828 3648 1368 908 MR c np
gr

0 sg
5281 4090 mt 
(EB, K=K) s
%%IncludeResource: font Symbol
/Symbol /WindowsLatin1Encoding 132 FMSR

5917 4006 mt 
(\242) s
%%IncludeResource: font Helvetica
/Helvetica /WindowsLatin1Encoding 168 FMSR

5949 4090 mt 
(+1) s
gs 4828 3648 1368 908 MR c np
c9
348 0 4897 3999 2 MP stroke
gs 4925 3853 293 293 MR c np
0 j
0 -94 -94 0 0 94 94 0 5024 3952 5 MP
DP
gr

gr

c9
0 sg
5281 4289 mt 
(SB, JLD) s
gs 4828 3648 1368 908 MR c np
c10
348 0 4897 4228 2 MP stroke
gs 4925 4082 293 293 MR c np
5011 4228 mt 5131 4228 L
5071 4168 mt 5071 4288 L
gr

gr

c10
0 sg
5281 4494 mt 
(SB, ILD) s
gs 4828 3648 1368 908 MR c np
c11
348 0 4897 4433 2 MP stroke
gr

c11
gs 4925 4287 293 293 MR c np
5029 4391 mt 5113 4475 L
5113 4391 mt 5029 4475 L
gr

gs 4828 3648 1368 908 MR c np
6 w
gr

6 w

end %%Color Dict

eplot
%%EndObject

epage
end

showpage

%%Trailer
%%EOF
