%!PS-Adobe-2.0 EPSF-1.2
%%Creator: MATLAB, The MathWorks, Inc. Version 7.14.0.739 (R2012a). Operating System: Microsoft Windows 7.
%%Title: .\RATE_CHE_SCHEME1.eps
%%CreationDate: 05/06/2015  12:28:34
%%DocumentNeededFonts: Helvetica
%%DocumentProcessColors: Cyan Magenta Yellow Black
%%Extensions: CMYK
%%Pages: 1
%%BoundingBox:    51   192   552   602
%%EndComments

%%BeginProlog
% MathWorks dictionary
/MathWorks 160 dict begin
% definition operators
/bdef {bind def} bind def
/ldef {load def} bind def
/xdef {exch def} bdef
/xstore {exch store} bdef
% operator abbreviations
/c  /clip ldef
/cc /concat ldef
/cp /closepath ldef
/gr /grestore ldef
/gs /gsave ldef
/mt /moveto ldef
/np /newpath ldef
/cm /currentmatrix ldef
/sm /setmatrix ldef
/rm /rmoveto ldef
/rl /rlineto ldef
/s {show newpath} bdef
/sc {setcmykcolor} bdef
/sr /setrgbcolor ldef
/sg /setgray ldef
/w /setlinewidth ldef
/j /setlinejoin ldef
/cap /setlinecap ldef
/rc {rectclip} bdef
/rf {rectfill} bdef
% page state control
/pgsv () def
/bpage {/pgsv save def} bdef
/epage {pgsv restore} bdef
/bplot /gsave ldef
/eplot {stroke grestore} bdef
% orientation switch
/portraitMode 0 def /landscapeMode 1 def /rotateMode 2 def
% coordinate system mappings
/dpi2point 0 def
% font control
/FontSize 0 def
/FMS {/FontSize xstore findfont [FontSize 0 0 FontSize neg 0 0]
  makefont setfont} bdef
/ISOLatin1Encoding where {pop /WindowsLatin1Encoding 256 array bdef
ISOLatin1Encoding WindowsLatin1Encoding copy pop
/.notdef/.notdef/quotesinglbase/florin/quotedblbase/ellipsis/dagger
/daggerdbl/circumflex/perthousand/Scaron/guilsinglleft/OE/.notdef/.notdef
/.notdef/.notdef/quoteleft/quoteright/quotedblleft/quotedblright/bullet
/endash/emdash/tilde/trademark/scaron/guilsinglright/oe/.notdef/.notdef
/Ydieresis WindowsLatin1Encoding 128 32 getinterval astore pop}
{/WindowsLatin1Encoding StandardEncoding bdef} ifelse
/reencode {exch dup where {pop load} {pop StandardEncoding} ifelse
  exch dup 3 1 roll findfont dup length dict begin
  { 1 index /FID ne {def}{pop pop} ifelse } forall
  /Encoding exch def currentdict end definefont pop} bdef
/isroman {findfont /CharStrings get /Agrave known} bdef
/FMSR {3 1 roll 1 index dup isroman {reencode} {pop pop} ifelse
  exch FMS} bdef
/csm {1 dpi2point div -1 dpi2point div scale neg translate
 dup landscapeMode eq {pop -90 rotate}
  {rotateMode eq {90 rotate} if} ifelse} bdef
% line types: solid, dotted, dashed, dotdash
/SO { [] 0 setdash } bdef
/DO { [.5 dpi2point mul 4 dpi2point mul] 0 setdash } bdef
/DA { [6 dpi2point mul] 0 setdash } bdef
/DD { [.5 dpi2point mul 4 dpi2point mul 6 dpi2point mul 4
  dpi2point mul] 0 setdash } bdef
% macros for lines and objects
/L {lineto stroke} bdef
/MP {3 1 roll moveto 1 sub {rlineto} repeat} bdef
/AP {{rlineto} repeat} bdef
/PDlw -1 def
/W {/PDlw currentlinewidth def setlinewidth} def
/PP {closepath eofill} bdef
/DP {closepath stroke} bdef
/MR {4 -2 roll moveto dup  0 exch rlineto exch 0 rlineto
  neg 0 exch rlineto closepath} bdef
/FR {MR stroke} bdef
/PR {MR fill} bdef
/L1i {{currentfile picstr readhexstring pop} image} bdef
/tMatrix matrix def
/MakeOval {newpath tMatrix currentmatrix pop translate scale
0 0 1 0 360 arc tMatrix setmatrix} bdef
/FO {MakeOval stroke} bdef
/PO {MakeOval fill} bdef
/PD {currentlinewidth 2 div 0 360 arc fill
   PDlw -1 eq not {PDlw w /PDlw -1 def} if} def
/FA {newpath tMatrix currentmatrix pop translate scale
  0 0 1 5 -2 roll arc tMatrix setmatrix stroke} bdef
/PA {newpath tMatrix currentmatrix pop	translate 0 0 moveto scale
  0 0 1 5 -2 roll arc closepath tMatrix setmatrix fill} bdef
/FAn {newpath tMatrix currentmatrix pop translate scale
  0 0 1 5 -2 roll arcn tMatrix setmatrix stroke} bdef
/PAn {newpath tMatrix currentmatrix pop translate 0 0 moveto scale
  0 0 1 5 -2 roll arcn closepath tMatrix setmatrix fill} bdef
/vradius 0 def /hradius 0 def /lry 0 def
/lrx 0 def /uly 0 def /ulx 0 def /rad 0 def
/MRR {/vradius xdef /hradius xdef /lry xdef /lrx xdef /uly xdef
  /ulx xdef newpath tMatrix currentmatrix pop ulx hradius add uly
  vradius add translate hradius vradius scale 0 0 1 180 270 arc 
  tMatrix setmatrix lrx hradius sub uly vradius add translate
  hradius vradius scale 0 0 1 270 360 arc tMatrix setmatrix
  lrx hradius sub lry vradius sub translate hradius vradius scale
  0 0 1 0 90 arc tMatrix setmatrix ulx hradius add lry vradius sub
  translate hradius vradius scale 0 0 1 90 180 arc tMatrix setmatrix
  closepath} bdef
/FRR {MRR stroke } bdef
/PRR {MRR fill } bdef
/MlrRR {/lry xdef /lrx xdef /uly xdef /ulx xdef /rad lry uly sub 2 div def
  newpath tMatrix currentmatrix pop ulx rad add uly rad add translate
  rad rad scale 0 0 1 90 270 arc tMatrix setmatrix lrx rad sub lry rad
  sub translate rad rad scale 0 0 1 270 90 arc tMatrix setmatrix
  closepath} bdef
/FlrRR {MlrRR stroke } bdef
/PlrRR {MlrRR fill } bdef
/MtbRR {/lry xdef /lrx xdef /uly xdef /ulx xdef /rad lrx ulx sub 2 div def
  newpath tMatrix currentmatrix pop ulx rad add uly rad add translate
  rad rad scale 0 0 1 180 360 arc tMatrix setmatrix lrx rad sub lry rad
  sub translate rad rad scale 0 0 1 0 180 arc tMatrix setmatrix
  closepath} bdef
/FtbRR {MtbRR stroke } bdef
/PtbRR {MtbRR fill } bdef
/stri 6 array def /dtri 6 array def
/smat 6 array def /dmat 6 array def
/tmat1 6 array def /tmat2 6 array def /dif 3 array def
/asub {/ind2 exch def /ind1 exch def dup dup
  ind1 get exch ind2 get sub exch } bdef
/tri_to_matrix {
  2 0 asub 3 1 asub 4 0 asub 5 1 asub
  dup 0 get exch 1 get 7 -1 roll astore } bdef
/compute_transform {
  dmat dtri tri_to_matrix tmat1 invertmatrix 
  smat stri tri_to_matrix tmat2 concatmatrix } bdef
/ds {stri astore pop} bdef
/dt {dtri astore pop} bdef
/db {2 copy /cols xdef /rows xdef mul dup 3 mul string
  currentfile exch readhexstring pop
  dup 0 3 index getinterval /rbmap xdef
  dup 2 index dup getinterval /gbmap xdef
  1 index dup 2 mul exch getinterval /bbmap xdef pop pop}bdef
/it {gs np dtri aload pop moveto lineto lineto cp c
  cols rows 8 compute_transform 
  rbmap gbmap bbmap true 3 colorimage gr}bdef
/il {newpath moveto lineto stroke}bdef
currentdict end def
%%EndProlog

%%BeginSetup
MathWorks begin

0 cap

end
%%EndSetup

%%Page: 1 1
%%BeginPageSetup
%%PageBoundingBox:    51   192   552   602
MathWorks begin
bpage
%%EndPageSetup

%%BeginObject: obj1
bplot

/dpi2point 12 def
portraitMode 0204 7344 csm

  417   110  6014  4924 MR c np
87 dict begin %Colortable dictionary
/c0 { 0.000000 0.000000 0.000000 sr} bdef
/c1 { 1.000000 1.000000 1.000000 sr} bdef
/c2 { 0.900000 0.000000 0.000000 sr} bdef
/c3 { 0.000000 0.820000 0.000000 sr} bdef
/c4 { 0.000000 0.000000 0.800000 sr} bdef
/c5 { 0.910000 0.820000 0.320000 sr} bdef
/c6 { 1.000000 0.260000 0.820000 sr} bdef
/c7 { 0.000000 0.820000 0.820000 sr} bdef
c0
1 j
1 sg
   0    0 6913 5185 PR
6 w
0 4225 5356 0 0 -4225 899 4614 4 MP
PP
-5356 0 0 4225 5356 0 0 -4225 899 4614 5 MP stroke
4 w
DO
SO
6 w
0 sg
 899  389 mt 6255  389 L
 899 4614 mt 6255 4614 L
6255 4614 mt 6255  389 L
 899 4614 mt  899  389 L
 899 4614 mt 6255 4614 L
 899 4614 mt  899  389 L
 899 4614 mt  899 4560 L
 899  389 mt  899  442 L
%%IncludeResource: font Helvetica
/Helvetica /WindowsLatin1Encoding 120 FMSR

 866 4759 mt 
(0) s
1791 4614 mt 1791 4560 L
1791  389 mt 1791  442 L
1758 4759 mt 
(5) s
2684 4614 mt 2684 4560 L
2684  389 mt 2684  442 L
2618 4759 mt 
(10) s
3577 4614 mt 3577 4560 L
3577  389 mt 3577  442 L
3511 4759 mt 
(15) s
4469 4614 mt 4469 4560 L
4469  389 mt 4469  442 L
4403 4759 mt 
(20) s
5362 4614 mt 5362 4560 L
5362  389 mt 5362  442 L
5296 4759 mt 
(25) s
6255 4614 mt 6255 4560 L
6255  389 mt 6255  442 L
6189 4759 mt 
(30) s
 899 4614 mt  952 4614 L
6255 4614 mt 6201 4614 L
 798 4658 mt 
(0) s
 899 4144 mt  952 4144 L
6255 4144 mt 6201 4144 L
 798 4188 mt 
(5) s
 899 3675 mt  952 3675 L
6255 3675 mt 6201 3675 L
 731 3719 mt 
(10) s
 899 3205 mt  952 3205 L
6255 3205 mt 6201 3205 L
 731 3249 mt 
(15) s
 899 2736 mt  952 2736 L
6255 2736 mt 6201 2736 L
 731 2780 mt 
(20) s
 899 2266 mt  952 2266 L
6255 2266 mt 6201 2266 L
 731 2310 mt 
(25) s
 899 1797 mt  952 1797 L
6255 1797 mt 6201 1797 L
 731 1841 mt 
(30) s
 899 1327 mt  952 1327 L
6255 1327 mt 6201 1327 L
 731 1371 mt 
(35) s
 899  858 mt  952  858 L
6255  858 mt 6201  858 L
 731  902 mt 
(40) s
 899  389 mt  952  389 L
6255  389 mt 6201  389 L
 731  433 mt 
(45) s
 899  389 mt 6255  389 L
 899 4614 mt 6255 4614 L
6255 4614 mt 6255  389 L
 899 4614 mt  899  389 L
gs 899 389 5357 4226 MR c np
24 w
/c8 { 0.000000 1.000000 0.000000 sr} bdef
c8
179 -151 179 -150 178 -151 179 -151 178 -150 179 -150 178 -149 179 -150 
178 -148 179 -148 178 -147 179 -146 178 -145 179 -144 178 -141 179 -139 
179 -136 178 -133 179 -129 178 -124 179 -119 178 -113 179 -106 178 -100 
179 -91 178 -84 179 -76 178 -67 179 -60 178 -52 899 4347 31 MP stroke
gr

24 w
c8
gs 753 451 5649 4043 MR c np
 839 4347 mt  959 4347 L
 899 4287 mt  899 4407 L
1017 4295 mt 1137 4295 L
1077 4235 mt 1077 4355 L
1196 4235 mt 1316 4235 L
1256 4175 mt 1256 4295 L
1374 4168 mt 1494 4168 L
1434 4108 mt 1434 4228 L
1553 4092 mt 1673 4092 L
1613 4032 mt 1613 4152 L
1731 4008 mt 1851 4008 L
1791 3948 mt 1791 4068 L
1910 3917 mt 2030 3917 L
1970 3857 mt 1970 3977 L
2088 3817 mt 2208 3817 L
2148 3757 mt 2148 3877 L
2267 3711 mt 2387 3711 L
2327 3651 mt 2327 3771 L
2445 3598 mt 2565 3598 L
2505 3538 mt 2505 3658 L
2624 3479 mt 2744 3479 L
2684 3419 mt 2684 3539 L
2802 3355 mt 2922 3355 L
2862 3295 mt 2862 3415 L
2981 3226 mt 3101 3226 L
3041 3166 mt 3041 3286 L
3159 3093 mt 3279 3093 L
3219 3033 mt 3219 3153 L
3338 2957 mt 3458 2957 L
3398 2897 mt 3398 3017 L
3517 2818 mt 3637 2818 L
3577 2758 mt 3577 2878 L
3695 2677 mt 3815 2677 L
3755 2617 mt 3755 2737 L
3874 2533 mt 3994 2533 L
3934 2473 mt 3934 2593 L
4052 2388 mt 4172 2388 L
4112 2328 mt 4112 2448 L
4231 2242 mt 4351 2242 L
4291 2182 mt 4291 2302 L
4409 2095 mt 4529 2095 L
4469 2035 mt 4469 2155 L
4588 1947 mt 4708 1947 L
4648 1887 mt 4648 2007 L
4766 1799 mt 4886 1799 L
4826 1739 mt 4826 1859 L
4945 1649 mt 5065 1649 L
5005 1589 mt 5005 1709 L
5123 1500 mt 5243 1500 L
5183 1440 mt 5183 1560 L
5302 1350 mt 5422 1350 L
5362 1290 mt 5362 1410 L
5480 1200 mt 5600 1200 L
5540 1140 mt 5540 1260 L
5659 1049 mt 5779 1049 L
5719  989 mt 5719 1109 L
5837  898 mt 5957  898 L
5897  838 mt 5897  958 L
6016  748 mt 6136  748 L
6076  688 mt 6076  808 L
6195  597 mt 6315  597 L
6255  537 mt 6255  657 L
 857 4305 mt  941 4389 L
 941 4305 mt  857 4389 L
1035 4253 mt 1119 4337 L
1119 4253 mt 1035 4337 L
1214 4193 mt 1298 4277 L
1298 4193 mt 1214 4277 L
1392 4126 mt 1476 4210 L
1476 4126 mt 1392 4210 L
1571 4050 mt 1655 4134 L
1655 4050 mt 1571 4134 L
1749 3966 mt 1833 4050 L
1833 3966 mt 1749 4050 L
1928 3875 mt 2012 3959 L
2012 3875 mt 1928 3959 L
2106 3775 mt 2190 3859 L
2190 3775 mt 2106 3859 L
2285 3669 mt 2369 3753 L
2369 3669 mt 2285 3753 L
2463 3556 mt 2547 3640 L
2547 3556 mt 2463 3640 L
2642 3437 mt 2726 3521 L
2726 3437 mt 2642 3521 L
2820 3313 mt 2904 3397 L
2904 3313 mt 2820 3397 L
2999 3184 mt 3083 3268 L
3083 3184 mt 2999 3268 L
3177 3051 mt 3261 3135 L
3261 3051 mt 3177 3135 L
3356 2915 mt 3440 2999 L
3440 2915 mt 3356 2999 L
3535 2776 mt 3619 2860 L
3619 2776 mt 3535 2860 L
3713 2635 mt 3797 2719 L
3797 2635 mt 3713 2719 L
3892 2491 mt 3976 2575 L
3976 2491 mt 3892 2575 L
4070 2346 mt 4154 2430 L
4154 2346 mt 4070 2430 L
4249 2200 mt 4333 2284 L
4333 2200 mt 4249 2284 L
4427 2053 mt 4511 2137 L
4511 2053 mt 4427 2137 L
4606 1905 mt 4690 1989 L
4690 1905 mt 4606 1989 L
4784 1757 mt 4868 1841 L
4868 1757 mt 4784 1841 L
4963 1607 mt 5047 1691 L
5047 1607 mt 4963 1691 L
5141 1458 mt 5225 1542 L
5225 1458 mt 5141 1542 L
5320 1308 mt 5404 1392 L
5404 1308 mt 5320 1392 L
5498 1158 mt 5582 1242 L
5582 1158 mt 5498 1242 L
5677 1007 mt 5761 1091 L
5761 1007 mt 5677 1091 L
5855  856 mt 5939  940 L
5939  856 mt 5855  940 L
6034  706 mt 6118  790 L
6118  706 mt 6034  790 L
6213  555 mt 6297  639 L
6297  555 mt 6213  639 L
gr

gs 899 389 5357 4226 MR c np
gr

0 sg
2992  294 mt 
(Channel E, Scheme 1) s
%%IncludeResource: font Helvetica
/Helvetica /WindowsLatin1Encoding 204 FMSR

3140 4964 mt 
(SNR \(dB\)) s
 631 3783 mt  -90 rotate
(Information Rates \(nats/sec\)) s
90 rotate
gs 899 389 5357 4226 MR c np
/c9 { 0.000000 0.000000 1.000000 sr} bdef
c9
179 -146 179 -145 178 -145 179 -143 178 -143 179 -142 178 -140 179 -139 
178 -136 179 -135 178 -131 179 -129 178 -125 179 -121 178 -116 179 -111 
179 -105 178 -99 179 -93 178 -86 179 -78 178 -71 179 -64 178 -57 
179 -50 178 -44 179 -38 178 -32 179 -27 178 -23 899 4510 31 MP stroke
gr

c9
gs 753 1350 5649 3307 MR c np
0 j
0 -94 -94 0 0 94 94 0 852 4463 5 MP
DP
0 -94 -94 0 0 94 94 0 1030 4440 5 MP
DP
0 -94 -94 0 0 94 94 0 1209 4413 5 MP
DP
0 -94 -94 0 0 94 94 0 1387 4381 5 MP
DP
0 -94 -94 0 0 94 94 0 1566 4343 5 MP
DP
0 -94 -94 0 0 94 94 0 1744 4299 5 MP
DP
0 -94 -94 0 0 94 94 0 1923 4249 5 MP
DP
0 -94 -94 0 0 94 94 0 2101 4192 5 MP
DP
0 -94 -94 0 0 94 94 0 2280 4128 5 MP
DP
0 -94 -94 0 0 94 94 0 2458 4057 5 MP
DP
0 -94 -94 0 0 94 94 0 2637 3979 5 MP
DP
0 -94 -94 0 0 94 94 0 2815 3893 5 MP
DP
0 -94 -94 0 0 94 94 0 2994 3800 5 MP
DP
0 -94 -94 0 0 94 94 0 3172 3701 5 MP
DP
0 -94 -94 0 0 94 94 0 3351 3596 5 MP
DP
0 -94 -94 0 0 94 94 0 3530 3485 5 MP
DP
0 -94 -94 0 0 94 94 0 3708 3369 5 MP
DP
0 -94 -94 0 0 94 94 0 3887 3248 5 MP
DP
0 -94 -94 0 0 94 94 0 4065 3123 5 MP
DP
0 -94 -94 0 0 94 94 0 4244 2994 5 MP
DP
0 -94 -94 0 0 94 94 0 4422 2863 5 MP
DP
0 -94 -94 0 0 94 94 0 4601 2728 5 MP
DP
0 -94 -94 0 0 94 94 0 4779 2592 5 MP
DP
0 -94 -94 0 0 94 94 0 4958 2453 5 MP
DP
0 -94 -94 0 0 94 94 0 5136 2313 5 MP
DP
0 -94 -94 0 0 94 94 0 5315 2171 5 MP
DP
0 -94 -94 0 0 94 94 0 5493 2028 5 MP
DP
0 -94 -94 0 0 94 94 0 5672 1885 5 MP
DP
0 -94 -94 0 0 94 94 0 5850 1740 5 MP
DP
0 -94 -94 0 0 94 94 0 6029 1595 5 MP
DP
0 -94 -94 0 0 94 94 0 6208 1449 5 MP
DP
gr

gs 899 389 5357 4226 MR c np
/c10 { 1.000000 0.000000 1.000000 sr} bdef
c10
179 -142 179 -141 178 -140 179 -140 178 -139 179 -138 178 -136 179 -135 
178 -133 179 -131 178 -128 179 -125 178 -122 179 -118 178 -112 179 -108 
179 -102 178 -96 179 -90 178 -82 179 -76 178 -69 179 -61 178 -55 
179 -48 178 -42 179 -36 178 -32 179 -26 178 -22 899 4514 31 MP stroke
gr

c10
gs 753 1443 5649 3218 MR c np
 839 4514 mt  959 4514 L
 899 4454 mt  899 4574 L
1017 4492 mt 1137 4492 L
1077 4432 mt 1077 4552 L
1196 4466 mt 1316 4466 L
1256 4406 mt 1256 4526 L
1374 4434 mt 1494 4434 L
1434 4374 mt 1434 4494 L
1553 4398 mt 1673 4398 L
1613 4338 mt 1613 4458 L
1731 4356 mt 1851 4356 L
1791 4296 mt 1791 4416 L
1910 4308 mt 2030 4308 L
1970 4248 mt 1970 4368 L
2088 4253 mt 2208 4253 L
2148 4193 mt 2148 4313 L
2267 4192 mt 2387 4192 L
2327 4132 mt 2327 4252 L
2445 4123 mt 2565 4123 L
2505 4063 mt 2505 4183 L
2624 4047 mt 2744 4047 L
2684 3987 mt 2684 4107 L
2802 3965 mt 2922 3965 L
2862 3905 mt 2862 4025 L
2981 3875 mt 3101 3875 L
3041 3815 mt 3041 3935 L
3159 3779 mt 3279 3779 L
3219 3719 mt 3219 3839 L
3338 3677 mt 3458 3677 L
3398 3617 mt 3398 3737 L
3517 3569 mt 3637 3569 L
3577 3509 mt 3577 3629 L
3695 3457 mt 3815 3457 L
3755 3397 mt 3755 3517 L
3874 3339 mt 3994 3339 L
3934 3279 mt 3934 3399 L
4052 3217 mt 4172 3217 L
4112 3157 mt 4112 3277 L
4231 3092 mt 4351 3092 L
4291 3032 mt 4291 3152 L
4409 2964 mt 4529 2964 L
4469 2904 mt 4469 3024 L
4588 2833 mt 4708 2833 L
4648 2773 mt 4648 2893 L
4766 2700 mt 4886 2700 L
4826 2640 mt 4826 2760 L
4945 2565 mt 5065 2565 L
5005 2505 mt 5005 2625 L
5123 2429 mt 5243 2429 L
5183 2369 mt 5183 2489 L
5302 2291 mt 5422 2291 L
5362 2231 mt 5362 2351 L
5480 2152 mt 5600 2152 L
5540 2092 mt 5540 2212 L
5659 2012 mt 5779 2012 L
5719 1952 mt 5719 2072 L
5837 1872 mt 5957 1872 L
5897 1812 mt 5897 1932 L
6016 1731 mt 6136 1731 L
6076 1671 mt 6076 1791 L
6195 1589 mt 6315 1589 L
6255 1529 mt 6255 1649 L
gr

gs 899 389 5357 4226 MR c np
/c11 { 1.000000 0.000000 0.000000 sr} bdef
c11
179 -126 179 -126 178 -125 179 -125 178 -125 179 -123 178 -122 179 -121 
178 -120 179 -118 178 -116 179 -113 178 -110 179 -107 178 -103 179 -99 
179 -93 178 -89 179 -82 178 -77 179 -71 178 -64 179 -57 178 -52 
179 -45 178 -40 179 -34 178 -29 179 -25 178 -21 899 4521 31 MP stroke
gr

c11
gs 753 1717 5649 2951 MR c np
 857 4479 mt  941 4563 L
 941 4479 mt  857 4563 L
1035 4458 mt 1119 4542 L
1119 4458 mt 1035 4542 L
1214 4433 mt 1298 4517 L
1298 4433 mt 1214 4517 L
1392 4404 mt 1476 4488 L
1476 4404 mt 1392 4488 L
1571 4370 mt 1655 4454 L
1655 4370 mt 1571 4454 L
1749 4330 mt 1833 4414 L
1833 4330 mt 1749 4414 L
1928 4285 mt 2012 4369 L
2012 4285 mt 1928 4369 L
2106 4233 mt 2190 4317 L
2190 4233 mt 2106 4317 L
2285 4176 mt 2369 4260 L
2369 4176 mt 2285 4260 L
2463 4112 mt 2547 4196 L
2547 4112 mt 2463 4196 L
2642 4041 mt 2726 4125 L
2726 4041 mt 2642 4125 L
2820 3964 mt 2904 4048 L
2904 3964 mt 2820 4048 L
2999 3882 mt 3083 3966 L
3083 3882 mt 2999 3966 L
3177 3793 mt 3261 3877 L
3261 3793 mt 3177 3877 L
3356 3700 mt 3440 3784 L
3440 3700 mt 3356 3784 L
3535 3601 mt 3619 3685 L
3619 3601 mt 3535 3685 L
3713 3498 mt 3797 3582 L
3797 3498 mt 3713 3582 L
3892 3391 mt 3976 3475 L
3976 3391 mt 3892 3475 L
4070 3281 mt 4154 3365 L
4154 3281 mt 4070 3365 L
4249 3168 mt 4333 3252 L
4333 3168 mt 4249 3252 L
4427 3052 mt 4511 3136 L
4511 3052 mt 4427 3136 L
4606 2934 mt 4690 3018 L
4690 2934 mt 4606 3018 L
4784 2814 mt 4868 2898 L
4868 2814 mt 4784 2898 L
4963 2693 mt 5047 2777 L
5047 2693 mt 4963 2777 L
5141 2571 mt 5225 2655 L
5225 2571 mt 5141 2655 L
5320 2448 mt 5404 2532 L
5404 2448 mt 5320 2532 L
5498 2323 mt 5582 2407 L
5582 2323 mt 5498 2407 L
5677 2198 mt 5761 2282 L
5761 2198 mt 5677 2282 L
5855 2073 mt 5939 2157 L
5939 2073 mt 5855 2157 L
6034 1947 mt 6118 2031 L
6118 1947 mt 6034 2031 L
6213 1821 mt 6297 1905 L
6297 1821 mt 6213 1905 L
gr

gs 899 389 5357 4226 MR c np
gr

0 sg
%%IncludeResource: font Helvetica
/Helvetica /WindowsLatin1Encoding 120 FMSR

 882 4657 mt 
( ) s
6239  431 mt 
( ) s
6 w
1 sg
0 907 1367 0 0 -907 4828 4555 4 MP
PP
-1367 0 0 907 1367 0 0 -907 4828 4555 5 MP stroke
4 w
DO
SO
6 w
0 sg
4828 3648 mt 6195 3648 L
4828 4555 mt 6195 4555 L
6195 4555 mt 6195 3648 L
4828 4555 mt 4828 3648 L
4828 4555 mt 6195 4555 L
4828 4555 mt 4828 3648 L
4828 3648 mt 6195 3648 L
4828 4555 mt 6195 4555 L
6195 4555 mt 6195 3648 L
4828 4555 mt 4828 3648 L
%%IncludeResource: font Helvetica
/Helvetica /WindowsLatin1Encoding 168 FMSR

5281 3830 mt 
(Optimal Rx) s
gs 4828 3648 1368 908 MR c np
24 w
c8
348 0 4897 3769 2 MP stroke
gr

24 w
c8
gs 4925 3623 293 293 MR c np
5011 3769 mt 5131 3769 L
5071 3709 mt 5071 3829 L
5029 3727 mt 5113 3811 L
5113 3727 mt 5029 3811 L
gr

gs 4828 3648 1368 908 MR c np
gr

0 sg
5281 4090 mt 
(EB, K=K) s
%%IncludeResource: font Symbol
/Symbol /WindowsLatin1Encoding 132 FMSR

5917 4006 mt 
(\242) s
%%IncludeResource: font Helvetica
/Helvetica /WindowsLatin1Encoding 168 FMSR

5949 4090 mt 
(+1) s
gs 4828 3648 1368 908 MR c np
c9
348 0 4897 3999 2 MP stroke
gs 4925 3853 293 293 MR c np
0 j
0 -94 -94 0 0 94 94 0 5024 3952 5 MP
DP
gr

gr

c9
0 sg
5281 4289 mt 
(SB, JLD) s
gs 4828 3648 1368 908 MR c np
c10
348 0 4897 4228 2 MP stroke
gs 4925 4082 293 293 MR c np
5011 4228 mt 5131 4228 L
5071 4168 mt 5071 4288 L
gr

gr

c10
0 sg
5281 4494 mt 
(SB, ILD) s
gs 4828 3648 1368 908 MR c np
c11
348 0 4897 4433 2 MP stroke
gr

c11
gs 4925 4287 293 293 MR c np
5029 4391 mt 5113 4475 L
5113 4391 mt 5029 4475 L
gr

gs 4828 3648 1368 908 MR c np
6 w
gr

6 w

end %%Color Dict

eplot
%%EndObject

epage
end

showpage

%%Trailer
%%EOF
