%!PS-Adobe-2.0 EPSF-1.2
%%Creator: MATLAB, The MathWorks, Inc. Version 7.14.0.739 (R2012a). Operating System: Microsoft Windows 7.
%%Title: .\RATE_CHD_SCHEME2.eps
%%CreationDate: 05/06/2015  12:28:22
%%DocumentNeededFonts: Helvetica
%%DocumentProcessColors: Cyan Magenta Yellow Black
%%Extensions: CMYK
%%Pages: 1
%%BoundingBox:    51   192   552   602
%%EndComments

%%BeginProlog
% MathWorks dictionary
/MathWorks 160 dict begin
% definition operators
/bdef {bind def} bind def
/ldef {load def} bind def
/xdef {exch def} bdef
/xstore {exch store} bdef
% operator abbreviations
/c  /clip ldef
/cc /concat ldef
/cp /closepath ldef
/gr /grestore ldef
/gs /gsave ldef
/mt /moveto ldef
/np /newpath ldef
/cm /currentmatrix ldef
/sm /setmatrix ldef
/rm /rmoveto ldef
/rl /rlineto ldef
/s {show newpath} bdef
/sc {setcmykcolor} bdef
/sr /setrgbcolor ldef
/sg /setgray ldef
/w /setlinewidth ldef
/j /setlinejoin ldef
/cap /setlinecap ldef
/rc {rectclip} bdef
/rf {rectfill} bdef
% page state control
/pgsv () def
/bpage {/pgsv save def} bdef
/epage {pgsv restore} bdef
/bplot /gsave ldef
/eplot {stroke grestore} bdef
% orientation switch
/portraitMode 0 def /landscapeMode 1 def /rotateMode 2 def
% coordinate system mappings
/dpi2point 0 def
% font control
/FontSize 0 def
/FMS {/FontSize xstore findfont [FontSize 0 0 FontSize neg 0 0]
  makefont setfont} bdef
/ISOLatin1Encoding where {pop /WindowsLatin1Encoding 256 array bdef
ISOLatin1Encoding WindowsLatin1Encoding copy pop
/.notdef/.notdef/quotesinglbase/florin/quotedblbase/ellipsis/dagger
/daggerdbl/circumflex/perthousand/Scaron/guilsinglleft/OE/.notdef/.notdef
/.notdef/.notdef/quoteleft/quoteright/quotedblleft/quotedblright/bullet
/endash/emdash/tilde/trademark/scaron/guilsinglright/oe/.notdef/.notdef
/Ydieresis WindowsLatin1Encoding 128 32 getinterval astore pop}
{/WindowsLatin1Encoding StandardEncoding bdef} ifelse
/reencode {exch dup where {pop load} {pop StandardEncoding} ifelse
  exch dup 3 1 roll findfont dup length dict begin
  { 1 index /FID ne {def}{pop pop} ifelse } forall
  /Encoding exch def currentdict end definefont pop} bdef
/isroman {findfont /CharStrings get /Agrave known} bdef
/FMSR {3 1 roll 1 index dup isroman {reencode} {pop pop} ifelse
  exch FMS} bdef
/csm {1 dpi2point div -1 dpi2point div scale neg translate
 dup landscapeMode eq {pop -90 rotate}
  {rotateMode eq {90 rotate} if} ifelse} bdef
% line types: solid, dotted, dashed, dotdash
/SO { [] 0 setdash } bdef
/DO { [.5 dpi2point mul 4 dpi2point mul] 0 setdash } bdef
/DA { [6 dpi2point mul] 0 setdash } bdef
/DD { [.5 dpi2point mul 4 dpi2point mul 6 dpi2point mul 4
  dpi2point mul] 0 setdash } bdef
% macros for lines and objects
/L {lineto stroke} bdef
/MP {3 1 roll moveto 1 sub {rlineto} repeat} bdef
/AP {{rlineto} repeat} bdef
/PDlw -1 def
/W {/PDlw currentlinewidth def setlinewidth} def
/PP {closepath eofill} bdef
/DP {closepath stroke} bdef
/MR {4 -2 roll moveto dup  0 exch rlineto exch 0 rlineto
  neg 0 exch rlineto closepath} bdef
/FR {MR stroke} bdef
/PR {MR fill} bdef
/L1i {{currentfile picstr readhexstring pop} image} bdef
/tMatrix matrix def
/MakeOval {newpath tMatrix currentmatrix pop translate scale
0 0 1 0 360 arc tMatrix setmatrix} bdef
/FO {MakeOval stroke} bdef
/PO {MakeOval fill} bdef
/PD {currentlinewidth 2 div 0 360 arc fill
   PDlw -1 eq not {PDlw w /PDlw -1 def} if} def
/FA {newpath tMatrix currentmatrix pop translate scale
  0 0 1 5 -2 roll arc tMatrix setmatrix stroke} bdef
/PA {newpath tMatrix currentmatrix pop	translate 0 0 moveto scale
  0 0 1 5 -2 roll arc closepath tMatrix setmatrix fill} bdef
/FAn {newpath tMatrix currentmatrix pop translate scale
  0 0 1 5 -2 roll arcn tMatrix setmatrix stroke} bdef
/PAn {newpath tMatrix currentmatrix pop translate 0 0 moveto scale
  0 0 1 5 -2 roll arcn closepath tMatrix setmatrix fill} bdef
/vradius 0 def /hradius 0 def /lry 0 def
/lrx 0 def /uly 0 def /ulx 0 def /rad 0 def
/MRR {/vradius xdef /hradius xdef /lry xdef /lrx xdef /uly xdef
  /ulx xdef newpath tMatrix currentmatrix pop ulx hradius add uly
  vradius add translate hradius vradius scale 0 0 1 180 270 arc 
  tMatrix setmatrix lrx hradius sub uly vradius add translate
  hradius vradius scale 0 0 1 270 360 arc tMatrix setmatrix
  lrx hradius sub lry vradius sub translate hradius vradius scale
  0 0 1 0 90 arc tMatrix setmatrix ulx hradius add lry vradius sub
  translate hradius vradius scale 0 0 1 90 180 arc tMatrix setmatrix
  closepath} bdef
/FRR {MRR stroke } bdef
/PRR {MRR fill } bdef
/MlrRR {/lry xdef /lrx xdef /uly xdef /ulx xdef /rad lry uly sub 2 div def
  newpath tMatrix currentmatrix pop ulx rad add uly rad add translate
  rad rad scale 0 0 1 90 270 arc tMatrix setmatrix lrx rad sub lry rad
  sub translate rad rad scale 0 0 1 270 90 arc tMatrix setmatrix
  closepath} bdef
/FlrRR {MlrRR stroke } bdef
/PlrRR {MlrRR fill } bdef
/MtbRR {/lry xdef /lrx xdef /uly xdef /ulx xdef /rad lrx ulx sub 2 div def
  newpath tMatrix currentmatrix pop ulx rad add uly rad add translate
  rad rad scale 0 0 1 180 360 arc tMatrix setmatrix lrx rad sub lry rad
  sub translate rad rad scale 0 0 1 0 180 arc tMatrix setmatrix
  closepath} bdef
/FtbRR {MtbRR stroke } bdef
/PtbRR {MtbRR fill } bdef
/stri 6 array def /dtri 6 array def
/smat 6 array def /dmat 6 array def
/tmat1 6 array def /tmat2 6 array def /dif 3 array def
/asub {/ind2 exch def /ind1 exch def dup dup
  ind1 get exch ind2 get sub exch } bdef
/tri_to_matrix {
  2 0 asub 3 1 asub 4 0 asub 5 1 asub
  dup 0 get exch 1 get 7 -1 roll astore } bdef
/compute_transform {
  dmat dtri tri_to_matrix tmat1 invertmatrix 
  smat stri tri_to_matrix tmat2 concatmatrix } bdef
/ds {stri astore pop} bdef
/dt {dtri astore pop} bdef
/db {2 copy /cols xdef /rows xdef mul dup 3 mul string
  currentfile exch readhexstring pop
  dup 0 3 index getinterval /rbmap xdef
  dup 2 index dup getinterval /gbmap xdef
  1 index dup 2 mul exch getinterval /bbmap xdef pop pop}bdef
/it {gs np dtri aload pop moveto lineto lineto cp c
  cols rows 8 compute_transform 
  rbmap gbmap bbmap true 3 colorimage gr}bdef
/il {newpath moveto lineto stroke}bdef
currentdict end def
%%EndProlog

%%BeginSetup
MathWorks begin

0 cap

end
%%EndSetup

%%Page: 1 1
%%BeginPageSetup
%%PageBoundingBox:    51   192   552   602
MathWorks begin
bpage
%%EndPageSetup

%%BeginObject: obj1
bplot

/dpi2point 12 def
portraitMode 0204 7344 csm

  417   110  6014  4924 MR c np
87 dict begin %Colortable dictionary
/c0 { 0.000000 0.000000 0.000000 sr} bdef
/c1 { 1.000000 1.000000 1.000000 sr} bdef
/c2 { 0.900000 0.000000 0.000000 sr} bdef
/c3 { 0.000000 0.820000 0.000000 sr} bdef
/c4 { 0.000000 0.000000 0.800000 sr} bdef
/c5 { 0.910000 0.820000 0.320000 sr} bdef
/c6 { 1.000000 0.260000 0.820000 sr} bdef
/c7 { 0.000000 0.820000 0.820000 sr} bdef
c0
1 j
1 sg
   0    0 6913 5185 PR
6 w
0 4225 5356 0 0 -4225 899 4614 4 MP
PP
-5356 0 0 4225 5356 0 0 -4225 899 4614 5 MP stroke
4 w
DO
SO
6 w
0 sg
 899  389 mt 6255  389 L
 899 4614 mt 6255 4614 L
6255 4614 mt 6255  389 L
 899 4614 mt  899  389 L
 899 4614 mt 6255 4614 L
 899 4614 mt  899  389 L
 899 4614 mt  899 4560 L
 899  389 mt  899  442 L
%%IncludeResource: font Helvetica
/Helvetica /WindowsLatin1Encoding 120 FMSR

 866 4759 mt 
(0) s
1791 4614 mt 1791 4560 L
1791  389 mt 1791  442 L
1758 4759 mt 
(5) s
2684 4614 mt 2684 4560 L
2684  389 mt 2684  442 L
2618 4759 mt 
(10) s
3577 4614 mt 3577 4560 L
3577  389 mt 3577  442 L
3511 4759 mt 
(15) s
4469 4614 mt 4469 4560 L
4469  389 mt 4469  442 L
4403 4759 mt 
(20) s
5362 4614 mt 5362 4560 L
5362  389 mt 5362  442 L
5296 4759 mt 
(25) s
6255 4614 mt 6255 4560 L
6255  389 mt 6255  442 L
6189 4759 mt 
(30) s
 899 4614 mt  952 4614 L
6255 4614 mt 6201 4614 L
 798 4658 mt 
(0) s
 899 4144 mt  952 4144 L
6255 4144 mt 6201 4144 L
 798 4188 mt 
(5) s
 899 3675 mt  952 3675 L
6255 3675 mt 6201 3675 L
 731 3719 mt 
(10) s
 899 3205 mt  952 3205 L
6255 3205 mt 6201 3205 L
 731 3249 mt 
(15) s
 899 2736 mt  952 2736 L
6255 2736 mt 6201 2736 L
 731 2780 mt 
(20) s
 899 2266 mt  952 2266 L
6255 2266 mt 6201 2266 L
 731 2310 mt 
(25) s
 899 1797 mt  952 1797 L
6255 1797 mt 6201 1797 L
 731 1841 mt 
(30) s
 899 1327 mt  952 1327 L
6255 1327 mt 6201 1327 L
 731 1371 mt 
(35) s
 899  858 mt  952  858 L
6255  858 mt 6201  858 L
 731  902 mt 
(40) s
 899  389 mt  952  389 L
6255  389 mt 6201  389 L
 731  433 mt 
(45) s
 899  389 mt 6255  389 L
 899 4614 mt 6255 4614 L
6255 4614 mt 6255  389 L
 899 4614 mt  899  389 L
gs 899 389 5357 4226 MR c np
24 w
/c8 { 0.000000 1.000000 0.000000 sr} bdef
c8
179 -164 179 -163 178 -162 179 -162 178 -161 179 -160 178 -160 179 -159 
178 -158 179 -157 178 -155 179 -154 178 -151 179 -150 178 -147 179 -143 
179 -140 178 -136 179 -131 178 -126 179 -119 178 -113 179 -106 178 -98 
179 -91 178 -82 179 -74 178 -67 179 -58 178 -51 899 4350 31 MP stroke
gr

24 w
c8
gs 753 306 5649 4191 MR c np
 839 4350 mt  959 4350 L
 899 4290 mt  899 4410 L
1017 4299 mt 1137 4299 L
1077 4239 mt 1077 4359 L
1196 4241 mt 1316 4241 L
1256 4181 mt 1256 4301 L
1374 4174 mt 1494 4174 L
1434 4114 mt 1434 4234 L
1553 4100 mt 1673 4100 L
1613 4040 mt 1613 4160 L
1731 4018 mt 1851 4018 L
1791 3958 mt 1791 4078 L
1910 3927 mt 2030 3927 L
1970 3867 mt 1970 3987 L
2088 3829 mt 2208 3829 L
2148 3769 mt 2148 3889 L
2267 3723 mt 2387 3723 L
2327 3663 mt 2327 3783 L
2445 3610 mt 2565 3610 L
2505 3550 mt 2505 3670 L
2624 3491 mt 2744 3491 L
2684 3431 mt 2684 3551 L
2802 3365 mt 2922 3365 L
2862 3305 mt 2862 3425 L
2981 3234 mt 3101 3234 L
3041 3174 mt 3041 3294 L
3159 3098 mt 3279 3098 L
3219 3038 mt 3219 3158 L
3338 2958 mt 3458 2958 L
3398 2898 mt 3398 3018 L
3517 2815 mt 3637 2815 L
3577 2755 mt 3577 2875 L
3695 2668 mt 3815 2668 L
3755 2608 mt 3755 2728 L
3874 2518 mt 3994 2518 L
3934 2458 mt 3934 2578 L
4052 2367 mt 4172 2367 L
4112 2307 mt 4112 2427 L
4231 2213 mt 4351 2213 L
4291 2153 mt 4291 2273 L
4409 2058 mt 4529 2058 L
4469 1998 mt 4469 2118 L
4588 1901 mt 4708 1901 L
4648 1841 mt 4648 1961 L
4766 1743 mt 4886 1743 L
4826 1683 mt 4826 1803 L
4945 1584 mt 5065 1584 L
5005 1524 mt 5005 1644 L
5123 1424 mt 5243 1424 L
5183 1364 mt 5183 1484 L
5302 1264 mt 5422 1264 L
5362 1204 mt 5362 1324 L
5480 1103 mt 5600 1103 L
5540 1043 mt 5540 1163 L
5659  941 mt 5779  941 L
5719  881 mt 5719 1001 L
5837  779 mt 5957  779 L
5897  719 mt 5897  839 L
6016  616 mt 6136  616 L
6076  556 mt 6076  676 L
6195  452 mt 6315  452 L
6255  392 mt 6255  512 L
 857 4308 mt  941 4392 L
 941 4308 mt  857 4392 L
1035 4257 mt 1119 4341 L
1119 4257 mt 1035 4341 L
1214 4199 mt 1298 4283 L
1298 4199 mt 1214 4283 L
1392 4132 mt 1476 4216 L
1476 4132 mt 1392 4216 L
1571 4058 mt 1655 4142 L
1655 4058 mt 1571 4142 L
1749 3976 mt 1833 4060 L
1833 3976 mt 1749 4060 L
1928 3885 mt 2012 3969 L
2012 3885 mt 1928 3969 L
2106 3787 mt 2190 3871 L
2190 3787 mt 2106 3871 L
2285 3681 mt 2369 3765 L
2369 3681 mt 2285 3765 L
2463 3568 mt 2547 3652 L
2547 3568 mt 2463 3652 L
2642 3449 mt 2726 3533 L
2726 3449 mt 2642 3533 L
2820 3323 mt 2904 3407 L
2904 3323 mt 2820 3407 L
2999 3192 mt 3083 3276 L
3083 3192 mt 2999 3276 L
3177 3056 mt 3261 3140 L
3261 3056 mt 3177 3140 L
3356 2916 mt 3440 3000 L
3440 2916 mt 3356 3000 L
3535 2773 mt 3619 2857 L
3619 2773 mt 3535 2857 L
3713 2626 mt 3797 2710 L
3797 2626 mt 3713 2710 L
3892 2476 mt 3976 2560 L
3976 2476 mt 3892 2560 L
4070 2325 mt 4154 2409 L
4154 2325 mt 4070 2409 L
4249 2171 mt 4333 2255 L
4333 2171 mt 4249 2255 L
4427 2016 mt 4511 2100 L
4511 2016 mt 4427 2100 L
4606 1859 mt 4690 1943 L
4690 1859 mt 4606 1943 L
4784 1701 mt 4868 1785 L
4868 1701 mt 4784 1785 L
4963 1542 mt 5047 1626 L
5047 1542 mt 4963 1626 L
5141 1382 mt 5225 1466 L
5225 1382 mt 5141 1466 L
5320 1222 mt 5404 1306 L
5404 1222 mt 5320 1306 L
5498 1061 mt 5582 1145 L
5582 1061 mt 5498 1145 L
5677  899 mt 5761  983 L
5761  899 mt 5677  983 L
5855  737 mt 5939  821 L
5939  737 mt 5855  821 L
6034  574 mt 6118  658 L
6118  574 mt 6034  658 L
6213  410 mt 6297  494 L
6297  410 mt 6213  494 L
gr

gs 899 389 5357 4226 MR c np
gr

0 sg
2993  294 mt 
(Channel D, Scheme 2) s
%%IncludeResource: font Helvetica
/Helvetica /WindowsLatin1Encoding 204 FMSR

3140 4964 mt 
(SNR \(dB\)) s
 631 3783 mt  -90 rotate
(Information Rates \(nats/sec\)) s
90 rotate
gs 899 389 5357 4226 MR c np
/c9 { 0.000000 0.000000 1.000000 sr} bdef
c9
179 -159 179 -158 178 -158 179 -156 178 -155 179 -153 178 -152 179 -149 
178 -147 179 -144 178 -141 179 -137 178 -132 179 -128 178 -122 179 -117 
179 -110 178 -104 179 -97 178 -89 179 -82 178 -74 179 -67 178 -60 
179 -53 178 -46 179 -40 178 -35 179 -29 178 -25 899 4500 31 MP stroke
gr

c9
gs 753 1135 5649 3512 MR c np
0 j
0 -94 -94 0 0 94 94 0 852 4453 5 MP
DP
0 -94 -94 0 0 94 94 0 1030 4428 5 MP
DP
0 -94 -94 0 0 94 94 0 1209 4399 5 MP
DP
0 -94 -94 0 0 94 94 0 1387 4364 5 MP
DP
0 -94 -94 0 0 94 94 0 1566 4324 5 MP
DP
0 -94 -94 0 0 94 94 0 1744 4278 5 MP
DP
0 -94 -94 0 0 94 94 0 1923 4225 5 MP
DP
0 -94 -94 0 0 94 94 0 2101 4165 5 MP
DP
0 -94 -94 0 0 94 94 0 2280 4098 5 MP
DP
0 -94 -94 0 0 94 94 0 2458 4024 5 MP
DP
0 -94 -94 0 0 94 94 0 2637 3942 5 MP
DP
0 -94 -94 0 0 94 94 0 2815 3853 5 MP
DP
0 -94 -94 0 0 94 94 0 2994 3756 5 MP
DP
0 -94 -94 0 0 94 94 0 3172 3652 5 MP
DP
0 -94 -94 0 0 94 94 0 3351 3542 5 MP
DP
0 -94 -94 0 0 94 94 0 3530 3425 5 MP
DP
0 -94 -94 0 0 94 94 0 3708 3303 5 MP
DP
0 -94 -94 0 0 94 94 0 3887 3175 5 MP
DP
0 -94 -94 0 0 94 94 0 4065 3043 5 MP
DP
0 -94 -94 0 0 94 94 0 4244 2906 5 MP
DP
0 -94 -94 0 0 94 94 0 4422 2765 5 MP
DP
0 -94 -94 0 0 94 94 0 4601 2621 5 MP
DP
0 -94 -94 0 0 94 94 0 4779 2474 5 MP
DP
0 -94 -94 0 0 94 94 0 4958 2325 5 MP
DP
0 -94 -94 0 0 94 94 0 5136 2173 5 MP
DP
0 -94 -94 0 0 94 94 0 5315 2020 5 MP
DP
0 -94 -94 0 0 94 94 0 5493 1865 5 MP
DP
0 -94 -94 0 0 94 94 0 5672 1709 5 MP
DP
0 -94 -94 0 0 94 94 0 5850 1551 5 MP
DP
0 -94 -94 0 0 94 94 0 6029 1393 5 MP
DP
0 -94 -94 0 0 94 94 0 6208 1234 5 MP
DP
gr

gs 899 389 5357 4226 MR c np
/c10 { 1.000000 0.000000 1.000000 sr} bdef
c10
179 -155 179 -154 178 -153 179 -152 178 -150 179 -149 178 -147 179 -145 
178 -142 179 -139 178 -136 179 -132 178 -128 179 -123 178 -118 179 -111 
179 -106 178 -99 179 -92 178 -85 179 -77 178 -71 179 -64 178 -56 
179 -50 178 -44 179 -38 178 -33 179 -28 178 -24 899 4506 31 MP stroke
gr

c10
gs 753 1259 5649 3394 MR c np
 839 4506 mt  959 4506 L
 899 4446 mt  899 4566 L
1017 4482 mt 1137 4482 L
1077 4422 mt 1077 4542 L
1196 4454 mt 1316 4454 L
1256 4394 mt 1256 4514 L
1374 4421 mt 1494 4421 L
1434 4361 mt 1434 4481 L
1553 4383 mt 1673 4383 L
1613 4323 mt 1613 4443 L
1731 4339 mt 1851 4339 L
1791 4279 mt 1791 4399 L
1910 4289 mt 2030 4289 L
1970 4229 mt 1970 4349 L
2088 4233 mt 2208 4233 L
2148 4173 mt 2148 4293 L
2267 4169 mt 2387 4169 L
2327 4109 mt 2327 4229 L
2445 4098 mt 2565 4098 L
2505 4038 mt 2505 4158 L
2624 4021 mt 2744 4021 L
2684 3961 mt 2684 4081 L
2802 3936 mt 2922 3936 L
2862 3876 mt 2862 3996 L
2981 3844 mt 3101 3844 L
3041 3784 mt 3041 3904 L
3159 3745 mt 3279 3745 L
3219 3685 mt 3219 3805 L
3338 3639 mt 3458 3639 L
3398 3579 mt 3398 3699 L
3517 3528 mt 3637 3528 L
3577 3468 mt 3577 3588 L
3695 3410 mt 3815 3410 L
3755 3350 mt 3755 3470 L
3874 3287 mt 3994 3287 L
3934 3227 mt 3934 3347 L
4052 3159 mt 4172 3159 L
4112 3099 mt 4112 3219 L
4231 3027 mt 4351 3027 L
4291 2967 mt 4291 3087 L
4409 2891 mt 4529 2891 L
4469 2831 mt 4469 2951 L
4588 2752 mt 4708 2752 L
4648 2692 mt 4648 2812 L
4766 2610 mt 4886 2610 L
4826 2550 mt 4826 2670 L
4945 2465 mt 5065 2465 L
5005 2405 mt 5005 2525 L
5123 2318 mt 5243 2318 L
5183 2258 mt 5183 2378 L
5302 2169 mt 5422 2169 L
5362 2109 mt 5362 2229 L
5480 2019 mt 5600 2019 L
5540 1959 mt 5540 2079 L
5659 1867 mt 5779 1867 L
5719 1807 mt 5719 1927 L
5837 1714 mt 5957 1714 L
5897 1654 mt 5897 1774 L
6016 1560 mt 6136 1560 L
6076 1500 mt 6076 1620 L
6195 1405 mt 6315 1405 L
6255 1345 mt 6255 1465 L
gr

gs 899 389 5357 4226 MR c np
/c11 { 1.000000 0.000000 0.000000 sr} bdef
c11
179 -88 179 -88 178 -88 179 -87 178 -88 179 -87 178 -87 179 -85 
178 -86 179 -84 178 -82 179 -81 178 -79 179 -77 178 -75 179 -72 
179 -68 178 -65 179 -62 178 -58 179 -54 178 -50 179 -46 178 -41 
179 -37 178 -33 179 -29 178 -26 179 -22 178 -18 899 4526 31 MP stroke
gr

c11
gs 753 2437 5649 2236 MR c np
 857 4484 mt  941 4568 L
 941 4484 mt  857 4568 L
1035 4466 mt 1119 4550 L
1119 4466 mt 1035 4550 L
1214 4444 mt 1298 4528 L
1298 4444 mt 1214 4528 L
1392 4418 mt 1476 4502 L
1476 4418 mt 1392 4502 L
1571 4389 mt 1655 4473 L
1655 4389 mt 1571 4473 L
1749 4356 mt 1833 4440 L
1833 4356 mt 1749 4440 L
1928 4319 mt 2012 4403 L
2012 4319 mt 1928 4403 L
2106 4278 mt 2190 4362 L
2190 4278 mt 2106 4362 L
2285 4232 mt 2369 4316 L
2369 4232 mt 2285 4316 L
2463 4182 mt 2547 4266 L
2547 4182 mt 2463 4266 L
2642 4128 mt 2726 4212 L
2726 4128 mt 2642 4212 L
2820 4070 mt 2904 4154 L
2904 4070 mt 2820 4154 L
2999 4008 mt 3083 4092 L
3083 4008 mt 2999 4092 L
3177 3943 mt 3261 4027 L
3261 3943 mt 3177 4027 L
3356 3875 mt 3440 3959 L
3440 3875 mt 3356 3959 L
3535 3803 mt 3619 3887 L
3619 3803 mt 3535 3887 L
3713 3728 mt 3797 3812 L
3797 3728 mt 3713 3812 L
3892 3651 mt 3976 3735 L
3976 3651 mt 3892 3735 L
4070 3572 mt 4154 3656 L
4154 3572 mt 4070 3656 L
4249 3491 mt 4333 3575 L
4333 3491 mt 4249 3575 L
4427 3409 mt 4511 3493 L
4511 3409 mt 4427 3493 L
4606 3325 mt 4690 3409 L
4690 3325 mt 4606 3409 L
4784 3239 mt 4868 3323 L
4868 3239 mt 4784 3323 L
4963 3154 mt 5047 3238 L
5047 3154 mt 4963 3238 L
5141 3067 mt 5225 3151 L
5225 3067 mt 5141 3151 L
5320 2980 mt 5404 3064 L
5404 2980 mt 5320 3064 L
5498 2892 mt 5582 2976 L
5582 2892 mt 5498 2976 L
5677 2805 mt 5761 2889 L
5761 2805 mt 5677 2889 L
5855 2717 mt 5939 2801 L
5939 2717 mt 5855 2801 L
6034 2629 mt 6118 2713 L
6118 2629 mt 6034 2713 L
6213 2541 mt 6297 2625 L
6297 2541 mt 6213 2625 L
gr

gs 899 389 5357 4226 MR c np
gr

0 sg
%%IncludeResource: font Helvetica
/Helvetica /WindowsLatin1Encoding 120 FMSR

 882 4657 mt 
( ) s
6239  431 mt 
( ) s
6 w
1 sg
0 907 1367 0 0 -907 4828 4555 4 MP
PP
-1367 0 0 907 1367 0 0 -907 4828 4555 5 MP stroke
4 w
DO
SO
6 w
0 sg
4828 3648 mt 6195 3648 L
4828 4555 mt 6195 4555 L
6195 4555 mt 6195 3648 L
4828 4555 mt 4828 3648 L
4828 4555 mt 6195 4555 L
4828 4555 mt 4828 3648 L
4828 3648 mt 6195 3648 L
4828 4555 mt 6195 4555 L
6195 4555 mt 6195 3648 L
4828 4555 mt 4828 3648 L
%%IncludeResource: font Helvetica
/Helvetica /WindowsLatin1Encoding 168 FMSR

5281 3830 mt 
(Optimal Rx) s
gs 4828 3648 1368 908 MR c np
24 w
c8
348 0 4897 3769 2 MP stroke
gr

24 w
c8
gs 4925 3623 293 293 MR c np
5011 3769 mt 5131 3769 L
5071 3709 mt 5071 3829 L
5029 3727 mt 5113 3811 L
5113 3727 mt 5029 3811 L
gr

gs 4828 3648 1368 908 MR c np
gr

0 sg
5281 4090 mt 
(EB, K=K) s
%%IncludeResource: font Symbol
/Symbol /WindowsLatin1Encoding 132 FMSR

5917 4006 mt 
(\242) s
%%IncludeResource: font Helvetica
/Helvetica /WindowsLatin1Encoding 168 FMSR

5949 4090 mt 
(+1) s
gs 4828 3648 1368 908 MR c np
c9
348 0 4897 3999 2 MP stroke
gs 4925 3853 293 293 MR c np
0 j
0 -94 -94 0 0 94 94 0 5024 3952 5 MP
DP
gr

gr

c9
0 sg
5281 4289 mt 
(SB, JLD) s
gs 4828 3648 1368 908 MR c np
c10
348 0 4897 4228 2 MP stroke
gs 4925 4082 293 293 MR c np
5011 4228 mt 5131 4228 L
5071 4168 mt 5071 4288 L
gr

gr

c10
0 sg
5281 4494 mt 
(SB, ILD) s
gs 4828 3648 1368 908 MR c np
c11
348 0 4897 4433 2 MP stroke
gr

c11
gs 4925 4287 293 293 MR c np
5029 4391 mt 5113 4475 L
5113 4391 mt 5029 4475 L
gr

gs 4828 3648 1368 908 MR c np
6 w
gr

6 w

end %%Color Dict

eplot
%%EndObject

epage
end

showpage

%%Trailer
%%EOF
