%!PS-Adobe-2.0 EPSF-1.2
%%Creator: MATLAB, The MathWorks, Inc. Version 7.14.0.739 (R2012a). Operating System: Microsoft Windows 7.
%%Title: .\RATE_CHC_SCH2vsSCH3.eps
%%CreationDate: 05/06/2015  12:28:06
%%DocumentNeededFonts: Helvetica
%%DocumentProcessColors: Cyan Magenta Yellow Black
%%Extensions: CMYK
%%Pages: 1
%%BoundingBox:    51   192   552   602
%%EndComments

%%BeginProlog
% MathWorks dictionary
/MathWorks 160 dict begin
% definition operators
/bdef {bind def} bind def
/ldef {load def} bind def
/xdef {exch def} bdef
/xstore {exch store} bdef
% operator abbreviations
/c  /clip ldef
/cc /concat ldef
/cp /closepath ldef
/gr /grestore ldef
/gs /gsave ldef
/mt /moveto ldef
/np /newpath ldef
/cm /currentmatrix ldef
/sm /setmatrix ldef
/rm /rmoveto ldef
/rl /rlineto ldef
/s {show newpath} bdef
/sc {setcmykcolor} bdef
/sr /setrgbcolor ldef
/sg /setgray ldef
/w /setlinewidth ldef
/j /setlinejoin ldef
/cap /setlinecap ldef
/rc {rectclip} bdef
/rf {rectfill} bdef
% page state control
/pgsv () def
/bpage {/pgsv save def} bdef
/epage {pgsv restore} bdef
/bplot /gsave ldef
/eplot {stroke grestore} bdef
% orientation switch
/portraitMode 0 def /landscapeMode 1 def /rotateMode 2 def
% coordinate system mappings
/dpi2point 0 def
% font control
/FontSize 0 def
/FMS {/FontSize xstore findfont [FontSize 0 0 FontSize neg 0 0]
  makefont setfont} bdef
/ISOLatin1Encoding where {pop /WindowsLatin1Encoding 256 array bdef
ISOLatin1Encoding WindowsLatin1Encoding copy pop
/.notdef/.notdef/quotesinglbase/florin/quotedblbase/ellipsis/dagger
/daggerdbl/circumflex/perthousand/Scaron/guilsinglleft/OE/.notdef/.notdef
/.notdef/.notdef/quoteleft/quoteright/quotedblleft/quotedblright/bullet
/endash/emdash/tilde/trademark/scaron/guilsinglright/oe/.notdef/.notdef
/Ydieresis WindowsLatin1Encoding 128 32 getinterval astore pop}
{/WindowsLatin1Encoding StandardEncoding bdef} ifelse
/reencode {exch dup where {pop load} {pop StandardEncoding} ifelse
  exch dup 3 1 roll findfont dup length dict begin
  { 1 index /FID ne {def}{pop pop} ifelse } forall
  /Encoding exch def currentdict end definefont pop} bdef
/isroman {findfont /CharStrings get /Agrave known} bdef
/FMSR {3 1 roll 1 index dup isroman {reencode} {pop pop} ifelse
  exch FMS} bdef
/csm {1 dpi2point div -1 dpi2point div scale neg translate
 dup landscapeMode eq {pop -90 rotate}
  {rotateMode eq {90 rotate} if} ifelse} bdef
% line types: solid, dotted, dashed, dotdash
/SO { [] 0 setdash } bdef
/DO { [.5 dpi2point mul 4 dpi2point mul] 0 setdash } bdef
/DA { [6 dpi2point mul] 0 setdash } bdef
/DD { [.5 dpi2point mul 4 dpi2point mul 6 dpi2point mul 4
  dpi2point mul] 0 setdash } bdef
% macros for lines and objects
/L {lineto stroke} bdef
/MP {3 1 roll moveto 1 sub {rlineto} repeat} bdef
/AP {{rlineto} repeat} bdef
/PDlw -1 def
/W {/PDlw currentlinewidth def setlinewidth} def
/PP {closepath eofill} bdef
/DP {closepath stroke} bdef
/MR {4 -2 roll moveto dup  0 exch rlineto exch 0 rlineto
  neg 0 exch rlineto closepath} bdef
/FR {MR stroke} bdef
/PR {MR fill} bdef
/L1i {{currentfile picstr readhexstring pop} image} bdef
/tMatrix matrix def
/MakeOval {newpath tMatrix currentmatrix pop translate scale
0 0 1 0 360 arc tMatrix setmatrix} bdef
/FO {MakeOval stroke} bdef
/PO {MakeOval fill} bdef
/PD {currentlinewidth 2 div 0 360 arc fill
   PDlw -1 eq not {PDlw w /PDlw -1 def} if} def
/FA {newpath tMatrix currentmatrix pop translate scale
  0 0 1 5 -2 roll arc tMatrix setmatrix stroke} bdef
/PA {newpath tMatrix currentmatrix pop	translate 0 0 moveto scale
  0 0 1 5 -2 roll arc closepath tMatrix setmatrix fill} bdef
/FAn {newpath tMatrix currentmatrix pop translate scale
  0 0 1 5 -2 roll arcn tMatrix setmatrix stroke} bdef
/PAn {newpath tMatrix currentmatrix pop translate 0 0 moveto scale
  0 0 1 5 -2 roll arcn closepath tMatrix setmatrix fill} bdef
/vradius 0 def /hradius 0 def /lry 0 def
/lrx 0 def /uly 0 def /ulx 0 def /rad 0 def
/MRR {/vradius xdef /hradius xdef /lry xdef /lrx xdef /uly xdef
  /ulx xdef newpath tMatrix currentmatrix pop ulx hradius add uly
  vradius add translate hradius vradius scale 0 0 1 180 270 arc 
  tMatrix setmatrix lrx hradius sub uly vradius add translate
  hradius vradius scale 0 0 1 270 360 arc tMatrix setmatrix
  lrx hradius sub lry vradius sub translate hradius vradius scale
  0 0 1 0 90 arc tMatrix setmatrix ulx hradius add lry vradius sub
  translate hradius vradius scale 0 0 1 90 180 arc tMatrix setmatrix
  closepath} bdef
/FRR {MRR stroke } bdef
/PRR {MRR fill } bdef
/MlrRR {/lry xdef /lrx xdef /uly xdef /ulx xdef /rad lry uly sub 2 div def
  newpath tMatrix currentmatrix pop ulx rad add uly rad add translate
  rad rad scale 0 0 1 90 270 arc tMatrix setmatrix lrx rad sub lry rad
  sub translate rad rad scale 0 0 1 270 90 arc tMatrix setmatrix
  closepath} bdef
/FlrRR {MlrRR stroke } bdef
/PlrRR {MlrRR fill } bdef
/MtbRR {/lry xdef /lrx xdef /uly xdef /ulx xdef /rad lrx ulx sub 2 div def
  newpath tMatrix currentmatrix pop ulx rad add uly rad add translate
  rad rad scale 0 0 1 180 360 arc tMatrix setmatrix lrx rad sub lry rad
  sub translate rad rad scale 0 0 1 0 180 arc tMatrix setmatrix
  closepath} bdef
/FtbRR {MtbRR stroke } bdef
/PtbRR {MtbRR fill } bdef
/stri 6 array def /dtri 6 array def
/smat 6 array def /dmat 6 array def
/tmat1 6 array def /tmat2 6 array def /dif 3 array def
/asub {/ind2 exch def /ind1 exch def dup dup
  ind1 get exch ind2 get sub exch } bdef
/tri_to_matrix {
  2 0 asub 3 1 asub 4 0 asub 5 1 asub
  dup 0 get exch 1 get 7 -1 roll astore } bdef
/compute_transform {
  dmat dtri tri_to_matrix tmat1 invertmatrix 
  smat stri tri_to_matrix tmat2 concatmatrix } bdef
/ds {stri astore pop} bdef
/dt {dtri astore pop} bdef
/db {2 copy /cols xdef /rows xdef mul dup 3 mul string
  currentfile exch readhexstring pop
  dup 0 3 index getinterval /rbmap xdef
  dup 2 index dup getinterval /gbmap xdef
  1 index dup 2 mul exch getinterval /bbmap xdef pop pop}bdef
/it {gs np dtri aload pop moveto lineto lineto cp c
  cols rows 8 compute_transform 
  rbmap gbmap bbmap true 3 colorimage gr}bdef
/il {newpath moveto lineto stroke}bdef
currentdict end def
%%EndProlog

%%BeginSetup
MathWorks begin

0 cap

end
%%EndSetup

%%Page: 1 1
%%BeginPageSetup
%%PageBoundingBox:    51   192   552   602
MathWorks begin
bpage
%%EndPageSetup

%%BeginObject: obj1
bplot

/dpi2point 12 def
portraitMode 0204 7344 csm

  417   110  6014  4924 MR c np
85 dict begin %Colortable dictionary
/c0 { 0.000000 0.000000 0.000000 sr} bdef
/c1 { 1.000000 1.000000 1.000000 sr} bdef
/c2 { 0.900000 0.000000 0.000000 sr} bdef
/c3 { 0.000000 0.820000 0.000000 sr} bdef
/c4 { 0.000000 0.000000 0.800000 sr} bdef
/c5 { 0.910000 0.820000 0.320000 sr} bdef
/c6 { 1.000000 0.260000 0.820000 sr} bdef
/c7 { 0.000000 0.820000 0.820000 sr} bdef
c0
1 j
1 sg
   0    0 6913 5185 PR
6 w
0 4225 5356 0 0 -4225 899 4614 4 MP
PP
-5356 0 0 4225 5356 0 0 -4225 899 4614 5 MP stroke
4 w
DO
SO
6 w
0 sg
 899  389 mt 6255  389 L
 899 4614 mt 6255 4614 L
6255 4614 mt 6255  389 L
 899 4614 mt  899  389 L
 899 4614 mt 6255 4614 L
 899 4614 mt  899  389 L
 899 4614 mt  899 4560 L
 899  389 mt  899  442 L
%%IncludeResource: font Helvetica
/Helvetica /WindowsLatin1Encoding 120 FMSR

 866 4759 mt 
(0) s
1791 4614 mt 1791 4560 L
1791  389 mt 1791  442 L
1758 4759 mt 
(5) s
2684 4614 mt 2684 4560 L
2684  389 mt 2684  442 L
2618 4759 mt 
(10) s
3577 4614 mt 3577 4560 L
3577  389 mt 3577  442 L
3511 4759 mt 
(15) s
4469 4614 mt 4469 4560 L
4469  389 mt 4469  442 L
4403 4759 mt 
(20) s
5362 4614 mt 5362 4560 L
5362  389 mt 5362  442 L
5296 4759 mt 
(25) s
6255 4614 mt 6255 4560 L
6255  389 mt 6255  442 L
6189 4759 mt 
(30) s
 899 4614 mt  952 4614 L
6255 4614 mt 6201 4614 L
 798 4658 mt 
(0) s
 899 4010 mt  952 4010 L
6255 4010 mt 6201 4010 L
 798 4054 mt 
(5) s
 899 3406 mt  952 3406 L
6255 3406 mt 6201 3406 L
 731 3450 mt 
(10) s
 899 2803 mt  952 2803 L
6255 2803 mt 6201 2803 L
 731 2847 mt 
(15) s
 899 2199 mt  952 2199 L
6255 2199 mt 6201 2199 L
 731 2243 mt 
(20) s
 899 1596 mt  952 1596 L
6255 1596 mt 6201 1596 L
 731 1640 mt 
(25) s
 899  992 mt  952  992 L
6255  992 mt 6201  992 L
 731 1036 mt 
(30) s
 899  389 mt  952  389 L
6255  389 mt 6201  389 L
 731  433 mt 
(35) s
 899  389 mt 6255  389 L
 899 4614 mt 6255 4614 L
6255 4614 mt 6255  389 L
 899 4614 mt  899  389 L
gs 899 389 5357 4226 MR c np
24 w
/c8 { 0.000000 0.000000 1.000000 sr} bdef
c8
179 -206 179 -205 178 -204 179 -202 178 -201 179 -199 178 -196 179 -194 
178 -191 179 -187 178 -182 179 -178 178 -171 179 -166 178 -157 179 -150 
179 -141 178 -131 179 -121 178 -111 179 -100 178 -90 179 -80 178 -70 
179 -60 178 -53 179 -44 178 -38 179 -32 178 -26 899 4500 31 MP stroke
gr

24 w
c8
gs 753 268 5649 4379 MR c np
 839 4500 mt  959 4500 L
 899 4440 mt  899 4560 L
1017 4474 mt 1137 4474 L
1077 4414 mt 1077 4534 L
1196 4442 mt 1316 4442 L
1256 4382 mt 1256 4502 L
1374 4404 mt 1494 4404 L
1434 4344 mt 1434 4464 L
1553 4360 mt 1673 4360 L
1613 4300 mt 1613 4420 L
1731 4307 mt 1851 4307 L
1791 4247 mt 1791 4367 L
1910 4247 mt 2030 4247 L
1970 4187 mt 1970 4307 L
2088 4177 mt 2208 4177 L
2148 4117 mt 2148 4237 L
2267 4097 mt 2387 4097 L
2327 4037 mt 2327 4157 L
2445 4007 mt 2565 4007 L
2505 3947 mt 2505 4067 L
2624 3907 mt 2744 3907 L
2684 3847 mt 2684 3967 L
2802 3796 mt 2922 3796 L
2862 3736 mt 2862 3856 L
2981 3675 mt 3101 3675 L
3041 3615 mt 3041 3735 L
3159 3544 mt 3279 3544 L
3219 3484 mt 3219 3604 L
3338 3403 mt 3458 3403 L
3398 3343 mt 3398 3463 L
3517 3253 mt 3637 3253 L
3577 3193 mt 3577 3313 L
3695 3096 mt 3815 3096 L
3755 3036 mt 3755 3156 L
3874 2930 mt 3994 2930 L
3934 2870 mt 3934 2990 L
4052 2759 mt 4172 2759 L
4112 2699 mt 4112 2819 L
4231 2581 mt 4351 2581 L
4291 2521 mt 4291 2641 L
4409 2399 mt 4529 2399 L
4469 2339 mt 4469 2459 L
4588 2212 mt 4708 2212 L
4648 2152 mt 4648 2272 L
4766 2021 mt 4886 2021 L
4826 1961 mt 4826 2081 L
4945 1827 mt 5065 1827 L
5005 1767 mt 5005 1887 L
5123 1631 mt 5243 1631 L
5183 1571 mt 5183 1691 L
5302 1432 mt 5422 1432 L
5362 1372 mt 5362 1492 L
5480 1231 mt 5600 1231 L
5540 1171 mt 5540 1291 L
5659 1029 mt 5779 1029 L
5719  969 mt 5719 1089 L
5837  825 mt 5957  825 L
5897  765 mt 5897  885 L
6016  620 mt 6136  620 L
6076  560 mt 6076  680 L
6195  414 mt 6315  414 L
6255  354 mt 6255  474 L
gs 899 389 5357 4226 MR c np
gr
gr

0 sg
3293  294 mt 
(Channel C) s
%%IncludeResource: font Helvetica
/Helvetica /WindowsLatin1Encoding 204 FMSR

3140 4964 mt 
(SNR \(dB\)) s
 631 3783 mt  -90 rotate
(Information Rates \(nats/sec\)) s
90 rotate
gs 899 389 5357 4226 MR c np
/c9 { 1.000000 0.000000 0.000000 sr} bdef
c9
179 -127 179 -128 178 -127 179 -127 178 -127 179 -126 178 -126 179 -126 
178 -125 179 -123 178 -122 179 -120 178 -118 179 -114 178 -112 179 -107 
179 -103 178 -98 179 -92 178 -86 179 -79 178 -73 179 -66 178 -59 
179 -52 178 -46 179 -40 178 -34 179 -28 178 -25 899 4507 31 MP stroke
gr

c9
gs 753 1525 5649 3129 MR c np
 857 4465 mt  941 4549 L
 941 4465 mt  857 4549 L
1035 4440 mt 1119 4524 L
1119 4440 mt 1035 4524 L
1214 4412 mt 1298 4496 L
1298 4412 mt 1214 4496 L
1392 4378 mt 1476 4462 L
1476 4378 mt 1392 4462 L
1571 4338 mt 1655 4422 L
1655 4338 mt 1571 4422 L
1749 4292 mt 1833 4376 L
1833 4292 mt 1749 4376 L
1928 4240 mt 2012 4324 L
2012 4240 mt 1928 4324 L
2106 4181 mt 2190 4265 L
2190 4181 mt 2106 4265 L
2285 4115 mt 2369 4199 L
2369 4115 mt 2285 4199 L
2463 4042 mt 2547 4126 L
2547 4042 mt 2463 4126 L
2642 3963 mt 2726 4047 L
2726 3963 mt 2642 4047 L
2820 3877 mt 2904 3961 L
2904 3877 mt 2820 3961 L
2999 3785 mt 3083 3869 L
3083 3785 mt 2999 3869 L
3177 3687 mt 3261 3771 L
3261 3687 mt 3177 3771 L
3356 3584 mt 3440 3668 L
3440 3584 mt 3356 3668 L
3535 3477 mt 3619 3561 L
3619 3477 mt 3535 3561 L
3713 3365 mt 3797 3449 L
3797 3365 mt 3713 3449 L
3892 3251 mt 3976 3335 L
3976 3251 mt 3892 3335 L
4070 3133 mt 4154 3217 L
4154 3133 mt 4070 3217 L
4249 3013 mt 4333 3097 L
4333 3013 mt 4249 3097 L
4427 2891 mt 4511 2975 L
4511 2891 mt 4427 2975 L
4606 2768 mt 4690 2852 L
4690 2768 mt 4606 2852 L
4784 2643 mt 4868 2727 L
4868 2643 mt 4784 2727 L
4963 2517 mt 5047 2601 L
5047 2517 mt 4963 2601 L
5141 2391 mt 5225 2475 L
5225 2391 mt 5141 2475 L
5320 2265 mt 5404 2349 L
5404 2265 mt 5320 2349 L
5498 2138 mt 5582 2222 L
5582 2138 mt 5498 2222 L
5677 2011 mt 5761 2095 L
5761 2011 mt 5677 2095 L
5855 1884 mt 5939 1968 L
5939 1884 mt 5855 1968 L
6034 1756 mt 6118 1840 L
6118 1756 mt 6034 1840 L
6213 1629 mt 6297 1713 L
6297 1629 mt 6213 1713 L
gr

gs 899 389 5357 4226 MR c np
DO
c8
179 -192 179 -191 178 -191 179 -190 178 -189 179 -188 178 -187 179 -186 
178 -183 179 -182 178 -178 179 -176 178 -171 179 -166 178 -161 179 -155 
179 -147 178 -138 179 -129 178 -119 179 -108 178 -98 179 -86 178 -75 
179 -66 178 -55 179 -47 178 -40 179 -33 178 -27 899 4501 31 MP stroke
gr

c8
DO
gs 753 301 5649 4347 MR c np
SO
 839 4501 mt  959 4501 L
 899 4441 mt  899 4561 L
1017 4474 mt 1137 4474 L
1077 4414 mt 1077 4534 L
1196 4441 mt 1316 4441 L
1256 4381 mt 1256 4501 L
1374 4401 mt 1494 4401 L
1434 4341 mt 1434 4461 L
1553 4354 mt 1673 4354 L
1613 4294 mt 1613 4414 L
1731 4299 mt 1851 4299 L
1791 4239 mt 1791 4359 L
1910 4233 mt 2030 4233 L
1970 4173 mt 1970 4293 L
2088 4158 mt 2208 4158 L
2148 4098 mt 2148 4218 L
2267 4072 mt 2387 4072 L
2327 4012 mt 2327 4132 L
2445 3974 mt 2565 3974 L
2505 3914 mt 2505 4034 L
2624 3866 mt 2744 3866 L
2684 3806 mt 2684 3926 L
2802 3747 mt 2922 3747 L
2862 3687 mt 2862 3807 L
2981 3618 mt 3101 3618 L
3041 3558 mt 3041 3678 L
3159 3480 mt 3279 3480 L
3219 3420 mt 3219 3540 L
3338 3333 mt 3458 3333 L
3398 3273 mt 3398 3393 L
3517 3178 mt 3637 3178 L
3577 3118 mt 3577 3238 L
3695 3017 mt 3815 3017 L
3755 2957 mt 3755 3077 L
3874 2851 mt 3994 2851 L
3934 2791 mt 3934 2911 L
4052 2680 mt 4172 2680 L
4112 2620 mt 4112 2740 L
4231 2504 mt 4351 2504 L
4291 2444 mt 4291 2564 L
4409 2326 mt 4529 2326 L
4469 2266 mt 4469 2386 L
4588 2144 mt 4708 2144 L
4648 2084 mt 4648 2204 L
4766 1961 mt 4886 1961 L
4826 1901 mt 4826 2021 L
4945 1775 mt 5065 1775 L
5005 1715 mt 5005 1835 L
5123 1588 mt 5243 1588 L
5183 1528 mt 5183 1648 L
5302 1400 mt 5422 1400 L
5362 1340 mt 5362 1460 L
5480 1211 mt 5600 1211 L
5540 1151 mt 5540 1271 L
5659 1021 mt 5779 1021 L
5719  961 mt 5719 1081 L
5837  830 mt 5957  830 L
5897  770 mt 5897  890 L
6016  639 mt 6136  639 L
6076  579 mt 6076  699 L
6195  447 mt 6315  447 L
6255  387 mt 6255  507 L
DO
gs 899 389 5357 4226 MR c np
c9
179 -192 179 -191 178 -191 179 -190 178 -189 179 -188 178 -187 179 -186 
178 -183 179 -182 178 -178 179 -176 178 -171 179 -166 178 -161 179 -155 
179 -147 178 -138 179 -129 178 -119 179 -108 178 -98 179 -86 178 -75 
179 -66 178 -55 179 -47 178 -40 179 -33 178 -27 899 4501 31 MP stroke
gr

c9
SO
 857 4459 mt  941 4543 L
 941 4459 mt  857 4543 L
1035 4432 mt 1119 4516 L
1119 4432 mt 1035 4516 L
1214 4399 mt 1298 4483 L
1298 4399 mt 1214 4483 L
1392 4359 mt 1476 4443 L
1476 4359 mt 1392 4443 L
1571 4312 mt 1655 4396 L
1655 4312 mt 1571 4396 L
1749 4257 mt 1833 4341 L
1833 4257 mt 1749 4341 L
1928 4191 mt 2012 4275 L
2012 4191 mt 1928 4275 L
2106 4116 mt 2190 4200 L
2190 4116 mt 2106 4200 L
2285 4030 mt 2369 4114 L
2369 4030 mt 2285 4114 L
2463 3932 mt 2547 4016 L
2547 3932 mt 2463 4016 L
2642 3824 mt 2726 3908 L
2726 3824 mt 2642 3908 L
2820 3705 mt 2904 3789 L
2904 3705 mt 2820 3789 L
2999 3576 mt 3083 3660 L
3083 3576 mt 2999 3660 L
3177 3438 mt 3261 3522 L
3261 3438 mt 3177 3522 L
3356 3291 mt 3440 3375 L
3440 3291 mt 3356 3375 L
3535 3136 mt 3619 3220 L
3619 3136 mt 3535 3220 L
3713 2975 mt 3797 3059 L
3797 2975 mt 3713 3059 L
3892 2809 mt 3976 2893 L
3976 2809 mt 3892 2893 L
4070 2638 mt 4154 2722 L
4154 2638 mt 4070 2722 L
4249 2462 mt 4333 2546 L
4333 2462 mt 4249 2546 L
4427 2284 mt 4511 2368 L
4511 2284 mt 4427 2368 L
4606 2102 mt 4690 2186 L
4690 2102 mt 4606 2186 L
4784 1919 mt 4868 2003 L
4868 1919 mt 4784 2003 L
4963 1733 mt 5047 1817 L
5047 1733 mt 4963 1817 L
5141 1546 mt 5225 1630 L
5225 1546 mt 5141 1630 L
5320 1358 mt 5404 1442 L
5404 1358 mt 5320 1442 L
5498 1169 mt 5582 1253 L
5582 1169 mt 5498 1253 L
5677  979 mt 5761 1063 L
5761  979 mt 5677 1063 L
5855  788 mt 5939  872 L
5939  788 mt 5855  872 L
6034  597 mt 6118  681 L
6118  597 mt 6034  681 L
6213  405 mt 6297  489 L
6297  405 mt 6213  489 L
DO
gs 899 389 5357 4226 MR c np
gr
gr

c9
0 sg
%%IncludeResource: font Helvetica
/Helvetica /WindowsLatin1Encoding 120 FMSR

 882 4657 mt 
( ) s
6239  431 mt 
( ) s
SO
6 w
1 sg
0 846 1913 0 0 -846 4283 4555 4 MP
PP
-1913 0 0 846 1913 0 0 -846 4283 4555 5 MP stroke
4 w
DO
SO
6 w
0 sg
4283 3709 mt 6196 3709 L
4283 4555 mt 6196 4555 L
6196 4555 mt 6196 3709 L
4283 4555 mt 4283 3709 L
4283 4555 mt 6196 4555 L
4283 4555 mt 4283 3709 L
4283 3709 mt 6196 3709 L
4283 4555 mt 6196 4555 L
6196 4555 mt 6196 3709 L
4283 4555 mt 4283 3709 L
%%IncludeResource: font Helvetica
/Helvetica /WindowsLatin1Encoding 168 FMSR

4733 3889 mt 
(SB JLD, Scheme 2) s
gs 4283 3709 1914 847 MR c np
24 w
c8
346 0 4352 3829 2 MP stroke
gr

24 w
c8
gs 4379 3683 293 293 MR c np
4465 3829 mt 4585 3829 L
4525 3769 mt 4525 3889 L
gr

gs 4283 3709 1914 847 MR c np
gr

0 sg
4733 4091 mt 
(SB ILD, Scheme 2) s
gs 4283 3709 1914 847 MR c np
c9
346 0 4352 4031 2 MP stroke
gs 4379 3885 293 293 MR c np
4483 3989 mt 4567 4073 L
4567 3989 mt 4483 4073 L
gr

gr

c9
0 sg
4733 4294 mt 
(SB JLD, Scheme 3) s
gs 4283 3709 1914 847 MR c np
DO
c8
346 0 4352 4232 2 MP stroke
SO
gs 4379 4086 293 293 MR c np
4465 4232 mt 4585 4232 L
4525 4172 mt 4525 4292 L
gr

gr

c8
0 sg
4733 4496 mt 
(SB ILD, Scheme 3) s
gs 4283 3709 1914 847 MR c np
DO
c9
346 0 4352 4434 2 MP stroke
SO
gr

c9
gs 4379 4288 293 293 MR c np
4483 4392 mt 4567 4476 L
4567 4392 mt 4483 4476 L
gr

gs 4283 3709 1914 847 MR c np
6 w
gr

6 w

end %%Color Dict

eplot
%%EndObject

epage
end

showpage

%%Trailer
%%EOF
