%!PS-Adobe-2.0 EPSF-1.2
%%Creator: MATLAB, The MathWorks, Inc. Version 7.14.0.739 (R2012a). Operating System: Microsoft Windows 7.
%%Title: .\RATE_CHB_SCHEME2.eps
%%CreationDate: 05/06/2015  12:27:56
%%DocumentNeededFonts: Helvetica
%%DocumentProcessColors: Cyan Magenta Yellow Black
%%Extensions: CMYK
%%Pages: 1
%%BoundingBox:    51   192   552   602
%%EndComments

%%BeginProlog
% MathWorks dictionary
/MathWorks 160 dict begin
% definition operators
/bdef {bind def} bind def
/ldef {load def} bind def
/xdef {exch def} bdef
/xstore {exch store} bdef
% operator abbreviations
/c  /clip ldef
/cc /concat ldef
/cp /closepath ldef
/gr /grestore ldef
/gs /gsave ldef
/mt /moveto ldef
/np /newpath ldef
/cm /currentmatrix ldef
/sm /setmatrix ldef
/rm /rmoveto ldef
/rl /rlineto ldef
/s {show newpath} bdef
/sc {setcmykcolor} bdef
/sr /setrgbcolor ldef
/sg /setgray ldef
/w /setlinewidth ldef
/j /setlinejoin ldef
/cap /setlinecap ldef
/rc {rectclip} bdef
/rf {rectfill} bdef
% page state control
/pgsv () def
/bpage {/pgsv save def} bdef
/epage {pgsv restore} bdef
/bplot /gsave ldef
/eplot {stroke grestore} bdef
% orientation switch
/portraitMode 0 def /landscapeMode 1 def /rotateMode 2 def
% coordinate system mappings
/dpi2point 0 def
% font control
/FontSize 0 def
/FMS {/FontSize xstore findfont [FontSize 0 0 FontSize neg 0 0]
  makefont setfont} bdef
/ISOLatin1Encoding where {pop /WindowsLatin1Encoding 256 array bdef
ISOLatin1Encoding WindowsLatin1Encoding copy pop
/.notdef/.notdef/quotesinglbase/florin/quotedblbase/ellipsis/dagger
/daggerdbl/circumflex/perthousand/Scaron/guilsinglleft/OE/.notdef/.notdef
/.notdef/.notdef/quoteleft/quoteright/quotedblleft/quotedblright/bullet
/endash/emdash/tilde/trademark/scaron/guilsinglright/oe/.notdef/.notdef
/Ydieresis WindowsLatin1Encoding 128 32 getinterval astore pop}
{/WindowsLatin1Encoding StandardEncoding bdef} ifelse
/reencode {exch dup where {pop load} {pop StandardEncoding} ifelse
  exch dup 3 1 roll findfont dup length dict begin
  { 1 index /FID ne {def}{pop pop} ifelse } forall
  /Encoding exch def currentdict end definefont pop} bdef
/isroman {findfont /CharStrings get /Agrave known} bdef
/FMSR {3 1 roll 1 index dup isroman {reencode} {pop pop} ifelse
  exch FMS} bdef
/csm {1 dpi2point div -1 dpi2point div scale neg translate
 dup landscapeMode eq {pop -90 rotate}
  {rotateMode eq {90 rotate} if} ifelse} bdef
% line types: solid, dotted, dashed, dotdash
/SO { [] 0 setdash } bdef
/DO { [.5 dpi2point mul 4 dpi2point mul] 0 setdash } bdef
/DA { [6 dpi2point mul] 0 setdash } bdef
/DD { [.5 dpi2point mul 4 dpi2point mul 6 dpi2point mul 4
  dpi2point mul] 0 setdash } bdef
% macros for lines and objects
/L {lineto stroke} bdef
/MP {3 1 roll moveto 1 sub {rlineto} repeat} bdef
/AP {{rlineto} repeat} bdef
/PDlw -1 def
/W {/PDlw currentlinewidth def setlinewidth} def
/PP {closepath eofill} bdef
/DP {closepath stroke} bdef
/MR {4 -2 roll moveto dup  0 exch rlineto exch 0 rlineto
  neg 0 exch rlineto closepath} bdef
/FR {MR stroke} bdef
/PR {MR fill} bdef
/L1i {{currentfile picstr readhexstring pop} image} bdef
/tMatrix matrix def
/MakeOval {newpath tMatrix currentmatrix pop translate scale
0 0 1 0 360 arc tMatrix setmatrix} bdef
/FO {MakeOval stroke} bdef
/PO {MakeOval fill} bdef
/PD {currentlinewidth 2 div 0 360 arc fill
   PDlw -1 eq not {PDlw w /PDlw -1 def} if} def
/FA {newpath tMatrix currentmatrix pop translate scale
  0 0 1 5 -2 roll arc tMatrix setmatrix stroke} bdef
/PA {newpath tMatrix currentmatrix pop	translate 0 0 moveto scale
  0 0 1 5 -2 roll arc closepath tMatrix setmatrix fill} bdef
/FAn {newpath tMatrix currentmatrix pop translate scale
  0 0 1 5 -2 roll arcn tMatrix setmatrix stroke} bdef
/PAn {newpath tMatrix currentmatrix pop translate 0 0 moveto scale
  0 0 1 5 -2 roll arcn closepath tMatrix setmatrix fill} bdef
/vradius 0 def /hradius 0 def /lry 0 def
/lrx 0 def /uly 0 def /ulx 0 def /rad 0 def
/MRR {/vradius xdef /hradius xdef /lry xdef /lrx xdef /uly xdef
  /ulx xdef newpath tMatrix currentmatrix pop ulx hradius add uly
  vradius add translate hradius vradius scale 0 0 1 180 270 arc 
  tMatrix setmatrix lrx hradius sub uly vradius add translate
  hradius vradius scale 0 0 1 270 360 arc tMatrix setmatrix
  lrx hradius sub lry vradius sub translate hradius vradius scale
  0 0 1 0 90 arc tMatrix setmatrix ulx hradius add lry vradius sub
  translate hradius vradius scale 0 0 1 90 180 arc tMatrix setmatrix
  closepath} bdef
/FRR {MRR stroke } bdef
/PRR {MRR fill } bdef
/MlrRR {/lry xdef /lrx xdef /uly xdef /ulx xdef /rad lry uly sub 2 div def
  newpath tMatrix currentmatrix pop ulx rad add uly rad add translate
  rad rad scale 0 0 1 90 270 arc tMatrix setmatrix lrx rad sub lry rad
  sub translate rad rad scale 0 0 1 270 90 arc tMatrix setmatrix
  closepath} bdef
/FlrRR {MlrRR stroke } bdef
/PlrRR {MlrRR fill } bdef
/MtbRR {/lry xdef /lrx xdef /uly xdef /ulx xdef /rad lrx ulx sub 2 div def
  newpath tMatrix currentmatrix pop ulx rad add uly rad add translate
  rad rad scale 0 0 1 180 360 arc tMatrix setmatrix lrx rad sub lry rad
  sub translate rad rad scale 0 0 1 0 180 arc tMatrix setmatrix
  closepath} bdef
/FtbRR {MtbRR stroke } bdef
/PtbRR {MtbRR fill } bdef
/stri 6 array def /dtri 6 array def
/smat 6 array def /dmat 6 array def
/tmat1 6 array def /tmat2 6 array def /dif 3 array def
/asub {/ind2 exch def /ind1 exch def dup dup
  ind1 get exch ind2 get sub exch } bdef
/tri_to_matrix {
  2 0 asub 3 1 asub 4 0 asub 5 1 asub
  dup 0 get exch 1 get 7 -1 roll astore } bdef
/compute_transform {
  dmat dtri tri_to_matrix tmat1 invertmatrix 
  smat stri tri_to_matrix tmat2 concatmatrix } bdef
/ds {stri astore pop} bdef
/dt {dtri astore pop} bdef
/db {2 copy /cols xdef /rows xdef mul dup 3 mul string
  currentfile exch readhexstring pop
  dup 0 3 index getinterval /rbmap xdef
  dup 2 index dup getinterval /gbmap xdef
  1 index dup 2 mul exch getinterval /bbmap xdef pop pop}bdef
/it {gs np dtri aload pop moveto lineto lineto cp c
  cols rows 8 compute_transform 
  rbmap gbmap bbmap true 3 colorimage gr}bdef
/il {newpath moveto lineto stroke}bdef
currentdict end def
%%EndProlog

%%BeginSetup
MathWorks begin

0 cap

end
%%EndSetup

%%Page: 1 1
%%BeginPageSetup
%%PageBoundingBox:    51   192   552   602
MathWorks begin
bpage
%%EndPageSetup

%%BeginObject: obj1
bplot

/dpi2point 12 def
portraitMode 0204 7344 csm

  417   110  6014  4924 MR c np
87 dict begin %Colortable dictionary
/c0 { 0.000000 0.000000 0.000000 sr} bdef
/c1 { 1.000000 1.000000 1.000000 sr} bdef
/c2 { 0.900000 0.000000 0.000000 sr} bdef
/c3 { 0.000000 0.820000 0.000000 sr} bdef
/c4 { 0.000000 0.000000 0.800000 sr} bdef
/c5 { 0.910000 0.820000 0.320000 sr} bdef
/c6 { 1.000000 0.260000 0.820000 sr} bdef
/c7 { 0.000000 0.820000 0.820000 sr} bdef
c0
1 j
1 sg
   0    0 6913 5185 PR
6 w
0 4225 5356 0 0 -4225 899 4614 4 MP
PP
-5356 0 0 4225 5356 0 0 -4225 899 4614 5 MP stroke
4 w
DO
SO
6 w
0 sg
 899  389 mt 6255  389 L
 899 4614 mt 6255 4614 L
6255 4614 mt 6255  389 L
 899 4614 mt  899  389 L
 899 4614 mt 6255 4614 L
 899 4614 mt  899  389 L
 899 4614 mt  899 4560 L
 899  389 mt  899  442 L
%%IncludeResource: font Helvetica
/Helvetica /WindowsLatin1Encoding 120 FMSR

 866 4759 mt 
(0) s
1791 4614 mt 1791 4560 L
1791  389 mt 1791  442 L
1758 4759 mt 
(5) s
2684 4614 mt 2684 4560 L
2684  389 mt 2684  442 L
2618 4759 mt 
(10) s
3577 4614 mt 3577 4560 L
3577  389 mt 3577  442 L
3511 4759 mt 
(15) s
4469 4614 mt 4469 4560 L
4469  389 mt 4469  442 L
4403 4759 mt 
(20) s
5362 4614 mt 5362 4560 L
5362  389 mt 5362  442 L
5296 4759 mt 
(25) s
6255 4614 mt 6255 4560 L
6255  389 mt 6255  442 L
6189 4759 mt 
(30) s
 899 4614 mt  952 4614 L
6255 4614 mt 6201 4614 L
 798 4658 mt 
(0) s
 899 4085 mt  952 4085 L
6255 4085 mt 6201 4085 L
 798 4129 mt 
(5) s
 899 3557 mt  952 3557 L
6255 3557 mt 6201 3557 L
 731 3601 mt 
(10) s
 899 3029 mt  952 3029 L
6255 3029 mt 6201 3029 L
 731 3073 mt 
(15) s
 899 2501 mt  952 2501 L
6255 2501 mt 6201 2501 L
 731 2545 mt 
(20) s
 899 1973 mt  952 1973 L
6255 1973 mt 6201 1973 L
 731 2017 mt 
(25) s
 899 1445 mt  952 1445 L
6255 1445 mt 6201 1445 L
 731 1489 mt 
(30) s
 899  917 mt  952  917 L
6255  917 mt 6201  917 L
 731  961 mt 
(35) s
 899  389 mt  952  389 L
6255  389 mt 6201  389 L
 731  433 mt 
(40) s
 899  389 mt 6255  389 L
 899 4614 mt 6255 4614 L
6255 4614 mt 6255  389 L
 899 4614 mt  899  389 L
gs 899 389 5357 4226 MR c np
24 w
/c8 { 0.000000 1.000000 0.000000 sr} bdef
c8
179 -180 179 -180 178 -179 179 -178 178 -177 179 -175 178 -173 179 -172 
178 -169 179 -166 178 -162 179 -159 178 -154 179 -149 178 -143 179 -137 
179 -129 178 -121 179 -113 178 -104 179 -95 178 -86 179 -77 178 -68 
179 -60 178 -51 179 -45 178 -38 179 -31 178 -27 899 4496 31 MP stroke
gr

24 w
c8
gs 753 652 5649 3991 MR c np
 839 4496 mt  959 4496 L
 899 4436 mt  899 4556 L
1017 4469 mt 1137 4469 L
1077 4409 mt 1077 4529 L
1196 4438 mt 1316 4438 L
1256 4378 mt 1256 4498 L
1374 4400 mt 1494 4400 L
1434 4340 mt 1434 4460 L
1553 4355 mt 1673 4355 L
1613 4295 mt 1613 4415 L
1731 4304 mt 1851 4304 L
1791 4244 mt 1791 4364 L
1910 4244 mt 2030 4244 L
1970 4184 mt 1970 4304 L
2088 4176 mt 2208 4176 L
2148 4116 mt 2148 4236 L
2267 4099 mt 2387 4099 L
2327 4039 mt 2327 4159 L
2445 4013 mt 2565 4013 L
2505 3953 mt 2505 4073 L
2624 3918 mt 2744 3918 L
2684 3858 mt 2684 3978 L
2802 3814 mt 2922 3814 L
2862 3754 mt 2862 3874 L
2981 3701 mt 3101 3701 L
3041 3641 mt 3041 3761 L
3159 3580 mt 3279 3580 L
3219 3520 mt 3219 3640 L
3338 3451 mt 3458 3451 L
3398 3391 mt 3398 3511 L
3517 3314 mt 3637 3314 L
3577 3254 mt 3577 3374 L
3695 3171 mt 3815 3171 L
3755 3111 mt 3755 3231 L
3874 3022 mt 3994 3022 L
3934 2962 mt 3934 3082 L
4052 2868 mt 4172 2868 L
4112 2808 mt 4112 2928 L
4231 2709 mt 4351 2709 L
4291 2649 mt 4291 2769 L
4409 2547 mt 4529 2547 L
4469 2487 mt 4469 2607 L
4588 2381 mt 4708 2381 L
4648 2321 mt 4648 2441 L
4766 2212 mt 4886 2212 L
4826 2152 mt 4826 2272 L
4945 2040 mt 5065 2040 L
5005 1980 mt 5005 2100 L
5123 1867 mt 5243 1867 L
5183 1807 mt 5183 1927 L
5302 1692 mt 5422 1692 L
5362 1632 mt 5362 1752 L
5480 1515 mt 5600 1515 L
5540 1455 mt 5540 1575 L
5659 1337 mt 5779 1337 L
5719 1277 mt 5719 1397 L
5837 1158 mt 5957 1158 L
5897 1098 mt 5897 1218 L
6016  978 mt 6136  978 L
6076  918 mt 6076 1038 L
6195  798 mt 6315  798 L
6255  738 mt 6255  858 L
 857 4454 mt  941 4538 L
 941 4454 mt  857 4538 L
1035 4427 mt 1119 4511 L
1119 4427 mt 1035 4511 L
1214 4396 mt 1298 4480 L
1298 4396 mt 1214 4480 L
1392 4358 mt 1476 4442 L
1476 4358 mt 1392 4442 L
1571 4313 mt 1655 4397 L
1655 4313 mt 1571 4397 L
1749 4262 mt 1833 4346 L
1833 4262 mt 1749 4346 L
1928 4202 mt 2012 4286 L
2012 4202 mt 1928 4286 L
2106 4134 mt 2190 4218 L
2190 4134 mt 2106 4218 L
2285 4057 mt 2369 4141 L
2369 4057 mt 2285 4141 L
2463 3971 mt 2547 4055 L
2547 3971 mt 2463 4055 L
2642 3876 mt 2726 3960 L
2726 3876 mt 2642 3960 L
2820 3772 mt 2904 3856 L
2904 3772 mt 2820 3856 L
2999 3659 mt 3083 3743 L
3083 3659 mt 2999 3743 L
3177 3538 mt 3261 3622 L
3261 3538 mt 3177 3622 L
3356 3409 mt 3440 3493 L
3440 3409 mt 3356 3493 L
3535 3272 mt 3619 3356 L
3619 3272 mt 3535 3356 L
3713 3129 mt 3797 3213 L
3797 3129 mt 3713 3213 L
3892 2980 mt 3976 3064 L
3976 2980 mt 3892 3064 L
4070 2826 mt 4154 2910 L
4154 2826 mt 4070 2910 L
4249 2667 mt 4333 2751 L
4333 2667 mt 4249 2751 L
4427 2505 mt 4511 2589 L
4511 2505 mt 4427 2589 L
4606 2339 mt 4690 2423 L
4690 2339 mt 4606 2423 L
4784 2170 mt 4868 2254 L
4868 2170 mt 4784 2254 L
4963 1998 mt 5047 2082 L
5047 1998 mt 4963 2082 L
5141 1825 mt 5225 1909 L
5225 1825 mt 5141 1909 L
5320 1650 mt 5404 1734 L
5404 1650 mt 5320 1734 L
5498 1473 mt 5582 1557 L
5582 1473 mt 5498 1557 L
5677 1295 mt 5761 1379 L
5761 1295 mt 5677 1379 L
5855 1116 mt 5939 1200 L
5939 1116 mt 5855 1200 L
6034  936 mt 6118 1020 L
6118  936 mt 6034 1020 L
6213  756 mt 6297  840 L
6297  756 mt 6213  840 L
gr

gs 899 389 5357 4226 MR c np
gr

0 sg
2994  294 mt 
(Channel B, Scheme 2) s
%%IncludeResource: font Helvetica
/Helvetica /WindowsLatin1Encoding 204 FMSR

3140 4964 mt 
(SNR \(dB\)) s
 631 3783 mt  -90 rotate
(Information Rates \(nats/sec\)) s
90 rotate
gs 899 389 5357 4226 MR c np
/c9 { 0.000000 0.000000 1.000000 sr} bdef
c9
179 -180 179 -179 178 -179 179 -177 178 -175 179 -174 178 -172 179 -170 
178 -167 179 -164 178 -159 179 -156 178 -151 179 -144 178 -139 179 -131 
179 -124 178 -115 179 -107 178 -98 179 -88 178 -80 179 -71 178 -62 
179 -54 178 -47 179 -40 178 -34 179 -28 178 -24 899 4511 31 MP stroke
gr

c9
gs 753 776 5649 3882 MR c np
0 j
0 -94 -94 0 0 94 94 0 852 4464 5 MP
DP
0 -94 -94 0 0 94 94 0 1030 4440 5 MP
DP
0 -94 -94 0 0 94 94 0 1209 4412 5 MP
DP
0 -94 -94 0 0 94 94 0 1387 4378 5 MP
DP
0 -94 -94 0 0 94 94 0 1566 4338 5 MP
DP
0 -94 -94 0 0 94 94 0 1744 4291 5 MP
DP
0 -94 -94 0 0 94 94 0 1923 4237 5 MP
DP
0 -94 -94 0 0 94 94 0 2101 4175 5 MP
DP
0 -94 -94 0 0 94 94 0 2280 4104 5 MP
DP
0 -94 -94 0 0 94 94 0 2458 4024 5 MP
DP
0 -94 -94 0 0 94 94 0 2637 3936 5 MP
DP
0 -94 -94 0 0 94 94 0 2815 3838 5 MP
DP
0 -94 -94 0 0 94 94 0 2994 3731 5 MP
DP
0 -94 -94 0 0 94 94 0 3172 3616 5 MP
DP
0 -94 -94 0 0 94 94 0 3351 3492 5 MP
DP
0 -94 -94 0 0 94 94 0 3530 3361 5 MP
DP
0 -94 -94 0 0 94 94 0 3708 3222 5 MP
DP
0 -94 -94 0 0 94 94 0 3887 3078 5 MP
DP
0 -94 -94 0 0 94 94 0 4065 2927 5 MP
DP
0 -94 -94 0 0 94 94 0 4244 2771 5 MP
DP
0 -94 -94 0 0 94 94 0 4422 2612 5 MP
DP
0 -94 -94 0 0 94 94 0 4601 2448 5 MP
DP
0 -94 -94 0 0 94 94 0 4779 2281 5 MP
DP
0 -94 -94 0 0 94 94 0 4958 2111 5 MP
DP
0 -94 -94 0 0 94 94 0 5136 1939 5 MP
DP
0 -94 -94 0 0 94 94 0 5315 1765 5 MP
DP
0 -94 -94 0 0 94 94 0 5493 1590 5 MP
DP
0 -94 -94 0 0 94 94 0 5672 1413 5 MP
DP
0 -94 -94 0 0 94 94 0 5850 1234 5 MP
DP
0 -94 -94 0 0 94 94 0 6029 1055 5 MP
DP
0 -94 -94 0 0 94 94 0 6208 875 5 MP
DP
gr

gs 899 389 5357 4226 MR c np
/c10 { 1.000000 0.000000 1.000000 sr} bdef
c10
179 -180 179 -179 178 -178 179 -177 178 -175 179 -174 178 -171 179 -170 
178 -166 179 -163 178 -159 179 -155 178 -150 179 -144 178 -137 179 -130 
179 -122 178 -115 179 -105 178 -96 179 -88 178 -78 179 -70 178 -61 
179 -54 178 -46 179 -39 178 -33 179 -28 178 -23 899 4512 31 MP stroke
gr

c10
gs 753 800 5649 3859 MR c np
 839 4512 mt  959 4512 L
 899 4452 mt  899 4572 L
1017 4489 mt 1137 4489 L
1077 4429 mt 1077 4549 L
1196 4461 mt 1316 4461 L
1256 4401 mt 1256 4521 L
1374 4428 mt 1494 4428 L
1434 4368 mt 1434 4488 L
1553 4389 mt 1673 4389 L
1613 4329 mt 1613 4449 L
1731 4343 mt 1851 4343 L
1791 4283 mt 1791 4403 L
1910 4289 mt 2030 4289 L
1970 4229 mt 1970 4349 L
2088 4228 mt 2208 4228 L
2148 4168 mt 2148 4288 L
2267 4158 mt 2387 4158 L
2327 4098 mt 2327 4218 L
2445 4080 mt 2565 4080 L
2505 4020 mt 2505 4140 L
2624 3992 mt 2744 3992 L
2684 3932 mt 2684 4052 L
2802 3896 mt 2922 3896 L
2862 3836 mt 2862 3956 L
2981 3791 mt 3101 3791 L
3041 3731 mt 3041 3851 L
3159 3676 mt 3279 3676 L
3219 3616 mt 3219 3736 L
3338 3554 mt 3458 3554 L
3398 3494 mt 3398 3614 L
3517 3424 mt 3637 3424 L
3577 3364 mt 3577 3484 L
3695 3287 mt 3815 3287 L
3755 3227 mt 3755 3347 L
3874 3143 mt 3994 3143 L
3934 3083 mt 3934 3203 L
4052 2993 mt 4172 2993 L
4112 2933 mt 4112 3053 L
4231 2838 mt 4351 2838 L
4291 2778 mt 4291 2898 L
4409 2679 mt 4529 2679 L
4469 2619 mt 4469 2739 L
4588 2516 mt 4708 2516 L
4648 2456 mt 4648 2576 L
4766 2350 mt 4886 2350 L
4826 2290 mt 4826 2410 L
4945 2180 mt 5065 2180 L
5005 2120 mt 5005 2240 L
5123 2009 mt 5243 2009 L
5183 1949 mt 5183 2069 L
5302 1835 mt 5422 1835 L
5362 1775 mt 5362 1895 L
5480 1660 mt 5600 1660 L
5540 1600 mt 5540 1720 L
5659 1483 mt 5779 1483 L
5719 1423 mt 5719 1543 L
5837 1305 mt 5957 1305 L
5897 1245 mt 5897 1365 L
6016 1126 mt 6136 1126 L
6076 1066 mt 6076 1186 L
6195  946 mt 6315  946 L
6255  886 mt 6255 1006 L
gr

gs 899 389 5357 4226 MR c np
/c11 { 1.000000 0.000000 0.000000 sr} bdef
c11
179 -103 179 -103 178 -104 179 -103 178 -104 179 -103 178 -103 179 -103 
178 -102 179 -101 178 -100 179 -99 178 -98 179 -95 178 -93 179 -89 
179 -87 178 -82 179 -78 178 -72 179 -68 178 -62 179 -56 178 -51 
179 -45 178 -39 179 -35 178 -29 179 -25 178 -21 899 4519 31 MP stroke
gr

c11
gs 753 2020 5649 2646 MR c np
 857 4477 mt  941 4561 L
 941 4477 mt  857 4561 L
1035 4456 mt 1119 4540 L
1119 4456 mt 1035 4540 L
1214 4431 mt 1298 4515 L
1298 4431 mt 1214 4515 L
1392 4402 mt 1476 4486 L
1476 4402 mt 1392 4486 L
1571 4367 mt 1655 4451 L
1655 4367 mt 1571 4451 L
1749 4328 mt 1833 4412 L
1833 4328 mt 1749 4412 L
1928 4283 mt 2012 4367 L
2012 4283 mt 1928 4367 L
2106 4232 mt 2190 4316 L
2190 4232 mt 2106 4316 L
2285 4176 mt 2369 4260 L
2369 4176 mt 2285 4260 L
2463 4114 mt 2547 4198 L
2547 4114 mt 2463 4198 L
2642 4046 mt 2726 4130 L
2726 4046 mt 2642 4130 L
2820 3974 mt 2904 4058 L
2904 3974 mt 2820 4058 L
2999 3896 mt 3083 3980 L
3083 3896 mt 2999 3980 L
3177 3814 mt 3261 3898 L
3261 3814 mt 3177 3898 L
3356 3727 mt 3440 3811 L
3440 3727 mt 3356 3811 L
3535 3638 mt 3619 3722 L
3619 3638 mt 3535 3722 L
3713 3545 mt 3797 3629 L
3797 3545 mt 3713 3629 L
3892 3450 mt 3976 3534 L
3976 3450 mt 3892 3534 L
4070 3352 mt 4154 3436 L
4154 3352 mt 4070 3436 L
4249 3253 mt 4333 3337 L
4333 3253 mt 4249 3337 L
4427 3153 mt 4511 3237 L
4511 3153 mt 4427 3237 L
4606 3052 mt 4690 3136 L
4690 3052 mt 4606 3136 L
4784 2950 mt 4868 3034 L
4868 2950 mt 4784 3034 L
4963 2847 mt 5047 2931 L
5047 2847 mt 4963 2931 L
5141 2744 mt 5225 2828 L
5225 2744 mt 5141 2828 L
5320 2641 mt 5404 2725 L
5404 2641 mt 5320 2725 L
5498 2537 mt 5582 2621 L
5582 2537 mt 5498 2621 L
5677 2434 mt 5761 2518 L
5761 2434 mt 5677 2518 L
5855 2330 mt 5939 2414 L
5939 2330 mt 5855 2414 L
6034 2227 mt 6118 2311 L
6118 2227 mt 6034 2311 L
6213 2124 mt 6297 2208 L
6297 2124 mt 6213 2208 L
gr

gs 899 389 5357 4226 MR c np
gr

0 sg
%%IncludeResource: font Helvetica
/Helvetica /WindowsLatin1Encoding 120 FMSR

 882 4657 mt 
( ) s
6239  431 mt 
( ) s
6 w
1 sg
0 907 1367 0 0 -907 4828 4555 4 MP
PP
-1367 0 0 907 1367 0 0 -907 4828 4555 5 MP stroke
4 w
DO
SO
6 w
0 sg
4828 3648 mt 6195 3648 L
4828 4555 mt 6195 4555 L
6195 4555 mt 6195 3648 L
4828 4555 mt 4828 3648 L
4828 4555 mt 6195 4555 L
4828 4555 mt 4828 3648 L
4828 3648 mt 6195 3648 L
4828 4555 mt 6195 4555 L
6195 4555 mt 6195 3648 L
4828 4555 mt 4828 3648 L
%%IncludeResource: font Helvetica
/Helvetica /WindowsLatin1Encoding 168 FMSR

5281 3830 mt 
(Optimal Rx) s
gs 4828 3648 1368 908 MR c np
24 w
c8
348 0 4897 3769 2 MP stroke
gr

24 w
c8
gs 4925 3623 293 293 MR c np
5011 3769 mt 5131 3769 L
5071 3709 mt 5071 3829 L
5029 3727 mt 5113 3811 L
5113 3727 mt 5029 3811 L
gr

gs 4828 3648 1368 908 MR c np
gr

0 sg
5281 4090 mt 
(EB, K=K) s
%%IncludeResource: font Symbol
/Symbol /WindowsLatin1Encoding 132 FMSR

5917 4006 mt 
(\242) s
%%IncludeResource: font Helvetica
/Helvetica /WindowsLatin1Encoding 168 FMSR

5949 4090 mt 
(+1) s
gs 4828 3648 1368 908 MR c np
c9
348 0 4897 3999 2 MP stroke
gs 4925 3853 293 293 MR c np
0 j
0 -94 -94 0 0 94 94 0 5024 3952 5 MP
DP
gr

gr

c9
0 sg
5281 4289 mt 
(SB, JLD) s
gs 4828 3648 1368 908 MR c np
c10
348 0 4897 4228 2 MP stroke
gs 4925 4082 293 293 MR c np
5011 4228 mt 5131 4228 L
5071 4168 mt 5071 4288 L
gr

gr

c10
0 sg
5281 4494 mt 
(SB, ILD) s
gs 4828 3648 1368 908 MR c np
c11
348 0 4897 4433 2 MP stroke
gr

c11
gs 4925 4287 293 293 MR c np
5029 4391 mt 5113 4475 L
5113 4391 mt 5029 4475 L
gr

gs 4828 3648 1368 908 MR c np
6 w
gr

6 w

end %%Color Dict

eplot
%%EndObject

epage
end

showpage

%%Trailer
%%EOF
