%!PS-Adobe-3.0 EPSF-3.0
%%Creator: MATLAB, The MathWorks, Inc. Version 7.14.0.739 (R2012a). Operating System: Microsoft Windows 7.
%%Title: C:\Users\Hassan\Dropbox\ubli\CHA_ILD.eps
%%CreationDate: 04/24/2015  23:58:16
%%DocumentNeededFonts: Helvetica
%%DocumentProcessColors: Cyan Magenta Yellow Black
%%LanguageLevel: 2
%%Pages: 1
%%BoundingBox:    96   238   515   553
%%EndComments

%%BeginProlog
% MathWorks dictionary
/MathWorks 160 dict begin
% definition operators
/bdef {bind def} bind def
/ldef {load def} bind def
/xdef {exch def} bdef
/xstore {exch store} bdef
% operator abbreviations
/c  /clip ldef
/cc /concat ldef
/cp /closepath ldef
/gr /grestore ldef
/gs /gsave ldef
/mt /moveto ldef
/np /newpath ldef
/cm /currentmatrix ldef
/sm /setmatrix ldef
/rm /rmoveto ldef
/rl /rlineto ldef
/s {show newpath} bdef
/sc {setcmykcolor} bdef
/sr /setrgbcolor ldef
/sg /setgray ldef
/w /setlinewidth ldef
/j /setlinejoin ldef
/cap /setlinecap ldef
/rc {rectclip} bdef
/rf {rectfill} bdef
% page state control
/pgsv () def
/bpage {/pgsv save def} bdef
/epage {pgsv restore} bdef
/bplot /gsave ldef
/eplot {stroke grestore} bdef
% orientation switch
/portraitMode 0 def /landscapeMode 1 def /rotateMode 2 def
% coordinate system mappings
/dpi2point 0 def
% font control
/FontSize 0 def
/FMS {/FontSize xstore findfont [FontSize 0 0 FontSize neg 0 0]
  makefont setfont} bdef
/ISOLatin1Encoding where {pop /WindowsLatin1Encoding 256 array bdef
ISOLatin1Encoding WindowsLatin1Encoding copy pop
/.notdef/.notdef/quotesinglbase/florin/quotedblbase/ellipsis/dagger
/daggerdbl/circumflex/perthousand/Scaron/guilsinglleft/OE/.notdef/.notdef
/.notdef/.notdef/quoteleft/quoteright/quotedblleft/quotedblright/bullet
/endash/emdash/tilde/trademark/scaron/guilsinglright/oe/.notdef/.notdef
/Ydieresis WindowsLatin1Encoding 128 32 getinterval astore pop}
{/WindowsLatin1Encoding StandardEncoding bdef} ifelse
/reencode {exch dup where {pop load} {pop StandardEncoding} ifelse
  exch dup 3 1 roll findfont dup length dict begin
  { 1 index /FID ne {def}{pop pop} ifelse } forall
  /Encoding exch def currentdict end definefont pop} bdef
/isroman {findfont /CharStrings get /Agrave known} bdef
/FMSR {3 1 roll 1 index dup isroman {reencode} {pop pop} ifelse
  exch FMS} bdef
/csm {1 dpi2point div -1 dpi2point div scale neg translate
 dup landscapeMode eq {pop -90 rotate}
  {rotateMode eq {90 rotate} if} ifelse} bdef
% line types: solid, dotted, dashed, dotdash
/SO { [] 0 setdash } bdef
/DO { [.5 dpi2point mul 4 dpi2point mul] 0 setdash } bdef
/DA { [6 dpi2point mul] 0 setdash } bdef
/DD { [.5 dpi2point mul 4 dpi2point mul 6 dpi2point mul 4
  dpi2point mul] 0 setdash } bdef
% macros for lines and objects
/L {lineto stroke} bdef
/MP {3 1 roll moveto 1 sub {rlineto} repeat} bdef
/AP {{rlineto} repeat} bdef
/PDlw -1 def
/W {/PDlw currentlinewidth def setlinewidth} def
/PP {closepath eofill} bdef
/DP {closepath stroke} bdef
/MR {4 -2 roll moveto dup  0 exch rlineto exch 0 rlineto
  neg 0 exch rlineto closepath} bdef
/FR {MR stroke} bdef
/PR {MR fill} bdef
/L1i {{currentfile picstr readhexstring pop} image} bdef
/tMatrix matrix def
/MakeOval {newpath tMatrix currentmatrix pop translate scale
0 0 1 0 360 arc tMatrix setmatrix} bdef
/FO {MakeOval stroke} bdef
/PO {MakeOval fill} bdef
/PD {currentlinewidth 2 div 0 360 arc fill
   PDlw -1 eq not {PDlw w /PDlw -1 def} if} def
/FA {newpath tMatrix currentmatrix pop translate scale
  0 0 1 5 -2 roll arc tMatrix setmatrix stroke} bdef
/PA {newpath tMatrix currentmatrix pop	translate 0 0 moveto scale
  0 0 1 5 -2 roll arc closepath tMatrix setmatrix fill} bdef
/FAn {newpath tMatrix currentmatrix pop translate scale
  0 0 1 5 -2 roll arcn tMatrix setmatrix stroke} bdef
/PAn {newpath tMatrix currentmatrix pop translate 0 0 moveto scale
  0 0 1 5 -2 roll arcn closepath tMatrix setmatrix fill} bdef
/vradius 0 def /hradius 0 def /lry 0 def
/lrx 0 def /uly 0 def /ulx 0 def /rad 0 def
/MRR {/vradius xdef /hradius xdef /lry xdef /lrx xdef /uly xdef
  /ulx xdef newpath tMatrix currentmatrix pop ulx hradius add uly
  vradius add translate hradius vradius scale 0 0 1 180 270 arc 
  tMatrix setmatrix lrx hradius sub uly vradius add translate
  hradius vradius scale 0 0 1 270 360 arc tMatrix setmatrix
  lrx hradius sub lry vradius sub translate hradius vradius scale
  0 0 1 0 90 arc tMatrix setmatrix ulx hradius add lry vradius sub
  translate hradius vradius scale 0 0 1 90 180 arc tMatrix setmatrix
  closepath} bdef
/FRR {MRR stroke } bdef
/PRR {MRR fill } bdef
/MlrRR {/lry xdef /lrx xdef /uly xdef /ulx xdef /rad lry uly sub 2 div def
  newpath tMatrix currentmatrix pop ulx rad add uly rad add translate
  rad rad scale 0 0 1 90 270 arc tMatrix setmatrix lrx rad sub lry rad
  sub translate rad rad scale 0 0 1 270 90 arc tMatrix setmatrix
  closepath} bdef
/FlrRR {MlrRR stroke } bdef
/PlrRR {MlrRR fill } bdef
/MtbRR {/lry xdef /lrx xdef /uly xdef /ulx xdef /rad lrx ulx sub 2 div def
  newpath tMatrix currentmatrix pop ulx rad add uly rad add translate
  rad rad scale 0 0 1 180 360 arc tMatrix setmatrix lrx rad sub lry rad
  sub translate rad rad scale 0 0 1 0 180 arc tMatrix setmatrix
  closepath} bdef
/FtbRR {MtbRR stroke } bdef
/PtbRR {MtbRR fill } bdef
/stri 6 array def /dtri 6 array def
/smat 6 array def /dmat 6 array def
/tmat1 6 array def /tmat2 6 array def /dif 3 array def
/asub {/ind2 exch def /ind1 exch def dup dup
  ind1 get exch ind2 get sub exch } bdef
/tri_to_matrix {
  2 0 asub 3 1 asub 4 0 asub 5 1 asub
  dup 0 get exch 1 get 7 -1 roll astore } bdef
/compute_transform {
  dmat dtri tri_to_matrix tmat1 invertmatrix 
  smat stri tri_to_matrix tmat2 concatmatrix } bdef
/ds {stri astore pop} bdef
/dt {dtri astore pop} bdef
/db {2 copy /cols xdef /rows xdef mul dup 3 mul string
  currentfile 
  3 index 0 eq {/ASCIIHexDecode filter}
  {/ASCII85Decode filter 3 index 2 eq {/RunLengthDecode filter} if }
  ifelse exch readstring pop
  dup 0 3 index getinterval /rbmap xdef
  dup 2 index dup getinterval /gbmap xdef
  1 index dup 2 mul exch getinterval /bbmap xdef pop pop}bdef
/it {gs np dtri aload pop moveto lineto lineto cp c
  cols rows 8 compute_transform 
  rbmap gbmap bbmap true 3 colorimage gr}bdef
/il {newpath moveto lineto stroke}bdef
currentdict end def
%%EndProlog

%%BeginSetup
MathWorks begin

0 cap

end
%%EndSetup

%%Page: 1 1
%%BeginPageSetup
%%PageBoundingBox:    96   238   515   553
MathWorks begin
bpage
%%EndPageSetup

%%BeginObject: obj1
bplot

/dpi2point 12 def
portraitMode 1152 6636 csm

    0     0  5039  3780 rc
85 dict begin %Colortable dictionary
/c0 { 0.000000 0.000000 0.000000 sr} bdef
/c1 { 1.000000 1.000000 1.000000 sr} bdef
/c2 { 0.900000 0.000000 0.000000 sr} bdef
/c3 { 0.000000 0.820000 0.000000 sr} bdef
/c4 { 0.000000 0.000000 0.800000 sr} bdef
/c5 { 0.910000 0.820000 0.320000 sr} bdef
/c6 { 1.000000 0.260000 0.820000 sr} bdef
/c7 { 0.000000 0.820000 0.820000 sr} bdef
c0
1 j
1 sg
   0    0 5040 3781 rf
6 w
0 3081 3905 0 0 -3081 655 3364 4 MP
PP
-3905 0 0 3081 3905 0 0 -3081 655 3364 5 MP stroke
4 w
DO
SO
6 w
0 sg
 655  283 mt 4560  283 L
 655 3364 mt 4560 3364 L
4560 3364 mt 4560  283 L
 655 3364 mt  655  283 L
 655 3364 mt 4560 3364 L
 655 3364 mt  655  283 L
 655 3364 mt  655 3324 L
 655  283 mt  655  322 L
%%IncludeResource: font Helvetica
/Helvetica /WindowsLatin1Encoding 120 FMSR

 622 3509 mt 
(0) s
1305 3364 mt 1305 3324 L
1305  283 mt 1305  322 L
1272 3509 mt 
(5) s
1956 3364 mt 1956 3324 L
1956  283 mt 1956  322 L
1890 3509 mt 
(10) s
2607 3364 mt 2607 3324 L
2607  283 mt 2607  322 L
2541 3509 mt 
(15) s
3258 3364 mt 3258 3324 L
3258  283 mt 3258  322 L
3192 3509 mt 
(20) s
3909 3364 mt 3909 3324 L
3909  283 mt 3909  322 L
3843 3509 mt 
(25) s
4560 3364 mt 4560 3324 L
4560  283 mt 4560  322 L
4494 3509 mt 
(30) s
 655 3364 mt  694 3364 L
4560 3364 mt 4520 3364 L
 554 3408 mt 
(0) s
 655 3055 mt  694 3055 L
4560 3055 mt 4520 3055 L
 554 3099 mt 
(5) s
 655 2747 mt  694 2747 L
4560 2747 mt 4520 2747 L
 487 2791 mt 
(10) s
 655 2439 mt  694 2439 L
4560 2439 mt 4520 2439 L
 487 2483 mt 
(15) s
 655 2131 mt  694 2131 L
4560 2131 mt 4520 2131 L
 487 2175 mt 
(20) s
 655 1823 mt  694 1823 L
4560 1823 mt 4520 1823 L
 487 1867 mt 
(25) s
 655 1515 mt  694 1515 L
4560 1515 mt 4520 1515 L
 487 1559 mt 
(30) s
 655 1207 mt  694 1207 L
4560 1207 mt 4520 1207 L
 487 1251 mt 
(35) s
 655  899 mt  694  899 L
4560  899 mt 4520  899 L
 487  943 mt 
(40) s
 655  591 mt  694  591 L
4560  591 mt 4520  591 L
 487  635 mt 
(45) s
 655  283 mt  694  283 L
4560  283 mt 4520  283 L
 487  327 mt 
(50) s
 655  283 mt 4560  283 L
 655 3364 mt 4560 3364 L
4560 3364 mt 4560  283 L
 655 3364 mt  655  283 L
gs 655 283 3906 3082 rc
24 w
/c8 { 1.000000 0.000000 0.000000 sr} bdef
c8
131 -141 130 -141 130 -140 130 -140 130 -140 130 -138 131 -138 130 -136 
130 -135 130 -132 130 -130 130 -128 131 -124 130 -119 130 -115 130 -110 
130 -103 130 -97 131 -90 130 -83 130 -74 130 -67 130 -59 130 -52 
131 -45 130 -39 130 -33 130 -27 130 -23 130 -19 655 3282 31 MP stroke
gr

24 w
c8
 613 3240 mt  697 3324 L
 697 3240 mt  613 3324 L
 743 3221 mt  827 3305 L
 827 3221 mt  743 3305 L
 873 3198 mt  957 3282 L
 957 3198 mt  873 3282 L
1003 3171 mt 1087 3255 L
1087 3171 mt 1003 3255 L
1133 3138 mt 1217 3222 L
1217 3138 mt 1133 3222 L
1263 3099 mt 1347 3183 L
1347 3099 mt 1263 3183 L
1394 3054 mt 1478 3138 L
1478 3054 mt 1394 3138 L
1524 3002 mt 1608 3086 L
1608 3002 mt 1524 3086 L
1654 2943 mt 1738 3027 L
1738 2943 mt 1654 3027 L
1784 2876 mt 1868 2960 L
1868 2876 mt 1784 2960 L
1914 2802 mt 1998 2886 L
1998 2802 mt 1914 2886 L
2044 2719 mt 2128 2803 L
2128 2719 mt 2044 2803 L
2175 2629 mt 2259 2713 L
2259 2629 mt 2175 2713 L
2305 2532 mt 2389 2616 L
2389 2532 mt 2305 2616 L
2435 2429 mt 2519 2513 L
2519 2429 mt 2435 2513 L
2565 2319 mt 2649 2403 L
2649 2319 mt 2565 2403 L
2695 2204 mt 2779 2288 L
2779 2204 mt 2695 2288 L
2825 2085 mt 2909 2169 L
2909 2085 mt 2825 2169 L
2956 1961 mt 3040 2045 L
3040 1961 mt 2956 2045 L
3086 1833 mt 3170 1917 L
3170 1833 mt 3086 1917 L
3216 1703 mt 3300 1787 L
3300 1703 mt 3216 1787 L
3346 1571 mt 3430 1655 L
3430 1571 mt 3346 1655 L
3476 1436 mt 3560 1520 L
3560 1436 mt 3476 1520 L
3606 1300 mt 3690 1384 L
3690 1300 mt 3606 1384 L
3737 1162 mt 3821 1246 L
3821 1162 mt 3737 1246 L
3867 1024 mt 3951 1108 L
3951 1024 mt 3867 1108 L
3997  884 mt 4081  968 L
4081  884 mt 3997  968 L
4127  744 mt 4211  828 L
4211  744 mt 4127  828 L
4257  604 mt 4341  688 L
4341  604 mt 4257  688 L
4387  463 mt 4471  547 L
4471  463 mt 4387  547 L
4518  322 mt 4602  406 L
4602  322 mt 4518  406 L
gs 655 283 3906 3082 rc
gr

0 sg
2327  188 mt 
(Channel A) s
2349 3652 mt 
(SNR \(dB\)) s
 405 2527 mt  -90 rotate
(Information Rate \(bits/sec\)) s
90 rotate
gs 655 283 3906 3082 rc
DA
c8
131 -94 130 -94 130 -95 130 -93 130 -94 130 -94 131 -93 130 -93 
130 -92 130 -91 130 -90 130 -88 131 -87 130 -85 130 -82 130 -79 
130 -76 130 -72 131 -68 130 -63 130 -59 130 -54 130 -49 130 -43 
131 -39 130 -33 130 -30 130 -25 130 -21 130 -18 655 3285 31 MP stroke
gr

c8
DA
SO
 613 3243 mt  697 3327 L
 697 3243 mt  613 3327 L
 743 3225 mt  827 3309 L
 827 3225 mt  743 3309 L
 873 3204 mt  957 3288 L
 957 3204 mt  873 3288 L
1003 3179 mt 1087 3263 L
1087 3179 mt 1003 3263 L
1133 3149 mt 1217 3233 L
1217 3149 mt 1133 3233 L
1263 3116 mt 1347 3200 L
1347 3116 mt 1263 3200 L
1394 3077 mt 1478 3161 L
1478 3077 mt 1394 3161 L
1524 3034 mt 1608 3118 L
1608 3034 mt 1524 3118 L
1654 2985 mt 1738 3069 L
1738 2985 mt 1654 3069 L
1784 2931 mt 1868 3015 L
1868 2931 mt 1784 3015 L
1914 2872 mt 1998 2956 L
1998 2872 mt 1914 2956 L
2044 2809 mt 2128 2893 L
2128 2809 mt 2044 2893 L
2175 2741 mt 2259 2825 L
2259 2741 mt 2175 2825 L
2305 2669 mt 2389 2753 L
2389 2669 mt 2305 2753 L
2435 2593 mt 2519 2677 L
2519 2593 mt 2435 2677 L
2565 2514 mt 2649 2598 L
2649 2514 mt 2565 2598 L
2695 2432 mt 2779 2516 L
2779 2432 mt 2695 2516 L
2825 2347 mt 2909 2431 L
2909 2347 mt 2825 2431 L
2956 2260 mt 3040 2344 L
3040 2260 mt 2956 2344 L
3086 2172 mt 3170 2256 L
3170 2172 mt 3086 2256 L
3216 2082 mt 3300 2166 L
3300 2082 mt 3216 2166 L
3346 1991 mt 3430 2075 L
3430 1991 mt 3346 2075 L
3476 1899 mt 3560 1983 L
3560 1899 mt 3476 1983 L
3606 1806 mt 3690 1890 L
3690 1806 mt 3606 1890 L
3737 1713 mt 3821 1797 L
3821 1713 mt 3737 1797 L
3867 1619 mt 3951 1703 L
3951 1619 mt 3867 1703 L
3997 1525 mt 4081 1609 L
4081 1525 mt 3997 1609 L
4127 1432 mt 4211 1516 L
4211 1432 mt 4127 1516 L
4257 1337 mt 4341 1421 L
4341 1337 mt 4257 1421 L
4387 1243 mt 4471 1327 L
4471 1243 mt 4387 1327 L
4518 1149 mt 4602 1233 L
4602 1149 mt 4518 1233 L
DA
gs 655 283 3906 3082 rc
gr

0 sg
 638 3407 mt 
( ) s
4544  325 mt 
( ) s
SO
6 w
1 sg
0 334 1046 0 0 -334 3454 3305 4 MP
PP
-1046 0 0 334 1046 0 0 -334 3454 3305 5 MP stroke
4 w
DO
SO
6 w
0 sg
3454 2971 mt 4500 2971 L
3454 3305 mt 4500 3305 L
4500 3305 mt 4500 2971 L
3454 3305 mt 3454 2971 L
3454 3305 mt 4500 3305 L
3454 3305 mt 3454 2971 L
3454 2971 mt 4500 2971 L
3454 3305 mt 4500 3305 L
4500 3305 mt 4500 2971 L
3454 3305 mt 3454 2971 L
3919 3106 mt 
(Scheme 1) s
gs 3454 2971 1047 335 rc
24 w
c8
358 0 3525 3063 2 MP stroke
gr

24 w
c8
gs 3558 2917 293 293 rc
3662 3021 mt 3746 3105 L
3746 3021 mt 3662 3105 L
gr

gs 3454 2971 1047 335 rc
gr

0 sg
3919 3255 mt 
(Scheme 2) s
gs 3454 2971 1047 335 rc
DA
c8
358 0 3525 3212 2 MP stroke
SO
gr

c8
gs 3558 3066 293 293 rc
3662 3170 mt 3746 3254 L
3746 3170 mt 3662 3254 L
gr

gs 3454 2971 1047 335 rc
6 w
gr

6 w

end %%Color Dict

eplot
%%EndObject

epage
end

showpage

%%Trailer
%%EOF
