%!PS-Adobe-3.0 EPSF-3.0
%%Creator: MATLAB, The MathWorks, Inc. Version 7.14.0.739 (R2012a). Operating System: Microsoft Windows 7.
%%Title: C:\Users\Hassan\Dropbox\ubli\CHA_JLD.eps
%%CreationDate: 04/07/2015  11:36:11
%%DocumentNeededFonts: Helvetica
%%DocumentProcessColors: Cyan Magenta Yellow Black
%%LanguageLevel: 2
%%Pages: 1
%%BoundingBox:    96   238   515   553
%%EndComments

%%BeginProlog
% MathWorks dictionary
/MathWorks 160 dict begin
% definition operators
/bdef {bind def} bind def
/ldef {load def} bind def
/xdef {exch def} bdef
/xstore {exch store} bdef
% operator abbreviations
/c  /clip ldef
/cc /concat ldef
/cp /closepath ldef
/gr /grestore ldef
/gs /gsave ldef
/mt /moveto ldef
/np /newpath ldef
/cm /currentmatrix ldef
/sm /setmatrix ldef
/rm /rmoveto ldef
/rl /rlineto ldef
/s {show newpath} bdef
/sc {setcmykcolor} bdef
/sr /setrgbcolor ldef
/sg /setgray ldef
/w /setlinewidth ldef
/j /setlinejoin ldef
/cap /setlinecap ldef
/rc {rectclip} bdef
/rf {rectfill} bdef
% page state control
/pgsv () def
/bpage {/pgsv save def} bdef
/epage {pgsv restore} bdef
/bplot /gsave ldef
/eplot {stroke grestore} bdef
% orientation switch
/portraitMode 0 def /landscapeMode 1 def /rotateMode 2 def
% coordinate system mappings
/dpi2point 0 def
% font control
/FontSize 0 def
/FMS {/FontSize xstore findfont [FontSize 0 0 FontSize neg 0 0]
  makefont setfont} bdef
/ISOLatin1Encoding where {pop /WindowsLatin1Encoding 256 array bdef
ISOLatin1Encoding WindowsLatin1Encoding copy pop
/.notdef/.notdef/quotesinglbase/florin/quotedblbase/ellipsis/dagger
/daggerdbl/circumflex/perthousand/Scaron/guilsinglleft/OE/.notdef/.notdef
/.notdef/.notdef/quoteleft/quoteright/quotedblleft/quotedblright/bullet
/endash/emdash/tilde/trademark/scaron/guilsinglright/oe/.notdef/.notdef
/Ydieresis WindowsLatin1Encoding 128 32 getinterval astore pop}
{/WindowsLatin1Encoding StandardEncoding bdef} ifelse
/reencode {exch dup where {pop load} {pop StandardEncoding} ifelse
  exch dup 3 1 roll findfont dup length dict begin
  { 1 index /FID ne {def}{pop pop} ifelse } forall
  /Encoding exch def currentdict end definefont pop} bdef
/isroman {findfont /CharStrings get /Agrave known} bdef
/FMSR {3 1 roll 1 index dup isroman {reencode} {pop pop} ifelse
  exch FMS} bdef
/csm {1 dpi2point div -1 dpi2point div scale neg translate
 dup landscapeMode eq {pop -90 rotate}
  {rotateMode eq {90 rotate} if} ifelse} bdef
% line types: solid, dotted, dashed, dotdash
/SO { [] 0 setdash } bdef
/DO { [.5 dpi2point mul 4 dpi2point mul] 0 setdash } bdef
/DA { [6 dpi2point mul] 0 setdash } bdef
/DD { [.5 dpi2point mul 4 dpi2point mul 6 dpi2point mul 4
  dpi2point mul] 0 setdash } bdef
% macros for lines and objects
/L {lineto stroke} bdef
/MP {3 1 roll moveto 1 sub {rlineto} repeat} bdef
/AP {{rlineto} repeat} bdef
/PDlw -1 def
/W {/PDlw currentlinewidth def setlinewidth} def
/PP {closepath eofill} bdef
/DP {closepath stroke} bdef
/MR {4 -2 roll moveto dup  0 exch rlineto exch 0 rlineto
  neg 0 exch rlineto closepath} bdef
/FR {MR stroke} bdef
/PR {MR fill} bdef
/L1i {{currentfile picstr readhexstring pop} image} bdef
/tMatrix matrix def
/MakeOval {newpath tMatrix currentmatrix pop translate scale
0 0 1 0 360 arc tMatrix setmatrix} bdef
/FO {MakeOval stroke} bdef
/PO {MakeOval fill} bdef
/PD {currentlinewidth 2 div 0 360 arc fill
   PDlw -1 eq not {PDlw w /PDlw -1 def} if} def
/FA {newpath tMatrix currentmatrix pop translate scale
  0 0 1 5 -2 roll arc tMatrix setmatrix stroke} bdef
/PA {newpath tMatrix currentmatrix pop	translate 0 0 moveto scale
  0 0 1 5 -2 roll arc closepath tMatrix setmatrix fill} bdef
/FAn {newpath tMatrix currentmatrix pop translate scale
  0 0 1 5 -2 roll arcn tMatrix setmatrix stroke} bdef
/PAn {newpath tMatrix currentmatrix pop translate 0 0 moveto scale
  0 0 1 5 -2 roll arcn closepath tMatrix setmatrix fill} bdef
/vradius 0 def /hradius 0 def /lry 0 def
/lrx 0 def /uly 0 def /ulx 0 def /rad 0 def
/MRR {/vradius xdef /hradius xdef /lry xdef /lrx xdef /uly xdef
  /ulx xdef newpath tMatrix currentmatrix pop ulx hradius add uly
  vradius add translate hradius vradius scale 0 0 1 180 270 arc 
  tMatrix setmatrix lrx hradius sub uly vradius add translate
  hradius vradius scale 0 0 1 270 360 arc tMatrix setmatrix
  lrx hradius sub lry vradius sub translate hradius vradius scale
  0 0 1 0 90 arc tMatrix setmatrix ulx hradius add lry vradius sub
  translate hradius vradius scale 0 0 1 90 180 arc tMatrix setmatrix
  closepath} bdef
/FRR {MRR stroke } bdef
/PRR {MRR fill } bdef
/MlrRR {/lry xdef /lrx xdef /uly xdef /ulx xdef /rad lry uly sub 2 div def
  newpath tMatrix currentmatrix pop ulx rad add uly rad add translate
  rad rad scale 0 0 1 90 270 arc tMatrix setmatrix lrx rad sub lry rad
  sub translate rad rad scale 0 0 1 270 90 arc tMatrix setmatrix
  closepath} bdef
/FlrRR {MlrRR stroke } bdef
/PlrRR {MlrRR fill } bdef
/MtbRR {/lry xdef /lrx xdef /uly xdef /ulx xdef /rad lrx ulx sub 2 div def
  newpath tMatrix currentmatrix pop ulx rad add uly rad add translate
  rad rad scale 0 0 1 180 360 arc tMatrix setmatrix lrx rad sub lry rad
  sub translate rad rad scale 0 0 1 0 180 arc tMatrix setmatrix
  closepath} bdef
/FtbRR {MtbRR stroke } bdef
/PtbRR {MtbRR fill } bdef
/stri 6 array def /dtri 6 array def
/smat 6 array def /dmat 6 array def
/tmat1 6 array def /tmat2 6 array def /dif 3 array def
/asub {/ind2 exch def /ind1 exch def dup dup
  ind1 get exch ind2 get sub exch } bdef
/tri_to_matrix {
  2 0 asub 3 1 asub 4 0 asub 5 1 asub
  dup 0 get exch 1 get 7 -1 roll astore } bdef
/compute_transform {
  dmat dtri tri_to_matrix tmat1 invertmatrix 
  smat stri tri_to_matrix tmat2 concatmatrix } bdef
/ds {stri astore pop} bdef
/dt {dtri astore pop} bdef
/db {2 copy /cols xdef /rows xdef mul dup 3 mul string
  currentfile 
  3 index 0 eq {/ASCIIHexDecode filter}
  {/ASCII85Decode filter 3 index 2 eq {/RunLengthDecode filter} if }
  ifelse exch readstring pop
  dup 0 3 index getinterval /rbmap xdef
  dup 2 index dup getinterval /gbmap xdef
  1 index dup 2 mul exch getinterval /bbmap xdef pop pop}bdef
/it {gs np dtri aload pop moveto lineto lineto cp c
  cols rows 8 compute_transform 
  rbmap gbmap bbmap true 3 colorimage gr}bdef
/il {newpath moveto lineto stroke}bdef
currentdict end def
%%EndProlog

%%BeginSetup
MathWorks begin

0 cap

end
%%EndSetup

%%Page: 1 1
%%BeginPageSetup
%%PageBoundingBox:    96   238   515   553
MathWorks begin
bpage
%%EndPageSetup

%%BeginObject: obj1
bplot

/dpi2point 12 def
portraitMode 1152 6636 csm

    0     0  5039  3780 rc
85 dict begin %Colortable dictionary
/c0 { 0.000000 0.000000 0.000000 sr} bdef
/c1 { 1.000000 1.000000 1.000000 sr} bdef
/c2 { 0.900000 0.000000 0.000000 sr} bdef
/c3 { 0.000000 0.820000 0.000000 sr} bdef
/c4 { 0.000000 0.000000 0.800000 sr} bdef
/c5 { 0.910000 0.820000 0.320000 sr} bdef
/c6 { 1.000000 0.260000 0.820000 sr} bdef
/c7 { 0.000000 0.820000 0.820000 sr} bdef
c0
1 j
1 sg
   0    0 5040 3781 rf
6 w
0 3081 3905 0 0 -3081 655 3364 4 MP
PP
-3905 0 0 3081 3905 0 0 -3081 655 3364 5 MP stroke
4 w
DO
SO
6 w
0 sg
 655  283 mt 4560  283 L
 655 3364 mt 4560 3364 L
4560 3364 mt 4560  283 L
 655 3364 mt  655  283 L
 655 3364 mt 4560 3364 L
 655 3364 mt  655  283 L
 655 3364 mt  655 3324 L
 655  283 mt  655  322 L
%%IncludeResource: font Helvetica
/Helvetica /WindowsLatin1Encoding 120 FMSR

 622 3509 mt 
(0) s
1631 3364 mt 1631 3324 L
1631  283 mt 1631  322 L
1598 3509 mt 
(5) s
2607 3364 mt 2607 3324 L
2607  283 mt 2607  322 L
2541 3509 mt 
(10) s
3583 3364 mt 3583 3324 L
3583  283 mt 3583  322 L
3517 3509 mt 
(15) s
4560 3364 mt 4560 3324 L
4560  283 mt 4560  322 L
4494 3509 mt 
(20) s
 655 3364 mt  694 3364 L
4560 3364 mt 4520 3364 L
 554 3408 mt 
(0) s
 655 3055 mt  694 3055 L
4560 3055 mt 4520 3055 L
 554 3099 mt 
(1) s
 655 2747 mt  694 2747 L
4560 2747 mt 4520 2747 L
 554 2791 mt 
(2) s
 655 2439 mt  694 2439 L
4560 2439 mt 4520 2439 L
 554 2483 mt 
(3) s
 655 2131 mt  694 2131 L
4560 2131 mt 4520 2131 L
 554 2175 mt 
(4) s
 655 1823 mt  694 1823 L
4560 1823 mt 4520 1823 L
 554 1867 mt 
(5) s
 655 1515 mt  694 1515 L
4560 1515 mt 4520 1515 L
 554 1559 mt 
(6) s
 655 1207 mt  694 1207 L
4560 1207 mt 4520 1207 L
 554 1251 mt 
(7) s
 655  899 mt  694  899 L
4560  899 mt 4520  899 L
 554  943 mt 
(8) s
 655  591 mt  694  591 L
4560  591 mt 4520  591 L
 554  635 mt 
(9) s
 655  283 mt  694  283 L
4560  283 mt 4520  283 L
 487  327 mt 
(10) s
 655  283 mt 4560  283 L
 655 3364 mt 4560 3364 L
4560 3364 mt 4560  283 L
 655 3364 mt  655  283 L
gs 655 283 3906 3082 rc
DA
24 w
11 -4 801 -356 636 -332 506 -306 402 -278 319 -250 253 -221 201 -193 
160 -168 127 -142 101 -121 80 -100 64 -84 50 -69 850 3076 15 MP stroke
gr

24 w
DA
SO
 808 3034 mt  892 3118 L
 892 3034 mt  808 3118 L
 858 2965 mt  942 3049 L
 942 2965 mt  858 3049 L
 922 2881 mt 1006 2965 L
1006 2881 mt  922 2965 L
1002 2781 mt 1086 2865 L
1086 2781 mt 1002 2865 L
1103 2660 mt 1187 2744 L
1187 2660 mt 1103 2744 L
1230 2518 mt 1314 2602 L
1314 2518 mt 1230 2602 L
1390 2350 mt 1474 2434 L
1474 2350 mt 1390 2434 L
1591 2157 mt 1675 2241 L
1675 2157 mt 1591 2241 L
1844 1936 mt 1928 2020 L
1928 1936 mt 1844 2020 L
2163 1686 mt 2247 1770 L
2247 1686 mt 2163 1770 L
2565 1408 mt 2649 1492 L
2649 1408 mt 2565 1492 L
3071 1102 mt 3155 1186 L
3155 1102 mt 3071 1186 L
3707  770 mt 3791  854 L
3791  770 mt 3707  854 L
4508  414 mt 4592  498 L
4592  414 mt 4508  498 L
DA
gs 655 283 3906 3082 rc
gr

2351 3652 mt 
(P/N) s
%%IncludeResource: font Helvetica
/Helvetica /WindowsLatin1Encoding 96 FMSR

2551 3712 mt 
(0) s
%%IncludeResource: font Helvetica
/Helvetica /WindowsLatin1Encoding 120 FMSR

2604 3652 mt 
( \(dB\)) s
 405 2231 mt  -90 rotate
(Rate \(nats/sec\)) s
90 rotate
gs 655 283 3906 3082 rc
SO
/c8 { 0.000000 0.000000 1.000000 sr} bdef
c8
11 -3 801 -336 636 -312 506 -285 402 -259 319 -232 253 -205 201 -180 
160 -156 127 -134 101 -113 80 -96 64 -80 50 -65 850 3081 15 MP stroke
gr

c8
SO
 790 3081 mt  910 3081 L
 850 3021 mt  850 3141 L
 840 3016 mt  960 3016 L
 900 2956 mt  900 3076 L
 904 2936 mt 1024 2936 L
 964 2876 mt  964 2996 L
 984 2840 mt 1104 2840 L
1044 2780 mt 1044 2900 L
1085 2727 mt 1205 2727 L
1145 2667 mt 1145 2787 L
1212 2593 mt 1332 2593 L
1272 2533 mt 1272 2653 L
1372 2437 mt 1492 2437 L
1432 2377 mt 1432 2497 L
1573 2257 mt 1693 2257 L
1633 2197 mt 1633 2317 L
1826 2052 mt 1946 2052 L
1886 1992 mt 1886 2112 L
2145 1820 mt 2265 1820 L
2205 1760 mt 2205 1880 L
2547 1561 mt 2667 1561 L
2607 1501 mt 2607 1621 L
3053 1276 mt 3173 1276 L
3113 1216 mt 3113 1336 L
3689  964 mt 3809  964 L
3749  904 mt 3749 1024 L
4490  628 mt 4610  628 L
4550  568 mt 4550  688 L
gs 655 283 3906 3082 rc
/c9 { 1.000000 0.000000 0.000000 sr} bdef
c9
11 -3 801 -377 636 -336 506 -292 402 -274 319 -247 253 -217 201 -194 
160 -158 127 -137 101 -130 80 -109 64 -84 50 -97 850 3043 15 MP stroke
gr

c9
 790 3043 mt  910 3043 L
 850 2983 mt  850 3103 L
 840 2946 mt  960 2946 L
 900 2886 mt  900 3006 L
 904 2862 mt 1024 2862 L
 964 2802 mt  964 2922 L
 984 2753 mt 1104 2753 L
1044 2693 mt 1044 2813 L
1085 2623 mt 1205 2623 L
1145 2563 mt 1145 2683 L
1212 2486 mt 1332 2486 L
1272 2426 mt 1272 2546 L
1372 2328 mt 1492 2328 L
1432 2268 mt 1432 2388 L
1573 2134 mt 1693 2134 L
1633 2074 mt 1633 2194 L
1826 1917 mt 1946 1917 L
1886 1857 mt 1886 1977 L
2145 1670 mt 2265 1670 L
2205 1610 mt 2205 1730 L
2547 1396 mt 2667 1396 L
2607 1336 mt 2607 1456 L
3053 1104 mt 3173 1104 L
3113 1044 mt 3113 1164 L
3689  768 mt 3809  768 L
3749  708 mt 3749  828 L
4490  391 mt 4610  391 L
4550  331 mt 4550  451 L
gs 655 283 3906 3082 rc
gr

0 sg
 638 3407 mt 
( ) s
4544  325 mt 
( ) s
6 w
1 sg
0 480 1447 0 0 -480 3054 3305 4 MP
PP
-1447 0 0 480 1447 0 0 -480 3054 3305 5 MP stroke
4 w
DO
SO
6 w
0 sg
3054 2825 mt 4501 2825 L
3054 3305 mt 4501 3305 L
4501 3305 mt 4501 2825 L
3054 3305 mt 3054 2825 L
3054 3305 mt 4501 3305 L
3054 3305 mt 3054 2825 L
3054 2825 mt 4501 2825 L
3054 3305 mt 4501 3305 L
4501 3305 mt 4501 2825 L
3054 3305 mt 3054 2825 L
3528 2960 mt 
(AWGN \(formula\)) s
gs 3054 2825 1448 481 rc
DA
24 w
364 0 3126 2917 2 MP stroke
SO
gr

24 w
gs 3162 2771 293 293 rc
3266 2875 mt 3350 2959 L
3350 2875 mt 3266 2959 L
gr

gs 3054 2825 1448 481 rc
gr

3528 3108 mt 
(SCHEME 1 \(JLD\)) s
gs 3054 2825 1448 481 rc
c8
364 0 3126 3065 2 MP stroke
gs 3162 2919 293 293 rc
3248 3065 mt 3368 3065 L
3308 3005 mt 3308 3125 L
gr

gr

c8
0 sg
3528 3256 mt 
(SCHEME 2 \(JLD\)) s
gs 3054 2825 1448 481 rc
c9
364 0 3126 3212 2 MP stroke
gr

c9
gs 3162 3066 293 293 rc
3248 3212 mt 3368 3212 L
3308 3152 mt 3308 3272 L
gr

gs 3054 2825 1448 481 rc
6 w
gr

6 w

end %%Color Dict

eplot
%%EndObject

epage
end

showpage

%%Trailer
%%EOF
